strifen:number23:pockyman12@yahoo.com:1989-06-12:US:M:168.213.1.134:Chuck
strifen7:sniper2:strife_n7_go_armada_up@hotmail.com:1983-12-15:MX:M:none:Damian Baltazar
strifenet7:zerg7777:strifenet7@aol.com:1987-06-22:US:M:76.242.29.192:Stephen DiDuro
strifenhounshing:beepbop12:hanahanaleila@yahoo.com:1994-12-22:US:F:70.21.61.98:Hana
strifenix:Ultima09:ishievillaruel@yahoo.com:1990-02-26:PH:M:203.99.234.41:nix
strifeno:kagome:krndood5035@hotmail.com:1989-04-25:AM:M:none:hehefatass monkeywhiskers
strifenpeace:moose001::1999-08-31:US:M:72.68.106.208:frank
strifentine:sasuke66:strifentine_baby@yahoo.com:1990-11-17:US:F:70.149.218.253:Ccearah Crouthers
strifeo1:tnc1598:chris_norris123@hotmail.com:1990-09-11:NZ:M:none:chris norris
strifeo9:A.F.I4532::2000-06-23:US:M:98.195.50.207:Jake
strifeofdragoon:chaotic::1989-05-08:US:M:none:hexes strife
StrifeOmega:People_123:strifeomega@hotmail.co.uk:1994-9-6:GB:M:94.9.146.230:callum
strifeplz:13466911:strifevs@aol.com:1987-08-19:GB:M:86.136.162.104:Cloud Strife
strifepoetry:mesone:furn_sd@yahoo.com:1984-09-04:US:F:none:RoseQuartz
strifepsycho:Mecha123:strifepsycho@yahoo.com:1986-07-20:US:M:209.250.9.55:Michael McCord
strifepurity:cloudith:redpandaaz@hotmail.com:1984-09-19:CA:F:none:Raine Strife
strifer:Alifer::1992-02-08:US:M:none:strifer
strifer001:kurama:strifer001@aol.com:1991-02-26:US:F:none:meagan childress
strifer01:triology1:tidus_cloud_kawasaki@yahoo.com:1992-05-24:US:M:none:David Juarez
strifer05617:a6bo15bb:jsphbtst@yahoo.com:1995-06-20:PH:M:110.55.213.255:strifer05617
strifer0909:dede0909:trame@yahoo.com:1970-08-02:PH:M:none:austin austin
strifer1212:cataclysm12:goleafs12@hotmail.com:1988-11-03:CA:F:none:kyle rob
strifer123:870716:cl0ud_strifer@hotmail.com:1987-07-16:MY:M:none:boh ruey jyi
strifer129:jerome1:scottjsimmons@insightbb.com:1982-12-09:US:M:none:Scott Simmons
strifer1337:curtain1:peter@pcg.demon.nl:1990-04-13:NL:F:none:peter G
strifer14:zoeyleo1:strider_santiago@yahoo.com:1993-02-08:US:M:none:strider santiago
strifer147:strifer456::2006-02-25:GQ:M:189.72.30.128:joao
strifer166:strife:inter9@worldnet.att.net:1990-02-28:US:M:none:dfgfh fshhgffs
strifer1989:bullfrog:simon_wty@hotmail.com:1989-01-15:SG:M:none:Simon Wong
strifer2005:kassey:santiagojf@hawaii.rr.com:1992-02-08:US:M:none:Strider Santiago
strifer2012:ktmjg52143:kipper457@hotmail.com:1993-05-17:US:M:173.16.138.166:Reed
strifer4:ozzyharry6567::1996-12-05:US:F:67.249.154.241:kalie
strifer48:k292g586:bullzeye48@hotmail.com:1995-05-10:GB:M:118.92.142.92:siyavash
strifer5:AGGIE::1991-02-08:US:M:none:strifer5
strifer69:triki69:kotobeikon69@hotmail.com:1992-09-14:GR:M:85.73.201.68:Michael
strifer71:armon**:flamezephyr76@hotmail.com:1988-12-29:CA:M:none:armon shahnavazy
strifer76:alifer::1992-02-08:US:M:none:strifer76
strifer92:AGNES::1992-02-08:US:M:none:strifer92
StriferBit:s8rrvhz6::1997-03-11::M:220.255.7.139:NULL
strifercloud6:CloudS:bwboyd1993@aol.com:1991-08-19:US:M:none:Brandyn Boyd
striferd:strifer1234:strifersan@yahoo.com:1992-02-08:US:F:none:Strider Santiago
striferfred:s9816738b::1998-05-18:SG:M:220.255.7.117:Chong Foo Cheong
striferitus:3639663:striferitus@aol.com:1989-08-07:US:M:97.85.134.33:Max
striferoan:0169951440:Strife_Roan@hotmail.com:1992-09-21:MY:M:118.100.133.221:Desmond
striferpit:mossoibay1313:juanpa_dhbike_pt@hotmail.com:1990-08-17:CL:M:190.82.32.3:juan pablo
strifers:123456aa:sammy_striferccc@hotmail.com:1992-12-26:BR:M:189.80.208.122:Striffer
strifershadows:theory1:blink1035@hotmail.com:1988-03-17:SG:M:218.186.13.2:Ash The Death Knight
Strifertjehz:curtain89:curtain89@hotmail.com:1990-04-13:NL:M:86.81.113.179:NULL
striferus:beverly:striferus@hotmail.com:1988-01-04:AU:M:none:Cory  Li
striferx:8010135:jkpark8010@yahoo.com:1993-03-22:PH:M:222.112.112.15:JK
striferx13:1993x:melisamonet@aol.com:1993-09-13:US:M:none:James Williams
striferxp:0103456:xplosivecontents@hotmail.com:1983-12-14:CA:M:72.38.58.20:Joe
striferxtreme:bloodydonkey:styless_ant@hotmail.com:1982-01-30:SG:M:none:Lim Han Ren
striferxx9:strifer001:smsinclair@netzero.net:1990-06-26:US:F:none:Sarah Sinclair
strifery:cheese12::1997-10-26:US:M:24.63.55.223:Capital
strifer_08:terence08:tjm_strifer_08@yahoo.com:1988-10-15:MP:M:none:tj manalo
strifer_clouds:sephiroth12:strife_master1@hotmail.com:1989-01-02:CA:M:99.235.102.80:Marker
strifer_vamp:1loverobin89:tupper89@ymail.com:1989-12-02:US:M:72.193.13.99:Michael
strifer_x:hunter1:jetjet01@hotmail.co.uk:1991-09-04:GB:M:none:Lee York
strifer__86:sam333:fsmichael@sbcglobal.net:1991-04-23:US:M:69.151.238.53:michael
strifes:spear::1990-04-20:US:M:none:none
strifes99:strife:acescooby@hotmail.com:1990-05-26:US:M:none:Andrew Edgar
strifesan:justic13:i_do_not_know_@hotmail.com:1988-09-23:SG:M:203.120.68.66:yihua
strifesan0:369852:hottie_lipeng94@hotmail.com:1994-01-15:MY:F:60.52.114.155:Lim
strifeseow:0127362018:hau@cifoodsb.com:1982-04-29:MY:M:118.101.144.74:strife
strifeservers:posted45::1998-10-10:PH:F:121.54.66.3:kaye
strifesfallenangel:s7r1f3:sorrowseeker222@yahoo.com:1991-01-24:US:F:none:Ariel Stephenson
strifesfate:equ1nox::1982-08-12:US:M:none:Lee Lampshire
strifesgirl:tokio77:hippolover852@aim.com:1991-11-07:US:F:69.230.96.220:Jackie
strifesgurl:ralphlauren:durty_sentral_alwaez_blazin@hotmail.com:1990-07-10:NZ:F:none:fantacee alwaezndfoevar
strifeshadow:mat2506:mcurt25@aol.com:1990-06-25:GB:M:92.16.213.46:mat
strifeshady:80101314z:blazingangel89@hotmail.com:1989-12-24:MY:M:118.100.116.170:StrifeShady
strifeshift93:3637778:nboswell_366@hotmail.com:1992-06-10:CA:M:none:Nicholas Boswell
strifeshorseman:121688:yourface801@yahoo.com:1988-12-16:US:M:68.11.157.51:Buddy
strifesquirrel:france:strifesquirrel@hotmail.com:1989-03-22:US:M:none:Cameron Yates
strifestalk:aeiou:angel_lover_22@hotmail.com:1991-12-28:SG:M:none:Alex Ching
strifestar:stars::1990-03-03:US:M:none:none
strifesteel:dragon12:annguyen11890@yahoo.com:1970-05-08:US:M:24.139.149.64:Michael Montalvo
strifestrife_40419:CloudS:bwboyd1993@aol.com:1991-08-19:US:M:none:Brandyn Boyd
strifesuke:ryoga68:meep.cloud@hotmail.com:1992-06-08:KR:F:99.224.77.147:Meep
strifesword:demontears6:leirariel08@yahoo.com:1990-01-11:JP:F:none:Lain Yuki
strifes_army:packrat1:strifes_army@yahoo.com:1979-02-28:US:M:none:Samuel Johnson
strifes_buster:zeker:unclebugs2621@aol.com:1984-04-16:US:M:none:Cloud_Strife
strifes_pain:bowers:tctbaby@yahoo.com:1986-07-28:US:M:acceptance:Trevor Boweres
strifet:tommy:valleetom@yahoo.fr:1990-02-07:CA:M:none:mitchell vallee
strifetension:pcbhypys:cbk1987@hotmail.com:1988-11-28:HK:M:none:c bk
strifethegreat:funny:strifethegreat@yahoo.com:1988-01-07:US:M:24.60.165.71:Strife Morganes
strifethompson:seifer1:striifethompson@aol.com:1986-05-27:US:M:67.170.239.138:r s
strifetickl:qazza12:www.stevejhn@hotwire.com:1990-06-04:US:M:65.110.159.156:steve
strifette:tokiohotel09:lalo_fan2th@hotmail.fr:1993-11-26:FR:F:78.159.23.251:Hélène
strifetx:death9:bob_me_12@hotmail.com:1985-07-10:CA:M:none:Strife tx
strifeuk:masamune11:james_lowndes@hotmail.com:1990-04-09:GB:M:82.32.224.38:James Lowndes
strifev3:george12:bad_boi_george@hotmail.co.uk:1994-06-08:GB:M:86.157.221.172:george
strifevash:destyni:strifevash@yahoo.com:1989-05-02:US:M:none:Joey Jack
strifevoid:venice13:Strifevoid19_Brandon94@yahoo.com:1994-01-10:PH:M:122.3.215.103:Brandon
strifevs:13466911ns:Strifevs@aol.com:1989-06-11:GB:M:86.136.162.87:Strife
strifewarrior:kkh964:sam.hampton@sbcglobal.net:1991-05-09:US:M:Mail from theneopetsteam:Mr. U.
strifewolf:z1d4n3:erwin.w.w.f.e.csi@gmail.com:1987-07-04:MX:M:none:eduardo escobar
strifex:ferusdraconis:strife_ekx@hotmail.com:1988-05-09:CA:M:none:Strife Sauvage
strifex1211:jethro1526:strifex1211@gmail.com:1992-04-07:PH:M:120.28.72.234:Josh
strifex13:frogs:secretflotsam@hotmail.com:1987-01-13:US:F:none:Helping Person
strifex249:spitice!:gnerstil@gmail.com:1992-02-14:US:M:67.249.50.131:none
strifex500:DoubleStrifeX499::1995-06-07:PH:M:203.160.184.29:lawrence
strifex89:candace:brought2life89@hotmail.com:1988-03-08:US:M:none:eric brandon
strifexcloud:runetooth12:f_fantasy789@hotmail.com:1990-08-21:SG:M:220.255.7.117:Cloud
strifexd:saka12:itsbaced@gmail.com:1980-01-01:US:M:76.211.240.158:edward
strifexer:weik12:ryuden@hotmail.com:1990-06-11:SG:F:202.21.158.12:cubecube
strifexff7:wjdwls1:philycheeze25@hotmail.com:1992-02-20:US:M:none:Samanosuke Akechi
strifexii:killer11:Abiter9@gmail.com:1993-12-22:US:M:64.131.151.134:Arunava
strifexiii:manni3:aarmatting@aol.com:1991-10-02:US:M:none:daniel mattingly
strifexx:palkia23::2001-02-22:CA:M:174.117.175.36:Alex
strifey:412CH312:StrifeyX@hotmail.com:1987-04-29:US:M:71.48.96.8:Jack
strifey15:Clo_Seph:jenovastrife14@aol.com:1987-05-15:US:M:69.224.190.132:Chris Sabiniano
strifeyinmi:myredeemer86:incollegeontime@gmail.com:1986-12-15:US:M:71.205.95.66:Strifey
strifez:streifen03:adidas_freaked@hotmail.com:1988-11-24:SG:M:218.186.17.236:Neefy
strifez2:streifen03:adidas_freaked@hotmail.com:1988-02-01:SG:M:202.156.11.5:neefy
strife_:Special1:strife_@hotmail.com:1990-07-28:CA:F:192.75.139.250:Strife
strife_102:32156487::1998-02-09:PH:M:115.147.232.63:karl liam de vera
strife_14:strife 14:dandan-legal@bol.com.br:1995-03-06:BR:M:189.93.45.37:Cloud Strife
strife_6:cloud09::2000-06-03:PH:M:122.53.170.50:Michael
strife_7:angeal78::1997-07-02:AU:M:58.172.202.15:zack
strife_7_7:suto07raifu:strife0714@yahoo.com:1995-02-13:MY:M:60.50.147.243:Jay
strife_91:7johnelway7:thetexasranger76@yahoo.com:1990-05-02:US:M:65.189.170.44:Zach
sTriFe_92:quaneisha92:claresta_xavier@yahoo.com:1992-1-8:ID:F:118.136.210.20:cLaResTa
strife_fazon:yoshisredyay12::1997-04-02:US:M:75.20.239.162:John Nguyen
strife_heart:58degree:babydragon_starz@yahoo.co.jp:1987-09-23:JP:F:125.198.34.146:
strife_hearts:Jigoku009:sk8er.graffiti@gmail.com:1991-09-25:US:F:76.14.29.177:Strife Anae
strife_hero_08:08120416::1997-04-27:US:F:122.54.171.216:jasmine
Strife_Leonhart:katt10:arli.villers@hotmail.com:1979-06-20:DE:F:201.145.176.244:NULL
strife_neji:aurisa17:kesara@hotmail.fr:1985-08-19:FR:M:77.204.103.246:Yahiko
strife_raven:sh3r8urn:nivra@hotmail.com:1980-06-17:AU:M:216.232.149.227:Arvin  Winodan
strife_the_hedgehog:omega23::1998-06-05:BR:M:189.18.121.229:NULL
strife_valens:alltimelow13:kiaofgreenwood@yahoo.com:1991-03-15:US:M:68.115.234.162:kai
Strife_Villiers:katt10:arli.villers@hotmail.com:1979-06-20:CN:M:189.226.201.230:NULL
strife_x:bustersword77:clouds_kid0713@yahoo.com:1994-08-01:US:F:99.27.149.21:Kadara
strife_x_fair:rengaa15:blacksingedwings@aol.com:1991-09-16:US:F:216.195.134.217:little D
Strife_x_x:Bailey12:strifexx@live.com:1992-02-28:US:M:108.12.86.114:NULL
strife__:veecee:war_strife_famine_death@yahoo.com:1991-01-29:US:M:209.23.189.27:Four Horsemen
strife__21:Cloud12:nortyluke@hotmail.com:1992-10-30:AU:M:58.167.204.197:luke
strife__aa:pasword11::1998-01-29:PH:M:119.95.1.64:jhomar
striffe:extranjero1802:danyzano@gmail.com:1990-02-05:MX:M:201.144.130.21:NULL
striffer:ti20ies:mathewbeaudoin2008@live.com:1989-03-24:CA:M:70.76.238.10:Mathew
striffer21:guzman21:danyzano@hotmail.com:1992-02-21:MX:M:201.172.145.215:Daniel
striffers:TC1006:blacklitch@gmail.com:1986-01-24:US:M:99.207.1.247:NULL
striffle:her0c0rp:striffle@tpg.com.au:1978-05-27:AU:M:203.219.251.82:NULL
striffle78:leisha2k7:striffle@tpg.com.au:1978-05-27:US:M:202.7.166.164:scott
striffler:cmpunk66:c.sch70@gmx.de:1995-11-20:DE:M:77.23.224.21:Striffler
striffler55:cmpunk55:Steve-Schirmer@gmx.de:1995-11-20:DE:M:77.23.224.21:Striffler
striffler66:cmpunk88:Steve-Schirmer@gmx.de:1995-11-20:DE:M:77.23.224.21:Striffler
Striffler_66:cmpunk66:c.sch70@gmx.de:1995-11-20:DE:M:178.24.182.45:Jeff Hardy
StrifflinFropp:tundra38:stainedangel@hotmail.com:1995-07-30:CA:M:99.237.146.181:NULL
strifflingfropp:tundra38:stainedangel@hotmail.com:1995-07-30:CA:M:99.237.146.181:Augustine
striffycat:peitinho12::1997-04-23:BR:F:189.78.114.20:striffy
strifi:beeline::1978-10-20::M:NULL:NULL
strifiana:biokas13:bia_bizarre@hotmail.com:1995-09-04:PT:F:213.22.208.109:Bia
strifide:26247991::1998-02-06:VE:M:190.200.81.116:Julio Cesar Rojas
strifilove:lolu59:kiralove@hotmail.com:1982-01-03:US:F:71.128.204.110:lola
strifing:ninjas00:cadendo@rocketmail.com:1989-09-12:US:M:166.137.137.95:Kuraudo Sutoraifu
strifjniimura:strifj13:strifjniimura@web.de:1991-10-08:DE:F:195.93.60.39:Strifj Niimura
strifla:leeann18:mlw_19_2006@yahoo.com:1986-12-01:US:F:208.103.8.101:zinfra
strifles:monsoon96:strifles@live.com:1989-09-01:FR:F:82.38.217.180:TamTam
Striforce:s03tet:s-force@live.com:1991-05-01:US:M:68.198.241.57:NULL
strift:sonnet12::1998-02-06:GB:M:91.104.28.176:Stephen
strify09:cinema08:sessykago@gmx.de:1991-03-23:DE:F:188.102.104.100:susanne
strify12:maria12:jannamaria10@hotmail.com:1994-05-13:NL:F:82.134.134.108:janna
strify1221:amoostrify21::1997-08-27:BR:F:201.21.4.103:Sofia
strify123956:859brenna::2001-12-16:US:F:74.197.20.65:awesomestrify
strify18:cinema08:cinema08@gmx.de:1991-03-23:DE:F:188.102.104.100:susanne
strify1991:brianna1991:teen_angel_brianna_14@hotmail.com:1991-07-18:CA:F:156.34.69.221:Bryannah
strify369:strifyhot369:XxShinCb.xX@email.cz:1975-03-03::F:213.168.180.59:NULL
strifybillgeelove:tokiohotel12:bradhadair@live.nl:1995-07-24:DE:F:24.132.161.242:jeanine
strifychii:nysserdyr12:papand-lamaged@live.dk:1994-11-20:DK:F:83.92.7.150:Strify :3
strifyczeg:strifyhot369:TeriQ-CBcka-369@seznam.cz:1995-06-08:CZ:M:213.168.179.164:Nicola Hetverova
strifyczeg369:strifyhot369:XxShin.CbxX@email.cz:1995-07-06:CZ:F:213.168.179.164:Tereza Langeova
strifyczeg_369:strifyczeg369::1999-03-11:CZ:M:206.220.40.50:Nicola Langeova
strifygirl:strify94:AlisaBunny@web.de:1994-02-01:DE:F:84.174.233.65:Alisa
strifylockheart:clown18:strify.lockheart@hotmail.com:1990-03-12:BR:M:189.81.168.15:Lucas Valença Cavalcanti
strifylove:snickers007:x_barbiegirl4ever_x@hotmail.com:1994-06-14:BE:F:80.200.3.188:alison
strifylove12:Cinemabizarre12::1996-02-03:PL:F:83.30.108.147:Kerstin
strifylovely:kurama13:runningthroughtthemonsoon@yahoo.com:1990-11-26:US:F:71.108.106.245:jennifer
strifylover101:strifyluv12:daddysgirlLACE@AOL.com:1988-10-17:DE:F:207.200.116.134:Luna
strifylover_cb:StrifyMyBoy13:lien.remmerie@gmail.com:1995-11-30:BE:F:91.176.78.52:Avril Hudec
strifylumi:pedro24:brunzundunga@hotmail.com:1994-11-24:BR:M:200.164.227.178:Pedro Hermano
strifynak:aftertherain11:bruuh.00@hotmail.com:1995-03-16:BR:F:187.10.216.177:Bruna
strifyrox:musicrox18:strifyandkirorock18@hotmail.com:1995-08-17:US:F:66.216.185.211:ashley
strifysally929:asha929metro::1998-08-30:US:F:209.2.60.97:ashley
strifysan:123RT39:robintretau@live.de:1993-06-07:DE:M:84.46.83.28:Rob
strifyschafer:zimmer483:AmzCabbageButterflyGermanHomo@live.com:1994-05-16:DE:F:125.238.199.183:Strify
StrifysOreoKeks:StrifyundYu369:kristin0988@web.de:1988-09-14:DE:F:84.184.159.23:NULL
strifystrife:cinemabizarre65:heart_of_the_insane@hotmail.com:1988-08-20:DE:F:75.139.146.76:Blair
strifyswife:strify88:ninjagloveplaya@yahoo.com:1988-08-20:US:F:68.5.224.9:Jenny KaulitzStrify
strifys_girl:basilgreen917:ledzeppy12@gmail.com:1989-09-01:US:F:76.126.107.153:Maia
strifyu:NYSSERDYR123:signe.jepsen@hotmail.com:1994-11-20:DK:F:83.92.7.50:Strify
strifywm:qay123::1997-09-18:AT:M:62.47.6.13:marko
strifyxd:maikenknudsen12::1996-01-01:DK:F:83.91.52.140:Maiken
strifyxshin:mk0642320718::1995-06-05:NL:F:84.87.235.167:Juul
strify_1:99999::1994-02-09:EN:F:NULL:NULL
strify_12:nachomacho12::1998-11-11:CL:M:200.112.239.101:maxs tenison
Strify_123:disneybr2008:Thais9011@hotmail.com:1996-09-16:BR:F:189.122.232.64:Strify_123
Strify_123_321:em2789a::2000-06-07::M:78.84.170.239:NULL
strify_17:sasuke17:darkangle@wtnet.de:1993-02-28:DE:F:46.59.190.31:Yuka kazami
strify_1_8:juan10::1999-11-14:MX:M:189.241.89.24:juan pablo
strify_1_9_9_4:cinema22:strify94@arcor.de:1994-05-23:DE:F:91.5.135.131:Ramona
strify_20:Lync Volan_Hydron*63:peterburghardt@wtnet.de:1988-08-20:JP:F:46.59.143.163:Junko
strify_4ever:christopher13:jimi_blue_4ever@yahoo.de:1994-06-21:DE:M:84.181.228.195:cinemabizarre
strify_baby:benny001:petershagen11@googlemail.de:1984-08-01:DE:F:91.63.231.43:Blossom
strify_baby_03:benny009:petershagen11@googlemail.com:1980-08-01:DE:F:91.63.251.219:Blossom
strify_cb:loveyu12:electro_girl@buziaczek.pl:1990-05-22:PL:F:81.219.189.106:Princess Anna
strify_chan:nina1804:halloween1991@hotmail.de:1991-02-05:DE:F:94.219.64.175:Nina
strify_doll:gloria94:gloria.94@libero.it:1994-05-19:IT:F:80.183.36.87:gloria
strify_girl:Cinema23:Kiki1@gmx.ch:1989-02-04:CH:F:92.106.95.103:Kiki
strify_i_love_you:Strify14:Patricia.grosse@gmx.de:1993-12-30:DE:F:84.190.254.10:Patri
strify_kiro_cb:strify16:vampire-doll59@hotmail.fr:1993-11-04:FR:F:88.123.149.234:émilie
strify_lover:Elfe12:drachenlady_13@yahoo.de:1993-09-23:DE:F:217.224.74.108:Michaela
strify_roxs:Strify01:twilight_roxs@hotmail.com:1994-03-01:US:F:68.58.127.155:Elle
strify_senpai:hikaru19:str.i.fy@hotmail.de:1993-06-02:DE:F:217.187.30.224:Alina
strify_und_bill:cbth100:strakaulitz2010@hotmail.com:1989-09-01:BR:F:187.89.106.163:Angel CBTH *--*
strify__:melisa123:all.the.way.around@hotmail.com:1990-09-20:AR:F:190.136.120.103:Melisa
strify__17:maus96:peterburghardt@wtnet.de:1993-02-28:DE:F:84.46.94.119:svenja
strif_flipcloudy:irith:clony_strif@hotmail.com:1988-09-07:US:M:Mail from pucky_cokie:Cloud Strife
strig105:zyxwv:mjgus6@aol.com:1991-02-02:US:M:none:Anthony Gustanski
strig9:strg9:cadetrodgers@yahoo.com:1987-11-16:US:F:none:matthew  rodgers
striga01:firelord23:thestriga01@live.ca:1991-07-23:VE:M:216.46.133.10:dddddd
striga02:firelord23:thestriga01@live.ca:1991-07-23:VI:M:216.46.133.10:dddd
striga03:firelord23:thestriga01@live.ca:1991-07-23:WS:M:216.46.133.10:dfsdgfsad
striga04:firelord23:thestriga01@live.ca:1991-07-23:SR:M:216.46.133.10:jhdjhdfhjdsf
striga05:firelord23:thestriga01@live.ca:1991-07-23:UZ:M:216.46.133.10:gggggg
striga3000:MARIA::1992-02-15:US:F:none:striga3000
striga30000000000:nadia::1994-02-11:US:F:none:striga30000000000
striga99566854:MARIA:gbellafronte@jgrcpa.com:1991-02-15:US:F:none:MARIA  BELLAFRONTE
strigaa:whatthefuck13:crazy.marija@gmail.com:1994-09-21:HR:F:212.39.118.146:Maree
strigajr:maria::1992-02-15:US:F:none:strigajr
strigalamia:reallovesneverdied11:sexy_nadjie_14@hotmail.com:1993-07-27:CA:F:65.92.241.28:vicky
strigamalefica:reallovesneverdied11:the_angel_girl@hotmail.com:1993-07-27:CA:F:65.92.241.28:vicky
strigan:969046:duchrow@cox.net:1990-05-02:US:M:none:daniel duchrow
strigao_0:saturno937:striga-moon@hotmail.com:1991-10-17:MX:F:200.95.162.54:Gabriela
strigaris:strigaris13::2000-02-17:GR:M:94.70.73.162:panos
strigatulvaci:cuccuc12:polcovnicuvlad@yahoo.co.uk:1977-02-28:RO:M:89.120.135.119:dsadsa
strigbuilder:jedis::1994-01-06:US:F:none:strigbuilder
strigcheese:moojuice::1993-03-20:US:M:none:strigcheese
strigder:plasma66:reaperofthenight2202@yahoo.com:1994-07-29:US:M:216.81.211.253:Charlie
strige:Spotty55:b1ack_adder@hotmail.com:1993-02-13:NZ:M:202.154.142.18:Chad
strigeca46049:jzub4878:mstrigs@yahoo.com:1992-04-04:US:F:69.131.22.211:Catie
strigenz:caties::1992-04-04:US:F:none:none
Striger:Dragon64::2000-06-08:CA:M:64.136.114.211:NULL
striger09:friday12:craig.parry@att.net:1990-04-03:US:M:117.123.96.81:Jim
striger2005:54945494:josh.r-m@cox.net:1990-07-05:US:M:none:HALO AFTERMATH
striger52:millie99::1993-09-07:US:F:none:striger52
striger862182:splash101::1993-03-26:US:M:none:striger862182
striger862481:splash101:jcadena4@adelphia.net:1988-03-26:US:M:none:Joshua Cadena
strigergwurl86689:sissy::1991-07-08:US:F:none:strigergwurl86689
strigermized:corredeira:putomaluiko@hotmail.com:1986-10-02:PT:M:none:Hugo Corr
strigery121:ss121:rogers@futurejhb.co.za:1992-09-27:ZA:F:none:Strigery121 Rogers
strigg186:trigga123:leeds-arethebest@hotmail.co.uk:1994-11-21:GB:M:62.253.114.121:scott
strigg19:ninguno5:trepaa@hotmail.com:1984-02-05:ES:M:none:Pepe Luis
strigga:ssj4goku:damon11@knology.net:1986-06-11:US:M:none:Jeremy Constantin
strigger1:strigger01::1997-01-13:GB:F:82.34.108.78:poo
strigger14:jan18:www.j88d13@yahoo.com:1990-08-16:US:M:none:jan phillip daroya
strigger90:gabe11::2003-09-18:US:M:96.232.239.130:gabriel
strigger91:i4g0ts:strigger93@yahoo.com:1992-08-10:US:M:96.232.2.16:kevin
strigger92:yomomma11::1992-08-10:US:M:141.157.235.68:bob
strigger93:yomomma1::1992-08-10:US:M:96.232.239.191:kevin lopez
striggerrb:aaasss:lil_lil_killer@hotmail.com:1978-08-02:CA:M:none:Edward Li
striggers:panthers21:dan.theman8@yahoo.com:1995-02-25:US:M:68.225.55.231:daniel
strigger_1305:xingbosucks:strigger_1@hotmail.com:1901-04-03:AF:M:none:Jackie Yip
strigges:5584622::1992-07-29:CO:F:none:strigges
strigges00:2182981:alesilva92@hotmail.com:1990-07-29:CO:F:Can I be your NeoFriend?:Maria Alejandra Silva
striggles:Lapat011990:thugz1stdream@aol.com:1988-01-19:US:F:none:Patricia Striggles
striggoi:depeche101:striggoi9@hotmail.com:1980-10-05:US:M:68.0.114.205:joey
striggot:pokedex33::1998-07-04:GB:M:92.18.208.80:Drake
striggs:nanna77::1999-10-21:US:F:68.214.237.35:Savannah
striggy9:1357911:pokemonmasterrodgers@yahoo.com:1994-11-16:US:M:24.206.225.90:Matthew Rodgers
Strigh:desperate12:n.i.c.c@hotmail.com:1991-04-27:CA:F:173.33.170.226:NULL
strigh2015:gianna0308::2008-01-02::F:69.253.148.69:NULL
stright131313:jcmbs1116:aj.westrick@yahoo.com:1972-05-22:US:F:75.209.36.189:tina
stright8:Stright81:arthur-kitrys@hotmail.com:1986-11-20:CA:M:74.14.50.229:arthur
strightahead:1561880204:cris.d_18@hotmail.com:1994-07-03:AR:M:201.254.45.74:Cristian
strightblazin3339:199015:strightblazin3336@yahoo.com:1987-09-16:US:F:none:weed head
strightcircle7:flatbubble7::1994-03-09:AR:F:none:strightcircle7
strighter226:best1:mnmzsweetheart@netscape.net:1989-08-18:US:M:none:Name  unknown
strightfromdaklan:razor01:ka_fargo@yahoo.com:1979-03-29:US:M:none:peter rox
strightkid08:ilovemiki1:strightkid08@yahoo.com:1989-02-15:US:M:72.81.148.248:Zack SOmethiung
strightline:maximumdmg69::1997-11-20:US:M:75.187.216.88:cody
strightman4ever:paint:spikesofsteel@aol.com:1991-08-02:US:M:none:Cody fugealot
strightprkboi:jimbobet:zachnkatelyn925@yahoo.com:1963-06-29:US:M:none:Jeffery millin
strightsome:cheese87:luke.anderson87@yahoo.co.uk:1987-06-06:GB:M:84.71.234.238:luke
strightthugen02:935401:southsidethug5401@yahoo.com:1993-01-11:US:M:none:eddie guthrie
strightup1:1puthgirts:tigerlilly_40@voyger.com:1990-10-08:US:M:none:James Deloop
strightupg:gangsta!::1993-03-21:US:M:none:strightupg
strightupg1:1597532486:lilcoopkid@comcast.net:1993-06-22:US:M:206.220.40.51:Jacob Arrigotti
strightupthug:trinityteam89:almost_dvs@hotmail.com:1990-03-01:CA:M:216.211.127.180:cody saharinen
strightx:jfldbkb12:v.h.p1@hotmail.com:1996-01-01:BR:M:189.32.159.67:Carlos
strightxedgeboy:silentbob11:michael_the_anarchest420@yahoo.com:1987-10-31:US:M:none:mike mason
stright_arrow:Jasonscott:getsar89@yahoo.com:1984-07-22:US:M:98.111.11.216:Jason Phillips
stright_girl101:katiek13:tinkerbell_0193@yahoo.com:1993-11-01:US:F:68.92.213.160:katie
stright_man:bolton1:bartplus4@aol.com:1987-07-19:GB:M:none:Andrew Simpson
stright_souljah777:soleil01:jade_jones_001@hotmail.com:1993-01-24:CA:F:142.179.253.242:Jade
stright_thuhgn:xboxx:arnievillegas_@hotmail.com:1983-03-03:GB:M:207.161.164.24:arnie villegas
stright_up_g:kec777:kitkatsoccer2@aol.com:1988-05-05:US:F:none:Kathy C
stright_up_g_kc:kec777:kitkatsoccer2@aol.com:1988-05-05:US:F:none:Kathy C
stright_up_money:camper:melizgurl@yahoo.com:1981-07-20:US:M:none:wong hung
stright_up_playa:ilikellama1:blingsonbling@yahoo.com:1981-12-31:US:M:none:jason jacko
strigi:klop199115:strigi@freesurf.ch:1991-07-08:CH:M:213.3.92.39:Hanselmann
strigidae:145679strigidae:hay_onik@hotmail.com:1977-02-25:BR:M:201.58.95.130:Strigidae Strigiformes
strigidae_memoria:maggotworm42:lovelyalula@hotmail.com:1990-12-29:US:F:76.121.45.3:Lorelai
strigiforme:uiowa7879:eldoradorpg@hotmail.com:1988-01-17:US:F:173.30.19.130:Kristin
strigiforme06:uiowa7879:latenightreader@gmail.com:1988-01-17:US:F:173.30.19.130:Kristin
strigiformes13:kyedi:kyedi@sbcglobal.net:1990-05-10:US:F:Mail from tinkbell28582:Owls Rock!
strigiforms4me:micro44me::1998-1-6:US:M:173.79.115.230:Thomas
strigile:cocobono12:beauboy@yahoo.com:1983-03-29:US:M:69.146.88.4:kyl
strigilicious:mine123:striginometry@yahoo.com:1983-07-16:US:M:none:Jason Cleveland
striginigirly:richie7:cooliana94@hotmail.com:1988-11-28:DE:F:none:Samantha Singh
striginometry:strigil:strigil@neo.rr.com:1983-07-16:US:M:70.228.115.190:Jason Cleveland
Strigiology:Asha_Bellanar4455:squidcastle@hotmail.com:1979-09-19:US:F:94.144.63.147:NULL
strigla:119911:emmanouela2@yahoo.gr:1991-02-03:GR:F:83.212.67.166:emmanouela
striglens:sport@:soypofi@yahoo.com.mx:1993-01-01:MX:F:none:ashirlon MCcute
strigley:rogoly!:dogsbuddyrules@yahoo.ca:1988-05-17:US:F:none::? :?
striglit:amote27:joanatrindade@hotmail.com:1988-04-17:MZ:F:85.240.127.115:Joana
strigman:9345693456::1996-04-06:BR:M:189.70.3.75:luan
strigmanfaio:9345693456:lukastick@gmail.com:1988-04-06:BR:M:189.70.3.75:luano
strignados:malignos16:fernandojabbour@hotmail.com:1992-10-16:BR:M:201.52.114.66:Fernando
strignado_7:1alcatel1:farolrio@hotmail.com:1980-09-16:BR:M:200.206.195.160:Rodrigo
Strigner:agostino10::1998-05-11::M:190.247.54.202:NULL
strigo:plejbona:whp@kafejo.com:1996-04-08:US:M:65.25.9.0:strigo
strigo21:spooh96:andr_costa@tiscali.it:1967-04-21:IT:M:none:Andrea Giordano
strigo555:hellno123:philipgwynne@hotmail.com:1991-12-25:GB:M:none:philip gwynne
strigoacia38:nosferatu11:droz999@yahoo.com:1984-03-22:US:F:68.2.96.181:Dana Luder
strigoaica:christian19:lachsack84@web.de:1984-10-09:DE:F:none:Simone Holder
strigoaicasoul:rockstar:tlnkerdust@aol.com:1988-05-15:US:F:none:Samantha Gildow
strigoi:beth81:strig0i@aol.com:1975-06-05:US:F:64.17.79.49:Crow
strigoi1j:vampiro17:chorizo1j@hotmail.co.uk:1992-07-01:PE:M:190.232.222.165:ben herrera nieto
strigoi28:tsuki125:asha__man@hotmail.com:1983-02-25:CA:M:none:Jeff N
strigoica:revenge:ysanne@wp.pl:1978-08-06:PL:F:none:Vlada Marr
strigoii:173564112:dany_magox@hotmail.com:1990-07-02:CL:F:200.90.242.208:Danisa
strigoiimorti:frost1:strigoii-morti@hotmail.com:1990-11-01:CA:M:174.116.6.105:Matt S
strigoilord:vampire99:curse-of-the-revenant@hotmail.co.uk:1993-04-06:GB:M:none:Alistair Martin
strigoimuzik:20992099:darth_strigoi@hotmail.com:1973-05-16:PR:M:65.23.237.217:Alex
strigoiprincessalice:73771579:pandabear1800@yahoo.com:1991-12-14:US:F:74.44.121.135:Alice
strigois:2071696:macbeth221@hotmail.com:1990-01-21:CA:F:70.80.32.35:Strigois
strigoiuls:heimdal::1978-01-29:EN:M:NULL:NULL
strigoivampire:waitplser::1992-01-10:CA:M:Mail from theneopetsteam:strigoivampire
strigoivii:monstersex69:strigoivii@earthlink.net:1964-11-09:US:F:69.234.35.30:LindaKnowles
strigoiviu:mantits:nolifemaggot@hotmail.com:1987-03-02:US:M:98.243.84.207:seanarrant
strigoi_15:babybat15:babybat_15@hotmail.com:1992-12-07:MX:M:200.52.173.4:Jorge Ezequiel Gonzalez Juarez
Strigoi_6:martinez16:carleemartinez@ymail.com:1994-1-24:US:F:173.11.71.154:Carlee
strigoi_m80:oppss792:angelz_truthz@hotmail.com:1991-03-01:SG:M:none:Benjamin Tan
strigoi_morei:virtuallove00:miami_beach_babe7@hotmail.com:1991-09-19:IE:F:68.149.134.162:zoey
strigoi_mori:Busterbh:chibi_hime3@yahoo.com:1988-07-03:US:F:none:Ligia
strigol:logitech1781:strigol@hotmail.com:1981-03-17:US:M:216.163.26.131:Pat
strigomzzz:anterior3:pkekaos@gmail.com:1983-03-14:ES:M:none:Luis Alfonso
strigon:raver15::2001-02-02:US:M:69.110.104.61:matt
strigon1:ferrari80:shayol.77@gmail.com:1990-11-30:NZ:M:118.137.215.202:Luke
strigon12:cheese12:gungorespectable@yahoo.com:1995-06-11:JM:M:72.27.171.216:Zachary
strigophilia:ra1vynn:strigophilia@hotmail.com:1975-04-18:US:F:none:Erin Steinbeck
strigouiiate:eyezxc:teraphobic@hotmail.com:1986-08-04:US:F:none:Lydia G
strigra:1carey1:Time.is.destiny@gmail.com:1994-02-24:CA:F:96.51.30.153:Carey-Lyn
strigsdoradex:thaliciany13:thaliadebarbisd@hotmail.com:1987-06-08:BR:F:201.12.147.224:thalia
strigs__20:STRIGS20:geldon_cap@hotmail.com:1996-03-17:BR:M:201.15.220.171:GELDON
strigthn:AYFHN8116:CHRONORAIDER@AOL.COM:1986-06-27:US:F:71.112.240.56:ALICIA
strigton_1:615243::1998-03-03:CO:M:200.118.8.190:strigton 1
striguer:isabeus22:dennys_striguer@hotmail.com:1994-01-15:BR:M:187.22.104.109:Striguer
striguerx:pvotp15:dennys_striguer@hotmail.com:1994-01-15:BR:M:201.27.140.187:Dennys
striguifildi:123luiza::1997-10-16:BR:F:201.51.57.150:luiza
strigun86:strider7:strider1699@hotmail.com:1982-01-06:US:M:none:Jeff Salmorin
strigwar:agnesamp123:everseason17@yahoo.com:1992-12-03:PH:F:61.9.120.69:angelica
strigwer:agnesamp123:avatarzero@yahoo.com:1992-12-03:PH:M:61.9.120.67:carlo
strigz4:passgas27::1998-02-27:US:M:65.166.214.8:Adam
Strig_:6465166:xx_neuromance_xx@msn.com:1990-01-21:CA:M:70.82.127.201:side strigois
strihammar:sheishot22::1996-11-05:SE:F:83.249.130.177:sara
strihd764:pussi2:syc@c.dk:1992-10-15:DK:F:none:Charlotte christensen
strihed:vcop77:marquinho_gonzalez@hotmail.com:1987-09-24:BR:M:none:marcos gonzalez
strihmoney:money_rules59:iguaranteethisisarealemail@yahoo.com:1989-01-01:US:M:76.185.232.235:bart
striia:athena asamiya:a_kio_10@hotmail.com:1989-01-19:MX:M:none:sie kensou asamiya
striick:06109395:glu__@hotmail.com:1977-05-14:BR:F:189.78.223.218:striick
striicken:fabfab12:thiinkpiinkkxx@aim.com:1995-10-25:US:M:68.190.210.38:-_-
Striicker:pedroenilo118::1998-10-09:BR:M:187.106.204.172:NULL
striicklyy:dora123::1995-08-22:CA:F:99.227.179.8:Kadijha
striicklyy43:reggieb123:nerd.cuttie@hotmail.com:1995-08-22:CA:F:76.10.141.122:Kadijha
striiclky_liimiited:aoetearoa12:east_cyda4114@hotmail.com:1992-01-15:AU:F:58.165.71.19:JuLz
striid:30081990:astridrennen@hotmail.com:1990-08-30:BE:F:none:astrid rennen
striide:musso!:ducksterrs@hotmail.com:1993-12-05:VG:F:220.253.135.182:Catherine
Striiderr:strider12:natski_xoxo@hotmail.com:1992-5-22:AU:F:60.241.75.103:Natalie
striidie:astrid199467:asi_blackeyedpeasfan@hotmail.com:1994-07-06:BE:F:94.225.194.110:Astrid
striidiie22:cake22:frankiejefeindio@yahoo.com:1994-03-18:US:F:207.69.140.36:striidiie
striidj:driesje!::1993-12-04:BE:F:none:striidj
striife:bubble:animeotaku@surfy.net:1986-10-03:US:M:none:Alex Jaygie
striifesgirl:purplehaze06:alwayz_and_forever@hotmail.com:1990-07-10:NZ:F:none:FLoSsy GiRL
striify:nysserdyr123:signe.jepsen@hotmail.com:1994-11-20:DK:F:87.50.116.159:Signe
striiid:amoureuse29:striiid@hotmail.fr:1993-06-02:FR:F:86.214.0.120:Astrid
striiiiings:1123581321code:hai.im.a.qtip@gmail.com:1994-04-23:US:F:71.111.186.152:Sherril
striiiike:cooldu55::2000-04-13:US:M:190.213.78.21:Rain
striiiike_mdr:ninini:agape_robin@yahoo.fr:1986-02-02:FR:M:none:tchô!  c la vie.
Striiikee:147852369:deemuh@hotmail.com:1970-04-25:BR:M:189.41.198.53:NULL
striiiker:19051994:joaoalbertoo@hotmail.com:1994-05-19:BR:M:200.207.100.142:João Alberto Antunes da Silva
striiike_way:gahh211:bllix_rox@hotmail.com:1994-06-21:BR:F:201.43.41.126:Striike
striiingeuse:080794:jo-foot.9@hotmail.fr:1994-07-08:FR:M:83.152.168.92:Jord&#x27;an
striiip:301192:aisling_model@yahoo.co.uk:1989-09-05:GB:F:none:Aisling xX O\Connor xX
striiipe:071332:mariaplock@yahoo.com:1982-10-19:US:F:none:Maria Plock
striiipes:babes11:xoluckycharmxo95@aim.com:1979-01-28:GB:M:66.229.122.100:striiipes
striike:v858891:carolineffeeer@yahoo.com:1991-06-29:FR:F:none:Jade
Striike007:lilaalice12:alice.t.c@hotmail.com:1994-05-30:BR:F:201.2.114.129:NULL
striike05:thomas1:t_skills@hotmail.com:1988-02-02:BB:M:none:john matthews
striike18:katze18.:fjklsda@hotmail.com:1993-07-05:GB:M:91.115.39.238:lulu
Striike7:sh4kh4m::1997-10-21:GB:M:77.102.111.151:Hamza
striikeapose0x:jenson323:striikeapose0x@aim.com:1992-07-21:US:F:71.60.227.54:Mary
striikee:richard32:richardruppel@hotmail.com:1988-06-03:NA:M:189.4.24.67:richard
Striikegirl:lilapopis12:alice.t.c@hotmail.com:1994-05-30:BR:F:187.65.60.60:NULL
striiken:mrwilson13:michaelriby@hotmail.com:1990-09-13:CA:M:99.224.54.100:Mike
striikenbahh:abbey215::1994-02-07:US:F:none:striikenbahh
striiker:RC8991:blueshimmer812@hotmail.com:1991-06-12:CA:M:24.36.18.126:CAsSiDy
striiker10:striker101:kenneth_mundy@yahoo.com:1992-09-28:US:F:69.243.166.87:kim
striikergiirl:81632310:pamy_striikergiirl@hotmail.com:1993-10-23:BR:F:201.26.68.37: Milla
striiker_billabong:naruto125:junior.09.06.2008@hotmail.com:1990-04-25:BR:M:201.43.150.237:Junior
striiker_zii_on:123abc123::1997-05-02:BR:M:200.195.176.229:Saymon
striikexaxpose22:jordan141:paintxitxpink@yahoo.com:1993-11-12:US:F:none:Jordan Miskin
striike_:foxx69:beeea@rocketmail.com:1909-04-15:BR:F:201.59.176.250:Beatriz
striike_7:1590lpmjc:fineliner_mjc@hotmail.com:1990-05-01:CL:F:201.215.168.92:Maria Jesus Correa
striike_ahh_p0s3:oct71993:striike_a_p0s3@yahoo.com:1988-10-07:US:F:none:Angie *I*lu*
striike_up:darks11:eloise.moses@hotmail.com:1993-04-17:CA:F:24.202.2.192:lose
striikler:GB019970::1997-09-26:BR:M:216.151.187.108:george
striiks2:by122898::1998-12-28::F:65.191.175.37:NULL
striikxowt11:8974213j:smellypiratehooker11@yahoo.com:1990-07-08:US:F:none:Jane Doe
striing:starrikins816:starrnightt@yahoo.com:1988-08-16:US:F:24.24.77.131:Piece of String
striinga:i2402k0202f0308:misss_kill@hotmail.com:1993-02-24:MA:F:41.250.134.12:ilham
striingemil:victoria2:victoria_basket@hotmail.com:1993-05-27:SE:M:none:String Emil
striingg:snow01:pinky_lemon@hotmail.com:1989-03-21:NL:F:none:kim kim
striingy:brown8703:gertali1@msn.com:1988-03-03:US:M:none:Jermaine
striinka_:112211:robertabernardo@globo.com:1989-06-04:BR:F:189.34.196.2:Roberta Paula
striiny:1234abcd:fake_perfah@hotmail.com:1988-08-16:BR:F:201.29.207.125:miss striiny
striip3s:hotwheel01:northside_64@hotmail.com:1994-07-05:CA:F:24.66.94.140:katrina
striipe:walbrzych1:elextris@aim.com:1993-10-27:US:F:none:Tori
striiped:cybunny1:emo.hair.freak@hotmail.com:1993-04-14:CA:F:none:Rosa
striipedcupcake:smilla01:lovven_@hotmail.com:1995-04-06:SE:F:90.230.102.216:Lovisa
striipedsocks:lukedog11:purplekitteh02@yahoo.com:1993-10-31:US:F:75.83.0.168:Hannah
striipeeee:helppeg5097:ramonaveen@yahoo.com:1922-07-04:SR:F:74.140.230.24:bob
striiperella:vesna:striiperella@hotmail.com:1988-07-24:SE:F:none:Bella Shakur
striipes287:pepper111:proaimer1042@aim.com:1992-06-01:US:M:76.214.49.205:Christian
striipes8188:dantea88::1998-01-03:US:F:67.101.249.176:stripes
striipez:marienadine12:Playa_Nadine94@hotmail.de:1994-01-09:DE:F:84.58.251.248:Anna
striipi:mariela1000::1997-8-27:AR:F:189.192.44.82:mariela
striipy:GOKOSHA56:PRINCESS-VIP-CHIC@HOTMAIL.FR:1992-11-01:FR:F:81.48.149.41:CYNTHIA
striipy_sockz:xweetok27_4:prash_7@hotmail.co.uk:1992-07-27:GB:F:90.212.33.156:Sockz
striitzel_257__ss:striitzel0257:tita_striitzel@yahoo.com.br:1986-07-05:BR:F:201.52.136.8:Kátia Striitzel
striive2benumba1:gottabe01:da1andonlii10@yahoo.com:1982-06-21:US:F:98.216.177.221:Shaniqua
striix:hs2732p3:nicolettelanning@gmail.com:1991-01-13:US:F:66.75.65.178:Strix
striix920:babu1010::1998-03-17:BR:M:189.13.7.136:clow
striizii:knuffi91:kathischmid@hotmail.com:1991-12-17:AT:F:91.115.69.52:Kathi
strii_ke:chulin11:haruno_-_sakura15@hotmail.com:1995-04-25:BR:M:201.25.35.169:strike
strija:moonstar27:magieandco@hotmail.fr:1991-02-27:FR:F:none:Luna Pussico
strijaous3371:kisses:st3fee@yahoo.com:1990-07-31:US:F:none:stephanie strijaous
strijaoussteph:kisses::1993-08-16:US:F:none:strijaoussteph
strijbos:poezen::1993-01-20:AN:F:none:strijbos
strijbosch:ve211077:famstrijbosch@live.nl:1977-06-10:NL:M:85.147.253.48:Jan-Willem
strijboschje12:wimislief123::1996-10-13:NL:F:84.29.173.138:cindy
strijboschje19:wimislief123::1996-10-13:NL:F:84.29.173.138:cindy
strijboskougratje:loves!::1994-03-08:NL:F:none:strijboskougratje
strijdarena:nitendo64:castafiera@live.nl:1992-05-11:BM:M:86.80.68.105:uikhljmk
strijdarena1:destroy30:p.albus@chello.nl:1987-12-29:NL:M:212.41.157.237:mannelijk
strijdarenafeakie:neo123:neorulerrulez@hotmail.com:1983-09-17:BE:M:none:Neoruler rulez
strijdarena_baas:jelleoo120::1997-12-06:NL:M:80.126.92.118:jelle
strijdbroeder:lollo1234::1996-05-06:NL:M:87.212.157.148:nico!!!!
strijder:0::Jenna_e1c4b3:M:1988-01-01:0:Vyse
strijder071:lariks12:adil_maroka222@hotmail.com:1994-08-04:NL:M:82.93.193.225:adil
strijder123:leuw321:berendmostert@live.nl:1990-01-18:ES:M:80.127.40.63:lambik
strijder312:swoopy312::1994-01-31:CA:F:none:strijder312
strijder701:1Stars1::1996-01-24:NL:F:86.90.66.109:NULL
strijderdaan:semmetje98:daanvdhulst@hotmail.com:1989-08-12:NL:M:94.210.67.124:daan
strijderdes_doods:wachtwoordje12::2002-04-20:NL:M:85.191.55.34:NULL
strijderdim:koninglul22:dim_rulz55@hotmail.com:1992-06-21:NL:M:none:Dimitri Smithy
strijderforever:220593:tim-groot@hotmail.com:1993-05-22:NL:M:84.105.122.56:tim
strijderjitters:tinytimmy12::1999-03-04:US:M:69.116.81.160:NULL
strijderkwijler212:klojo1222::1999-12-22:NL:M:86.88.245.170:keije 
strijderman:floore12::2000-05-09:BE:M:78.23.231.75:pim
strijdermbx9:mohamed12::2002-08-01:NL:M:62.194.232.41:NULL
strijderperkamentus:perkamentus*::1994-01-21:BE:F:none:strijderperkamentus
strijderskipje:dinges!:coolboy1994@wanadoo.nl:1990-08-05:AN:M:none:lino elshof
strijdersvanperkamen:Jeffrey23:keereweer27@zonnet.nl:1990-06-18:NL:M:84.104.66.126:jan
strijdert93:tim123:spyblackdragon@hotmail.com:1991-04-22:BE:M:none:stimpie gege
strijdertino:Ciska00::1997-03-01:BE:M:80.200.3.210:tino
strijdertje99:arjanes88::1997-10-02:TD:M:217.121.247.80:arjan
strijdertuta:danny123:hemelke.geulle@home.nl:1991-03-24:NL:M:84.30.148.69:danny
strijderx:caramel1:bendoucet7@msn.com:1989-12-04:CA:M:none:Lord Galcian
strijder_148:ajax148::1994-04-08:NL:F:none:strijder_148
strijder_1998:wwiill55%%%::1998-05-29:NL:M:62.163.222.219:roan
strijder_9:hahaha22::1998-05-31:NL:M:86.88.55.107:julian
strijder_lucas:lucasm00::2005-10-11:NL:M:86.88.245.170:lucas
strijdfee:aerporth12::1987-02-15:NL:F:none:Cady Astick
Strijdi:strijdi11::1999-05-02:US:M:96.225.81.213:NULL
strijdkaartengekte:Txyk2X9e:sanderhelp@hotmail.com:1992-11-09:NL:M:94.209.154.131:sander v.d.most
strijdlust:as1101.::2000-06-09:NL:M:87.208.171.37:ramien
strijdmakker:misty06::1996-08-06:NL:M:84.87.135.52:vette amico
strijdmeidju:lisanne1992:lisanneloesie@hotmail.com:1992-09-23:NL:F:none:Strijdmeidju
strijdmeisje:lisanne1992:peterdenneboom@hotmail.com:1992-09-23:NL:F:none:StrijdMeisje
strijdmeisju:lisanne1992:lisanneloesie@hotmail.com:1992-09-23:NL:F:none:StrijdMeisju
strijdmuisje:lisanne199223:peterdenneboom@hotmail.com:1992-09-23:NL:F:none:StrijdMuisje
strijdojitters:chic12::1999-01-01:US:M:71.127.246.123:NULL
strijdooo:strijdi12::1999-05-09:US:M:96.225.81.213:NULL
strijdparel:867OV6nA:strijdparel2@yahoo.com:1986-01-01:NL:F:83.86.61.233:
strijdparel3:867OV6nA:strijdparel@yahoo.com:1987-01-01:NL:M:none:Jan Stevens
strijdster:lisanne199223:mousiej92@hotmail.com:1992-09-23:NL:F:none:strijdster
