stripes16361:alexisdiaz16::2001-7-7:US:F:68.3.158.165:lexi
stripes16361625:alexisdiaz16::2001-07-07::F:68.3.158.165:NULL
stripes1645:ilovecriss33::1996-06-04:CA:F:173.32.219.123:Kirsten
stripes1651:omarissocute!11:rodriguez.jocelyn97@yahoo.com:1997-09-04:US:F:208.93.61.225:NULL
stripes1683:red1683::2001-12-10:CA:M:24.141.34.40:Mark
stripes17:sporty17::2000-11-17:US:F:24.91.190.192:Maiyah
stripes1881:stripes8118::1996-11-27:US:F:68.252.43.108:Kate
stripes18_16:football18::2001-05-21:US:M:209.170.115.71:acton
stripes18_9_9:school18::1999-09-09:GB:F:82.3.216.12:tanya
stripes1943:23cheese23::2002-12-07:US:F:72.228.133.1:Sabrina
stripes195:591sepirts:naeandjeff@gmail.com:1998-05-19:US:M:69.171.160.53:NULL
stripes1983:lizzyishot:stria@satx.rr.com:1983-11-15:US:M:66.69.13.93:Stripes thewanderer
stripes1988:loser88:wildfiretg@yahoo.com:1988-05-24:US:F:69.29.109.11:Eden
stripes1993:jess45:stripes_1993@yahoo.com:1993-01-10:US:F:71.181.74.65:Jessica
stripes1998_:roo_98::1998-03-02:US:F:72.201.30.118:Brooke
stripes1999:Julie_LIKES_ChEeSe15:hurricane_airfire@comcast.com:1988-08-18:US:F:74.109.116.26:Proud Neopian 4EVA
stripes1999a:snowball818::1999-08-18::F:96.244.40.11:NULL
stripes1_151:muffin10::2006-10-28::M:67.175.58.249:NULL
Stripes1_317:Stripes12::1999-04-14::F:95.144.211.157:NULL
stripes1_50:pink88::2007-10-19:US:M:68.211.108.84:Stripes
stripes2:Julie10::1996-07-02:US:F:71.237.215.67:Thao
stripes2002:play01::2000-02-10:US:F:70.161.212.96:Audry
stripes2002laura:7112002::2002-07-11:US:F:98.202.18.51:lauren
stripes2004:gargoyle2004::2005-10-15:US:M:174.106.2.116:Landon
Stripes2005:daddysgirl2005::2005-08-07:CA:F:64.231.81.221:NULL
stripes20054:cinnamon123::1997-03-17:CA:F:24.64.168.149:samantha
stripes2008:kamila123::2001-10-15:US:F:24.24.212.177:Camille
stripes2009:stripes09:4INGALLS@ROCHESTER.RR.COM:1971-05-15:US:M:72.225.6.74:GMAN
stripes2010:stripes2009::2000-09-13::F:75.68.87.188:NULL
stripes2010410:skippy2010::2000-10-20:GB:F:87.102.127.69:NULL
stripes2010__x_x:25094353:jeanettemarie1@hotmail.co.uk:1980-07-24:GB:F:82.132.248.88:jen
stripes2012:dancer28:alola123@aol.com:1992-04-27:US:F:24.151.51.83:lola
stripes202:castle822::2002-01-31::F:76.248.75.9:NULL
stripes20342:BUDDY12::1997-01-22:US:F:76.0.23.6:Lindsey
stripes203422:buddy12::1997-01-22:US:F:71.1.127.75:Lindsey
stripes20402:4075820225::2002-02-04:US:F:72.189.58.218:Alex
stripes2050_234:LXckqwx56::2002-02-23::F:69.123.100.125:NULL
Stripes21:bobbyjoe237::1999-08-10:US:M:206.220.40.50:NULL
stripes210:260247::1998-10-11:US:F:98.208.223.232:stripes
stripes211:tiger56:lcadiere@hotemail.net:1990-02-23:US:F:75.65.203.152:haydan
stripes2114:marshy60::2003-09-09::F:68.119.109.155:NULL
stripes212:clover12::1998-01-30::F:24.22.36.117:NULL
stripes213255:shanalee55::1996-07-22:US:F:205.188.116.131:shanalee
stripes2145:skillet108::1997-06-13:US:M:24.144.202.254:JAMES
stripes2186:gizm01::2000-12-30:US:F:199.125.45.10:NULL
stripes21994:sloan94:beal_girl94@hotmail.com:1994-09-21:GB:F:86.168.165.142:charlotte
stripes21_5_5_5:123stripes::2001-04-17:US:F:68.46.200.30:shannon
stripes2203:wolves101:areeree02@hotmail.com:1995-10-26:US:F:76.176.148.15:Summer
stripes2211:rjpoop3209:mma3rg@tds.net:1995-07-14:US:F:97.89.44.111:madison
stripes222:stipes111::2000-07-14:US:M:69.215.153.83:andrew
stripes2222:spongebob22::1997-06-09::F:96.28.86.226:NULL
stripes224:::2002-10-11:US:F:24.22.215.236:NULL
stripes22519:tiger22519::2000-01-25:US:F:173.71.211.22:Nimra
stripes225190:tiger225190::2000-01-25:US:F:173.71.201.171:Nimra
stripes2255:timmyperry00::1999-10-08:US:M:72.80.206.115:timmy
Stripes22685:Stripes22::2000-05-11::F:76.205.168.21:NULL
stripes227:diva123::2000-08-14::F:75.177.121.181:NULL
stripes228:spot123::2000-09-22:US:F:75.205.138.49:NULL
stripes22ea:tiger22::2001-03-22:US:F:75.67.196.235:Pessie
stripes22_78:kkalan23::1998-01-27::F:67.142.168.22:NULL
stripes2314567:Bug2314::1999-04-16:US:M:65.89.233.33:Kody
stripes2341:hope88::2000-03-08:CA:F:70.77.223.166:NULL
stripes23465:tjy921::1999-06-02::F:32.179.188.227:NULL
stripes23465_701:tjy921::1999-06-02::F:32.179.188.227:NULL
stripes236:iloveneopets286::2002-06-27:US:F:216.151.187.84:NULL
stripes237:zebaze34::2000-03-16:US:F:208.157.161.23:NULL
stripes238:matt4:tinofan@att.net:1991-12-04:US:M:none:matt ward
stripes2388:breanna19::2000-11-16::F:68.5.154.155:NULL
stripes239:justinbieber23:joy231999@gmail.com:1996-02-03::F:65.13.72.109:NULL
stripes2411:tiger16::1999-04-10:US:F:98.214.152.26:Alyssa
stripes2413:crashgordon24::1999-09-13:US:F:165.254.127.76:sarah
stripes242:gyhijk12:taylor_rocks24-7@hotmail.com:1993-03-09:US:F:12.180.183.237:taylor
stripes242812:clover98::1998-01-30:US:F:24.22.36.117:NULL
stripes243:ilovedd:dgtnm@ulster.net:1990-05-26:US:F:129.44.120.35:NicoleMower
stripes2432640:BCFMRTZp101::1998-12-22:CA:F:142.177.213.2:brook
stripes244:neopets244::2003-06-10:US:F:24.22.215.236:NULL
stripes246:13579abc::2001-11-14:US:M:71.238.8.56:Darian
stripes247:! ! 24::1999-11-08:US:F:71.193.63.9:Melissa
stripes24719:heywatup:lgcimino@comcast.net:1992-07-12:AQ:F:none:Amanda Bass
stripes2472:newyork12::1999-06-01:US:F:96.5.63.22:NULL
stripes2478:Stripes55:mard@gaggle.net:1992-07-04:CA:M:70.49.219.28:Dylan Marcotte
stripes2478351:rockonstripes247::2000-05-20::M:72.11.32.151:NULL
stripes248:yinyang::1993-10-20:US:M:none:stripes248
stripes2491:loveyou11:ohsara3@aol.com:1991-09-24:US:F:68.51.120.34:NULL
stripes24_blk:tiger34::1998-03-14:US:F:76.79.179.169:Jasmin
stripes25:coolman::1994-07-18:US:M:none:stripes25
stripes250:apple12::2000-01-25:US:F:74.233.137.68:katelyn
stripes257:dollar257::2002-03-12:US:F:76.206.47.243:maggie
stripes257257:dollar257::2002-03-12:US:F:76.206.47.243:maggie
stripes2578:dollmar14::2002-03-12::F:76.206.47.243:NULL
stripes25789:dollmar12::2002-03-12:US:F:99.60.184.197:NULL
stripes258:tiger852:brawler15@thegame.com:1997-06-15:US:M:68.118.83.181:stripes258
stripes259:apple12::2000-01-25::F:99.180.33.240:NULL
stripes260:260247::1998-10-11:US:F:98.208.241.132:Stripes
Stripes260247:260247::1998-10-11::F:98.208.223.232:NULL
stripes2636:spring376::2002-12-6:US:F:70.246.99.186:kendie
stripes26427:hotshot56::2001-02-02:US:M:64.20.158.115:NULL
STRIPES269:BLIMP66:467219@hus.net:1994-2-21:US:M:97.73.64.146:jacke
stripes269567:cat food::1993-08-17:US:F:none:stripes269567
stripes27:allagro:calobob@cox.net:1991-06-16:US:F:none:Callie Williams
stripes2727:kassy27:stingbball@yahoo.com:1992-12-04:US:F:66.112.72.125:kassidy
stripes2741:hnw2741:stripes2741@yahoo.com:1993-01-08:US:F:75.117.198.20:heather
stripes28:mi11y::1994-02-28:GB:F:none:stripes28
stripes281:sparkey::1993-10-06:US:F:none:stripes281
stripes2824:turtle*:chocolategrandpa_0@hotmail.com:1992-10-26:AU:M:none:ralph wiggem
stripes2828:spongebob22::1997-06-09::F:96.28.86.226:NULL
stripes28995:Grand Prix:jaydeml@yahoo.com:1989-09-28:US:M:none:Zachary Lokey
stripes29:nissan29::1996-05-29:AU:M:220.233.232.40:brenny
stripes2906:stripes1::1996-01-24:US:F:97.118.71.183:stripes2906
stripes2912:ishi2912::2000-12-29:TH:F:125.24.143.73:NULL
stripes2929:spongebob22::1997-06-09::F:96.28.86.226:NULL
stripes297:stripes:drutherford4060@cox.net:1989-08-30:US:F:none:haley rutherford
stripes2987:fred29::1998-09-17:US:M:69.96.224.126:gavin
stripes299:moonstar111:greggedgell@yahoo.com:1997-07-05:US:F:76.235.196.11:NULL
stripes29_2_2_2:cassy67:Awsdiver@aol.com:1995-06-29:US:F:69.242.243.70:Alex
stripes2k:portywan517:dennis_rosete@yahoo.com:1982-02-25:PH:M:210.213.229.254:Dennis
stripes2play:2OKwelikestripe2::1998-08-15:US:F:68.229.77.132:Jessica
stripes2_0:wedfer123:pattydelany@usachoice.net:1988-11-29:US:M:206.192.107.130:scotty
stripes2_2_2:cutiepie12::2007-12-21:US:F:97.95.134.243:Tigress
stripes2_3:shadow2 3::1999-03-18:US:F:72.204.153.101:Madison
stripes30:maxekb11::1997-12-13:US:F:98.142.69.79:Emily
Stripes3000:kent572:karenchrislydia@aol.com:2003-07-16:US:M:24.151.152.19:NULL
stripes305:theman100::1998-10-31:US:M:72.88.169.72:Nick
stripes31:!@#123onetwothree::1995-08-06:US:F:72.145.230.151:adyn
stripes310:winxclub1400::1998-04-10:US:F:66.57.78.35:sara
stripes3121:righty::1996-01-21:US:M:none:stripes3121
stripes31294:Caitlin1::1994-03-12:US:F:none:stripes31294
stripes313:heaher13::2000-03-13:US:F:204.116.63.105:lindsay
stripes315:jordi123::1998-12-11::M:173.25.140.51:NULL
stripes31834:lovlyspots89::2001-03-30::F:98.67.223.73:NULL
stripes321:magicguy123::2000-11-18:GB:M:24.7.251.100:Joe
stripes3210:260247::1998-10-10:US:F:98.208.223.232:stripes
stripes32133:fish12::2001-04-29:US:M:99.157.15.54:NULL
stripes323:harry11::1997-05-01:US:M:76.168.84.128:harry
stripes3256:Stripes6:mard@gaggle.net:1992-07-04:CA:F:none:Larry Coswell
stripes328:bar2008::1998-11-23:US:F:24.175.55.153:beverly
stripes33:zebra!1::1993-01-21:US:F:none:stripes33
stripes332355:elmo#1:greencooldog12@aol.com:1992-06-17:US:F:none:stephanie vila
stripes3332:sumutran::1993-02-27:US:F:none:stripes3332
stripes34:neopetsrule34:mzharrist3@yahoo.com:1991-06-24:US:F:209.136.44.6:victoria
stripes340:micheal340:clinemicheal44@yahoo.com:1996-11-20:US:M:64.12.116.195:micheal
stripes3410:sandra45::1998-10-23:US:M:70.126.251.135:Micah
stripes34284:139878:www.@gogo.com:1987-02-13:US:M:68.249.98.69:Jacob
stripes343434:ywater:dpbaile123@comcast.net:1986-02-15:US:M:none:Nick Baile
stripes3435214880:central::1994-03-11:GE:F:none:stripes3435214880
stripes3435214883:central:antruett@bellsouth.net:1992-03-11:GE:F:none:Dani Crawford
stripes3435214884:central::1994-03-11:GE:F:none:stripes3435214884
stripes3435214886:central::1994-03-11:GE:F:none:stripes3435214886
stripes3443_mn:ruki!:mlss_nylr@yahoo.com:1991-03-16:US:F:150.148.0.27:Melissa Rickard
stripes3444:jeannette::1992-05-05:US:F:none:stripes3444
stripes345157:ladygaga26::2002-03-26::M:174.126.113.116:NULL
stripes34517:betsywetsy17:stripesworld@gmail.com:1985-03-22:US:F:67.49.215.63:Melissa
stripes3458_9:animals18::2000-11-09:US:F:76.110.94.106:animals
stripes345_157:ladygaga26::2002-03-26::M:174.126.113.116:NULL
stripes345__20:rocker89::2000-5-27:US:M:68.14.175.173:Koltin
stripes34771:69701:lboehnke@sbcglobal.net:1992-06-02:US:F:none:Makayla Rose
stripes34_6:thunderbolt19:Awsdiver@aol.com:1995-06-28:US:F:68.47.146.76:cowgirl
stripes34__36:fred29::1996-11-21:US:M:65.43.216.82:fred
stripes35:Starfire45::1998-04-21:US:F:24.58.144.28:Bailey
stripes351:falloutboy123:jayden_beefy@hotmail.com:1989-10-16:AU:M:124.180.138.12:warren
stripes35456:2354982::2001-08-23::F:173.80.208.209:NULL
stripes357:cassie24::1998-09-15:US:F:96.40.108.165:Jessica
stripes359:webkinz33::1998-09-02:US:F:64.92.22.52:bailey
stripes36:hopper63::1994-04-30:US:0:none:stripes36
stripes360:joey1man1::1997-03-17:US:M:71.52.82.126:John
stripes365:398253505::1997-06-18:CA:F:68.145.217.232:maggie
stripes36533:yay8888:stripes687@aol.com:1995-06-06:US:F:205.188.117.74:stripes36533
stripes367_411:ladygaga26::2002-03-26::M:174.126.113.116:NULL
stripes36_7:missmurder3:roxisoxi94@aim.com:1961-03-08:US:M:none:Brayden Eicher
stripes370:lala21::1997-03-17:US:M:98.195.61.107:Tyler
stripes38:jake891::1998-09-27:US:M:74.166.101.193:michael
stripes386:groundhog::1995-06-11:US:M:none:stripes386
stripes39:hockey22:kidds39@aol.com:1987-02-20:US:F:72.87.119.144:ashle
stripes395:abbey11:pinky-lover-2@hotmil.com:1992-07-09:US:M:4.238.251.84:paul
stripes3994:sky03::1994-03-03:US:F:none:stripes3994
stripes3ooo:18911891::1998-07-29:US:F:76.18.210.94:katie
stripes3_22:jtj322::2000-03-22:US:M:173.23.92.241:Justin
stripes3_4_6:SELENA73:johnz@kern.com.au:1987-01-22:AU:F:122.49.156.79:jamie
stripes3_8:paulie6:jessica.waibl@sbcglobal.net:1993-04-02:US:F:none:lizzy fail
stripes400:tiger300::1999-07-11:US:M:68.46.44.247:melanie
stripes401_2:157875::1998-07-20:US:F:72.72.109.194:Dominique
stripes4055:stripeslover55::1997-03-09:US:F:24.18.70.148:tessa
stripes41:evawilson::1999-11-12:US:F:none:stripes41
stripes4120:::2007-07-06:US:M:166.77.103.133:NULL
stripes4131:tiger::1994-07-02:US:M:64.12.116.197:stripes4131
stripes415:meow12:stripes415@yahoo.com:1986-04-15:US:F:none:Tabatha Vegas
stripes42:basketball42::1996-12-01:US:F:170.211.86.222:Hailey
stripes422_6:Rudy616::1999-04-22:US:F:68.193.180.209:Megan
stripes424:hangman424::1999-04-24:US:M:128.36.169.122:none
stripes427:hamburger28::1996-05-28:CA:F:68.148.167.8:stripes427
stripes429:ballet1:stripedcheese@yahoo.ca:1988-04-28:CA:F:none:Lia Babe
stripes42kk:stripes90:starwars95@bellsouth.net:1993-03-02:US:F:none:Kristy Jinks
stripes43216:daleball65::1997-02-08:US:M:67.174.107.193:dale
stripes4325:gabriel11::1999-10-18::M:70.115.183.170:NULL
stripes433:love08:p_nelson54@hotmail.com:1990-08-04:US:F:none:paige nelson
stripes43_43:rose.a_78::2001-10-02:US:F:58.84.142.29:NULL
stripes44:frogs:megerab123@aol.com:1991-12-04:US:F:none:Megan B
stripes444:goldentiger::1993-02-14:US:F:none:stripes444
stripes4444:6303033703::2003-07-06:US:F:99.142.59.213:Jessica
stripes445:ian790::2000-02-11:US:F:71.102.146.48:NULL
stripes44_7:sunshine15::2003-07-01:CA:F:64.231.227.53:NULL
stripes45110:sunshine15::2001-07-01:CA:F:209.170.115.158:NULL
stripes452:mancala428::2000-07-13:US:M:24.18.207.245:shane
stripes4521:Jet66Jet::2000-07-13:US:M:24.16.74.251:Shane
stripes453:movie::1992-10-13:US:M:none:Noah Oakley
stripes4535_45:wise24::1996-02-05:US:F:70.105.98.86:claire
Stripes45444:winter989::1999-11-05::M:67.251.112.3:NULL
stripes455555:007jamesbond:tiger455555@hotmail.com:1987-08-11:AU:M:58.169.121.235:tiger
stripes456:dogs34:sacsrule@yahoo.com:1960-08-15:US:F:71.234.109.121:caroline
stripes456789123:beaner::1994-03-05:US:F:none:stripes456789123
stripes456892:aceventura::1993-02-04:US:F:none:stripes456892
stripes457:gradyn48::2001-04-08:US:M:69.120.107.96:grady
stripes45__:apple45::1997-12-15:US:M:24.187.129.152:Jeffrey
stripes46:zoey42::2001-09-13::F:98.223.24.32:NULL
stripes464:elephant464::1997-03-12:US:F:76.116.92.86:Saff
stripes465:987zm::1994-02-07:GB:F:none:stripes465
Stripes4653:dogs849::2003-04-02::F:72.45.67.214:NULL
stripes466:mayashen56:latke1000@gmail.com:1994-04-04:US:F:68.96.69.12:maya
stripes468:peter11::1997-06-15:GB:M:86.143.252.80:peter
stripes4750123:shulookie:ahivy@rtccom.net:1992-06-26:US:F:none:Stripes Ivy
stripes476:chimin::1993-07-15:SG:0:none:stripes476
stripes4765:missy:horsetrot101@aol.com:1990-11-17:US:F:none:krista  leibensperger
stripes4789:scare47:rjmicho@cox.net:1979-05-21:US:F:none:kaley michowski
stripes47_6:john8888::2000-03-05:US:M:66.214.149.63:john
stripes48:jetsking:maryjmurawski@worldnet.att.net:1989-10-05:US:F:none:shell bell
stripes4837:619lt:rollysoto@yahoo.com:1992-10-18:US:M:none:Junior Soto
stripes486:7z8u0a::2000-01-02:US:F:67.10.93.28:andrea
stripes4926:magicseashells42::2001-11-14:US:F:173.55.42.156:NULL
stripes493:222893::1992-12-10:CA:M:none:stripes493
stripes4999:neoneo::1993-06-13:US:F:none:stripes4999
stripes49_8_8:binds77:susanhenry@aol.com:1992-11-18:US:F:none:Romi Locklear
stripes4evas:please22::1998-04-22:NZ:F:82.45.75.236:jess
stripes4gurl21:najesese16::1997-06-15:GB:F:24.101.233.166:Sami
Stripes4LP:1020344:slash_duffy15@hotmail.com:1991-6-10:CA:M:173.32.7.9:Jack
stripes4me2:howstupid55:soijfwpofj@gmail.com:1996-9-21:US:F:67.121.147.193:kennedi
stripes4ooo:18911891::1998-07-29:US:F:76.18.210.94:katie
stripes4tigers:crystal5::1993-06-22:GB:F:none:stripes4tigers
stripes4u222owner:300368::1993-07-08:US:F:none:stripes4u222owner
Stripes4_606:aied444::1999-11-05::M:67.251.112.3:NULL
stripes500:tank50::2000-09-09::M:60.228.199.40:NULL
stripes5000:brandy:striper50000@yahoo.com:1992-01-22:PT:0:none:greg bob
stripes5010:KLmn43f::1999-11-14:US:F:69.115.160.103:Elizabeth
stripes5017:caitlynn12::2002-07-17:US:F:151.213.163.246:Caitylnn
stripes50707:uni50702:PikachuTails@aol.com:1953-10-15:US:F:12.205.183.134:Amelia
stripes509:horses@!:cseibertlcsw@hotmail.com:1990-09-18:US:F:none:casey low
stripes50__51:flame15::1998-10-06:US:M:71.32.226.69:colton
stripes513:alabama:rama2bama@yahoo.com:1992-05-13:US:M:none:richard smith
stripes51401:lhotka51401::2001-09-06:US:F:173.24.224.97:Megan
stripes51674:babyboy:hillbillieann@aol.com:1988-08-26:US:F:none:julianne gardner
stripes518:toni1::1992-10-13:GB:F:none:stripes518
stripes518368:ton93::1992-10-13:DE:F:none:stripes518368
stripes52:super13::1995-08-21:US:M:69.22.79.248:andrew
stripes5200:jeffery12::2000-05-02:US:M:68.61.40.56:michael
stripes522_1_1_1:kittie522::2001-11-27:US:M:71.236.149.175:trystin
stripes527:super13::1995-08-21:US:M:69.22.79.248:andrew
stripes53:555333::1998-11-05:US:F:24.10.109.187:Brianne
stripes530:neopetsrock::1993-02-28:US:M:none:stripes530
stripes53085:monkey30:slugbug53085@yahoo.com:1985-05-30:US:F:65.186.89.180:steph
stripes532:neopetsrock::1992-10-16:US:M:none:stripes532
stripes5336:lukas2::1992-12-15:US:M:none:stripes5336
stripes5353:snoopy5:snoopy5353@aim.com:1993-05-19:US:F:none:Madison Norman
Stripes54308972:Kites2468:jeanne_rhoads@comcast.net:1997-4-8:US:F:98.233.126.66:whitney
stripes5436:iluvstripes5436::1997-10-05:US:F:72.23.146.20:angela
stripes5436554:chelsea5436::1997-10-05::F:72.23.146.20:NULL
stripes546:cinder:sararuby2003@yahoo.com:1991-08-15:US:F:76.169.152.105:Sara Hall
stripes54687:chekers45::2000-05-05:US:M:207.118.137.154:Peter
stripes549:puggy99::1999-10-14:US:M:68.167.252.176:Ezra
stripes550:safadinha70:cristina97@live.co.uk:1997-01-18:US:F:81.20.190.203:NULL
stripes552:RYANV::1993-12-01:US:M:none:stripes552
stripes555:angels::1993-05-11:CA:F:none:stripes555
stripes5552:sibiria::1993-01-24:US:F:none:stripes5552
stripes5557:slasher2225::1998-05-24:US:M:69.128.242.22:casey
stripes555aa:beyes142::1999-11-04:US:F:69.24.169.67:kylie
stripes555__41:redneckgirl12:redheartflower@hotmail.com:1986-02-02:US:F:99.11.181.63:kianna
stripes55766:dots55:em_55_rox@hotmail.com:1992-06-25:CA:F:none:heather isacsson
stripes55b:bubbles87::1997-03-07:US:F:206.157.150.135:katelynn
stripes55__10:yuleee21::2003-06-24:US:M:67.42.16.63:Aidan
stripes562755:ynthots16:brickhouse@cox.net:1992-03-11:US:F:none:ashley brickhouse
stripes563:muddy1:corbett4@shaw.ca:1987-07-17:CA:M:none:Ryan Corbett
stripes5731:flame557::2001-05-04:US:F:76.114.191.219:Kathy
stripes575:truthbanner::1994-01-22:US:F:none:stripes575
stripes5765:mmmpets:horsetrot101@aol.com:1988-06-12:US:F:none:krista leibensperger
stripes578:IKJIKJ::1994-01-22:US:F:none:stripes578
stripes5814:vamer14:freak_5814@hotmail.com:1989-09-14:CA:F:none:sarah andy
stripes582:skywalker::1994-01-22:US:F:none:stripes582
Stripes583:pokemon12::2000-06-08::M:70.247.112.116:NULL
stripes587:kitty11:rubymccoy@hotmail.com:1992-05-10:AU:F:none:ruby milloy
stripes59:hotshot56::2001-02-02:US:M:64.20.156.135:NULL
stripes594:Fang11:sarah.spacey@scorpio-marine.co.uk:1992-05-31:GB:F:none:Charlotte Thomas
stripes5_3:horse4561::1998-12-29:US:F:204.15.84.2:katina
stripes6000:Gravedigger315::2001-06-17:US:M:71.65.92.222:zac
stripes601:miller5::1992-09-13:GB2:F:none:stripes601
stripes6057:tuppy1:bubblesgopop6@aol.com:1991-11-15:US:F:none:Morgan Pillow
stripes611:JBrocks65::2000-02-16:US:F:69.204.30.168:NULL
stripes619:crazykid80:flyincrazy80@gmail.com:1997-06-15:US:M:67.2.216.23:NULL
stripes6206620:toothfary6:stephanie_206_5@hotmail.com:1990-07-08:CA:F:none:Stephanie Melbourne
stripes622:123o9:mashkrause@shaw.ca:1987-05-10:CA:F:none:sara krause
stripes62399:1destiny13::1999-06-23:US:F:69.235.134.246:Destiny
stripes626:horses794::1998-10-22:US:F:70.128.160.66:emily
stripes628:izzy628::1998-07-23:US:F:68.113.181.185:someone
stripes629:::1999-11-23:US:F:184.17.248.46:NULL
stripes63:black12546:zee_goldie@hotmail.com:1993-09-09:AU:F:144.131.42.243:Zee
stripes6313648:caitlin6313648::1994-04-26:US:F:none:stripes6313648
stripes64:dolphin:tinaearly85@hotmail.com:1982-05-09:US:F:none:whitney lady
stripes647:stripes4::1994-02-01:AU:F:none:stripes647
stripes65:brandy::1992-09-09:US:M:none:stripes65
stripes651:ponyta90::1998-08-21:US:F:none:stripes651
stripes654321:dog24::1993-09-12:US:F:none:stripes654321
stripes65_a30:mmm333::1997-08-01:US:M:66.66.209.179:ryan
stripes662:Pebble2:blondie10319@yahoo.com:1992-04-30:US:F:109.70.68.114:Brittany Ahart
stripes6677:princess77::1999-06-13::F:96.248.148.217:NULL
stripes667788:princess7777::1999-06-13:US:F:71.186.26.237:Averi
stripes6678:princess77::1999-06-13:US:F:96.248.148.217:Averi
stripes66788:princess67::1999-06-13:US:F:24.231.245.188:NULL
stripes668:firefox::1996-06-08:US:F:none:stripes668
stripes67:koolkids123::1997-02-19:US:M:76.115.167.242:Landon
stripes677:2dogs:davidchuter@hotmail.co.uk:1992-01-15:GB:F:none:david chuter
stripes6789:princess00::2000-09-27:US:F:98.196.93.103:charlotte
stripes6789__aa:panthers09::2000-04-13:US:M:98.231.163.245:dylan
stripes679:tiger97:lmingle@swbell.net:1993-04-21:US:M:none:Jacob Mingle
stripes688:doggy!:retcat@comcast.com:1992-11-18:US:F:none:Tiffany Plemons
stripes689:tiger101::1999-04-14:US:F:none:stripes689
stripes692:girl4:rubybeaver_99@hotmail.com:1990-05-20:US:F:none:ruby beaver
Stripes695:Claire695:within_temptations5@hotmail.co.uk:1989-03-14:GB:F:82.18.150.167:NULL
stripes6969rules:313169693169:gina_cake@hotmail.com:1987-05-31:CA:F:none:Brittney Alezander
stripes6_aa:sports66::1998-06-18:US:F:69.66.25.89:Morgan
stripes7:swipe:jetdlb@yahoo.com:1991-03-07:US:M:none:Jordan Bryan
stripes702:peter+jl::1992-10-01:CY:F:none:stripes702
stripes7078:william7079::2002-07-26:US:M:71.214.218.84:William
stripes708:yellow59::1999-12-30:US:F:24.94.158.5:ariana
stripes711993:me567:andrewismyhero@hotmail.com:1992-12-25:US:M:none:stripes mccurley
stripes725:skive123::2000-11-26::M:72.51.108.185:NULL
stripes7261994:eggplants66:vysurfs@yahoo.com:1994-07-26:US:F:173.51.254.76:Rosemary
stripes727:kabu1:kozijie@yahoo.com.sg:1991-06-10:SG:M:none:christopher zijie
stripes7402:mrsirindeed123:cheyd@charter.net:1991-01-27:US:F:none:Joy Larman
stripes74129:brannon13::1998-12-15:US:F:98.184.178.2:maddy
stripes749:storm82::2002-08-22::M:74.101.192.162:NULL
stripes752:::2002-04-24:US:F:184.17.248.46:NULL
stripes7538:yellow10::2001-10-14:US:F:68.63.117.148:lauren
stripes755:abcdef13::2002-09-06::M:70.58.39.137:NULL
stripes756:stripes123::1998-01-27:CA:M:142.179.246.234:Jonathan
stripes756_5:kevin22::1985-11-14:EN:M:NULL:NULL
stripes7587:nikki:shinn_72@hotmail.com:1987-07-05:US:M:none:Josh Shinn
stripes759:tiger12::1999-09-04:US:M:67.149.252.19:Brandon
stripes76:stripes07::2002-07-07::M:68.61.220.89:NULL
STRIPES765:HALO676:SJTRIM@MSN.COM:1993-03-03::F:24.8.224.149:NULL
stripes7675:mrcool10:dogluver_cool_dude@hotmail.com:1993-04-17:GB:F:none:safa al-hayalee
stripes772:elmo292:ashleymcrae420@hotmail.com:1992-08-25:CA:F:74.12.49.252:NULL
stripes77202:sugur:naama_is_gr8@hotmail.com:1987-01-24:GB:F:none:naama hatch
stripes773:jiggy747*:articat@comcast.net:1995-12-27:US:F:98.235.6.16:stripes773
stripes774:frost456::1999-09-09:US:F:98.210.43.15:Lauren
stripes775:aaqwaaqwaaqwaaqw1234::2003-06-15:US:M:24.22.215.236:NULL
stripes777:pinkroom12::2000-03-14:US:F:68.230.142.149:ashley
stripes777126__63:skitzs17::1994-12-29:US:F:none:stripes777126__63
stripes777577:computer:ecnad2003@yahoo.com:1990-03-16:ZA:F:none:Melissa Vermaak
stripes7777:ttman12::1999-02-26:US:M:72.186.94.46:tanner
stripes777_652:eeccbb77::2001-10-31::F:99.36.17.27:NULL
stripes777_652_26:eeccbb777::2001-10-31::M:99.36.17.27:NULL
stripes779:005860:mbrooks@austarnet.com.au:1944-11-07:AU:F:none:remy brooks
stripes77_7:val77_7:fbamoin@aol.com:1993-08-11:US:F:none:Valerie Amoin
stripes77_88:rayr99::2000-02-27:US:M:208.190.202.51:ray
stripes78:treetop5::1987-03-10:US:F:none:kace suter
stripes78__20:ashley78::2000-07-28:US:F:65.175.172.45:ashley
stripes79:rocky79::2002-12-21:US:M:74.132.239.226:simeon
stripes79275:goodgirl::1994-01-06:US:F:none:stripes79275
stripes7965:littlespot80::1998-04-12:US:F:139.55.54.102:samantha
Stripes7_727:Stripes2_272::1999-02-01::F:173.215.0.55:NULL
stripes7_7_7:spiket15::2000-06-26:US:M:24.167.134.10:spence
stripes800:strip111::2000-07-14:US:M:68.248.235.146:andrew
stripes8000:roar8:collin.mcclaran@sbcglobal.net:1985-06-01:US:F:none:collin mcclaran
stripes801:diamonds1::1992-12-06:GB2:F:none:stripes801
stripes802:123zm::1994-02-07:GB:F:none:stripes802
stripes804:connect::1993-07-05:US:F:none:stripes804
stripes80538:zaq12wsx:madisonlynn109@yahoo.com:1997-1-9:US:F:174.29.141.82:chewy
stripes807:billy3::1994-02-07:US:F:none:stripes807
stripes808:kenzy808::1998-11-13:US:M:75.80.210.56:NULL
stripes80808:ah9633::2001-09-26:US:F:71.64.31.70:Alli
stripes809:Jungle45::1993-12-25:US:M:none:stripes809
stripes81:dilavo24::2004-03-10:GB:M:86.165.103.193:NULL
stripes81494:girly girl:labaluba@next.com:1980-08-14:US:F:70.172.203.190:labba lubba
stripes8188:dantea88::1997-01-03:US:F:68.164.202.99:stripes
stripes82897:cosmo97:navygirl41@yahoo.com:1996-08-28:US:F:216.16.213.164:jamie
stripes83:5653130:dancingmoon14@aim.com:1990-06-17:US:F:69.204.193.165:jennifer
stripes831_7:blue12::2000-08-31:US:M:98.134.250.133:zackary
stripes8320:pl4yer:chiyoumenpimp@yahoo.com:1989-04-11:US:M:68.125.175.208:mick goldsmith
stripes839:horns::1994-01-11:US:M:none:stripes839
stripes844:sally::1992-10-04:GB:F:none:stripes844
stripes849:0147895236:magic_12321@hotmail.com:1993-12-07:AU:F:none:madison kapper
STRIPES8495:BUBBLES95::2000-03-21:US:F:72.223.68.2:NULL
stripes852852:123456789::2000-05-16::F:205.201.101.107:NULL
stripes853911:joshiscute853::2000-05-23:US:F:216.135.10.217:NULL
stripes85514:amberm::1992-12-30:US:F:none:Amber Mitchell
stripes859:::2003-03-05:US:F:72.253.8.210:NULL
Stripes867795:baydog58:coke.ish.yummy@gmail.com:1997-12-19:US:F:71.56.63.109:NULL
stripes87:mine101:stripes_87@hotmail.com:1965-03-25:US:F:75.23.218.77:Zanadu
stripes870:chelsea101::1999-05-11:CA:F:24.141.87.255:chelsea
stripes879:littlekitty1:lya@kidmail.net:1987-03-13:US:F:none:lya rodriguez
stripes88::miley_haruno@yahoo.com:1995-08-15:US:F:2.96.112.161:NULL
stripes880:8ball::1994-01-06:US:F:none:stripes880
stripes881:blizzards13::1993-10-12:US:F:none:stripes881
stripes8822:slush8:kitcatkatie7@yahoo.com:1983-07-14:US:F:none:siri kally
stripes8888:Strixate11:christopherellis88@msn.com:1988-10-20:US:M:64.151.128.64:Christoph
stripes88888:maggie88::1999-03-16:CA:F:74.13.186.155:Anne
stripes8897:redsox97::1997-8-8:US:M:98.116.193.39:dan
Stripes88_88:Daltonandrewvest67::1998-11-24::M:71.229.77.114:NULL
stripes88__38:snoopy45::2002-09-13:GB:F:84.13.12.3:jodie
stripes89:girlsrock89::1999-11-04:US:F:207.224.167.229:lily
stripes89175:stripespal!:ammestrebor@hotmail.com:1961-04-13:US:F:64.12.116.9:Emma Roberts
stripes896:zebra10::1993-10-15:US:F:none:stripes896
stripes8989:CatCat10::1998-05-20:US:F:65.27.80.103:kayleigh
stripes8989k:8989stripes::1998-05-20:US:F:65.27.82.47:kayleigh
stripes8and9:batman12::2005-03-09:US:M:65.191.109.136:Nathan
stripes8spots:iluv5::1993-11-13:GB:F:none:laura shuker
stripes90:rolle::1990-12-30:CA:M:none:stripes90
stripes90000:Dominic12::1997-09-06:US:M:65.78.124.80:Dominic
stripes90210:slp963::1998-09-03:US:F:74.178.60.42:NULL
stripes902_8:cherry106:sissy_dawn10@yahoo.com:1987-01-30:US:F:71.146.255.220:savannah Phillips
stripes903:hungry::1993-12-15:US:M:none:stripes903
stripes907145:TIGER907::1993-12-21:US:F:none:stripes907145
stripes90j:stripes20::1999-08-17:US:M:67.164.149.167:Justin
stripes911:jannelle95::1995-11-22:US:F:174.18.230.132:Jelly
stripes91120:zach10:meangurl020@yahoo.com:1988-01-29:US:F:68.116.80.130:Sammatha
stripes91122:stripes::1992-02-07:US:F:none:stripes91122
stripes911330:fire911::1993-07-13:US:M:none:stripes911330
Stripes911_403:08041999::2003-01-24::M:70.220.148.166:NULL
Stripes911_503:08041999::1999-08-04::M:70.220.148.166:NULL
stripes912:stripes555::2000-04-03:US:F:68.68.77.219:NULL
stripes91417:maicy8:wooda11pame11a@aol.com:1980-05-14:GB:F:195.93.21.36:ellie woodall
stripes91850:garret385:beachymom@comcast.net:1993-05-24:US:M:69.255.64.234:garrett
stripes92:paco123:cbwranger@yahoo.com:1996-06-26:US:F:70.225.34.171:NULL
stripes920:10111213::1993-12-08:US:F:none:stripes920
stripes922:love101::2000-11-14:US:F:174.20.131.175:rachel
stripes925:mop123:wceyeore@sbcglobal.net:1986-09-09:US:M:75.41.115.178:Pat S
stripes9301:tigress95:c.rust@comcast.net:1993-05-18:US:F:98.232.47.5:Emily Rust
stripes9313:ecninja2189:canadian-ninja@hotmail.com:1993-07-20:SE:F:81.232.177.49:Stripes or Caitlin
stripes934:ciararox493:stripes493@yahoo.com:1993-10-04:US:F:none:tia labord
stripes937:orangeredblue972:swimgirl@socail.rr.com:1989-04-06:US:M:none:Bob Bill
stripes942:stripes943::1998-10-11:US:M:173.28.62.191:jj
stripes944:clover18::1998-08-05:US:F:96.242.182.32:stripes944
stripes945:mum89:aliash7@supanet.com:1993-06-13:GB:F:none:Alice ash
stripes9475:gacc27::2001-02-19:US:M:74.184.170.25:Graham
stripes95:chlorissa::1990-06-26:CA:M:none:none
stripes95155:poopie01:stenovot@aol.com:1992-06-15:US:F:none:BRITTANI NOVOTNY
stripes95630:megan123::2003-07-02::F:75.53.82.120:NULL
stripes96:oakley121:seanb1213@hotmail.co.uk:1995-09-15:GB:M:78.145.91.121:sean
stripes96483:^%$@#:lilturtle@yahoo.com:1991-11-02:US:F:none:Maya Kuzo
stripes98:tandk::1992-07-28:US:F:none:none
stripes980:red123::1996-12-12:US:M:68.102.196.1:stripes980
stripes98002:kissies001::1994-05-25:US:F:24.18.12.208:stripes98002
stripes987654321:Lemond98::1998-06-29:US:F:71.31.202.102:Alice
stripes98_9:darcy10::1998-08-23:US:F:209.169.105.242:stripes
stripes9905:lightning99100::2007-12-25:CA:M:205.234.37.25:lightning
stripes99327:BUGBUGMONKEYBUG99327::1997-02-28:US:F:209.169.107.210:Laine
stripes9932799327:bugbugmonkeybug97::1997-02-27:US:F:209.169.107.210:Laine
stripes994:shaddy_friday:beanandcam@hotmail.com:1988-11-09:US:F:none:trina whit
stripes995:cool7654321::2001-03-20:US:F:64.126.49.143:NULL
stripes999:elephant::1992-02-28:GB:F:none:stripes999
stripes99_8:strip89::1999-03-01:US:M:74.65.189.215:andy
stripes9hp:neopets123456789::1993-07-28:US:F:none:stripes9hp
stripesa:acckk::1993-12-05:US:M:71.253.56.192:none
stripesa33:julia25::2007-09-20:US:F:99.180.65.149:kougra
stripesadea:buffy567::2000-10-25:US:M:74.69.106.155:Steven
stripesago:chowder01:smilelove_n@yahoo.com:1990-04-25:US:F:71.165.103.146:nicole
stripesalex:zipper1:alexs_myspace_account@hotmail.com:1993-06-05:GB:M:none:Alex Fawx
stripesamber:one1ring:vampyre_kisses@hotmail.com:1984-04-04:US:F:none:Earane Singollo
stripesamt:AMTissel23::1998-07-23:US:F:71.166.127.147:Alyson
stripesandbubbles:scribble012::1997-01-08:PH:F:203.115.142.254:Yana
stripesandcheckers:33night:f.bartlett@hotmail.com:1994-01-09:AU:F:124.186.97.186:faye
stripesanddots:cloverpepper:teaspoon2004@hotmail.com:1987-11-25:IE:F:none:Madison F
stripesanddots3:homework11:stripesanddots@gmail.com:1993-11-09:US:F:64.131.168.193:Hunter
stripesandkibble:simba2nala24::1998-12-30:US:F:99.138.10.114:mikayla
stripesandmarlie9101:marlie:koutsden@netnitco.net:1990-11-11:US:F:none:jane  smith
stripesandmegan:foals1::1993-05-03:AU:F:none:stripesandmegan
stripesandnights:ipod99::1999-02-03:US:F:71.112.161.21:nicole
stripesandots911:tug012blat940:www.stripesandots911@yahoo.com:1992-06-07:US:F:none:chelle smith
stripesandpearls:notelling00:unsoundxangel@gmail.com:1991-01-18:US:F:208.44.247.101:Missy
stripesandplaid:judelaw!:momoheartspudding@yahoo.com:1990-02-10:US:F:none:ami motomochi
stripesandscars:elephant94:mockinggbirdd@gmail.com:1994-09-16:US:F:74.211.45.168:Autumn
stripesandskip:50707:scoobie1996@aol.com:1987-06-24:US:M:none:emily  halbach
stripesandsnowii:paulina:pinkpantherr93@netscape.net:1987-05-17:US:F:none:bob pickle
stripesandspike:snuggles25::1999-09-07:US:F:98.217.21.99:jordan
stripesandspike2980:snuggles2980::1999-09-07::F:98.217.21.99:NULL
stripesandspots1234:keisha1:stripesandspots123@cox.net:1986-06-08:US:F:none:kourtney maison
stripesandspots137:jesusfreak07:imextraloveable@yahoo.com:1989-04-16:US:F:none:roxanne adams
stripesandstarforeve:superstar7196:superstar7196@yahoo.com:1908-07-01:US:F:24.60.129.247:alexis
stripesandstars:roses35:moonliteroses08@aol.com:1990-09-14:US:F:68.82.142.78:dede
stripesandstars12345:alskdjfhg123:jklullman@comcast.net:1993-03-13:US:F:none:Cathy Ullman
stripesandstars58:sky54321::1994-03-13:US:M:none:stripesandstars58
stripesandstars731:flag!::1993-07-31:US:F:none:stripesandstars731
StripesandStars97:supergirl202:sygalop@hotmail.com:1996-08-30::F:75.74.74.144:NULL
stripesandstarslin:buddye79::2003-03-28:US:F:65.25.102.75:lindy
stripesandtigers:december7!777::1999-12-07:US:F:72.177.24.203:Rachel
stripesarecool:251999::1999-03-25:US:F:187.131.190.201:clelia
stripesaredots:259784:dottedstripes@yahoo.com:1986-05-06:NE:F:203.215.120.124:dots
stripesaree:56243:rosuar3@cs.com:1991-05-02:US:F:none:Stripesaree
stripesarefun:phunky1212:lisaxnguyen@ymail.com:1992-01-29:CA:F:99.240.196.72:Lisa
stripesarenice:grant64:nicolielovesyou@yahoo.com:1993-10-01:US:F:68.4.145.204:Nicole
stripesaresnazzy:jaivion::1993-03-12:GB:F:none:stripesaresnazzy
stripesaresnazzy2:jaivion::1993-03-12:GB:F:none:stripesaresnazzy2
stripesaresnazzy200:jaivion::1993-03-12:GB:F:none:stripesaresnazzy200
