stripyperi11:happytheclown!:cloudstripe@gmail.com:1988-05-01:CA:F:24.81.221.210:SR MM
stripypicklez:erika1012:Eerikabradshaw@gmail.com:1966-05-30:US:F:69.251.29.20:Picklez
stripypineapple2:fishy::1989-10-18:GB:F:none:willliamkoo
stripypineapple3:laggan3:lonesoldier_5@hotmail.com:1989-10-18:GB:M:Mail from jasonman6:william hillkirk
stripypink:65shopping::1995-09-05:GB:F:213.232.79.146:Katy Crook
stripypinkandblack:banoffee_pie:fishy_@hotmail.co.uk:1990-05-08:GB:F:none:amy johnson
stripypinkscarf:e2t9i0k7:rainbow.warrior@hotmail.co.uk:1986-06-01:GB:M:95.150.3.246:Dominic Sefton
stripypinksox_xx:brightblue22:Wee_Tash@msn.com:1994-02-14:GB:F:89.241.70.70:tash
stripypjs142:11/1/20/24::1991-11-27:GB:F:none:stripypjs142
stripypolkadots:lucky_henry12::1997-05-09:GB:F:86.141.104.136:Lara
stripyprincess:thirteen13:kaltun_11@hotmail.co.uk:1990-04-24:GB:F:78.151.88.252:Hannah
stripypurple:15111992*:waiian_2005@yahoo.com:1991-11-15:SG:F:202.156.13.1:me :D
stripypyjamas3:50pence:x_jess29_x@hotmail.co.uk:1989-10-29:GB:F:90.213.33.179:Jessica Mackenzie
stripyraccoon_111:ino111::1997-01-01:GB:F:78.145.71.215:Rebecca
stripyrainbowtoesock:december12345:stripyrainbowtoesocks@hotmail.com:1993-12-17:NZ:F:125.238.84.45:Your mum
stripyrebel:starfish1995:kderocco@gmail.com:1990-06-10:GB:F:82.23.144.112:stripyrebel
stripyrin:nakkipri!:wryyy_for_reality@hotmail.com:1994-01-27:FI:F:85.131.75.107:Diana Laakso
stripyrock217:r4f1r4j43::2000-11-14::M:125.161.197.93:NULL
stripyrock217_5:r4f1r4j43::2000-11-14:ID:M:110.138.93.79:Rafi
stripyrockythetiger:t1gerp1e:Monkey_Impulse@hotmail.com:1997-2-14:AU:F:60.224.192.77:STALKER!!!!
stripyroo:handsomb:dragonfly41195@yahoo.com:1985-08-18:US:F:none:Mom Redick
stripys0cks:daddy112:vindictive_bytch_@hotmail.com:1990-02-01:GB:F:none:Socks
stripys39:4Stripys4::1992-11-20:US:F:none:stripys39
stripysami3000:bracelet::1993-03-27:GB:F:none:stripysami3000
stripysarah:itsme13:smoke_weed_and_fly2@hotmail.com:1991-11-16:IE:F:none:Sarah Courlander Whelan
stripyskittle:easter123:anouska_bunny@yahoo.co.uk:1994-02-16:GB:F:81.1.84.144:Annie Johnson
stripysleeves:vannah12:savannahallsop@msn.com:1990-06-07:GB:F:82.16.246.252:vannah
stripysmellysocks:nannon123:funkey-chunkey-monkey@hotmail.com:1992-01-10:GB:F:none:rhiannon ayres
stripysnail:grapebarrow887:catstar20@yahoo.co.uk:1981-11-12:GB2:M:none:Kieran Byrne
stripysneakers:Aqua20:ichocolatex3@yahoo.com:1996-03-27:ID:F:60.48.186.118:kezia
stripysniper:pokemon131:Courtneyechidna@hotmail.com:1994-10-25:GB:F:90.199.185.70:Courts
stripysocklets:turloughtastic*:moonwolf@hotmail.co.uk:1990-11-13:GB2:F:81.156.137.253:Morwen Raven
stripysocks:mememe::1990-01-19:CA:F:none:none
stripysocks06:jimmy01:biancachappell2007@hotmail.co.uk:1993-01-13:GB:F:78.145.205.29:Bianca
stripysocks101:leonelvi123:elyssia@billward.org:1991-12-08:GB:F:none:Danielle Ward
stripysocks12:ki33ty::1998-04-06:GB:F:86.146.98.225:Rebecca
stripysocks12375:Howdy:stripysocks123@yahoo.co.uk:1989-12-25:JP:F:Mail from theneopetsteam:heath Ballan
stripysocks124:Ashley1993:sphinxie62@hotmail.com:1989-09-10:VE:F:none:AshleyRodriques
stripysocks14:stripysocks!:pureevil101@hotmail.com:1988-02-14:GB:F:none:Emily Huntsman
stripysocks155:mkoijnbhuygv12::1998-09-04:GB:F:87.194.165.244:Elena
stripysocks16:spongebob!16:radioactive-candyfloss@hotmail.co.uk:1995-02-27:GB:F:82.37.155.116:Gemma
stripysocks1992:chocolate0::1992-12-18:GB:F:none:stripysocks1992
stripysocks3:c.3c.3c.3:jemimabrown654@hotmail.co.uk:1995-05-11:GB:F:92.18.190.226:Jemi
stripysocks3050:lucycox:fionntan1@btinternet.com:1990-07-10:GB:F:Acceptance:saoirse cox
stripysocks4237:strawberry67:mary_brown10@hotmail.com:1993-01-03:GB:F:none:mary brown
stripysocks4237_m:kittykat67:mary_brown10@hotmail.com:1993-06-03:GB:F:none:mary brown
stripysocks633:jader:j_ramsey92@hotmail.com:1991-10-19:GB:F:none:Jade ramsey
stripysocks666:jenni666:leannehyland79@hotmail.com:1990-07-17:GB:F:none:Jenni Jibb
stripysocks97:spacecentre1:becca@madrch.co.uk:1988-07-10:GB:M:none:ChrisThomas
stripysocks982:retardsrule98:stripysocks983@hotmail.co.uk:1991-07-10:GB:F:81.104.229.178:hannah
stripysocks983:glitter984:stripysocks983@hotmail.co.uk:1991-07-10:GB:F:81.104.229.178:hannah thomas
stripysocks984:camelpoop984:becca@madrch.com:1991-07-10:GB:F:none:hannah thomas
stripysocksalice:rspca001::1992-09-13:GB:F:none:stripysocksalice
stripysocksaregroovy:duck123:olympia@alderhome.plus.com:1993-03-24:GB:F:212.159.108.138:Olympia
stripysocksforevery1:wogolly24:x.crazychloe.x@hotmail.co.uk:1993-09-24:GB:F:80.6.147.231:Chloe
stripysocksgirl:foxychix:prettygirloverhere@hotmail.com:1984-01-12:US:F:204.120.20.2:bob tinklemyer
stripysocksgirl94:23041990:stripysocksgirl@aol.com:1990-04-23:GB:F:none:Tiffen Willis
stripysocksjinx:mztuoq21:smiranda2193@yahoo.in:1992-09-21:IN:F:14.97.142.130:NULL
stripysocksrock:stripes92:emoguysarehot92@aol.com:1992-02-09:GB:F:195.93.21.35:t r
stripysockss:lov908p::1996-06-25:GB:F:86.152.100.48:Charlotte
stripysocks_bank:foots:oaktheblade@shaw.ca:1988-07-18:DE:M:none:Tenyo Vanyana
stripysockys:neoppets13:sarahettle@talktalk.net:1991-01-16:GB:F:78.150.19.29:charlie
stripysockz:ha88ha:emurakami@kehillah.org:1989-01-01:US:F:128.120.166.73:Jessa
stripysocs153:duckduck2:chloexwiffill@btopenworld.com:1990-09-30:GB:F:none:chloe wiffill
stripysokcz:Ha8^8ha:ehmuraka@ucdavis.edu:1990-01-01:US:F:71.129.84.99:stripy
stripysoks:phoebe123:phoebecuff@yahoo.co.uk:1993-05-31:GB:F:none:phoebe cuff
stripysox:socky548:karanxs001@yahoo.ca:1989-03-30:CA:F:64.229.92.104:Sara
stripysox123:Doreen:stripysox123@aol.com:1990-05-09:GB:F:none:Hannah Bird
stripysox1234:Willow:stripysox123@aol.com:1990-05-09:GB:F:none:Hannah Bird
stripysox34:apple::1993-03-28:GB:F:none:stripysox34
stripysox444:bacon&eggs:willia456@aol.com:1987-04-04:GB:F:none:jess clarke
stripysoxrox:pop123::1993-10-21:GB:F:none:stripysoxrox
stripysoxrox93:iloveab93::1993-07-01:AU:F:none:stripysoxrox93
stripyspot:SNOWYLOPE::1993-08-23:US:F:none:stripyspot
stripyspots99:billybob12::1998-08-10:US:M:71.238.202.126:ian
stripyspottystars:backfire109::1996-12-19:GB:F:90.33.62.37:clemay
stripyss:pashou!::1993-09-13:FR:F:81.66.195.32:stripyss
stripystrawberry:stripystrawberry97:nicknack95@hotmail.co.uk:1993-05-11:GB:F:86.139.36.38:Stephanie
stripystrip5:LOU05:lgroneiv@juno.com:1991-03-26:US:M:none:Lou Grone
stripystripe:oceans01::2001-10-11:US:F:98.183.246.171:Fiona
stripystripes:autumn02::2002-09-12:US:F:98.215.175.55:autumn
stripystyle:coocha333:craddock_chelsea@yahoo.ca:1995-03-03:CA:F:207.34.129.1:Jemma
stripystyle333:catdog333:craddockchelsea@yahoo.ca:1995-03-03:CA:F:208.114.161.76:Jemma
stripysun:stripy55::2003-08-28:AU:F:124.182.90.38:annibelle
stripytag:bethmartin18::1999-05-13:GB:F:86.178.33.109:beth
stripytarmac:capricorn:stripytarmac@hotmail.com:1989-01-12:GB:F:none:nikki baldwin
stripythecat:peanutbutter12:evelynbunch@yahoo.com:1986-09-10:US:F:68.45.139.219:evelyn
stripythepretty:23041990:stripysocksgirl@aol.com:1990-04-23:GB:F:none:Tiffen Willis
Stripytheshoyru:dinosaur19:ekram.muhammed@hotmail.com:1992-01-01:LU:M:66.41.29.201:Harun
stripytig3r:neopetsstar123::1999-04-16:AU:F:114.76.76.207:April
stripytiger:lollypop::1990-03-05:AU:F:none:none
stripytiger1:spotty:stripytiger1@hotmail.com:1990-01-01:GB2:F:Mail from theneopetsteam:Katy Hill
stripytiger212:squeaker2:iluvgrayted2@aol.com:1992-06-04:GB:F:none:Kiera Hayman
stripytiger230693:coco01::1993-06-23:GB:F:none:stripytiger230693
stripytiger273:squeaker2:stringyfella@aol.com:1992-06-04:GB:F:none:Kiera Hayman
stripytigercats:rayaquaza1:supersupernovanova@aol.com:1992-10-15:US:F:64.250.192.40:mariah jones
stripytigercorgi:beach123:ilovefrogs.anna@gmail.com:1990-01-01:AU:F:207.138.82.42:BeachBabeBelle
stripytigerlilly:1Guinness1:ann_lilian@hotmail.com:1979-03-05:GB:F:80.238.1.135:ann kendrick
stripytigerrr:razorlight1:bite.the.hand.that.bleeds@hotmail.com:1990-11-25:GB:F:none:Kristine Griffiths
Stripytigertalisha:1917996::2001-11-06:US:F:115.128.28.119:NULL
stripytiger_1:010190katy:stripytiger1@tiscali.co.uk:1990-01-01:GB:F:212.74.96.201:Katy
stripytiger_123:spotty123:gaaloul.n@btinternet.com:1994-07-10:GB:F:91.104.31.205:spotface
stripytiger_979:c0n0r2312::2002-12-23::M:93.107.219.212:NULL
stripytights64:cookiedog64::1998-11-30:GB:F:86.165.45.166:NULL
stripytights8181:nine1:stripy-tights8181@hotmail.com:1980-07-31:GB:F:none:Carley Lightfoot
stripytights_x:SPOTTYDOG11:alouh@hotmail.co.uk:1991-01-11:GB:F:86.152.108.35:Amy
stripytikki:sallysbum1::1993-07-16:US:F:none:stripytikki
stripytoesocks:yinyang::1987-04-24:CA:F:none:Kat
stripytop:SOPHJO::1997-12-24:GB:F:109.156.200.137:stripytop
stripywilbur:alexisaaronspencer91::2000-02-17:US:F:71.234.245.239:spencer
StripyWolf:wolfeyes92:stripywolf@hotmail.co.uk:1992-11-03:GB:F:206.220.40.50:NULL
stripyworld_00:slayer99::1999-01-01:SG:F:220.255.1.110:NULL
stripyxsocks:carlaisgreat!:lilyenefer@hotmail.com:1989-07-23:GB:F:none:lily Enefer
stripyxweetok:ashley99::1999-02-24:US:F:76.108.142.234:Im not answering this. XD
stripyy:iloveneighbours12::1989-10-04:AQ:F:59.100.120.155:Stripy
stripyyellowtornado:stripes41:polka.dots.and.yet.more.dots.or.something@hotmail.co.uk:1994-04-07:GB:F:82.163.181.85:Hannah
stripyzebra123:sooty2::1993-10-14:GB:F:none:stripyzebra123
stripyzebra7:ilovemoose07:h.r.mill@sbcglobal.net:1994-04-01:US:F:70.132.5.181:Hannah
stripyzebra88:joanne:stripyzebra88@hotmail.com:1988-09-28:GB:F:none:Deborah Flitcroft
stripy_001:cudlybear001::1999-03-19:US:M:75.226.253.89:travis
stripy_07:dfsg23::1998-02-23:US:M:70.239.203.191:david
stripy_08:stripy08::1997-05-03:US:F:90.209.223.69:jessica
stripy_101:beckyboox0x1::1998-10-29:NZ:F:125.239.75.25:rebecca
stripy_101_2:holly123::1999-08-22:GB:F:91.109.223.72:charlotte
stripy_123:stripy321:stitch_xx@hotmail.co.uk:1988-01-01:GB:F:none:x x
stripy_2:Troyhsm21::2001-08-20:US:F:76.247.99.33:nick
stripy_2346:Gamemaster14::1996-02-14:US:M:76.100.123.0:Ryan
stripy_264:sydney::1992-03-29:US:F:none:stripy_264
stripy_3:socks_33:l1l_ch42@hotmail.co.uk:1995-02-03:GB:F:90.211.212.108:Charlotte
stripy_552:lego5240::1999-07-07:CA:M:64.229.163.28:Nick
stripy_6:shaywest2000::2000-04-11:CA:F:75.157.71.115:shaylin
stripy_7:850460:stripy460@aol.com:1992-12-07:GB:M:195.93.21.74:Ross Manson
stripy_72:yoyo99::1997-04-15:US:F:24.4.226.103:stripy_72
stripy_725:stripy725::2001-03-09:NZ:M:125.239.242.116:York
stripy_728:snakedude78::1998-05-19:CA:M:64.229.160.63:nick
stripy_8:qwer18:p_d_1818@hotmail.com:1993-09-12:AU:F:124.181.241.151:jessica
stripy_9:pets19::2000-02-01:NZ:F:118.92.253.65:Kitten
stripy_908:xweetok33::1998-02-11:GB:F:92.19.58.68:Elysia
stripy_a32:830830::2000-10-18:US:M:96.240.70.238:KHORI
stripy_apple:Nicola:stripy_apple@hotmail.com:1988-10-18:GB:F:none:Nicola Male
stripy_babe_lover69:stripybitch:carolbunny88@yahoo.com:1988-03-22:VN:F:none:Charlene Dang
stripy_bananna:seebra10::1998-03-12:GB:F:88.105.127.24:seebra
stripy_boy:england11:Poopeydoomthegreat@hotmail.co.uk:1990-07-03:GB:M:92.19.54.30:Phill
stripy_bumble_bee:dolphins1:ellie_beez@msn.com:1988-12-28:GB:F:none:Ellie Bee
stripy_butterfly:daddymummy:stripy_butterfly@hotmail.co.uk:1990-07-22:GB:F:none:ella jamison
stripy_candy_cane:stripy1:shylittlegurl@hotmail.com:1991-12-07:NZ:F:122.107.129.215:Brianna
stripy_cheetah_cub:shammyme:helen_loundkeast@yahoo.co.uk:1983-12-25:GB:F:none:Sita Tanner
stripy_cheetah_cubb:shammyme:helen_loundkeast@yahoo.co.uk:1985-06-25:GB:F:Trade Closed:Daria Tanner
stripy_chick:limeslime:pixie_chick92@hotmail.com:1983-10-25:AU:F:none:jacqui coop
stripy_chick656:sonya1060::2000-08-06:NZ:F:60.234.125.120:sonya
stripy_coco_elf:steak89:coco_x@mac.com:1992-01-26:NZ:F:219.89.137.249:CoCo
stripy_cow565:barney123:buzzy_bee555@yahoo.co.uk:1993-07-08:GB:F:188.39.23.132:NULL
stripy_cute:disney12::2000-03-14:GB:F:90.214.51.99:NULL
stripy_cute99:sparkling_hannah99:killergirl619@hotmail.com:1991-06-20:GB:F:86.138.159.80:yasmin
stripy_dot_19:GobletofFire4::1993-03-04:GB:F:none:stripy_dot_19
stripy_dragon:dollet::1993-01-15:CA:F:none:stripy_dragon
stripy_dragon172:marmalade!:it_is_marmalade@hotmail.co.uk:1992-06-26:GB2:F:88.105.63.183:Why should i tell you ?
stripy_duck:duckly12::1996-09-21:GB:F:86.15.56.216:Sarz
stripy_duckbee:bee123::2000-11-23:GB:F:82.24.10.113:bee
stripy_eraser_grip:PeNcIl_HoLdEr:awsome_god@hotmail.com:1987-01-04:CU:F:none:Raeleen Jennings
stripy_fish_rule:9021077::1998-07-16:NZ:F:125.238.22.211:Sian
stripy_goldfish:bathbomb:sally@goffy.demon.co.uk:1989-10-28:GB:F:none:stripy goldfish
stripy_hat_girl:wiggle:katherinegoudie@blueyonder.co.uk:1989-07-03:GB:F:none:Orange the Spoonkeeper
stripy_head:cheeps!:bearsfan021@yahoo.com:1980-03-23:US:M:none:Aidan R
stripy_jacket:yellow::1997-10-13:GB:F:none:stripy_jacket
stripy_lion_cub:shammyme:helen_loundkeast@yahoo.com:1983-12-25:GB:F:none:Sita Tanner
stripy_llama:coco545:random_box_of_fun@hotmail.com:1995-01-14:AU:F:203.206.106.29:Sophie
stripy_love:stripy:vsfleung@hotmail.com:1988-07-16:CA:M:acceptance:Best Friends
stripy_love3:tap_dancing:gossipgirl19uk@hotmail.com:1991-01-19:GB:F:none:Kelly Elle
stripy_moon:peanut97::1997-06-10:GB:F:83.104.249.196:Connie
stripy_neon_tiger:burton10:bethany.hall5@btopenworld.com:1993-07-16:GB:F:86.152.228.164:Beth
stripy_ninja_hippos:totalgirl:jessica_selleck@hotmail.com:1982-11-02:NZ:F:none:nee-hee poke
stripy_orange999:ogrin999:plgombie@aol.com:1989-01-06:GB:M:195.93.21.105:bob marley
stripy_paws:9517809519::1996-07-31:US:M:66.205.54.2:jacob
stripy_pencil:0netherhall0:flowerpotfrog@hotmail.co.uk:1989-06-30:GB:F:none:BobBobingson
stripy_pink_tiger:missy2935!:liverpool_rule_1993@hotmail.co.uk:1991-08-13:GB:F:89.241.198.10:mel fisher
stripy_popsocks:cheezer123:stripy_popsocks@hotmail.com:1987-01-31:CA:F:none:Carla Johnson
stripy_princess13:RAINBOW11:krissi_kizzi_wizzi@msn.com:1992-09-10:GB:F:none:KRISSI Summers
stripy_princess1992:krystal92:casperthecat@fsmail.net:1992-09-10:GB:F:none:KRISSI
stripy_pumpkin_socks:spirit89:emmahancock95@hotmail.com:1989-09-06:GB2:F:none:Emma Hancock
stripy_pyjamas_moose:funny1:karinacampbell@optusnet.com:1986-12-10:AU:F:none:kkoopp popoui
stripy_rainbow:smilemun:stripyrainbow@hotmail.com:1991-03-20:GB:F:none:Abi thomas
stripy_rain_bow_sox:barbie:wot_3@hotmail.com:1987-12-07:AU:F:none:Tarnya GAte
stripy_rocks:NIBBLES:lothlorienk@aol.com:1981-11-05:GB:F:Mail from theneopetsteam:lucy wright
stripy_roxy_5:roxy_stripy_54:chirehersuiles@yahoo.com:1993-05-05:US:F:66.190.245.134:bess
stripy_sock8787:pingoo13:i_like_to_stab_people@hotmail.com:1993-09-14:AU:F:58.106.77.112:Tayla
Stripy_Sock94:dreamer67:amy-kendal@hotmail.com:1995-01-07:GB:F:86.26.47.21:NULL
stripy_socks15:040589:charlotte_worrall89@hotmail.com:1989-05-04:GB:F:none:charlotte worrall
stripy_socks1589:040589:bleeding_mascara10605@hotmail.co.uk:1989-05-04:GB:F:none:Charlotte W
stripy_socks98:password69::1998-12-09:GB:F:217.42.21.194:amber
stripy_socks_999:lilo99:mizzybloom@yahoo.co.uk:1991-02-05:GB2:F:none:louisa wright
stripy_socks_rock:sammieh05:cute_kitty1989@msn.com:1989-03-28:GB:F:none:Sambo Jay
stripy_sockz:jasmin27:stripy_sockz@hotmail.com:1989-07-27:NZ:F:none:sweet & simple
stripy_sockz123:double07:alysonbaade@bellsouth.net:1993-02-14:AU:F:none:Joi Chopstix
stripy_sock_pj:music_box:suzwolff@fsmail.net:1990-06-30:GB:F:none:Lucy danils
Stripy_Sour_Panda1:malcom1996:goose1996@hotmail.com:1996-01-11:AU:F:114.129.161.233:NULL
stripy_sox:aiw4cim2ft:xxxstripedxsocksxxx@yahoo.com:1992-03-10:US:F:68.42.68.49:Shannon
stripy_sox1:t82v73:jessipoo123@aol.com:1985-05-12:GB:F:none:Abi Hickman
stripy_sox615:jean88:sally@goffy.demon.co.uk:1989-10-28:GB:F:none:Stripey Sox
stripy_soxs:mischief::1993-05-18:GB2:F:none:stripy_soxs
stripy_soxx:ch1ck3nbra1n:stripy_soxx@yahoo.com.au:1992-02-29:AU:F:none:Stripy Soxx Rock!
stripy_sox_roc:080491:stripy_sox_roc@hotmail.com:1987-04-08:GB:F:none:miranda  smith
stripy_sox_rock:ziggy1::1992-06-27:GB:F:none:stripy_sox_rock
stripy_sox_rox:jazzy:delphiqoracle@hotmail.com:1991-12-04:AU:F:none:i LUV stripy THINGS i LUV simpelplan 4EVA!
stripy_splash:splash23::2002-6-11:GB:M:88.104.58.13:will
stripy_star:13rfzmnb::2004-05-31:GB:F:92.25.18.224:NULL
stripy_startiger:basketball08:stripy_startiger@hotmail.com:1991-06-09:AU:F:none:holly braidwood
stripy_strips:stargirl1991:plankadepoodles@hotmail.co.uk:1991-06-20:GB:F:2.102.120.139:sarah
stripy_stu:scooby948:stripy_stu@hotmail.co.uk:1988-08-19:GB:M:88.108.9.17:Stuart-James Young
Stripy_Tail:cucumber88:stripy.tail@hotmail.com:1991-06-29:US:F:71.225.52.43:Alyssa
stripy_the_destroyer:trex10:kcaraway10@yahoo.com:1996-02-05:US:M:71.181.61.24:keegan
stripy_the_tiger:leo123:leoniehudson@hotmail.com:1995-10-01:GB:F:92.11.166.220:Rhianna
stripy_tiger:usher:usher_tiger@hotmail.com:1990-05-04:GB:F:Mail from multiplayer_setup:JadeTaylor
stripy_tiger001:tiger wild043::1998-09-16:GB:M:84.64.85.39:crystal
stripy_tiger_16:glen_161289:stripy_tiger_16@yahoo.co.uk:1989-12-16:GB:F:80.41.255.183:Stephanie Farquhar
stripy_tiger_cub:shammyme:helen_loundkeast@kechg.biblio.net:1983-12-25:GB:F:none:Sita Angels
stripy_tigger1991:fhvs4k:katy_cute18@hotmail.com:1991-07-18:GB:F:none:Katy Goodall
stripy_tigger505:poodle!:faith_parry@hotmail.co.uk:1992-06-12:GB:F:none:Faith Parry
stripy_toe_sox:labrador12:dog.luva@hotmail.com:1985-09-14:AU:F:58.174.99.16:Gracie
stripy_tyger_gurl:kelly123:kelz@theshutts.com:1988-04-11:NZ:F:none:DeAd fRoGgY!!!
stripy_x:paint33::1998-05-19:GB:F:82.28.0.211:ella
stripy_x_scarf:iluvcauldy:loz_is_the_best@hotmail.com:1991-03-13:GB:F:none:Laura M
stripy_x_socks:options:shell_68@hotmail.com:1991-03-09:GB:F:none:Hannah P
stripy_yellow_socks:partygal91:jemma_x_91@hotmail.co.uk:1991-11-28:GB:F:90.195.130.28:Jemmma
stripy_zebra312:ollitastic::1993-11-15:GB:F:none:stripy_zebra312
stripy_zebras:snailz11::1997-11-01:NZ:F:121.74.9.219:Chloe
stripy_zebraz:jasper49::1997-12-01:NZ:F:218.101.28.96:chloe
stripy_zebz_45:352051::1997-05-10:GB:F:86.17.245.196:
stripy_ziggy:emmas!!:elaineedgecombe1@btopenworld.com:1992-12-30:GB:F:81.131.28.60:Emma Edgecombe
stripy_zzzebra:e55144:stripy_zebra@hotmail.co.uk:1995-02-13:GB:F:86.141.137.54:jess
stripy__33:stirpy77::2000-04-21:US:M:64.53.168.192:Stripy
stripy__socks:brandon2001:skater_girl@yahoo.co.uk:1994-01-04:GB:F:82.30.218.11:Tasha
stripy__zebras:jasper11::1997-12-01:NZ:F:222.155.20.157:Chloe
stripy__zz:tia&caity:colnbevo@bigpond.net.au:1987-12-16:AU:F:none:tia emily
stripz:toilet:assyrian_angel@hotmail.com:1991-01-15:AU:F:none:Renya N
stripz15:spidermonkey994::1997-08-14:US:M:96.24.42.174:colton
stripz331:rachel:hyatt72000@juno.com:1992-02-22:US:F:none:rach leavitt
stripz445:yourcool:shoppinbaby34@aol.com:1959-11-28:US:F:none:sdfh djfdkf
stripze:hotdog12::2001-01-21:US:M:24.177.12.27:tim
stripzing:structor24:tripio3@live.com:1990-04-01:MX:M:189.234.137.124:BOB
stripzs0h0od:1060015k:shawnasohood@aol.com:1991-12-02:US:F:67.84.82.251:shawna
stripzz4:411511::1993-11-14:US:F:none:stripzz4
stripzznstarz:jozeftopor:dbomba@talkamerica.net:1987-07-01:US:F:Item:honey bumba
stripz_09:blondanbrown!09:r1kk1@hotmail.co.uk:1994-09-15:GB:F:90.200.33.176:rix
stripz_42:sara1:jjssbbbb@yahoo.com:1977-08-08:US:F:none:sara buchanan
stripz_66_7:loveme#12:maryann113580@aol.com:1996-02-04:US:F:71.175.236.6:jazmine
stripz_7:stripz12:jktmrivard@hotmail.com:1986-07-11:CA:M:207.194.17.36:Taylor
stripz_soxx:seafood:mysouldied2day@aol.com:1990-07-08:US:F:none:christie Rine
strip_1425:sacred1245::1996-10-12:PH:M:125.60.243.72:loid
strip_17:ropett06::2001-09-10:MX:M:189.226.216.225:Sid
strip_boy:030303:igor_alemoa_sk8@hotmail.com:1984-04-08:AR:M:none:pedro vallado
strip_club:raspo132:KalleBollongo@web.de:1979-01-25:DE:M:84.136.241.217:Kalle
strip_d2007:SPOTTER87:strip_d@hotmail.com:1987-11-15:NZ:M:125.237.203.14:Richard
strip_ed:1a2345::1997-05-01:US:F:97.82.176.108:skylar
strip_faile:nuttynorma:yo_yo_098@hotmail.com:1989-08-14:CA:F:Can I be your NeoFriend?:Johanna Roberts
strip_gonzo:chemia:angie_mq@interia.pl:1986-09-28:CG:M:none:Merg sebaaaaa
strip_horse21:stripping21:the_angelic_horse@yahoo.com:1985-06-21:US:F:none:kelsey howell
strip_is_cool7898:ilovefrankie4566::1999-11-27::F:76.167.104.113:NULL
strip_kitty_33:patches323:judy_strickler_3@yahoo.com:1949-10-31:US:F:71.238.102.92:judy strickler
strip_lyon:8991srv::2002-04-02:US:F:24.62.198.147:Amber
strip_man:beards:auzzi_pride_69er@hotmail.com:1989-05-23:AU:M:none:lachlan stevens
strip_my_mind:rhcp1::1993-07-19:US:F:none:strip_my_mind
strip_puff:leroy65:abbeykitty@gmail.com:1985-02-08:US:F:67.142.130.18:abbey
strip_stripe:savannah99::1999-09-10:US:F:68.10.128.138:savannah
strip_tease:11stripers:gfsouza@hotmail.com:1992-02-29:HN:M:201.34.174.130:strip tease gostoso
strip_the_tiger:sammisammi:lil_lion@hotmail.co.uk:1986-04-13:GB:F:none:nicole freebury
strip_tiger:hvisverycute12::1997-09-30:US:F:123.23.95.7:Rica
strip_xz:ababab12:raulsotero_11@yahoo.com:1997-11-03:PR:M:72.50.29.138:NULL
striqt:shro0mshro0m:cavebeebs@gmail.com:1992-11-03:US:F:68.34.230.92:Pana
strique:167546::2001-02-28:BR:M:201.22.93.9:eric
striquer:2521023912:casmj@yahoo.com.br:1993-08-13:BR:M:189.18.33.245:junior
strir:angel11:pmccullough2003@yahoo.com:1991-02-09:US:F:none:Kirstie McCullough
strires:s8708150b:strires@live.com:1991-03-29:SG:M:220.255.7.141:YongChye
stris8:betts136:mmorrow2403@comcast.net:1981-10-31:US:M:none:Steve Robert
strisa:tehgay69lol:tanda@minister.com:1985-02-01:DE:F:none:Strichsatan Keinchrist
strisam:liverpool11::1996-02-13:GB:M:77.44.45.139:sam
strisandthegreat:BARBRA2::1993-11-30:US:F:none:strisandthegreat
strisaschatz:teh69lol:alisha1691@yahoo.com:1985-02-01:DE:F:none:Strichsatan Keinchrist
strischa1:michellE21:sweet.kizz93@web.de:1993-05-04:DE:F:93.128.28.36:Mona
striscia:gattuso75:antonella.lacquaniti@hotmail.it:1987-01-01:IT:F:79.13.102.88:loredana
striscia05:r3b3kka05::2005-10-17:IT:F:84.223.138.210:NULL
strisciadisangue:athena17:athe17@hotmail.it:1992-06-04:IT:F:87.5.234.83:athena
strisciu:micetta:strisciu2001@yahoo.it:1977-01-27:IT:F:none:guenda bla
striscombat:tess0477651917:glennie93@hotmail.com:1993-02-17:BE:M:96.17.73.125:NULL
strisdabom:KllB8600:secretdude007@hotmail.com:1908-08-25:CA:M:207.216.63.25:Bob
strise:Myshella:malusdarkblade@gmail.com:1990-10-03:US:M:none:John Bodansky
strish5:coke341:pdomings@assumption.edu:1987-05-25:US:F:none:Trisha Domings
strisha:lance!:tiggergurl2011@yahoo.com:1988-01-01:US:F:none:Trisha Thompson
strishae:doodle45:jungleboogy10@yahoo.com:1993-12-26:US:F:207.179.231.150:Michelle
strisius:alma321:strisius@live.com:1994-03-21:US:M:71.195.221.150:curtis
strislsh1908:KIK18:r.l.hoover@tt.net:1992-11-03:US:F:none:Shelby  Hoover
strisnothin:c0wb0y:pilar.gonzalez@astate.edu:1994-11-08:US:M:67.67.161.160:eliel
strissel:isaiah123::1999-06-30:US:M:99.148.62.19:isaiah
strissel123:june30::1999-06-30:US:M:99.139.226.69:isaiah
strisser89:majestix89::1996-02-15:DK:F:83.94.226.145:mulleh
strissie:krishna123:cute.orangecats@yahoo.com:1992-12-24:US:F:123.201.33.67:krishna
stristala:1w1w1w1w::2000-03-15:US:F:98.206.157.152:michelle
stristermanstiniarcl:djurgardens::1994-04-07:SE:M:none:stristermanstiniarcl
stristram:knickers77:stristram@rogers.com:1979-07-31:CA:F:99.254.172.120:Stephanie Tristram
strit:bettepip::1992-12-08:DK:F:none:strit
strit007:strit123::1994-01-10:DK:M:none:strit007
strit1:runescape135:notpls@yahoo.dk:1987-08-18:DK:M:85.218.153.77:SoldierBoy
strit12:mobile13:ramos_kith@yahoo.com:1991-4-5:PH:M:119.94.83.74:keith
strit123:81313350:alllex22@hotmail.com:1994-02-13:BR:M:201.79.72.153:alex
strit2:220398e::1998-03-22:MX:M:201.150.130.107:NULL
strit225:filipe225::1996-09-25:PT:M:89.152.217.155:tiago
strit98:bru123::1998-05-27:BR:M:201.79.223.164:Bruniihô
strita:bumma95:city_flair131@hotmail.com:1972-04-13:CA:F:68.146.110.23:Jessie
strita1:strita12::2002-05-02::F:119.92.242.123:NULL
strita80111:ritalu32::1991-11-01:TW:F:203.75.232.176:strita80111
strita9:dmochowski11::2000-10-10:US:M:98.213.214.78:matt
strita99:miamiheat99::2000-10-10:US:M:98.213.214.78:matt
stritahealth:740258:stritahealth@yahoo.com.tw:1983-12-22:TW:F:none:軒 王
stritan235:other::1991-03-06:US:M:none:stritan235
stritar:isnot4u:aljaz_iste@hotmail.com:1989-03-16:SI:M:none:aljaz kwatebriga
stritat:something*:dragongirl_500@yahoo.com:1990-10-28:US:F:none:zeax ......
strita_666:cloe83::2002-05-02::F:124.105.252.43:NULL
stritboy:33193:d_gonzalez01@msn.com:1992-04-26:US:M:none:david gonzalez
stritch2:2134039:angel_is_in@hotmail.com:1909-08-25:CA:F:216.121.230.5:Stacey
stritch22:zion123:myersz@insightbb.com:1978-08-02:US:M:74.138.108.204:zion
stritchato:adriana::1993-09-03:PE:M:none:stritchato
stritchchik101:amariea11:einstine14@buckeyeexpress.com:1990-09-14:US:F:72.240.128.78:Brittanny Adolph
stritchcutie7:bball7890:sportsweety707@aol.com:1988-11-09:US:F:132.162.92.171:Amanda Miller
stritche:kz7mvl1:stritche@uwo.ca:1988-10-24:CA:F:99.254.73.55:NULL
stritchfan44:liljamo:stritchfan44@aol.com:1984-12-30:US:F:none:Hailie Jameson
stritchi:051193::1993-11-05:FR:F:none:stritchi
stritchy_is_ritch:ush167:christopherstritch@hotmail.com:1990-11-24:AU:M:none:Christopher Stritch
stritch_kx2_2:950223::1995-02-23:HK:F:219.73.64.95:黎沅慈
stritcom:stritcom11:rosamunda1994@yahoo.com:1990-10-17:AR:M:200.82.40.202:pebl
strite:meio06:para_mim_que_morra@yahoo.com.br:1991-04-06:BR:M:201.40.50.141:Gustavo
strite06:meio06:loucopormin@hotmail.com:1976-03-28:BR:M:189.10.116.92:mridelte
strite213:vaca230::2000-12-13:BR:M:189.29.103.33:NULL
strite32:blue eyes:sun_haokang@yahoo.com.sg:1990-08-19:SG:M:219.91.83.222:SunHaoKang
strite410:pokemon00:neopet410@yahoo.com:1984-05-03:WS:M:99.152.247.172:dan
strite84:columbus:lonesomedovekjw@aol.com:1965-07-21:US:M:Item:chris woods
stritebek61:snop100::2000-02-15:GE:M:189.54.6.177:douglas
stritebet:snop100::2000-02-15:ET:M:189.54.127.69:douglas
stritebet61:snop100::2000-02-15:ET:M:189.54.127.69:douglas
stritefigt:pokemon112::1997-02-12:NL:F:62.194.219.150:naomi
stritego2000:tryitnow11::2000-03-31::M:202.70.56.204:NULL
striteiro:007jcf:fransino13@hotmail.com:1988-09-15:BR:M:none:johnathan frança
striteirobmx:130189:saotomasdeaquino2@yahoo.com.br:1988-01-13:BR:M:none:Pablo souza
striter:9128435:sun_haokang@yahoo.com.sg:1991-08-19:SG:M:219.91.69.11:sun hao kang
striter11:lions:don_ondrejcak@hotmsil.com:1990-12-14:US:M:none:homer duffman
striter244:rings10:striter@yahoo.com:1988-11-06:US:M:none:Estubon pineda
striter751:460789::1993-10-22:US:M:none:striter751
stritertoni:lili10::1998-03-26:BR:M:189.7.99.152:Filipe
striterz:qaz789:ktx359@yahoo.com:1988-06-18:US:M:none:hi freak
strites:june21::1999-05-21:US:F:97.93.201.184:shamree
strite_3:18036974::1993-12-28:BR:M:none:strite_3
strite_yo:uriel12::1997-09-29:MX:M:201.137.103.226:NULL
stritfitdra:28102000::1997-10-28:BR:M:187.127.166.105:NULL
stritfiter:luca11::1997-12-03:BR:M:201.1.94.239:lucas henrique
strith:fatcat12:boystoys1996@yahoo.com:1982-03-29:US:M:97.84.137.235:Scott
strithe:strithe11:mattwilliams3256@gmail.com:1985-05-27:CA:M:216.121.214.127:strithe
strithers:lm1234:black-sheep_666@hotmail.com:1908-01-01:FJ:M:58.170.149.83:Lury
strithey:strithey11:mattwilliams3256@gmail.com:1985-05-27:CA:M:216.121.150.81:math
strithor:dog3bark4:holyheroofages@yahoo.com:1985-11-13:US:M:68.38.160.221:Luke
stritia:pompoentje111:leoniepelkman@hotmail.com:1993-10-09:NL:F:62.131.252.249:Leonie
stritide:benj2:johnsen.tore@wanadoo.fr:1991-10-17:FR:F:none:Astrid Johnsen
stritil1:erilda1:andrix9@hotmail.it:1993-12-02:IT:M:213.136.155.156:andrea doglio
stritiseuse:le sexe:sexymarie_92@hotmail.com:1989-06-02:CA:F:none:jenny bourgouin
stritix2:2212lukas:Lukasschroedter52@web.de:1996-12-22:US:M:77.5.255.75:Lukas
stritny0:123go:loristew84@aol.com:1987-09-02:US:F:none:Hannah Kadosky
Striton:tyler123:alexvaughn94@yahoo.com:1994-07-02:US:M:184.57.179.66:Alex
stritounette:stritounette1112:NK3@hotmail.fr:1989-04-16:FR:M:89.170.7.170:kevin
stritpes:chevron69::2002-04-14:US:M:75.43.209.140:dandieg
stritro:Kanto::1992-11-08:US:M:none:stritro
strits:solebole12:www.amaribo@forum.dk:1988-05-19:DK:F:80.161.85.181:Astrid
stritsboy1:dexter25::2001-06-20:US:M:98.219.172.127:Logan
stritsch544:cutiemg::1993-08-29:US:F:none:stritsch544
stritse:jitse77:jitse_77@hotmail.com:1993-07-18:BE:M:84.196.199.245:jitse
stritsen:gabber123:egolanant@hotmail.be:1985-03-20:BE:M:94.225.255.212:NULL
stritsgirl1:brooke44::1998-10-15:US:F:98.219.172.127:Angel
stritsgirl2:mommys01::2002-11-20:US:F:75.89.200.117:NULL
stritt08:matrix::1986-01-01:US:M:none:Joe Joe
stritt1234:rafaele10::1998-07-19:BR:F:201.2.209.251:Eduarda
stritt65:panda2:xhonestmistakex@hotmail.com:1966-03-24:US:F:24.190.80.126:amanda s
stritte1712:laura17::1996-04-27:DK:F:87.116.43.138:astrid
strittedk:danmark159753:bissehunden@hotmail.com:1994-12-04:DK:M:62.107.170.190:martin
stritter002:scott:mattstrittmatter@hotmail.com:1964-03-29:US:M:none:ooter scooter
stritter024:scooter!:stritter023@yahoo.com:1987-03-19:US:M:208.44.56.176:scott andrew
stritte__15:jacobv57:jacobv.n@hotmail.com:1975-04-16:DK:M:80.197.98.237:jack
strittfigters22:abcd2:hmendoza75@hotmail.com:1992-12-18:DO:M:none:joel jesus coronado morla
strittiedk:smukke:irene@strittie.dk:1983-09-17:DK:F:none:Irene L
strittmater:nov2203:patmaster2@hotmail.com:1988-10-15:US:M:Mail from dragonzlair_guild:Patrick Strittmater
strittmatter:821996::1996-08-02:CA:M:74.220.168.113:chayse
strittmatter1111:mega1111::2001-01-19::F:76.97.200.195:NULL
strittmatter_1:mema50::2001-05-14:US:M:98.200.188.209:tyler
stritto:hejhej123:bente@2wellness.dk:1993-03-15:DK:M:87.116.54.27:Stritto
stritton:aee511:shannontritton@gmail.com:1992-04-09:CA:F:74.198.8.60:Shannon
stritty:debbie1:i_am_a_figther_260189@hotmail.com:1989-01-26:NL:F:none:Astrid Wittekoek
stritty_36:Jenny36:big_one87@gmx.net:1987-08-17:DE:M:none:ydna rettamttirts
strittzle121:magnum500:maruskas5@charter.net:1989-03-16:US:M:64.83.231.245:zach
stritt_11:coolness11:stritt11@hotmail.com:1990-06-26:US:M:68.79.90.180:dane stritt
stritt_eduarda:34356430::1998-07-19:BR:F:200.102.60.52:Eduarda Stritthorst
striture:neopets22:borgymarkos@yahoo.com:1991-12-09:PH:M:122.53.245.109:markos
stritwalan:97298666123:l.f.battel@hotmail.com:1971-07-18:BR:M:201.92.77.232:Nicolas
strityk:tomler321::1997-12-29:EE:M:88.196.155.130:toomas
stritz:Edding:stritzi0190@uboot.com:1989-01-16:AT:M:none:Christian anonym
stritz03:stritzel03:ditzystritzy@aim.com:1994-10-11:US:F:66.66.155.61:emily
stritz2012:stritzel2012::1993-10-11:US:F:none:stritz2012
stritze:Daniel10:www.Skaterboy@t-online.de:1993-02-27:DE:M:217.95.123.191:Daniel
stritzel:papa0815:77ger@web.de:1977-02-03:DE:M:84.141.85.125:NULL
stritzelina:Tweety123:l.stritzel@web.de:1992-07-01:DE:F:88.77.52.197:Lilli
stritzels:blister@11:samstritzel@gmail.com:1994-08-09:US:M:24.158.7.26:Sam
stritzi:schule::1993-12-07:AT:M:none:stritzi
stritzi24:180289:elisabetrank@gmx.at:1989-02-18:AT:F:84.112.150.6:lilli
stritzl:censored07:schokofrettchen@gmx.net:1989-10-08:AT:F:93.82.3.124:dani
stritzo:susy1996:witches4life@hotmail.com:1988-02-18:NL:F:213.46.57.247:MiDi
stritztikoffski:smaragd!::1994-04-28:DE:M:none:stritztikoffski
stritzy:210907:stritzy@hotmail.co.uk:1981-10-03:GB:F:82.24.159.156:lisa
stritzy54:homedog28:johnstritz@gmail.com:1995-04-05::M:24.127.139.67:NULL
stritzychou:stritzychou97::1997-04-04:CA:F:198.103.53.5:Mado
stritz_14:terry:hasal_1987@gmx.at:1991-01-27:AT:F:none:Tina E.
stritz_3:stritz12:ditzystritzy@aim.com:1994-10-11:US:F:66.66.155.61:emily
strit_99:macaco99::1997-09-12:AL:M:189.54.151.231:vitor
strit_fire_11:strit11::2000-02-28:BR:M:201.37.169.178:lucas
strit_forever:strit91:helene_abild@live.dk:1995-10-18:DK:F:78.157.126.233:Helene
strit_players:marcela79:marcela@hotmail.com.br:1924-02-24:FR:M:200.101.195.37:malaco
strit_players2:07021997:belefera@hotmail.com:1924-02-24:FR:M:200.101.195.37:malaco
strit_poewr:260497::1997-04-26:BR:M:189.107.79.46:STRET_POWER
striue:29807134:striue99@yahoo.com.tw:1988-06-13:TW:M:none:育榮 梁
striue2000:datou0826:STRIUE2000@yahoo.com.tw:1989-07-24:TW:M:114.40.17.66:王嘉弘
Striuem:9876@pple9876:thatkidthatyouwannaknow@gmail.com:1995-12-16:RE:M:46.17.98.5:Striuem
striuncekf:lun4mt3r:striuncekf@hotmail.com:1985-08-06:CO:M:none:Vladimir  Luna
striunie:bianco39:piaolianghelanzhu@gmail.com:1994-01-03:US:F:67.160.210.94:Striunie
striusgeek:3127405146210522033o:strius_geek@yahoo.com:1989-01-02:BR:M:none:edmario marques
striv3:sm00th:stardustjkla@hotmail.com:1991-08-13:US:M:72.253.253.238:Ashley
striva:miohio942:scelineb42@yahoo.com:1994-07-20:US:F:76.203.124.198:Sam
strivalry:Cloudy12:garudyne@yahoo.com:1992-12-24:AU:F:121.45.138.201:NULL
strive:wordlife:strive@yahoo.com:1985-06-09:SG:M:none:strive spark
strive104:5689112:haza3787@streamyx.my:1991-05-20:MY:M:none:Cloudie Cloud
strive12:westhebest12:wparker1997@yahoo.com:1997-4-18:US:M:70.248.112.18:wesley
STRIVE1234:maddy56423:maddyhr56423@gmail.com:1997-01-31:US:F:208.89.39.210:NULL
strive16:packed11:strive.whysobroken@live.com:1995-05-05:US:F:72.241.6.63:Rachel
strive1983:wendy5:zens_lollipop@yahoo.com:1983-03-10:CA:F:99.239.34.91:Megan G
strive2001:99443649:squall4ever2001@hotmail.com:1985-09-19:MY:M:none:Vincent strive
strive22:hi47h2fg:gio_84lil@yahoo.com:1987-01-03:PH:M:125.60.240.214:strive
strive2cheer:ariana111::1992-06-16:US:F:none:strive2cheer
strive2resist:6682608:strivetoresist@yahoo.com:1990-06-01:US:F:173.58.84.147:Sae-ruh
strive373:strive:rnemai@yahoo.com:1991-12-29:US:M:none:Brandon Ragbir
strive4heavens:anime18:sabsamad@hotmail.com:1992-12-18:AU:F:none:Shiffa Samad
strive4integrity:123qwe!@#QWE:strive4integrity@hotmail.com:1989-10-11:US:F:none:Nicole Oliver
strive4love:Duck7Po3:tkdgirl283@tds.net:1994-02-09:US:F:134.215.217.180:Rose
strive4me:oblivion82:bryan_ava@yahoo.com:1989-11-05:US:M:76.110.130.234:Kazz
strive4peace:hope17:irishnicky17@yahoo.com:1991-10-17:US:F:64.12.116.17:Nick
strive4salvation:rebecca92:cutiepie_ohmy_letsfly@yahoo.com:1992-02-14:US:F:96.247.53.4:Julie
strive4thispeace:anthony16::1996-08-16:US:M:151.200.161.163:anthony
strive4wisdom:lamlam:sheungpany@yahoo.com.hk:1986-04-30:HK:M:none:curtis yuen
strive77:canada69:tg4l_@hotmail.com:1988-06-18:CA:M:24.150.70.212:StrivE
Striveck:slick10:striveck@gmail.com:1990-1-1:US:M:98.111.137.154:Tyrone
striveclan_kitty246:striveclan13:winkydaalex@aol.com:1991-03-10:US:F:76.99.3.139:I have no name
strivedchild:cnm4ever:punkrockprincessbaked@yahoo.com:1987-02-06:US:F:none:sam o
striveforas:dgsgo1996522:jackieyeung_hi@hotmail.com:1988-09-15:HK:F:none:jacqueline
striveforit:134679258:katiechan4@hotmail.com:1988-07-10:HK:F:Item:Strive for It
strivefour:joshua::1993-12-27:US:M:none:strivefour
striveglaze123:dragon123:striveblaze@hotmail.com:1982-07-07:US:M:76.212.1.78:lawrence
striveharder:popo12:myrapcity@yahoo.com:1989-03-31:US:M:66.229.77.59:chris
striveil:revolemina:evolutionlaw@hotmail.com:1990-11-29:SG:F:none:Berenice Lam
strivejaylen:strive123:jaylenstrive@yahoo.com:1989-04-28:US:M:204.116.250.109:Strive
strivell:japanschoolgirls:goh_sa1990@hotmail.com:1990-10-09:SG:M:none:Goh Sheen An
strivelli:123456zoe:mirakat@yahoo.com:1985-07-22:US:F:68.42.63.198:zoe
strivelli7:nikon1092::2002-03-03:US:M:64.9.35.100:bill
striven1:aol123:iris37pr2004@aol.com:1991-07-08:PR:M:none:Martin Quiñones
striven10:aol123:kgpr2004@aol.com:1991-07-08:PR:M:none:Martin Quiñones
striven20:aol123:kgpr2004@aol.com:1991-07-08:PR:M:none:Martin Quiñones
striven25:aol123:rebeldepr2005@aol.com:1991-07-08:PR:M:none:Martin Quiñones
striven297:majora:ljm297@aol.com:1947-01-01:US:M:none:Someone Anonymous
striven50:aol123:kgpr2004@aol.com:1991-07-08:PR:M:none:Martin Quiñones
striven54654:54ns89js9gfh3c:striven54654@live.com:1966-01-20:TN:F:220.245.5.211:detyhkgh
striven55:aol123:rebeldepr2005@aol.com:1991-07-08:PR:M:none:Martin Quiñones
striven60:aol123:kgpr2004@aol.com:1991-07-08:PR:M:none:Martin Quiñones
striven80:aol123:kgpr2004@aol.com:1991-07-08:PR:M:none:Martin Quiñones
strivensoul:1251986:strivensoul@hotmail.com:1986-05-12:MY:M:60.53.156.127:MysticAngel
striventopercentage:pages:lollyaslollycanbe@yahoo.com:1987-11-26:US:M:none:tim mcdavid
striver:rrpgg:anakinkid2@aol.com:1983-08-30:US:M:none:Me Myself
striver123:floorchamp33::1997-09-16:US:F:68.112.108.3:Abby
striver1604:music:supa_summerdj@hotmail.com:1991-07-05:NZ:F:Mail from railiner:Sylvia Radford
striver333:eddieboy12::1997-09-03:US:F:68.112.108.3:Abby
striver9:wertzu00:nikolai_frieden@hotmail.de:1995-07-30:DE:M:80.134.86.158:Nikolai
striver911:playa1:ballndragon169@aol.com:1985-12-20:US:M:Acceptance:scott denninger
striver92:pass12:mike@koreamail.com:1992-08-25:US:M:76.16.14.191:Brian
strivergirl:Gymnastics:tglasheen@dcwis.com:1989-05-14:US:F:Mail from bleeding_mind:Mandy Banerdt
strivergirl123:jnky00grl:vircorri@gmail.com:1985-03-09:US:F:65.96.185.8:Virginia
striverlife:loser00:whitworthkim@rocketmail.com:1990-08-15:US:F:68.7.23.126:fox
striverno1:100acres:connie_bestgal_eva@hotmail.com:1992-09-18:IS:F:203.88.225.205:Indigo Bourne
strivers:bla**:westside_shorty21@hotmail.com:1988-02-29:CA:M:none:Ryan Ramsaran
strivers123:4450319:pehchen_dolphin@hotmail.com:1991-08-30:SG:F:acceptance:piggy zhu
strivers271:KELLY:strivers@sbcglobal.net:1983-10-27:US:F:none:KELLY STIVERS
striversz123:solidbutt::1992-11-09:SG:F:none:nur amalina
striver_1001:coolcat::1979-03-15:CA:F:none:Carly Dreyer
striver_1_2_3:cerzan1:going_commando_chris@yahoo.com:1989-07-08:US:M:70.115.200.50:chris slane
striver_2008:finally2046campaign:striver_2008@sohu.com:1990-08-07:CN:M:222.86.66.137:阚炜炜
striver__82:12qwerty::1997-05-23:US:F:24.237.81.79:casey
strives:roses17:skyparade@yahoo.ca:1994-04-17:CG:F:64.180.27.147:FAB  BOO  LUS
strivesoar:2208266:LZFJfasterThanLightning@hotmail.com:1988-08-19:SG:M:220.255.2.149:Simple
striveswifey:strive:striveswifey@yahoo.com:1988-12-20:US:F:none:annette barraza
strivetobetoggled33:kowzrkool33:moss60@gmail.com:1994-02-05:US:M:98.14.197.234:michael
strivetosurvive:static:sublimesk8ter3@yahoo.com:1987-06-01:US:M:none:Owen Blank
