strivexlove:angel@722:rainie_days@hotmail.com:1993-10-24:US:F:71.100.21.222:Hanna
strivexz:kelvinoh:strivexz@yahoo.com.sg:1990-06-09:SG:M:Item:randyorton
strive_dianis94:JARP36:beba_diana13@hotmail.com:1994-12-25:MX:F:189.137.235.229:Diana de Jesus Gomez Lopez
strive_grl:contacts:strive_grl@hotmail.com:1989-10-23:CA:F:none:*Jyl*
strive_student:030964:whitenoise360@yahoo.com:1987-11-08:US:M:none:Harry Chung
Strive_Talent:hotdog00:rhinoc7@gmail.com:1998-04-14:US:M:68.98.76.47:NULL
strive_to_resist:6682608:strivetoresist@yahoo.com:1979-01-29:US:F:173.58.84.147:Sarah Michelle
strivi:bina12::2000-10-02:MX:M:201.143.223.220:balbina
strivieri:girl18::1999-01-25:US:F:68.238.234.85:Shannon
striving:forlife:miniitch01@netscape.net:1989-01-16:US:F:none:katie mehan
striving2bchristian:peaches33:Flowerbaby2@aol.com:1992-02-18:US:F:72.146.47.37:Caitlan
striving2bpure:go2God4ever:elizabeththarp@wavecable.com:1991-11-04:US:F:24.113.118.84:nonrequired informatin
striving4eva:9112841a:striving4eva93@aol.com:1993-04-28:US:F:none:Courtney C.
striving4jennah:yannis14:silly_rabbit311@yahoo.com:1991-03-11:US:F:none:kiki me
striving4perfection:perfection:tessa90_@hotmail.com:1990-11-27:AU:F:none:tessa georgeson
striving97:naini1997::1997-08-12:IN:F:111.119.217.227:Nainisha
strivingartist:corleone:lifecynic@yahoo.com:1987-08-18:US:F:Mail from theneopetsteam:Stephanie Petrovic
strivingbling:12rahasia:Striving_Bling@hotmail.com:1992-06-20:ID:F:118.136.22.184:Debora
strivingmama:lollipops24:leeleelee@hotmail.com:1992-05-23:SG:F:202.156.13.2:babe
strivingmartins:smashbro22:martinfamily@bellsouth.net:1986-02-19:US:M:68.219.68.73:jojo
strivingrune:justin::1991-07-25:US:M:68.58.100.46:strivingrune
strivingsimilitude:heat15ley:colin_robert_dickinson@hotmail.com:1988-03-24:CA:F:none:Colin Dickinson
strivingwhatever:ironshrek1:blackwidownightmare@hotmail.com:1980-04-14:CA:F:none:Sheri O
striving_angel:crimson89:bloodstainedangel21@yahoo.com:1992-02-13:US:F:24.1.239.183:nichole
striving_artist:901516204mu:physchogirl@hotmail.com:1992-05-09:US:F:72.23.153.211:Sandra
striving_hard:98184403::1997-06-30:SG:F:202.156.11.2:sarah
striving_musician09:trebleclef1:striving_musician05@yahoo.com:1990-10-07:US:F:none:Arianne Robertson
Striving_Orange:Christian99::1999-03-26:US:M:98.26.65.175:NULL
strivix:venom1122:shadow.fox45@yahoo.com:1997-01-01::M:70.140.24.129:NULL
strivos:berry:strivos@hotmail.com:1979-12-03:US:M:none:Berry Mears
strivz:1441kevmat:kevin-maffo@hotmail.com:1994-06-29:NL:M:86.85.189.108:kevin
Striwffy:space123:annelise_staiger@hotmail.com:1994-01-30:BR:M:201.88.123.54:NULL
striwgo:82n9uk66:istding@yahoo.com:1990-12-13:US:F:98.185.248.167:Sarah
striwhoosiekate:stri11::1993-05-04:US:F:69.178.57.210:striwhoosiekate
striwi:kiberry10::1998-08-19:US:F:67.77.168.128:molly
striwi123:kiberry456::1997-04-22:US:F:67.77.168.128:Katie
striwi456:kiberry123::1997-04-22:US:F:67.77.168.128:alex
striwing:vallgrund12::1993-06-24:FI:F:none:striwing
strix:batman2586:sundrop12345@yahoo.com:1986-03-10:US:M:75.129.137.116:Strix Strauma
strix0r:monkey12:marcusgirotto11@hotmail.com:1994-04-28:CA:M:207.102.46.3:marcus
strix12:excidous12:excidous1@hotmail.com:1993-09-01:AU:M:124.185.75.58:james
strix1988:strixiegirl:antms@linkinpark.com:1988-09-25:BE:F:none:AnTimmermans
strix2000:gu2000::2000-02-20:BR:M:189.34.52.102:strix
Strix2013:silentville2013:ashfallbloodrayne@yahoo.com:1995-03-23:US:F:98.197.68.196:NULL
strix22:58266:sneikeland@gmail.com:1982-05-22:US:F:none:Snorre Eikeland
strix35:strix64::2000-04-29:US:F:71.82.143.89:NULL
strix546:otulissa:yarling5@msn.com:1992-01-18:US:M:none:Taylor Yarling
strix64:jy2468jy::2000-06-07:US:M:204.2.199.22:NULL
strix878550:boom boom:shenikam2000@yahoo.com:1992-05-07:PH:F:none:janice belen
Strix9:vermelho999::2001-02-09:PT:F:2.83.48.189:NULL
strixaluco:ac_195:davissm26@uww.edu:1987-08-26:US:F:140.146.226.63:Sputnik
strixapoz:buddha69:angelz_666@yahoo.com:1989-11-22:CA:F:206.191.28.223:sarah
strixas:negalima34:strixas@gmail.com:1992-03-19:LT:M:none:Zygis Saulys
strixa_rapxcore:84225940:slyncyta_rapxcore@hotmail.com:1989-10-28:CL:F:none:slyn espinoza
strixbrasil:anjojunior31:strixbrasil@yahoo.com.br:1974-05-06:BR:F:none:strix picasso
strixch:nelsinho2003::1997-03-20:BR:M:187.59.63.176:nelson
strixchh:78057776:jeffersonfdc2006@yahoo.com.br:1988-03-20:BR:M:189.72.90.154:Nelson
strixcorp:caroline99:zoe_has_chickens@hotmail.com:1985-12-06:GB:F:87.254.70.44:Heidi Quine
strixe:chantel:blk_beast@hotmail.com:1990-01-18:CA:M:none:Calvin Desalany
strixell_82:alious1:jinkosue932@hotmail.com:1991-02-03:US:M:70.121.245.9:trevor boddie
strixemerilla:hoole12:silverjazzmin@earthlink.net:1986-12-03:US:F:4.235.202.119:Amber G
strixerda:7123456::2000-10-02:US:M:67.181.28.209:Brandon
strixey:rosebud:pinball@luukku.com:1988-01-05:FI:F:none:Sini Eloranta
strixe__91:jayb12:bjervie@yahoo.com:1989-01-11:PH:M:203.84.170.170:strixe
strixfeline:25panfish:maevesniblet@yahoo.com:1975-08-26:US:F:4.158.213.99:Rowan
strixgirl:spike2170angelus:ripewickedplum_2170@hotmail.com:1990-12-21:AU:F:203.164.93.103:strixgirl
strixgirl_sunyhell:dusjen1:lisa.d@optus.com:1980-11-06:AU:F:none:taltos sharkey
strixie:joulukuu12:jepuh@netti.fi:1992-05-22:FI:F:212.213.90.14:Javiera
strixie348:BeMe@:joybrien@bigpond.com:1992-03-01:AU:F:none:laura venditti
Strixis:trinity99:vivic-@hotmail.com:1989-08-19:US:M:74.47.106.80:NULL
strixjl:foreigner1:trixxy@gmail.com:1990-01-03:US:F:66.31.215.87:i have no name
strixle:marcos123:brakfux-kamas@hotmail.com:1992-03-01:CL:M:201.241.225.126:marcos
strixlodemai5:sanmay413:strixlodemai@yahoo.com:1994-04-10:US:F:98.217.54.246:Maylynn
strixmaghi:240486:fufy@tele2.it:1986-04-24:IT:M:83.190.77.242:fabrizio pistocchi
StrixMcgoo:kjsisok123:the_cake_ish_a_lie@live.com:1993-06-18:US:F:75.211.37.108:NULL
strixmit:ads123:hard34595@yahoo.es:1994-01-27:GT:M:190.149.80.33:NULL
strixmoonwing:angel12:kelsey_wooley_bookreader-writer.com@hotmail.com:1991-04-27:US:F:68.155.83.6:Kelsey
strixnebulosa:(panfluteowl):littlebaboons@hotmail.com:1990-03-26:CA:F:none:Bethany Walker
:::::::
strixnoctua:milano0312:strixowl@gmail.com:1971-09-30:IT:F:none:Strix Noctua
strixpoyer::byankaguerra@gmail.com:1985-01-09:PT:F:2.83.1.29:NULL
StrixPoyer99:clubpenguinpanda99::2001-02-09:PT:F:77.67.91.86:NULL
strixsan:A0122614:antms@skynet.be:1988-09-25:BE:F:91.177.75.125:An
strixsong:cLock6:crazy.varken@gmail.com:1989-07-10:AU:F:none:Strix_Likes_Pie
strixstruma:primrose56:Heyw@sbcglobal.net:1980-06-24:US:F:69.238.117.216:outlissa
strixstruma12:eggy0662::1995-04-10:US:F:76.73.157.227:Bethany
strixstrumajen:ipodnano1234:dmack7939-work@yahoo.com:1909-06-20:PL:M:75.57.72.53:Strumajen
strixstrumastriker:boron11:gymnasticgirl987@yahoo.com:1990-04-12:US:F:none:Erin Dreti
strixstruma_0491:soren:rachelmac_0491@hotmail.com:1991-01-21:US:F:none:rachel enos
StrixStryker:pepper33:fidityxo@aol.com:1994-10-02:US:F:97.76.231.2:NULL
strixvaliano:twiztid:slizzonizzo@hotmail.com:1984-08-19:US:M:Mail from theneopetsteam:Strix Valiano
strixvaria:bronze68:vonhursley@gmail.com:1985-10-16:US:M:134.10.125.76:
strixvaria13:quitten5:badgermum@comcast.net:1990-10-09:NZ:M:none:Aaron San-Je
strixxx:gutierrez333:vampire_lady_rbk@hotmail.com:1990-02-03:MX:F:none:Rebecca Santiago
strixy:tink12::1997-01-05:US:F:75.62.135.180:Stephanie
strix_:merlina123:merlinaamf@gmail.com:1994-04-26:AR:F:190.188.253.113:Noire Rose
strix_3000:609103:strix_3000@yahoo.com:1991-05-19:US:M:none:Tino Tonitini
strix_86:neopets86:strix@gmx.com:1986-09-17:DE:F:85.239.121.124:strix
strix_9:astrid3580::1999-01-15:VE:F:201.211.223.3:astrid karina
strix_aluco:jordgube55:strix@oland.com:1993-09-03:SE:F:95.118.66.204:Maria
strix_arida:291089:rakelbolzan@hotmail.com:1987-02-17:BR:F:200.102.65.140:rakel
strix_boy23:kokoko::1992-12-22:NZ:M:none:strix_boy23
strix_buizel:giuseppemitico12:ronaldinhobarcellona@live.it:1991-12-10:IT:M:79.2.167.45:giuseppe iacona
strix_dark_engel:021strix:b.abarcap@gmail.com:1990-02-25:CL:F:190.47.206.128:Strix
strix_elohim:jakarrael11:claire_rosser@yahoo.co.uk:1984-05-28:GB:F:217.37.15.74:Karra Hunter
strix_emeral:162922:billandspud@yahoo.com:1993-11-30:US:F:208.126.79.2:kira
strix_emerilla:moomoo:s.fredianelli@att.net:1905-01-01:US:M:none:773 202
Strix_flammeus:naturosa109::1996-10-26:BR:F:201.68.12.229:NULL
strix_jazta7:watsup::1993-12-22:NZ:M:none:strix_jazta7
strix_kcls:colombita:strix_kcls@hotmail.com:1984-12-08:CL:F:none:Arlette Poblete
strix_loading:852456:engel021@hotmail.com:1990-02-25:CL:F:none:barbara abarca
strix_nebulosa:softball11::1991-12-28:US:F:76.1.255.207:Strix
strix_nebulosa_:cassie1118:purplecockatoo@embalmer.com:1991-11-18:US:M:98.224.127.177:Sam
strix_pc:merijn11::1996-01-04:NL:M:86.83.117.184:merijn
strix_sapeins:zeroes00:owlgene@gmail.com:1988-03-24:NZ:F:68.17.237.111:Gylfie
strix_sarca:aggies85:strixsacra@gmail.com:1994-07-08:US:F:70.123.147.193:Sorri
strix_sin:get1life:guardian_strix@hotmail.com:1985-09-07:GB:M:none:Richard Forrest
strix_starka:starfox24:StrixStruma@Gmail.com:1995-08-27:US:M:68.173.227.104:Bryan
strix_struma:fuzzy:primerose77@hotmail.com:1990-10-13:US:F:none:StrixStruma
strix_strumma:signup11::1995-12-18:US:F:75.51.71.127:Strimble
strix_stryker:162922k:Purplefrog@mchsi.com:1994-12-30:US:F:173.27.159.142:rose
strix_tragedy:fire45:ab64537@hotmail.com:1989-04-23:US:F:none:allyson bailey
strix_uralensis:kakatoe11:carl_uil@hotmail.com:1991-01-09:NL:M:86.90.119.96:carl
strix_varia:Gl@ck:tlundberg@bellsouth.net:1992-02-20:US:M:none:Vince Foster
striya_963:800361:striyamangen@yahoo.com:1995-12-08:US:F:71.50.206.185:NULL
striykerz:motdepasse12::1998-11-06:BE:M:91.177.22.13:joshua
striyph:fallon69:hellsbreingeroflight@hotmail.com:1991-08-03:US:M:none:shawn leifermann
striyps:foxes rool::1999-09-09:US:F:none:striyps
striyps110:anstc:carolynluedke@sbcglobal.net:1985-09-09:US:0:none:Hannah Luedke
striyus:20003739:invasion.of.the.asian@gmail.com:1983-01-17:US:M:69.216.114.16:GORGEOUS *
striz:cape22:jjstinkybritches@yahoo.com:1989-02-08:US:F:Acceptance:Sara  Strizzi
striz01:millwork01:striz01@hotmail.com:1973-07-10:US:M:8.25.242.82:LukeStriz LyndaStriz
striz330:Cane33lonie::1996-04-25:DE:F:91.15.99.185:Patricia
striz94:juventus94:striz94@hotmail.it:1994-09-14:IT:M:151.57.0.19:Filippo
strizball318:jrms93::1992-06-16:US:F:none:Jessica Strizzi
strize:238900:b1tphr34k@hotmail.com:1986-06-08:CA:M:none:Kevin Blair
strize11:kitty11:emmashibley@gmail.com:1992-03-23:US:F:141.157.70.70:emma
strize12:kitty12:emmashibley@gmail.com:1995-03-23:US:F:108.15.71.65:emma
strize9:kitty99:kitty_cat@thisisreallove.org:1990-06-14:US:F:70.16.2.224:Emily
strizek98:sassycat123::1999-05-04:US:F:96.41.237.90:NULL
strizen:myname123:reapershadow@hotmail.com:1981-06-02:SG:M:165.21.154.13:Peter
strizer:daewoo12:avidarapper@yahoo.com:1988-07-02:US:M:70.101.136.239:Daniel Lawson
strizer3:monster1:strizer1@hotmail.com:1992-10-02:AU:M:none:James O\Brian
strizer5:monster@:hinzfamily@optusnet.com.au:1987-10-02:AU:M:none:william hinz
strizer56:isabella56::2001-05-12:US:F:72.28.191.79:izzy
strizer8:monster:captainhinz1@hotmail.com:1985-10-02:AU:M:none:william hinz
strizfor:natsume12:cloud.strifezor@gmail.com:1989-12-31:US:M:24.9.67.241:c a r l
strizgirl123456:lolliepop1234:codystrzyzykowski@yahoo.com:1990-05-08::F:76.235.197.162:NULL
strizi:michael::1996-11-05:DE:M:none:strizi
strizi4846:Strizi 2005::1998-05-20:AT:F:195.3.113.61:Anna
strizit187:l1nk1n:xw1cked1x@yahoo.com:1985-09-26:US:M:none:Robert dizzle
strizi_26:sex1234::1998-10-26:AT:F:93.82.79.187:Patricia
strizkid:1qa2ws3ed:codystrzyzykowski@yahoo.com:1995-09-05::F:75.5.236.143:NULL
strizle_young:2002leo:player972032002@yahoo.com:1987-01-30:US:M:none:ben sprage
strizlickland448:strizz69:sothernkitty99@yahoo.com:1984-11-23:US:M:none:michael strickland
strizmo:billyvo:aznb_dawg@yahoo.com:1991-04-30:US:M:Offer Not Accepted:Billy Vo
striztehwin:yogidare95:dellfaster@yahoo.com:1956-08-17:US:M:72.9.17.133:NULL
strizy:mizzy98:daniel_12_kme@hotmail.com:1988-03-24:BB:M:none:israel howell
strizyhe:mizzy98:daniel_12_kme@hotmail.com:1988-03-24:BB:M:none:israel howell
strizz:100693:sosammsaid@aol.com:1993-10-06:US:F:72.192.1.96:Samm
strizz08:sierra08:strizz08@live.com:1984-11-23:US:M:75.70.213.219:Matthew
strizz15:monster15::2000-08-05:CA:M:154.5.211.151:steven
strizz84:tia84:sothernkitty99@aol.com:1984-11-23:US:M:none:Matthew Strickland
strizzer:sk8er:trick28@hotmail.com:1985-09-28:CA:M:none:alexlevy
strizzerd:03151990:markopolo359@gmail.com:1984-03-24:CA:M:none:Markus Strizzerd
strizzi16:cj0721:strizzi16@yahoo.com:1985-04-20:US:M:72.241.50.186:bob
strizzilicious93:howdydoo188:richgrl916@netscape.net:1993-11-04:US:F:none:sophie strizzi
strizzilicious93_4_4:howdydoo188:richgrl916@netscape.net:1993-11-04:US:F:none:sophie strizzi
strizzis:fatcat:the_strokes76z@hotmail.com:1986-02-28:US:M:98.185.212.57:J M
strizzle:shelby:froggygreen17@hotmail.com:1988-11-26:CA:F:none:s trizzle
strizzler:asdflkjh1:mstrassle@verizon.net:1990-06-14:US:M:72.78.4.175:mike strassle
strizzmundo:sierra!:sothernkitty99@aol.com:1984-11-23:US:M:none:Matthew Strickland
strizzo:1711424::1995-05-23:US:M:72.91.148.123:renzo
strizzt:72491:strizit@hotmail.com:1991-07-24:GB:M:none:Spencer  Van Cise
strizzy:flow935:anyika35@yahoo.ca:1992-03-05:CA:F:none:anyika mark
strizzy78:jason50:xstrizzymuffinx@aol.com:1978-08-23:US:F:66.45.66.42:mar
strizzy_castro:danisha123:nicholas_davenport@hotmail.ca:1991-06-03:CA:M:64.229.246.135:NULL
strizzzy:somesing123:oli.kirkup1@gmail.com:1991-10-05:US:M:24.126.172.134:NULL
stri_2008:stri10:kkswain10@yahoo.com:1993-01-01:US:F:70.57.104.233:Kk
stri_er05:bubble::1994-01-28:AU:F:124.185.244.86:stri_er05
stri_er05153:bubble::1994-01-28:AU:F:124.185.175.150:stri_er05153
stri_flipclony:asesor:sey_kut@hotmail.com:1984-09-07:US:F:Can I be your NeoFriend?:Constanza Arce
stri_ke:chulin11:haruno_-_sakura15@hotmail.com:1995-03-24:BR:M:201.11.214.99:strike
stri_ke05:italy01:kate@bidpond.com:1991-08-10:AU:F:121.222.125.216:Kate Stringini
stri_stri_934:ph33hp:sal_312@yahoo.es:1985-05-07:CO:F:190.84.224.204:stefani
strj:Dude$::1994-04-12:US:M:none:none
strj0ker1:ray619:str_ray1@yahoo.com:1979-04-28:US:M:75.6.151.189:f0rest
strjac10:poepoe10:corona_extra_got_lime@hotmail.com:1985-11-26:CA:M:none:Cody Lebonte
strjam:streets::1993-09-01:AU:M:none:strjam
strjano:ja992no:jano_neopets@hotmail.com:1992-02-09:PE:M:190.42.33.239:Alejandro
strjason:cokepepsi:darkjedi61993@yahoo.com:1991-06-25:US:M:none:jason solo
strjeep:mailman1::1993-12-17:US:F:none:strjeep
strjess:mimip:stjess@aol.com:1990-07-24:US:M:none:Robbie Makenzi
strjessica:jeeh2009::1996-11-08:BR:F:216.151.187.101:Jéssica
strjhzcfgsfj:********12::2000-06-05:TV:M:67.35.190.119:frtyietryuetyuu
strjl3:jesus01:strjl3@yahoo.com:1984-06-04:US:F:none:Julie Sturtz
strjok13:joker602:joker13@yahoo.com:1995-08-07:US:F:174.17.155.183:gangster
strjok5:joker602:strjok13@yahoo.com:1988-08-14::F:174.17.155.183:NULL
strjok5602:joker13:player13@yahoo.com:1988-02-14:US:M:174.17.155.183:jose
strjok602:joker13:strjok13@yhaoo.com:1988-09-14::M:174.17.155.183:NULL
strjou2:owner2::1993-03-16:CA:M:none:strjou2
strjpups:sagey21::1998-05-20::F:72.160.253.103:NULL
strjr:325270:1FASTWILLY@EARTHLINK.NET:1977-11-10:US:M:208.118.37.57:WILLY
strjussssssss:blonjyu:jjhkyu@yahoo.com.hk:1986-02-02:US:F:none:dtui ctuo
strk0r7:poepman123::1996-08-15:NL:M:81.71.245.65:wytze
strk0u:il0v3yamile:sp33d4c3@hotmail.com:1993-08-26:US:M:174.48.177.139:daniel
strk1120679:Striker:iceboarder920@hotmail.com:1988-01-02:US:M:none:mark Johnat
strk1234:12sean::2001-05-04:AU:M:121.44.252.57:sean
strk13play:9291tink::1998-05-19:US:F:66.177.155.192:Ashley
strk22:KitKat!22::1998-05-05:US:F:76.184.33.89:kathryn
strk3r:bubbleface:strk3r_23@yahoo.com:1990-09-27:US:M:none:Alex Hanson
strk6ht:saiyidah12::2000-01-01:US:F:67.149.41.59:NULL
strk99:theboys99:danistelzl@cox.net:1992-10-08:US:M:none:STRK Stelzl
strka11:janae123:nickkid4life92@aol.com:1985-10-11:US:F:none:rin str
strkadir88:123456789b::2002-05-29:NL:M:82.74.99.32:NULL
strkaft:berke1997:jakveberke@hotmail.com:1994-04-23:TR:M:92.44.100.18:berke
strkawiberwrii279:alluluv:djeevninl_8806@yahoo.com:1988-08-18:US:F:none:Jennifer Luong
strkay:elmoo2897::1997-10-28:US:F:69.123.210.137:kaitlyn
strkbac:71215h4:hikarixgaki@j-fan.com:1990-01-01:US:F:none:likewhoa
strkbl:poopoo11:strk_bl@yahoo.com:1982-04-19:CA:F:207.216.138.159:dela
strkblnd_4evr:htmt12:oliviallanos3@yahoo.com:1995-03-03:US:F:66.74.229.87:Olivia
strkbyawrkngball:Kaitlyn:goodcharlotte@flairbiz.com:1989-05-07:US:F:none:Kaitlyn murphey
strke123:slash::1993-11-25:CA:M:none:strke123
Strke234:893167::2003-04-25:US:M:66.57.252.61:NULL
strke5:family55:rme1091@hotmail.com:1982-06-12:US:F:96.224.232.145:Emily
strkea:strkea65::2001-06-12:US:F:173.52.97.218:emily
strkeaposex:5139263eric:alyssanicole414@yahoo.com:1991-04-14:US:F:173.61.84.83:Lyss Frake
strkeee:fatboy:crazi_engine@hotmail.com:1987-05-15:US:M:none:bronx perry
strkegirl2:he110:vix.c.s@btinternet.com:1991-02-18:GB:F:none:vix stephens
strker17:12345::1992-08-11:US:M:69.242.42.244:none
strker2000429:techjam500:dood_et@hotmal.com:1981-01-13:CA:M:none:alex walker
strker212:maxwell:alisonlynnfoster@hotmail.com:1967-12-31:CA:M:none:Stryker Sabastion
strker2299:3214594:geemen22@gmail.com:1960-10-28:US:M:99.53.93.191:FERNANDO
strker999:spartan:shadowstrike987@hotmail.com:1990-02-09:GB:M:none:alan mclaughlan
strkerboy98:theredz98::1998-09-29:GB:F:82.22.156.95:chris
strkers101:travis11:shadowfreak459@msn.com:1993-11-03:US:M:68.55.59.7:stripy
strkersr:15021998:luccas.oliveti@terra.com.br:1996-01-07:US:M:189.46.245.111:Luccas
strkersr2:12345ab:luccas.oliveti@terra.com.br:1994-01-07:BR:M:201.13.12.197:luccas
strker_z:katelinda236:eu_amo_kate@hotmail.com:1994-03-11:GB3:M:189.61.166.192:slifer
strkey2402:sar87sam:collinstrkey@yahoo.co.uk:1980-11-18:GB:F:none:Beth Clayton
strke_freedom:sanshiki:xsanshiki@hotmail.com:1986-04-01:BN:M:none:Strike  Freedom
strkh:blaine!:s45366@psdschools.org:1990-01-20:US:F:none:kristyn allen
strkick9:loser101:d_rtist@hotmail.com:1990-11-16:CA:M:none:soloman w
strkid001:nakkul13s:nakkulsreenivas@yahoo.com:1990-10-27:US:M:173.73.162.142:Nakkul
strkid2100:pizza123::2002-02-26::M:98.17.95.246:NULL
strkieapose166:ginanikki2:nicole32791@yahoo.com:1990-04-11:US:F:none:Me You
strkiki:stars:princessmelissawu@yahoo.com:1982-03-13:US:F:Trade Closed:Melissa Wu
strkila:dannyboy26:coolguydanny2650@yahoo.com:1997-04-30:US:M:24.24.189.96:NULL
strkila23:dragon101:nelly59_1968@yahoo.com:1993-10-08:US:M:97.101.19.94:Hector
strkiller:robby23:wwilfong@cincirr.com:1993-04-25:US:M:none:rob wilfong
strkiller408:bansky22::2000-06-08:GB2:M:94.195.59.16:josh
Strkillr11:google22:dziadulewicz@live.co.uk:1996-09-20:GB:M:92.28.128.191:Elijah
strkills:123lol:rkoch9@cfl.rr.com:1993-04-27:US:M:none:steve smith
strking1369:587194:muhammad_dude@hotmail.com:1994-02-03:CA:M:99.229.32.217:muhammad
strking56:123456l::1998-01-28::M:24.189.133.18:NULL
strkiss:l0ves:zoerobles@sbcglobal.net:1993-05-21:US:F:none:zoe robles
strkist172:stink:strkist2005@cox.net:1986-09-18:US:F:none:Kay .
strkllr:2unleash1:pinkosj@comcast.net:1992-09-23:US:M:98.203.206.226:Jacob
strkml:squaresoft12:xirion@mail.com:1986-08-05:AU:M:none:Adam Rees
strkni6ht:saiyidah12::2000-01-08:US:F:67.149.41.59:NULL
strkout:oriole16::2004-01-16::M:72.196.200.91:NULL
strkr0016:breena13:strkr16@earthlink.net:1989-02-15:US:F:none:Alli S
strkr11:breena13:strkr11@earthlink.net:1989-02-15:US:F:168.7.231.82:Jessi
strkr16:breena13:strkr16@earthlink.net:1989-02-15:AZ:M:none:alli
strkr16earthlink_net:breena13:strkr16@earthlink.net:1989-02-15:US:F:168.7.228.146:
strkrgirl25:1molly1::1993-11-10:US:F:none:strkrgirl25
strkrgrl19:Strikergirl19:strkrgrl19@aol.com:1975-01-12:US:F:none:Kirsten W
strkrgurllsarah:layo2::1993-01-25:US:F:none:strkrgurllsarah
strkrs4:strikers44:aprice4@eden.rutgers.edu:1990-4-24:US:F:67.85.181.29:april
strkrvngmad:husky10:strkrvngmad@aol.com:1992-06-18:US:F:76.214.1.124:kirsten cox
strkshune07:bluestreaks:strkshune07@hotmail.com:1988-04-07:US:F:72.66.244.224:Jody Morris
strkt:standover1:antz_gangsta@yahoo.com:1988-03-23:NZ:M:none:antonio nauer
strkuat_333:mer15:strkuat_333@hotmail.com:1990-03-11:MX:F:none:yadir  sanchez villla
strkuifje:olipoli4456:vic.vance@hotmail.com:1991-03-25:BE:M:87.66.100.97:olipoli
strkurinn:kalli99:the-dare-to-hell@hotmail.com:1987-08-19:IS:M:none:Árni karl
strkye:ronto65:x0j0a0tx@gmail.com:1993-06-15:US:M:71.97.9.201:Larry
strk_9:134679:legit_ballin210@yahoo.com:1989-07-13:US:M:none:Ben Dover
strk_reptile:00samurai:mushroomegg@hotmail.com:1993-02-18:US:M:75.140.18.104:Isaac
strl0ck:qwe15e::1997-10-15:VE:M:201.211.174.122:carlos
strl81093:password1093:marie_levesque@hotmail.ca:1993-08-10:CA:F:74.57.99.37:NULL
strlana:84982610:luanah_lindah@hotmail.com:1988-05-28:BR:F:none:luana del grande
strlanggang123:20272::1992-09-06:US:F:none:samantha lang
strlanggang1234:202720:strlanggang1@comcast.net:1991-09-06:US:F:none:sam long
strlax8:22lax22:boardboy269@aol.com:1989-11-27:US:M:66.159.180.98:Mike begg
strlball38lova1455:chrissy::1992-06-20:US:F:none:strlball38lova1455
strlballlova12:chrissy::1992-06-20:US:F:none:strlballlova12
strleklin:dragon110290:stormfyre@sbcglobal.net:1990-11-02:US:F:75.51.85.187:Tim Wu
strleoliveira:16852959::1998-05-13:BR:F:200.243.194.189:Letícia Batist Oliveira
strlette04:wicked04:strlette04@yahoo.com:1986-02-26:US:F:none:Stephanie
strlght25:ttlshiwwur25:ljcaplin@ntlworld.com:1982-11-15:GB:F:82.21.82.104:Laura
strlghtdancer07:11228891:cheerchick4evr88@yahoo.com:1988-11-19:US:F:none:Courtney Earley
strlghtgrlygrl26:family12::1997-04-27:US:F:206.113.145.10:brenna
strlight:sparkle01:marmck51@hotmail.com:1951-01-04:CA:F:99.251.47.185:marlene clark
strlight12313:oriana12313::1998-02-24:GB:F:212.85.7.14:miley
strlight1996:neopet1996:starlight171996@yahoo.com:1988-02-17:US:F:none:Carolyn Kim
strlight1998:starlight1998::1998-05-02:CA:F:24.72.55.43:star
strlight224:stars224::1992-12-02:US:F:none:strlight224
strlight77:251illusion:strlight77@aol.com:1977-11-26:US:F:98.108.205.71:Jess
strlight95:cosmic20:ssj3sister@aol.com:1988-03-25:US:F:none:Sarah M.
strlight9786:peoplelikemonkeys22:toadette10@yahoo.com:1996-01-17:US:F:68.11.90.246:Colleen
strlighta04:lolibaby04:starlight_angel00146@yahoo.com:1990-02-01:US:F:70.156.3.213:angela
strlighte24:pinky1999:starlighte24@yahoo.com:1986-03-08:US:F:none:Stacy Peterson
strlightgirl18461:lsg07:sammiwhammy@aol.com:1993-08-09:US:F:none:afha afjhkyrrf
strlightmn258:heather::1994-04-08:US:F:none:strlightmn258
strlightrose_11111:q1w2e3r4t5y6::2001-02-01:US:F:206.220.40.51:NULL
strlightsin:dimondback25::1997-02-25:US:M:24.27.6.121:Jason
strlightsky863:myblue1:strlightsky863@yahoo.com:1986-07-13:US:F:none:Maria Garza
strlightstrbright312:dwinkleystar312:laurafasi@yahoo.com:1986-03-14:US:F:75.86.133.176:laura
strlight_1997:taytay1997::1997-04-02:CA:F:24.72.55.43:felicity
strlight_1998:moonlight1998::1998-05-02:CA:F:24.72.55.43:star
strlight_23_24:aquagreen_23:natalie.kent39@yahoo.com:1988-03-11:US:F:24.72.162.7:natalie
strlight__aa:juana9436::1997-02-16:US:F:67.33.216.240:valeria
strling:STERLING::1993-07-25:CA:M:none:strling
strlitangl:unimonkey12:strlitangl@aol.com:1984-06-29:US:F:141.157.180.47:melissa L
strlite:potter80::1997-05-30::F:69.234.136.109:NULL
strlite12345:1754089::1998-11-16:US:F:72.191.98.47:lilly
strlite88:legolas:strlite88@yahoo.com:1988-01-07:ID:F:none:Nad Dwi
strlitegal:bmystr:catnztang@hotmail.com:1990-08-18:NZ:F:none:Sally Stenwood
strlitejumper:098163:strlitejumper@comcast.net:1988-07-21:US:F:Trade Closed:S G
strlitejumpin:098163:strlitejumper@comcast.net:1988-11-29:US:M:none:AD G
strlitestrbrite128:sabrina8:rhoff@sciti.com:1981-10-11:US:F:none:Rachel Macintosh
strlite_bijou:Sweetascherryblossom:dark_magician_girl1989@hotmail.com:1983-02-08:CA:F:none:magician girl
strlite_shimmr:grhackers!:beaglebubbles@hotmail.com:1990-10-03:CA:F:71.17.29.77:Lost Shadow
strlitfox053:starz$:soccerluvinsista@prolynx.com:1992-08-26:US:F:none:nunof ur busi ness
strlitman:spock1976:steve_76@charter.net:1976-11-18:US:M:128.252.1.10:S B
strlitman1976:spock1976:sunset_walker1976@yahoo.com:1976-11-18:US:M:75.132.28.130:Stephen K
strlitman63123:052067::1978-08-03:US:M:none:Mike Johnson
strlitnite:Tink7182:Strlitnite26@yahoo.com:1982-03-10:US:F:97.124.111.101:Crystal
strlitpeppermint:ariell:lil_princess30217@yahoo.com:1989-07-18:US:F:none:Bernie Fuentes
strlitsinger00:mystic1:starlitsinger001@yahoo.com:1988-12-12:US:F:none:amanda nonetel
strlitsky13:chicky:dancerms13@yahoo.com:1990-02-26:US:F:none:monica strick
strlitz:201196:JULIANA__LEAL@YAHOO.COM.BR:1989-11-20:BR:F:189.10.218.39:JUJU
strliv:kittys56:acciopizza@live.com:1996-04-02:US:F:72.51.208.218:NULL
strlkat:Nylons36::1997-09-19:CA:M:70.74.118.208:Bobbert
strlke:88y9m12:makrwong0207@yahoo.com.hk:1988-09-12:HK:M:none:mark wong
strlker:pxc510:NormanYan64@hotmail.com:1988-05-11:AU:M:124.180.196.90:Norman
strlla536:renatta536::1997-09-11:MX:F:201.153.39.234:Renatta Álvarez Tule
strllita:110329:chyca_sexi1129@hotmail.com:1993-11-29:ES:F:189.129.34.80:strllita
strllita8P:2K8a9L5a:key_9095@hotmail.com:1995-07-28:BO:F:200.105.188.203:angela
strllita_luminosa:10061992:strllita_xp@hotmail.com:1992-06-10:PE:F:190.41.39.106:Patricia
strllyta:BOBSPONJA1:patito_carrasco@hotmail.com:1984-08-21:PE:F:none:SUSANA DONAYRE
strlnd:donald:isabel_strijland@hotmail.com:1980-04-11:NL:F:none:IsabelPoep
strlnd2:nintendo:strijland2@hotmail.com:1980-02-16:NL:F:none:isabel isabel
strlngbeanjean:00rgasms:glasscaged@gmail.com:1991-02-05:US:F:72.72.122.225:Becca
strlngstar:Christine:crazychika36@hotmail.com:1991-04-19:US:F:none:Courtney Cramer
strlngy_0ne_369:BACON69:supermaver01@hotmail.com:1988-08-07:GB:F:Mail from sinfulxvi:Jeremy Hoover
strlng_slvr_chainsaw:gerard12:demolitionlov3r@hotmail.com:1989-08-28:US:F:72.84.205.130:SHEEPGIRL
strloloh14:bunitinha159::2007-12-25:BR:F:189.106.137.187:lelena
strlord800:22monkeys:tiny114@live.com:1980-03-16:US:M:71.113.13.97:calvin
strlover12:14kgld:wildchild122188@aol.com:1988-12-21:US:F:none:Alexandria Fleming
strlsktr:vassar09:lynn.richman@comast.net:1995-05-11:US:F:70.131.121.207:Ari
strlsktr1:vassar09:strlsktr1@aim.com:1995-05-11:US:F:24.15.76.166:Ari
strlthevn:lindsey0:strlthevn88@hotmail.com:1979-10-13:US:F:none:Trina
strltr0se:syst3mcrash:ssmoonstar@hotmail.com:1984-01-07:US:F:209.30.166.173:Celeste Lilia
strlue22:415263lov::2000-02-02::F:69.124.17.10:NULL
strluvssmmr:starla46:princesspeachbeach@yahoo.com:1990-09-05:US:F:24.4.100.195:Starla&#x27;s Side Account
strlvangel:SHrules::1985-06-07:US:F:none:V Z
strlvl99:PETSPETS::1993-04-11:US:M:none:strlvl99
strlyng:161616:youngstr14@aol.com:1994-02-18:US:M:96.245.201.24:sothe
strlytstrbryt:nitareader:strlytstrbryt88@yahoo.com:1988-05-01:US:F:none:A C
strlytstrbryt88:nitareader:nitareader2001@hotmail.com:1988-05-01:US:F:none:A C
strm115:hijomio23:miguelito-style@hotmail.com:1972-08-15:PA:F:201.226.5.89:Yoctzara
strm127:reinodeDios15:miguelpereyragarrido@hotmail.com:1993-11-27:PA:M:201.224.146.161:Miguel
strm27:hijomio15:miguelito-style@hotmail.com:1972-08-15:PA:F:201.226.5.89:Yosi
strm4573rz:bobby55:googoo_gaga1@yahoo.com:1986-07-31:US:M:71.109.8.21:Gilbert
strm4g3:vetto22:evil_man_me@hotmail.com:1993-08-20:US:M:74.138.100.147:jordin
strmac:j22892s:c192433@tyldd.com:1990-02-28:US:M:24.165.163.227:Joseph
strmacamanda:a42109:fyou696969@yahoo.com:1990-12-10:US:F:99.108.69.132:NULL
strmage41:strmage410::1997-01-01:US:M:74.231.185.16:Justin
strmali:359104::2002-07-13:BR:F:189.6.198.44:NULL
strman:96969:gunitdollars@yahoo.com:1992-04-15:CA:F:none:Kris Arcand
strman1:123dan:www.danielwillens@aol.com:1992-05-20:US:M:71.52.126.240:daniel
strman123:kris123::1997-01-22:EE:M:90.190.138.194:kris
strman123549:toots5:naruto9tfox@aol.com:1993-03-01:US:M:none:bob lee
strman1990:4164944029:hayrullahyil@hotmail.com:1990-04-13:CA:M:78.160.33.83:NULL
strman210:supernino555::1994-05-02:US:M:68.165.77.99:strman210
strman22_a27:bryan21:jhauser@new.rr.com:1993-11-20:US:M:70.92.88.105:bryan
strman553:4164944029:Hayrullahyil@hotmail.com:1990-06-12:TR:M:99.253.221.131:hayrullah
strman56mc:rope11::1996-10-14:US:M:72.171.0.148:mitchell
strman7:fightme:jreeb@sasktel.net:1987-04-03:CA:M:none:matthew reeb
strman882:doggy521:babygreg26@yahoo.com:1994-10-22:US:M:98.221.19.253:greg
strman8822:doggy521:carmcarm27@aol.com:1993-10-22:US:M:68.83.165.50:greg
strmangl23:monchichi77:sprzybylowicz@mail.widener.edu:1985-04-07:US:F:173.79.78.16:Samantha
strmanha:hoho22::2002-07-17::M:74.235.134.223:NULL
strmanp:strman12:subhash.mallampati@gmail.com:1994-03-11:US:M:24.5.57.82:sai
strmanyayoya:yoma12::2001-01-21:CA:M:173.206.166.192:NULL
strmaster190:killall123:klacombe2002@yahoo.com:1992-04-26:AL:F:none:Derrick La Combe
strmastr528:mathew12:wendyrussell5@bigpond.com:1992-06-13:AU:M:124.177.31.108:mathew
strmax:147235:blessedsword@hotmail.com:1994-04-04:MX:M:201.165.138.186:Daniel
strmbreez:nick316:strmbreez@aol.com:1985-06-23:US:F:207.200.116.133:Amanda
strmbringr:nicolette12:d-von_87@hotmail.com:1990-01-01:CA:M:207.112.110.222:Devon Miller
strmcat:Max545335:Stormyktn@gmail.com:1969-02-15:US:F:66.66.115.96:Pam
strmchasr220:john26:zakulsis@yahoo.com:1989-05-16:US:M:none:John McLaughlin
strmchsr09:jbt1996hwf:sam.berkseth@sbcglobal.net:1991-12-21:US:F:69.209.143.203:sam
StrmChsr12:doppleronwheels12::1998-06-12:US:F:209.188.65.142:NULL
strmchsr23:chicago:strmchsr23@yahoo.com:1960-02-15:US:F:none:terri holmes
strmchsr68521:iluvciera:strmchsr68521@yahoo.com:1971-04-07:US:M:none:Jud You need not know
strmchsr89:20004244:wolverine_fan_4_ever@yahoo.com:1989-05-31:US:M:none:Jason Austin
strmchsr968:ccem968:bulldogjm69er2000@yahoo.com:1976-12-21:US:M:none:Jim McNeill
strmchsr_2008:jbt1996hwf:sam.berkseth@sbcglobal.net:1991-12-21:US:F:69.209.152.118:sam
strmcld:kurtcobain00:herestoyesturday@hotmail.com:1985-05-21:CA:F:198.166.57.19:leah
strmcld14aolcom:st911:strmcld14@aol.com:1991-05-03:US:F:none:Storm England
strmdude:crawford::1993-08-27:CA:M:none:strmdude
strmeatloaf:rachael:puppylova411@aol.com:1989-06-03:US:F:none:rachael  coral
strmecki:louisa:croatia_rules@hotmail.com:1990-09-19:AU:M:none:Bob  Wyat
strmelpw3:221aveb:strmelpw@home.com:1948-10-21:US:F:98.219.100.188:Peggyann Strmel
strmerlady:25091995:bettina.nimmerrichter@hotmail.com:1991-09-25:AT:F:none:Bettina Nimmerrichter
strmfrk:091388:stormfreak666@hotmail.com:1988-09-13:US:M:75.70.27.138:Cris Tetik
strmgod123:sweet22:daddysgirl9108@aim.com:1994-09-23:US:M:70.225.45.59:abc
strmherald:coldrac:strmherald@aol.com:1976-04-11:US:M:71.94.72.114:Jonathan Pakish
strmi13:handball!::1994-04-01:AT:M:none:strmi13
strmicanka:krajina1995:mala.strmicanka@hotmail.com:1989-12-13:AU:F:58.173.160.141:andjel
strmie126685:366855::2001-12-21:CA:F:70.26.183.77:NULL
strmikestr:mikejacky10:klarissa@lol.com:1908-12-31:NL:M:84.28.10.220:mike
strmiluvr2:IMSORRY2:strmiluvr2@aol.com:1970-12-31:US:F:none:TAMMY A
strmischeswetter:1234!::1993-08-01:DE:F:none:strmischeswetter
strmj02:c28k132726*:strmj02@moravian.edu:1992-04-20:US:F:72.237.78.58:NULL
strmjo:dirt84:stormpettry@yahoo.com:1966-06-29:US:F:63.116.31.234:storm pettry
strmkr_xox:freddy11::1992-06-25:US:F:71.195.18.126:lindsey
strmlaroux:goodwill::1992-07-07:US:M:none:strmlaroux
strmlvr22:sweetie1820:strmlvr22@aol.com:1976-06-01:US:F:168.216.192.28:Michelle
strmmer24:duder:indiangirl@attbi.com:1988-04-05:US:F:none:lauren bass
strmmist:syncgen1001:mysticalfirerose@gmail.com:1980-05-02:US:F:24.12.21.212:Myst
strmmnmyguitarrr:hacker1:strmmnmyguitarrr@aim.com:1973-07-03:US:F:none:x333 x333
strmn911:marcoestrmn1:convida-me@hotmail.com:1908-12-29:PT:M:82.155.102.59:Mimozito
strmnfantastico:strmn911:strmn911@hotmail.com:1981-11-16:PT:M:188.82.52.142:NULL
strmnmdm:09100610:tais001@hawaii.rr.com:1986-09-19:US:F:Can I be your NeoFriend?:Susan Tai-Martin
strmnmormnsweeti1:ugogrl:kaligrl419@comcast.net:1962-02-28:US:F:none:stormin mormon sweeti smith
Strmnnrmn:hobojack23:strmnnrmn12@hotmail.com:1987-10-21:US:F:68.188.76.21:NULL
strmnos:nosferatufly!:heracles.621@gmail.com:1989-06-21:CN:F:none:诺 诺
strmocha8:flyer931:fly7cheer@yahoo.com:1991-06-23:US:F:none:Khari Alexis
strmonsta143:snakekiller143:lfsnb@yahoo.com:1993-09-12:US:M:70.190.166.38:Salah
strmontana:ilovethelord33:coolcoto@hotmail.com:1927-03-29:CA:M:67.58.200.191:Leonard
strmooly9902:mool9902:scottrussell31@yahoo.com:1970-11-16:US:M:none:Scott Russell31
strmoon1107:killua0577:killua1107@yahoo.com.tw:1990-05-11:TW:F:219.71.246.130:killua
strmooon21:kim1221:Kwinterwerp0@frostburg.edu:1983-12-21:US:F:96.231.83.40:KW
strmpa:426ivox:marteaas@hotmail.com:1987-02-22:NO:F:none:Abdullahhhaa Kikikijuili
strmplyar0808:joshb11:stormbaseball89@aol.com:1986-08-10:US:M:71.248.70.101:butters
strmridr19:hrsenridr::1992-10-30:US:F:none:strmridr19
strmryda:*Andr0m3da*:flavacombo@hotmail.com:1987-11-09:AU:M:121.217.143.190:ryan
strmshdw:wesker:viper_218@hotmail.com:1985-10-05:US:M:none:Chris Shaughnessy
strmshdw101:facebook66::2000-09-01:US:M:74.232.77.229:NULL
strmshdw69:wesker:viper_218@hotmail.com:1985-10-05:US:M:none:Chris Shaughnessy
strmsilver:funnyman95:loganjkoop@hotmail.com:1995-11-05:US:M:174.132.147.98:Logan
strmst:27ttrmm:marinemom@ckt.net:1994-02-08:US:M:216.49.229.172:mac
strmstormy131:turkey:strmstormy@cox.net:1991-08-14:US:F:none:amanda wilson
strmstormy1991:turkey@:strmstormy1991@yahoo.com:1991-08-14:US:F:none:amanda wilson
strmstormy526:turkey:strmstormy@cox.net:1991-08-14:US:F:Mail from theneopetsteam:amanda wilson
strmstormy654:misty:strmstormy@cox.net:1991-08-14:US:F:none:amanda wilson
strmstormy81491:turkey91:strmstormy1991@yahoo.com:1991-08-14:US:F:none:amanda wilson
strmstormy87:turkey:strmstormy@aol.com:1990-08-14:US:F:none:amanda wilson
strmtaylor14:gerardway31:stdogs@hotmail.com:1994-07-19:NZ:F:125.238.243.242:storm
strmtrax:TWISTER12:jbarnes0546@charter.net:1970-07-13:US:F:75.108.86.162:Cindy
strmtrckr130:070074:dszponder@sbcglobal.net:1989-02-16:US:M:none:dan s
strmtrpr:blaster:williewobbels@mail.com:1988-06-20:US:M:none:Willie Dobbs
strmtrpr24:blaster:williewobbels@mail.com:1988-06-20:US:M:none:Wills Dobbs
strmtrprbthngst:hotmail21:andrea_langille@hotmail.com:1988-10-06:CA:F:205.211.54.10:Andrea Langille
strmur:dertys69:strmur89@hotmail.com:1989-03-05:ES:F:none:Esther HL
strmvet1:yankee:strmvet24thinf@yahoo.com:1967-07-29:US:M:neofriend:John  Rogers
strmx:sak123:S.A.Kdeen2@gmail.com:1992-12-11:TT:M:201.238.124.105:Sajjaad
strmyevans20_4:lovergirl20:strmyevans@yahoo.com:1987-01-31:US:F:67.66.102.183:stormy
strmyevans__20:lovergirl20:strmyevans20@yahoo.com:1987-01-31:US:F:70.59.210.240:storme
strmyevans__kk:lovergirl20:strmyevans20@yahoo.com:1987-01-31:US:F:69.149.215.141:stormy
strmygrl:dukestorm:penut91@aol.com:1985-08-18:US:F:none:Ashley Vetter
strmygrl13:KITTENS:lazytear@aol.com:1991-05-11:US:F:none:stormie cooper
strmyicydarcy1999:bradley1999::1999-03-29:CA:F:99.248.221.71:Mackenzie
strmyranebow95:ready123:davenportww@yahoo.com:1995-07-25:US:F:71.114.70.68:Micah
strmywether568:cloud9:jennikstormy568@aol.com:1992-06-13:US:F:71.3.216.196:jenni kunkle
StrmyWther:graphic00:cherrygarcia76@hotmail.com:1980-4-10:US:F:75.106.49.33:Stormy
strmy_night:artemis16:stormy_night33@yahoo.com:1970-04-14:NZ:F:none:blonde itch
strmy_night32:artemis16:stormy_night33@yahoo.com:1970-04-14:US:F:none:T S
strmy_night33:artemis16:stormy_night33@yahoo.com:1970-04-21:NZ:F:none:Raine knight
strmy_nite32:dantar64:stormy_night32@yahoo.com:1970-04-14:US:F:70.243.254.177:
strm_83:kissmenow:strm_83@hotmail.com:1983-09-12:AU:F:220.255.7.211:love love
strm_lvr:derik22:storm_lvr1@hotmail.com:1992-04-25:US:F:24.183.207.65:Darlene
strn:lala55:strn@hotmail.com:1982-12-28:BR:M:none:Ricardo Almeida
strn00b:ll0kl:dreamskate@hughes.net:1987-05-24:US:M:69.19.14.15:bob joe
STRn00b142:nathandude105:fire_ghost57@hotmail.com:1910-03-01::M:96.51.150.216:NULL
strn365:kristene:thomaswondrock@sbcglobal.net:1984-05-09:US:M:99.68.15.157:thomas wondrock
strn83:december25:dastuna@hotmail.com:1983-12-25:US:F:68.26.84.181:navidad
strn9ne:!mtndew$22::1998-8-3:US:M:76.25.41.228:tyler
strnad13:nadine13:mstrauss7725@yahoo.com:1960-06-23:US:F:69.179.77.213:nadine
strnad21:lamojo12::2001-05-12:US:F:68.5.236.112:NULL
strnadova:pristav22::1996-10-29:CZ:F:93.91.150.237:Denisa
strnagelittleone:slipknot:rainiistormcloud@aol.com:1988-09-11:US:F:none:Sammi Parkk
strnatem6:anita6::1994-02-03:NZ:F:none:strnatem6
strnattex1:023811:strnattex@hotmail.com:1989-10-21:SG:M:220.255.1.53:hell
strnattex2:023811:strnattex@hotmail.com:1990-09-21:SG:M:220.255.1.92:johnny 
strnattex3:023811:wxlwxl1@hotmail.com:1990-09-21:SG:M:220.255.1.69:NULL
strnattex4:023811:wxlwxl1@hotmail.com:1990-09-21:RO:M:220.255.1.51:NULL
strnattex5:023811:wxlwxl1@hotmail.com:1990-09-21:TH:M:220.255.1.74:NULL
strnattex6:023811:wxlwxl1@hotmail.com:1990-09-21:RU:M:220.255.1.71:NULL
strnattex7:023811:wxlwxl1@hotmail.com:1990-09-21:US:F:220.255.1.51:NULL
strnattex8:023811:wxlwxl1@hotmail.com:1990-09-21:NZ:F:220.255.1.77:NULL
strnbarrett:galosh11:strnbarrett@comcast.net:1992-02-22:US:M:98.199.74.170:Bert
strnberger:100493:liam_sternberger@yahoo.com:1993-10-04:US:M:66.134.112.151:liam sternberg
strnblondeqt:97531:joshmyluverboi@aim.com:1991-09-24:US:F:none:Cindy Wegner
strndli:1juve::1994-03-09:CH:F:none:strndli
strndthsptschngths:5trndthsptschngth5:strndthsptschngths@hotmail.com:1985-02-06:GB:F:174.92.97.253:Joann
strnenfee:tom28:tizigiusi@online.de:1993-04-28:DE:F:none:PROVENZANO tiziana
