strongarmdan:badboy1:philiparmstrong1@aol.com:1973-08-22:GB:M:none:dan armstrong
strongarmmcgarm101:steelers10:strongarm10@cfl.rr.com:1996-04-28::F:97.104.129.76:NULL
strongarmor101:angelo55::2001-11-13::M:98.64.129.100:NULL
strongarmpirate:Brett485:Brett845@yahoo.com:1985-11-01:US:M:74.78.62.61:B
strongarms123:poopstory12::1998-02-12:US:F:98.197.98.132:naomi
strongarms7:liam31::2003-06-20:GB:M:86.129.242.163:liam
strongarmthemonyhome:1theworld:csimpson@fortlewis.edu:1984-06-29:US:M:none:casey simpson
strongarmweapon:bp9656::1998-07-29:BN:M:202.93.215.111:NULL
strongarmy:emolicate:grimreapor88@hotmail.com:1987-08-18:CA:M:none:Magic Rub
strongarmy6:poopoo333:beth.britton@bigpond.com:1987-10-23:AU:M:121.218.208.3:malkea
strongarmyman23:330coolboy::2001-07-03:US:M:76.189.43.100:nicklaus
strongarmystrong:golden13:dpmoore2@hotmail.com:1997-07-30:US:M:67.198.60.12:NULL
strongarmz:abc123de45:strongarmz@gmail.com:1985-12-08:US:M:none:Ryan Elmoe
strongarmz1122:christian1122::1998-11-22::M:24.174.160.107:NULL
strongarm_01:jackal1:adamhalfmann@hotmail.com:1983-05-27:US:M:none:Adam Halfman
strongarm_alchemist:thomas1:dcttcox@msn.com:1991-10-11:US:F:none:thomas cox
strongarm_chick1:chelsea1::1993-10-08:CA:F:none:strongarm_chick1
strongarm_josh:patterson!:strongarm222@hotmail.com:1991-03-25:US:F:none:josh aron
strongarrow:Longbow::1992-11-13:US:M:none:strongarrow
strongartgirl:missamy1:strongstrings13@aol.com:1960-02-13:US:F:none:Amy Berk
strongas:sssss99:parchimetretto@live.it:1994-04-04:IT:M:93.149.31.31:dddddd
strongasanox12:varun12321:varunadigaster@gmail.com:1977-07-04:CH:M:none:Rohan Shetty
strongasarock11:nene22:superhorse22@yahoo.com:1992-11-25:US:M:63.167.160.194:Isaac
strongasarock116:mathro66::2000-11-25:US:M:74.5.147.134:Isaac
strongasarock11aa:mathro11::2000-11-25:US:M:74.5.147.134:Isaac
strongasarock35:mathron68::2000-11-25:US:M:74.5.147.134:Isaac
strongasarock55:mathron11::2000-11-25:US:M:74.5.147.134:Isaac
strongasaurus:34strong::2002-10-03:US:F:67.187.192.77:NULL
strongasbull:submarine1:debsfinecollectibles@yahoo.com:1949-05-08:US:M:68.193.55.226:Rich M
strongasbull22:matt123:atvcrasher@aol.com:1989-12-22:US:M:67.80.8.56:snooze bag
strongascandie:wambam:sandyfoxie@hotmail.com:1984-02-25:GB:F:none:candie strong
strongascheese:141312:narutopizza@walla.com:1977-11-23:IL:M:84.109.19.174:amir
strongash4:temple204::2004-02-04:US:M:72.195.188.110:ash
strongashley:poop123::1996-06-02:HK:F:86.20.177.45:strongashley
strongasiandude:scooby76::2002-06-28:US:M:75.74.1.79:jonathan
strongasiandue:scooby76::2002-06-28::M:75.74.1.79:NULL
strongasianfighter:scooby76::2002-07-28:US:M:8.14.105.28:jonathan
strongasianinja:scooby76::2002-06-28:US:M:76.26.62.198:Jonathan
strongaskansas:lxusrjon:jonsanders@mac.com:1984-01-14:US:M:none:Jon Sanders
strongasmetal2005:BAFOON::1993-04-10:US:F:none:strongasmetal2005
strongasthehulk:HULKS:chaguar4@yahoo.com:1981-08-09:US:M:none:D S
strongasthunder00:france:calisurfbabe52@aol.com:1979-04-24:US:F:none:katie joiner
strongatheart:notmarried4ever:apriln@msn.net:1988-07-24:US:F:none:april noe
strongathena:Carole4010:StaufferSE@gmail.com:1990-03-04:US:F:71.197.7.20:Sally
strongathlete:soccer12::2003-09-27:US:M:71.209.98.159:Colin
strongatron21:abcdef21::1998-01-05:US:M:75.74.5.45:Joshua
strongaul_62:cesarin 25::1998-01-25:PE:M:201.240.91.245:sebastian
strongavi:noronha28:avi.noronha@yahoo.co.in:1990-11-28:IN:F:210.89.53.69:aviva
strongawesom:shorty567:naruto.thebestninja@yahoo.com:1997-08-04:US:M:108.70.73.214:NULL
strongawesomeman:1justin1::2000-09-08::M:68.102.127.134:NULL
strongawsomekid123:Ohmygod123:mdunn01@hotmail.com:1982-08-17:US:M:173.164.88.45:NULL
strongax:lubuman:fmj@wpia.net:1991-07-08:US:M:none:austin johnson
strongaxe:catdog12::2002-07-02:US:M:74.67.208.76:d
strongaxe4100:bob410::2000-04-20:US:F:66.27.170.154:NULL
StrongAznDude:scooby76:Ausjen4@yahoo.com:1910-09-05::M:76.26.62.198:NULL
strongba:chickennuggets:dvodreyisstrange@hotmail.com:1990-12-08:CA:F:none:Carly
strongba11:home42:kassrandall@cox.net:1992-01-29:US:M:68.228.152.201:charlie
strongbaaaddd45:aboot:streetstyle410@aol.com:1905-07-10:GI:F:none:jimothy hickum
strongbab:jellybeans:jambo_mambo2003@hotmail.com:1984-07-31:AU:M:none:Jay Evan
strongbabarian:9630325::1993-12-01:CA:M:none:strongbabarian
strongbabe:mitzee:strongbabe@aol.com:1956-12-08::F:none:nelda pierson
strongbabe909:eroslove1:loveroferos123@aol.com:1989-10-06:US:F:none:justine rossi
strongbabe97:fluffy1997:strongbabe97@live.com.au:1997-5-12:AU:F:122.111.164.227:lacheka 
strongbabeh:kwebbel2:glossy__lipss@hotmail.com:1993-01-26:NL:F:none:Megan Vos
strongbabe_33:111022:h.d.webb@sbcglobal.net:1983-05-05:US:F:68.12.105.77:lila
strongbaby:cutebaby29::1996-10-18:PH:F:121.97.150.75:patricia
strongbabycutie:hellohi10:dracoh@rocketmail.com:1994-08-04:US:F:72.181.144.11:CoolSun
strongbabypanda:22dayo:clapyourheart@aol.com:1989-02-22:US:F:70.208.32.210:Xin
strongbabysmack:262632:locofruitcake@gmail.com:1986-10-03:SG:F:203.127.102.226:NULL
strongbaby_:ilovetop12:yiinator13@gmail.com:1990-05-05:KR:F:72.74.109.218:Suji
strongback793:billygoat::1984-06-23:US:M:acceptance:Jamie Halphen
strongbad:f3d0ng4:the_shadow_003@yahoo.com:1979-05-11:SE:F:83.249.236.210:
strongbad0:pieface12::1998-10-09:US:M:68.40.190.152:niko
strongbad0000:redsox1903::1993-10-28:US:F:none:strongbad0000
strongbad012345:homestar:javajoy@hotmail.com:1991-09-03:US:M:none:Daniel Joy
strongbad0304:030478:richardbirdwell@hotmail.com:1978-03-04:US:M:none:Rich Birdwell
strongbad0318:scoozie:strongbadkeene@aol.com:1991-03-18:US:M:none:cameron keene
strongbad0390:eclipse:goinunder0390@yahoo.com:1905-12-03:US:M:none:bob marley
strongbad0589:carmen:reptilekid0589@aol.com:1986-08-09:US:M:none:BJ Shepherd
strongbad070190:luke137:mandrew90@yahoo.com:1990-07-01:US:M:none:Bob Crews
strongbad0828:240262:strongbad0828@cs.com:1990-08-28:US:M:none:colin galvin
strongbad09:panda09:alittletoogerman@yahoo.com:1949-07-01:US:F:71.130.53.14:noone
strongbad090:alyssa:dorkzoo@hotmail.com:1990-11-08:US:F:none:alyssa houk
strongbad094:homestarrunner::1994-03-01:US:M:none:strongbad094
strongbad098:pepper::1989-09-23:US:M:none:Matt Reilly
strongbad1:fogobo12:dean_o_bear@yahoo.com:1985-01-01:ZW:M:67.184.236.129:joe
strongbad1000:cheat:strongbadian80@aol.com:1901-06-24:US:M:none:wats up
strongbad100191:homestar::1991-10-01:US:M:none:strongbad100191
strongbad101:nhl2010::1999-03-14:US:M:64.105.34.63:Sean
strongbad1011:112889:trogdor1011@hotmail.com:1989-11-28:US:M:none:Drew Lowery
strongbad1012:lyger0:bitcloud93@aol.com:1990-04-28:US:M:none:Thomas Baik
strongbad10356:zapper:roberttricia@earthlink.net:1989-08-03:US:F:none:chris huss
strongbad10521:thecheat1::1993-09-14:US:F:none:strongbad10521
strongbad106:mollydog:radioman68@hotmail.com:1989-01-29:AU:M:Mail from torn904904:hhhhhhhhhrrrrrrrraaaaa dddddddddaaaaaaaaaaaaa
strongbad1083:100383:christopher.nubla@purcahse.edu:1983-10-03:US:M:none:Chris  Nubla
strongbad1091:minime:funkybrassmonkee@aol.com:1990-04-16:US:M:none:Ryne ...
strongbad11113:gaybar1::1993-10-18:US:M:none:strongbad11113
strongbad1113:meanman:strongbad1113@hotmail.com:1990-04-18:US:M:184.95.56.151:strong bad
strongbad1122:oreos:andrewbossman@hotmail.com:1988-06-29:US:M:none:Andrew Bossman
strongbad1122334455:Strongbad666::1994-02-23:US:M:none:strongbad1122334455
strongbad11408:thecheat::1993-08-05:US:M:none:strongbad11408
strongbad116:lauryn::1991-11-06:US:F:none:strongbad116
strongbad1199:Thecheat::1994-03-08:US:M:none:strongbad1199
strongbad121:kennard05:trougdor@hotmail.com:1983-01-22:US:M:12.219.93.245:joey
strongbad12140:bstrong::1991-11-12:US:M:none:strongbad12140
strongbad122793:sherwood::1993-12-27:US:M:none:strongbad122793
strongbad123248:5dog6:plabnav@hotmail.com:1988-12-01:US:M:71.185.82.90:joe smith
strongbad1234:apoo123:achintgoel12@yahoo.com:1986-03-06:US:M:none:bob martin
strongbad12345:bobbys12::2000-01-01:AU:M:64.110.255.218:jim
strongbad12345180:Trogdor:chriswittenberg@aol.com:1991-11-01:US:M:none:strongbad12345180
strongbad123_7:homestarrunner1:jpmawcinitt@yahoo.com:1992-04-08:US:M:none:jonny mawcinitt
strongbad123_9_9:fucku!!:e-hero_flame_wingman@hotmail.com:1993-05-18:US:M:none:jeff edwards
strongbad1245:pooky24685::1999-09-16:US:F:70.251.95.67:Adryana
strongbad1246:pooky24685:bekers1245@gmail.com:1995-09-16:US:F:76.203.217.127:Adryana
strongbad126:trogdor123::2001-02-13::M:66.61.20.229:NULL
strongbad127:strongbad127:rbrown06@townschool.com:1989-02-12:US:M:none:Ryan Brown
strongbad1300:Rothus::1991-12-01:US:M:none:strongbad1300
strongbad13095548:denver2:mattvazquez95@yahoo.com:1995-01-30:US:M:24.6.88.123:strongbad13095548
strongbad1313x:1020acorn::1990-11-01:US:M:none:Joe Mama
strongbad1314:kirstie:jakeanater13@insightbb.com:1987-09-06:US:M:none:j c
strongbad131992:fireburt::1992-11-13:US:M:none:strongbad131992
strongbad1331:maisee:stevenrmartin@go4.it:1990-10-19:US:M:none:Steven Martin
strongbad1337master:yoyoyo1:obeythepoof@gmail.com:1987-12-29:US:M:none:lollypops and candy
strongbad139:thechet::1991-12-23:US:M:none:strongbad139
strongbad140:bugnog140::1998-06-28:US:M:72.15.122.92:ty
strongbad140250:boomer2::1995-08-18:US:F:24.154.33.51:strongbad140250
strongbad1407:cheat:zack_kimmel@yahoo.com:1990-02-09:US:M:Mail from theneopetsteam:zack kimmel
strongbad1411:cheater118:funnystar10@yahoo.com:1991-09-16:US:M:none:josiah barrios
strongbad145:Thecheat::1994-03-08:US:M:Mail from theneopetsteam:strongbad145
strongbad15:pompom:dthaley@myfamily.com:1975-03-18:US:M:none:I Dono
strongbad15190:strongbadia15190:charlieeleman@yahoo.com:1984-06-12:US:F:none:ElwoodBlues
strongbad152:homestar:bbartling@hotmail.com:1957-03-15:US:M:71.102.113.76:Barney Bartling
strongbad155:cheat::1994-01-18:US:M:24.4.40.149:strongbad155
strongbad16025:140250::1992-08-18:US:F:none:strongbad16025
strongbad1617:thecheat:libster218@aol.com:1990-02-09:IT:F:none:Leisle Nix
strongbad162:Inuyasha:albedowolf@yahoo.com:1985-05-24:US:F:none:????? ?????
strongbad1689:bmx123:alex_hileman@yahoo.com:1989-01-06:US:M:71.236.71.174:alex hileman
strongbad170641:thecheat1:strongbad170@yahoo.com:1990-11-14:US:F:none:Matthew Stenning
strongbad1717:redwings17:smsandweis@aol.com:1976-03-17:US:F:none:jessica muddypigsinapuddle
strongbad179:thehorde:dorothy.matute@3web.net:1990-08-26:CA:M:none:Strong Bad
strongbad1800:8659921:kte505@hotmail.com:1988-03-27:US:M:none:Kevin Kimwick
strongbad182005:741852:strongbad181993@yahoo.com:1993-03-09:US:M:70.118.199.184:ryan
strongbad183444:duderanch::1991-10-31:US:M:none:strongbad183444
strongbad1983:100383:strongbad@mcswat.com:1983-10-03:US:M:none:Chris Nubla
strongbad19840606:enigma:phaedreon@hotmail.com:1984-06-06:AU:M:none:Mr Anderson
strongbad1994:vanilla22:vivek_venu@hotmail.com:1994-02-02:US:M:72.211.214.73:Vivek
strongbad19980:trogdor::1993-08-10:US:M:none:strongbad19980
strongbad19xty6:kevin::1993-02-17:US:M:none:strongbad19xty6
strongbad1o12236:coolboy1:andrewbossman@hotmail.com:1987-06-29:US:M:none:AndrewBossman
strongbad2:cheat22:anthony@anthonysartistry.com:1988-08-02:US:M:71.170.29.70:Iver
strongbad2002:wEt5Pasw:detartrated@hotmail.com:1982-02-25:CA:F:none:Alex Maz
strongbad2003:alexandria:alexmazerolle@yahoo.com:1984-02-25:CA:F:none:alex mazerolle
strongbad2005:rosenbery:rosenbery@joimail.com:1971-02-13:US:M:Can I be your NeoFriend?:Nick Rosenbery
strongbad2005245:sebastian:sebastianrules2003@yahoo.com.au:1990-09-18:AU:M:none:seb nottelling
strongbad2010:thecheat:mrsmoochies2000@hotmail.com:1969-01-01:US:M:none:Strong Bad
strongbad2020:homestarrunner1::1994-02-20:US:M:none:strongbad2020
strongbad204:thebadgers:zachbebumpin@yahoo.com:1980-06-08:US:M:none:baby freak
strongbad20x6:bsa95:kennydead4@optonline.net:1990-11-10:US:M:none:Cesar-IV Vera
strongbad20x64:bre13:xstrongbad56x@msn.com:1981-04-12:US:F:none:milky way
strongbad20xd6:kingy::1992-07-10:US:M:none:strongbad20xd6
strongbad2101:benzoate854:joshmartin4504@hotmail.com:1990-01-15:US:M:none:Ben martin
strongbad2111:205222::1992-11-20:US:M:none:strongbad2111
strongbad21111:205222::1992-11-20:US:M:none:strongbad21111
strongbad2112:bardok99:martin_steven1990@hotmail.com:1990-10-19:US:M:71.117.247.35:Steven
strongbad218:153759:zion_oracle7@hotmail.com:1988-12-16:US:M:none:Caleb Clouser
strongbad22:10221990:bneyland@hotmail.com:1989-10-22:US:M:108.28.168.212:i have no name
strongbad222222:72393:strongbad222222@aol.com:1992-07-23:US:M:none:bob lilly
strongbad223:strongsad223::1999-07-01:US:M:204.213.227.196:smith
strongbad2334:returnofking:strongbad2009@hotmail.com:1986-06-02:US:M:none:Eric  Tate
strongbad238:strongsad:sputnic70465@juno.com:1990-11-06:US:M:none:Mario Whalin
strongbad2410:Hagrid:str0ngbad4@yahoo.com:1986-02-14:CA:M:none:Strong Bad
strongbad2424:poopsmith::1992-10-04:US:M:none:strongbad2424
strongbad2493:Court::1993-02-04:US:F:none:strongbad2493
StrongBad25:Chaotic666:siczewiczkyle@rocketmail.com:1993-07-31:US:M:96.246.145.49:NULL
strongbad2500:tinytim25::1994-02-25:US:F:none:strongbad2500
strongbad252:hotdogs:stonysaliba@yahoo.com:1988-02-04:US:M:Mail from underdaseababy:bryan saliba
strongbad259:cheat::1993-07-11:US:M:Battledome Challenge:strongbad259
strongbad264:neopia::1992-03-19:US:M:none:strongbad264
strongbad27111:homestar::1992-01-27:US:M:none:strongbad27111
strongbad271994:lucas271994:chucknorris271994@yahoo.com:1990-02-02:US:M:75.121.203.3:l333r0y j5nkings
strongbad276:gotdafro:homestar747@mail.com:1989-04-07:CA:M:none:who\s da man
strongbad279:8392633:spawnfan88@yahoo.com:1990-04-21:US:M:none:Tyler Mckee
strongbad2795:as151894:strongbad2795@aol.com:1989-05-12:US:M:none:Adam  Sidelsky
strongbad2797:as151894::1989-05-12:US:M:none:UdOnTnEeDtO kNoW!!
strongbad282:miguel11:markw2@wilems.com:1990-03-15:US:M:206.54.204.167:Mark
strongbad289:muffin2222::1993-12-10:US:M:none:strongbad289
strongbad29204:bosox:jessiero94@yahoo.com:1991-08-26:US:M:none:kevyn frost
strongbad293:jjoohhnn:pjlegois@mchsi.com:1990-08-06:US:M:none:Paul Buker
strongbad29921:homestarrunner::1992-06-11:US:F:none:strongbad29921
strongbad2cool4u:burger:strongbad2cool4u@netscape.net:1991-03-26:US:M:none:Peanut Larry
strongbad3:kitten68:ugrannyp@aol.com:1988-12-31:US:F:70.218.195.144:kylie
strongbad310:madtv:kathybull604@hotmail.com:1985-08-22:CA:F:none:nikki l and ash.b
strongbad312:ladeybird12:nickadamonis@aol.com:1994-10-09:US:M:98.169.0.227:nick
strongbad32093:monster:randallman93@yahoo.com:1992-03-20:US:M:none:randall thomas
strongbad32179:timmy:yellowpeeper3@yahoo.com:1990-07-24:US:M:none:Tim Armstrong
strongbad324:cheats::1995-02-04:US:M:none:strongbad324
strongbad32492:trogdor404:missingva@ntelos.net:1992-03-24:US:F:4.152.102.52:Allison
strongbad32494:bmx940::1994-03-24:US:F:none:strongbad32494
strongbad32591:590084:kathyuhouse@ev1.net:1991-04-25:US:M:none:alex uhouse
strongbad33:eruption11:crazytween14@aol.com:1993-08-07:US:M:205.188.117.10:stephan
strongbad332:ranger::1993-06-03:US:M:none:strongbad332
strongbad3330:89012::1993-09-05:AS:F:none:strongbad3330
strongbad335:yeahs:gharojr@yahoo.com:1990-01-07:US:M:none:. .
strongbad3372:rockie3:l337.m4573r@verizon.net:1990-04-03:US:M:none:Conor Stanton
strongbad347:neopets92_::1992-04-26:US:M:Mail from theneopetsteam:strongbad347
strongbad348:marzibad::1992-02-20:US:M:none:strongbad348
strongbad3483:marzibad:zach92@comcast.net:1967-08-26:US:M:none:zach alexander
strongbad350:thecheat:trogdorburn1@yahoo.com:1986-02-17:US:M:none:jon mccann
strongbad352:marshmellow::1991-08-07:US:F:none:strongbad352
strongbad362:zimas:coolgirrl@hotmail.com:1989-12-14:US:F:none:Hope Gantos
strongbad367:congo:widgit10@aol.com:1976-10-12:US:M:none:??? ???
strongbad36sb_sb:dship1:strongbad36sb@netscape.net:1988-09-24:US:F:none:_________ ________
strongbad37:strongsad37:homestar37@gmail.com:1985-04-26:US:M:72.65.44.93:justin
strongbad372:school::1992-07-25:US:M:none:strongbad372
strongbad379:strongbad:shotzy31@sbcglobal.net:1986-10-31:US:F:none:Jenny and Marissa
strongbad38:orion44:mikenbillie@ntelos.net:1970-03-17:US:F:67.211.157.120:BJ
strongbad383:michael6:hrh5577@yahoo.com:1978-08-08:US:F:65.182.233.50:Strong Bad
strongbad388:thecheat:ebjdfarmer@cox.net:1988-08-11:US:M:none:strongbad none
strongbad389:crash123::1993-05-19:US:M:none:strongbad389
strongbad396:cheat:wizrobe7@yahoo.com:1989-07-06:US:M:none:Ian Borczon
strongbad403:asked:zealot2020022000@yahoo.com:1990-09-14:US:M:none:Tripp Heffernan
strongbad404:5626901019:localnews9156@yahoo.com:1987-08-08:US:F:none:amanda grey
strongbad405:Wolf55:animefreakdemon22@yahoo.com:1989-08-03:US:M:24.10.3.82:Chris Huss
strongbad409:iskate12:frito409@gmail.com:1992-04-01:US:F:71.214.199.104:Bridget
strongbad41:Stars::1994-04-01:US:M:none:strongbad41
strongbad411:138407:lananhong@yahoo.com:1989-04-06:US:M:none:KO ...
strongbad411704:homestar::1992-02-25:US:F:none:strongbad411704
strongbad411_24:thecheat66::2000-06-06::M:209.234.150.11:NULL
strongbad41390:hobbes:claporte1962@hotmail.com:1990-04-13:US:F:71.126.1.38:chrissy laporte
strongbad4234:p0pc0rn:reestheninja@apcomp.com:1996-11-18:US:M:67.42.27.179:Rees
strongbad42345:p0pc0rn:reestheninja@apcomp.com:1996-11-18:US:M:67.42.27.179:NULL
strongbad426:14781478:BankyEdwards015@gmail.com:1987-09-18:US:M:72.40.135.232:Philip Boosey
strongbad436:14781478:computerman014@hotmail.com:1987-09-18:US:M:72.40.135.232:Philip Boosey
strongbad438:strongbadia::1994-01-26:US:F:none:strongbad438
strongbad440:superninja123:blahblah570369@hotmail.com:1993-11-08:US:M:71.42.151.123:John
strongbad444:ninjaman:zarmok@runescape.com:1991-04-01:US:M:none:your mom
strongbad4444:services:brittany_b_44@hotmail.com:1989-08-21:CA:F:none:brittany britton
strongbad445:666648113:strongbad445@gmail.com:1995-03-03:US:M:24.99.109.84:strongbad445
strongbad447:broncos@:m_p_bryant@hotmail.com:1991-01-18:AU:M:none:michael bryant
strongbad44o:superninja123:strongbad440@hotmail.com:1993-11-08:US:M:71.42.151.123:NULL
strongbad450:strong123:videogameking248@yahoo.com:1993-02-23:US:M:none:Huckle Barry
strongbad453:lotra::1994-03-30:US:M:none:strongbad453
strongbad4581:kickflip:chris92@charter.net:1991-05-27:US:M:none:strong bad
strongbad46:homestarrunner67::1998-06-04:US:M:74.237.20.212:Jackson
strongbad461:cheat:deloreansarecool@yahoo.com:1992-01-26:US:0:none:jfhghg fgdhdh
strongbad463:pooploop5:novastarr23@yahoo.com:1989-11-30:US:F:none:strong bad
strongbad469:chazzworthy1:beyondtherapysucks@yahoo.com:1978-01-01:US:M:none:jim beam
strongbad4691:cheat:beckmansion1@aol.com:1991-04-06:US:F:174.100.0.112:Allison Beck
strongbad4712:thecheat:spenserg@aol.com:1989-10-01:US:M:none:Joe Kickbut
strongbad480:awesome1:calebesk@hotmail.com:1992-10-03:US:M:none:Kale Carson
strongbad484848:raptor48::1992-10-14:US:M:none:strongbad484848
strongbad486:elgoto::1994-02-04:US:F:none:strongbad486
strongbad499:21jumpst:alexanderw499@gmail.com:1995-03-27:US:F:97.89.76.238:strongbad499
strongbad4ever:lovemanytrustfew:fatfatbob1@yahoo.com:1990-12-17:US:F:none:.::Edy Filomeo::.
strongbad5000:freak::1992-09-28:US:M:none:strongbad5000
strongbad503:chevvy:funkeymonkey_boo@hotmail.com:1991-08-15:AU:M:none:mitchell hook
strongbad505:strongbad:holjarem@aol.com:1989-02-19:US:M:none:Jared Hyde
strongbad515:qwerty1234:jimbob71290@yahoo.com:1990-12-07:US:M:none:Jimmy Anderson
strongbad5159:qwerty12345:jimbob71290@yahoo.com:1990-12-07:US:M:none:Jimmy Anderson
strongbad517:jazz11:gynasticshalo@hotmail.com:1978-01-04:CA:M:none:Mike Ianev
strongbad527:goldensun:andrew@moyerhome.net:1989-09-03:US:M:none:Andrew Moyer
strongbad53106424:homestar::1993-04-10:US:M:none:strongbad53106424
strongbad536:fuckin55:bluballz55@hotmail.com:1992-07-20:CA:M:24.67.40.6:David
strongbad538:usin02:slik11@hotmail.com:1982-05-08:US:M:Mail from urban_wolf:Tyler Don\\
strongbad543:homestar567:jredwards94@sbcglobal.net:1994-02-24:US:M:75.0.33.27:john
strongbad544:justin:sofaman700@yahoo.com:1990-04-19:US:M:none:bob henderson
strongbad55344:email:daneniemira@yahoo.com:1991-10-20:US:M:none:Dane Niemira
strongbad572:minime:strongbad572@aol.com:1986-12-07:US:M:none:Ian seagondollar
strongbad5742:bubbses22:stephaniecagle@sbcglobal.net:1996-12-03:US:M:4.90.57.224:andrew
strongbad5764:badia:roguec24c@msn.com:1991-06-02:GB:M:none:Andrew Gervasi
strongbad58378:cheat:strongbad47@aol.com:1982-07-24:US:M:none:Daniel Hart
strongbad587:guthix1:princetrunk0@hotmail.com:1990-12-01:NZ:M:none:Strong Bad
strongbad588:pompom:wagnergunny@charter.net:1962-06-24:US:F:none:kassidi gonthier
strongbad597:Chaotic66:ellen@siczewicz.com:1993-07-31:US:M:72.89.71.65:Kyle
strongbad616616:$*$**:ariannap@comcast.net:1987-05-10:US:M:none:StrongBad
strongbad6167:homestar:brain0407@aol.com:1988-04-07:US:M:none:Ryne Kai
strongbad636:826281:strongbad252@yahoo.com:1992-07-16:US:M:none:angel valles
strongbad6464:jimbo5::1994-02-03:US:M:none:strongbad6464
strongbad653:tinks1::1993-08-06:US:F:none:strongbad653
strongbad66563:koala!:james2.0@comcast.net:1993-02-07:US:M:none:steven  reese
strongbad6665:lquidpop:iwichmann@charter.net:1986-08-21:US:M:none:En Nasaguia
strongbad666home:dbzdbz:darkmagicianx666@msn.com:1977-08-08:US:M:none:strong bad
strongbad66_6:trogdor1:the_cookbook@hotmail.com:1993-06-06:CA:F:none:this guy
strongbad67239:shity:dmammamc@aol.com:1990-11-02:US:M:none:steven mcnally
strongbad673:email:jackernic11169@hotmail.com:1987-08-24:US:M:none:yo yo
strongbad673834:email:jackernic11169@hotmail.com:1987-08-24:US:F:none:yo yo
strongbad67398:caleb:norstarhfr@comcast.net:1984-07-19:US:F:none:Joe Mama
strongbad674:casey1::1993-08-10:US:M:none:strongbad674
strongbad6767:apple::1991-05-17:US:F:none:strongbad6767
strongbad69:josh_08:lost_my_socks@hotmail.com:1985-08-20:AU:M:124.184.11.189:i have no name
strongbad69er:boobs:poopsmith_rules@hotmail.com:1992-06-10:US:M:none:zach wernberg
strongbad70:nevels:bearat1992@yahoo.com:1962-12-29:US:M:none:mn
strongbad700:crapforcrap:crazy_gurl97@hotmail.com:1991-08-27:US:M:acceptance:Senior Buttslately
strongbad708:poiupoiu():kjsjms@alphalink.com:1990-07-07:AU:M:none:bob jane
:::::::
strongbad7151:younglink::1996-11-01:US:M:acceptance:strongbad7151
strongbad71793:brindle*::1992-12-15:US:F:none:strongbad71793
strongbad718:sbemail:strongbad718@yahoo.com:1905-04-23:US:M:none:. .
strongbad719:hembree:cjhsoftballchick@yahoo.com:1990-01-10:US:M:none:Corey Hembree
strongbad722:allen::1994-02-02:US:M:none:strongbad722
strongbad7222:spider1:strongbad722@yahoo.com:1993-02-02:US:F:none:allen findley
strongbad722_b11:spider1:strongbad722@yahoo.com:1993-02-02:US:F:none:jay jon
strongbad728:yoshi!:pepin@hotmail.com:1988-10-07:AU:M:none:pepin ulises
strongbad729729:6566920:eaglesfan729@comcast.net:1990-07-29:US:M:none:Robert Perzel
strongbad7343:sunshine:strongbad7343@yahoo.ca:1989-09-09:CA:M:none:Ray Star
strongbad750:cheat::1992-10-22:AU:M:none:strongbad750
strongbad7502:pompom2:marleefarms@comcast.net:1988-03-25:US:F:none:Karli Hillyer
strongbad771:book$::1993-12-10:US:M:none:strongbad771
strongbad7716:girls:pynkmonky2007@yahoo.com:1989-02-15:US:M:none:brandon brumfield
strongbad776:frodorox:mvhswildcats@hotmail.com:1991-06-04:IE:F:none:Andrea Wood
strongbad78232:787480:thunderbolt78232@yahoo.com:1984-12-26:US:M:none:chris wright
strongbad78362:mabudachi!:samuel78362@yahoo.com:1991-07-15:US:M:none:Sam Howarth
strongbad786:catsteak34:ndutton02@4j.lane.edu:1989-08-28:US:F:67.42.198.142:Natalie
strongbad787:Randy (Sarah)::Randy (Sarah):Randy (Sarah):Randy (Sarah):Randy (Sarah):Randy (Sarah)
ewitt):(Hewitt)::(Hewitt):(Hewitt):(Hewitt):(Hewitt):(Hewitt)
:::::::
strongbad8000:977004crash854:zack_attack666@hotmail.com:1988-01-01:US:M:199.212.71.21:Strong Bad
strongbad808:poopop123:strongbad814@sbcglobal.net:1987-08-14:US:M:none:itsik arbib
strongbad81:eggman:artamus@shaw.ca:1990-05-12:CA:M:none:<u>RedMage</u>
strongbad84044:ripper:wilkesboy2@aol.com:1990-12-11:US:M:none:david wilkes
strongbad847:linker::1993-07-19:US:M:none:strongbad847
strongbad848148:dotty123::1993-12-31:US:F:none:strongbad848148
strongbad852:letmein::1992-12-15:US:M:none:strongbad852
strongbad859:chompski:houseleaguehockey@hotmail.com:1991-08-23:CA:M:none:randy man
strongbad86:Leslie86:adamstrongbad36@gmail.com:1980-08-06:US:M:70.243.82.159:
strongbad8771:silverstein2919:showbread8771@yahoo.com:1992-06-06:US:M:71.60.132.95:Nathan
strongbad878:dacheat:max@maxandlee.com:1982-04-03:US:M:none:max  sutton
strongbad882:74332211::1993-11-23:US:M:none:zack idunno
strongbad883:743322111:zackr@swbell.net:1988-09-10:US:M:none:zack dontgotone
strongbad88856:homestar225:jmbpugh@charter.net:1986-06-02:US:M:none:Trace Lions
strongbad889:ilikepie:trogdor889@hotmail.com:1990-01-24:CA:M:205.250.201.183:PJ Enns
strongbad890:heather:badboybabyryan@hotmail.com:1961-03-27:AL:F:none:Bill Gates
strongbad8945:nealsonland:kaiserforte666@yahoo.com:1980-06-23:US:M:none:brian  nelson
strongbad898989:trogdor90:nickyroo@comcast.net:1989-06-19:US:M:none:nick reuland
strongbad900000000:plumpudding911:drummerboy_76@hotmail.com:1991-12-25:CA:F:none:LAF FAL
strongbad900053:HOMESTAR:tjdolman@hotmail.com:1991-04-12:CA:M:none:Turner Dolman
strongbad9001:boobsrule:strong_mad_9001@hotmail.com:1989-11-13:CA:F:none:mike rossidor
strongbad9003:boobsrule:strongmad9003@hotmail.com:1988-05-25:CA:M:none:mike rossidor
strongbad911999:zinder:glewtim@yahoo.com:1971-10-09:US:M:none:George lany
strongbad912:smokey1::1992-08-11:CO:M:none:strongbad912
strongbad913:91000:paulfcox@gcomcast.net:1987-07-21:US:F:none:Bailey C
strongbad924:pearkitten731:jts924@yahoo.com:1990-09-24:US:M:none:Joe Seibert
strongbad9253:strongbad::1992-06-26:US:M:none:strongbad9253
strongbad92598:wuzzup:rebecca@brison.net.au:1992-05-17:AU:M:none:deanrowan
strongbad93:culver::1993-10-12:US:M:none:strongbad93
strongbad94:sheeny13:juanzeferino@adelphia.net:1991-01-01:US:M:75.84.76.73:Strongbad
strongbad9405:homestar:strongbad9405@aol.com:1991-07-18:US:M:none:Lucas Fivas
strongbad941:!@21#3$:brittanylv123@cox.net:1992-08-28:US:F:none:brooke sony
strongbad944:pompom::1994-01-03:US:0:none:strongbad944
strongbad951:cheeeese!:sonicsound5@hotmail.com:1987-09-07:CN:M:none:Theo Piy
strongbad96747:qazqwerty1:smsbpro4u@hotmail.com:1980-11-07:US:M:none:dom arch
strongbad98:Thecheat100::1962-12-11:US:M:72.71.183.223:Kristopher
strongbad9827:nintend0:tulane85@yahoo.com:1991-02-02:US:M:Mail from nightcrawler47mom:Homestar Runner
strongbad987:martin:joshmartin4504@hotmail.com:1981-01-15:US:M:none:Josh Martin
strongbad987156:lovefist:kinexkat@aol.com:1990-06-18:US:M:none:Gage Dvorak
strongbad992_1:21jumpst:tucker@home.com:1964-09-27:SG:M:none:tyheee ejtyjrdgh
strongbad992_1_2_2:21jumpst:tucker@home.com:1964-09-27:SG:M:none:tyheee ejtyjrdgh
strongbad993:coolnick:nickbad99@yahoo.com:1992-01-06:US:M:none:Nick Murray
strongbad998:pigons14:qwert_qaz_zxc@yahoo.com:1991-01-14:US:M:none:Nicholas Myrick
strongbad9999:TheCheat::1993-09-11:US:M:none:strongbad9999
strongbad99990:gohanrox:joeydasilva99@hotmail.com:1984-09-29:CA:M:none:Strong Bad
strongbadaddict:waveofbabies:keithalso@aol.com:1989-10-19:US:M:none:Bob Bober
strongbadanddacheat:7bugbites:gloriakyle@hotmail.com:1912-04-24:US:M:none:Kyle Buttmuffin
strongbadandstrongma:strongbad:legosrule@yahoo.com:1901-10-08:CA:M:none:hi you
strongbadbeta:fuseface12::1999-07-07::M:66.223.210.192:NULL
strongbadcheat2:topthrill:edog229@hotmail.com:1989-06-24:US:M:none:Alpha Kenny  Wun
strongbadcheat309:homestarrunner555:warhammer200555@yahoo.com:1947-05-07:US:M:none:who knows? not sure?
strongbadcrap4brains:sublime:louiedog37@hotmail.com:1984-05-07:US:M:none:Joe Daly
strongbadd:homestar::1990-09-12:US:F:none:strongbadd
strongbadd001:sk8erkid:rrbball@sbcglobal.net:1981-07-15:AF:F:none:Richard Richard
strongbadder:spatel:sapman2k@yahoo.com:1988-07-23:US:M:none:you me
strongbaddest:spatel:traxxman123@yahoo.com:1989-01-10:US:M:none:df asdf
strongbaddragon:yupyup:shayann891@aol.com:1989-07-26:US:F:none:Shay  M
strongbaddude:yahhh::1992-07-21:US:M:Mail from strongbaddude255:strongbaddude
strongbaddude255:joebob:art421@earthlink.net:1986-12-27:US:F:none:laurapalmer
strongbaddude567:meowd::1994-02-05:US:M:none:strongbaddude567
strongbaddude777:anime18:jojopickle@aol.com:1993-04-24:US:M:71.226.133.158:Anthony
strongbaddz:666DevilkittY:strong_bad@enocommons.org:1987-01-01:US:M:none:i have no name
strongbademail628:sb129:jman42989@aol.com:1992-01-13:US:M:none:Hmmm What Is It
strongbademailexe235:crystal:louisjordan58@yahoo.com:1990-05-04:US:M:none:kay king
strongbademails148:homestarrunner:greenbay8585@yahoo.com:1985-09-29:US:F:none:kellie bradley
strongbaden:kansas185:thetacoman79@gmail.com:1995-11-22:US:M:76.204.226.84:robert
strongbadet:carebear:mvassallo@sbcglobal.net:1986-11-15:US:F:Mail from halrosebud:mimi vassallo
strongbadfan113:holy!crap!:hershey_t_113@hotmail.com:1992-01-13:US:M:none:Justin Case
strongbadfan12:th3ch34t:strongbad9112@aol.com:1985-05-20:US:F:none:Brynn Pickering
strongbadfan12346:2cool4u::1993-02-17:US:M:24.72.190.65:Sean
strongbadfan2005:homestarrunnerfan:ddvicino@earthlink.net:1991-06-09:US:F:none:shelbyvickens
strongbadfan27:jenny:shaddowrunner27@netscape.net:1984-04-13:US:F:Trade Closed:JennyLynn
strongbadfan28:strongbad::1992-10-29:US:F:none:strongbadfan28
Strongbadfan33:qwertya11:LCastellanos27@yahoo.com:1997-07-05:US:M:70.127.90.65:Luis
strongbadfan357:343975::1996-06-14:US:M:98.30.139.120:joe
strongbadfan411:gateway:ngr1232005@yahoo.com:1990-03-15:US:M:none:nick rogers
strongbadfan4ever353:janet:racerxfan4ever@aol.com:1990-09-08:US:M:none:Joseph Walsh
strongbadfanboy:Strong Bad (tom)::Strong Bad (tom):Strong Bad (tom):Strong Bad (tom):Strong Bad (tom):Strong Bad (tom)
:::::::
strongbadfandude:hlycr:strongbadfan@comcast.net:1990-12-21:US:M:none:colin canny
strongbadfannumber1:357lollipop:joseph_deel@hotmail.com:1976-06-14:US:M:65.189.249.158:joe
strongbadfan_27:emerald27:strongbadfan@gmail.com:1988-01-27:AU:F:none:Diana Hewitt
strongbadfhqwhgads:krn4life:fubugrass@hotmail.com:1967-03-08:US:M:none:strongbad fhqwhgads
strongbadforever:females:vballprincess859@hotmail.com:1989-08-01:US:F:Mail from alias927:Strong Bad
strongbadforever721:91000:paulfcox@gmail.com:1987-07-21:US:F:none:Bailey C
strongbadgirl:spooky1490:hofstad14@hotmail.com:1989-09-14:US:F:209.237.102.199:Danielle 
strongbadgirl84:ditoe84:strongbad_girl8@yahoo.com:1990-06-08:US:F:75.25.165.216:jessica
strongbadguy:sharke::1993-02-02:CA:M:none:strongbadguy
strongbadhaha:URMUM:billybones_529@hotmail.com:1986-03-12:GB:M:none:Matt Weerdmeester
strongbadhomestar:thecheat:racerxj7@yahoo.com:1983-12-19:US:M:none:Benjamin Steiner
strongbadhomestarbub:gotenks:frogsquasher2000@yahoo.com:1990-04-09:US:F:none:jake fullerton
strongbadia10:cheat:theresamor2000@hotmail.com:1982-06-16:US:F:69.255.111.151:kayla wells
strongbadia1112:reagan1:rhodam41@aol.com:1990-11-11:US:F:none:Erin None of your business
strongbadia11391:pompom::1991-11-03:US:F:none:strongbadia11391
strongbadia12:power444:technolivia@yahoo.com:1976-01-27:US:M:70.144.134.223:trey
strongbadia127:ivygirl::1994-01-27:US:M:none:strongbadia127
strongbadia1617:reagan12:the_coming_of_evil@yahoo.com:1992-11-12:US:F:24.115.33.68:Erin
strongbadia19:martha:isitsmee@yahoo.com:1990-11-21:US:F:Can I be your NeoFriend?:Mr. Smee
strongbadia234:Strongbad:sotofakj@comcast.net:1982-12-22:US:M:none:JacobSoda
strongbadia3:pupp22::1999-02-19:US:M:63.228.49.63:andrew
strongbadia30:taztaz:bubblybutt@rock.com:1989-10-14:US:M:none:robert i forgot...
strongbadia37:thecheat:solo_4_life2000@yahoo.com:1980-10-11:US:M:none:no way
strongbadia666:golden10:propylene_oxide1@hotmail.com:1988-02-05:CA:M:none:bobx jimmycheesesteaks
strongbadia7777:n1ntend0:fooeyonyou3@optonline.net:1993-06-06:US:M:none:koris wings
strongbadia79:homestar::1993-03-03:US:M:none:strongbadia79
strongbadia88:homestar:mtt1292@yahoo.com:1990-12-05:US:M:none:mike toad
strongbadia91:beast:choirgirl50@yahoo.com:1990-06-10:US:F:24.145.158.190:Molly
strongbadia92:sammey::1992-08-31:US:M:none:strongbadia92
strongbadia991:Cheat:apmilkyway@yahoo.com:1991-06-17:US:M:none:Austin Penner
strongbadia9x:iy0715::1993-07-15:US:M:none:strongbadia9x
strongbadiaboy11:mymama:trogdortheburninator11@hotmail.com:1985-12-12:US:M:none:wouldn\t u like 2 know
strongbadiaknight:thisismypassword:reallyshortdude@hotmail.com:1983-05-21:CA:M:none:some guy
strongbadiaman222:strongbad:strongbad182005@yahoo.com:1985-03-09:US:M:none:Timmy  Turner
strongbadiamon:nowayhose0:mbnez@aol.com:1902-12-25:BD:M:none:Sam Harthinggarther
strongbadian:840891::1997-07-02:US:F:24.227.155.182:Catfood
strongbadian80:rusty1:strongbadian80@aol.com:1992-02-12:US:M:none:crap for brains
strongbadianriverque:aquabats!:tonks0790@aol.com:1990-12-25:US:F:none:Bad Strong
strongbadiaroxman:nathan:terminater725@aol.com:1991-07-25:US:M:none:Nate  Nagar
strongbadia_1:permission121:strongbadia1564@yahoo.com:1991-12-14:US:M:none:mike hall
strongbadia_5_5:hom3star:fooeyonyou3@optonline.net:1993-06-06:US:F:none:john smith
strongbadia_7_7_7:ballsofd00m:fooeyonyou3@optonline.net:1993-06-06:US:M:69.116.2.203:strong bad
strongbadia_thecheat:stingray::1991-05-18:CA:M:none:strongbadia_thecheat
strongbadinkal6430:bobthebuilder:strongbadinkal6430@hotmail.com:1990-01-12:AU:M:124.150.57.107:stephen weightman
strongbadio:connor::1993-03-21:US:M:none:strongbadio
strongbadisasome:hihihi52:shunyou62@yahoo.com:1992-02-02:US:M:72.147.25.199:bob
strongbadisbad:qzwxecrvtb::1992-02-24:US:M:none:strongbadisbad
strongbadismyhomedog:badtobone:littlecorgi101@yahoo.com:1985-05-21:US:F:none:Strongbad
strongbadisthecool:strongbad::1991-07-20:US:M:none:strongbadisthecool
strongbadjoe:thecheat123:joeywomer@yahoo.com:1989-4-20:US:M:108.8.65.78:Joseph
strongbadjr88:therock:jrinmd88@aol.com:1982-06-25:US:M:none:John Coursey
strongbadlives:females::1993-08-03:US:F:none:strongbadlives
strongbadlovesme:utonium:ilovecoachz@aol.com:1988-06-14:US:F:Can I be your NeoFriend?:cass bad
strongbadluva:hstarr::1992-10-21:US:F:none:strongbadluva
strongbadluver:thecheat::1994-04-18:CA:F:none:strongbadluver
strongbadluver123:cailey::1991-05-23:CV:F:Mail from dirkniblick:strongbadluver123
strongbadluver1233:raleigh:dirtyethelbonney@netscape.net:1991-07-18:US:F:none:Jeff_Roy
strongbadluver1234:cailey::1991-05-24:GB:F:Mail from dirkniblick:strongbadluver1234
strongbadluver202:mynameisbilly101:neopetsuser101@yahoo.com:1980-10-08:US:M:none:william straight
strongbadman1:1theman1:frozenengineer@gmail.com:1984-10-16:US:M:141.219.155.173:
strongbadman102:dacheese::1992-10-09:US:M:none:strongbadman102
strongbadman103:moocowman::1993-03-12:US:M:none:strongbadman103
strongbadman117:thecheat::1975-09-11:US:M:none:Jake Burke
strongbadman17000:kalafrazimalkapop:eraserman@sbcglobal.net:1991-05-26:CU:M:none:jake mickels
strongbadman177:homestarman:bryonpokeman@aol.com:1971-01-03:US:M:none:bon bon
strongbadman18:iluvjetsam1:lilstiny9@aol.com:1985-03-10:US:M:none:Jacob Havran
strongbadman220:howard:strongbadman220@netscape.net:1982-10-31:US:M:none:Kyle Howard
strongbadman497:qwerty497:beargirl@cfl.rr.com:1988-07-30:US:M:72.188.75.238:Michael Warriner
strongbadman55:soup1:strongbad155@hotmail.com:1990-05-24:US:M:none:blair timpal
strongbadman911:dacheese::1992-10-09:US:F:none:strongbadman911
strongbadman97:0350365035030:wehttam.n@gmail.com:1995-03-08:US:M:74.229.31.94:Matt
strongbadmandude:strongglad:noerulz@aol.com:1966-09-26:VI:M:Mail from theneopetsteam:Bud  Ugly5
strongbadmatthew:giruu:chukar@earthlink.net:1985-05-27:US:M:none:Matthew Moss
strongbadmeetshr:krn4life:strongbadfhqwhgads@hotmail.com:1968-05-06:US:M:none:cartoon hero
strongbadn176:bstrong::1991-11-12:US:M:none:strongbadn176
strongbadnater676:loober:dwlee1@shaw.ca:1990-09-15:CA:0:none:Kevin Lee
strongbadoh:gooddays:strongbadoh@yahoo.com:1979-05-17:US:M:none:John Oh
strongbadoo7:zackzack:tbftgog@bellsouth.net:1991-07-09:US:M:none:zackery gordon
strongbadp:samuel:eikaj@comcast.net:1987-01-13:US:M:none:captain floride
strongbadpower:shutup::1995-07-28:US:F:none:strongbadpower
strongbadrawks:flames3:cheesewagon44@hotmail.com:1992-08-17:CA:F:none:cara d
strongbadrob:milkboy:pyromania93@msn.com:1991-05-09:US:M:none:Rob Graves
strongbadrocks:jeter22:twistedguitar95@yahoo.com:1985-02-20:US:M:205.188.117.19:Jon
strongbadrocks32:narnia::1993-08-29:US:M:none:strongbadrocks32
strongbadrocks61:claudia::1992-08-17:US:F:Mail from animelover2002:strongbadrocks61
strongbadrocks8:rayman:bluehedgehog4567@netscape.net:1980-08-11:US:F:71.238.147.73:ShadowDraik
strongbadrocks81:strongbad:sbemail@hotmail.com:1984-06-13:US:F:Mail from urcrazypompom:Strong Bad
strongbadrocksut:sparky::1991-05-14:US:M:none:strongbadrocksut
strongbadrocksyo:crazy1:mdean@townisp.com:1990-01-01:JP:F:Mail from cuteness440:Hom_ e
strongbadrox709:$iltrtl44:strongbadrox222@hotmail.com:1991-04-28:US:M:128.143.179.247:NULL
strongbadroxbad:crapy:potc_lotr_fan@yahoo.com:1989-05-27:US:M:none:Matt Bracken
strongbadroxors:sbrox:tcbaseball555@aol.com:1990-06-28:US:F:Acceptance:Strong Bad
strongbadrules:doubledare11:spidermanslover@gmail.com:1987-03-24:US:F:70.112.100.125:Mary-Jane
strongbadrules280:midnight:ian.shields@verizon.net:1984-12-26:US:M:none:ihavenoname
strongbads:warcraft12::1996-06-06:US:M:76.104.34.21:Daniel
strongbadsad:email::1992-04-02:US:M:none:strongbadsad
strongbadsadmadrunne:yeast:yeastfull1@aol.com:1989-10-17:US:M:none:Keith Kovolich
strongbadsasome:homstar:chicroom@earthlink.net:1988-10-21:US:F:none:grace aguirre
strongbadsb73:xtra27::1991-11-10:US:M:none:strongbadsb73
strongbadsbestfan:babydoll::1992-07-26:US:F:none:strongbadsbestfan
strongbadsemail:legolasisgood:cre8vone2@aol.com:1990-02-17:US:F:none:StrongBad
strongbadsfan:mymomforgottonameme(again)::mymomforgottonameme(again):mymomforgottonameme(again):mymomforgottonameme(again):mymomforgottonameme(again):mymomforgottonameme(again)
:::::::
strongbadsgirl:ilovechris:rkfifmxpxchic@hotmail.com:1985-05-29:US:F:75.27.145.117:janipants
strongbadsgirl20:cheat:stargirlkab@cs.com:1989-09-20:US:F:none:Karen Brandt
