strutgirlcute3197:cool31::1997-10-31:NI:F:71.132.146.71:scarlett
strutguild:nix 2:xstrut@hotmail.co.uk:1990-02-11:GB:F:none:Miss Strut
struth:paper:joshius53@hotmail.com:1991-03-14:US:F:none:Struth
struth101:king2310:lilscruphy1@hotmail.com:1994-06-16:US:M:69.242.219.108:Devan
struth123:spidey19940:lotrrocks09@yahoo.com:1991-02-28:US:M:none:Andrew Eaves
struth246:london246:struth246@yahoo.co.uk:1971-06-24:GB:F:195.137.17.136:ruth bujack
struth279:Honey::1994-03-02::F:172.141.28.130:struth279
struthaa91:iloveyou91:alstrother91@yahoo.com:1991-10-07:US:F:72.86.56.223:Amanda
struther:allied11::2008-08-01::M:99.138.4.99:NULL
struthers12:penny93:cheetahs316@nwinfo.net:1993-03-16:US:F:75.165.147.170:Adriel
struthers1357:nathan34::2001-05-31::M:74.15.77.237:NULL
struthers32:steelers55::1995-05-06:US:F:76.188.188.213:ericka
struthers471:27612:raleighnc@bellsouth.net:1970-09-18:US:M:none:sam title
struthers48:wildcats75:xkatieannx3@sbcglobal.net:1993-01-20:US:M:none:nick gooden
struthers555:colts18::1999-11-04:US:M:99.28.73.194:michael
struthersball32:steelers55::1995-05-06:US:F:75.24.32.152:ericka
strutherscat2009:bug0024:strusoccer16@aim.com:1991-01-19:US:F:76.188.169.196:Melisa Lamb
strutherschick13:942208:bratangeldoc@yahoo.com:1994-08-22:US:F:24.131.68.104:audrey
struthersgirl21:math32:cheetahs316@nwinfo.net:1993-03-16:US:F:71.215.15.107:Adriel
struthers_wildcats10:av44514::1999-06-29:US:F:207.200.116.138:alex
struthg:griffin:ruthemmagriffin@ntlworld.com:1967-02-05:GB2:F:none:ruth griffin
struthiocamelus:certamen22::1998-04-07:US:M:76.90.28.175:Daniel
struthiocamelus1:certamen00::1998-04-07:US:M:76.90.28.175:Daniel
struthiomimus_555555:baryonyx333:lady_scorpio_31@yahoo.com:1979-07-08:US:M:none:Sterling  Davis
struthious:98590tweak:struthious@rocketmail.com:1992-06-23:CA:F:68.149.130.164:jayjayjay
struthnicnac911:password249360:theloaderclan@msn.com:1990-10-27:GB:F:none:robert loader
struthruth:dingo:howard.olliver1@ntlworld.com:1963-02-19:GB:F:none:ruth phelps
struthruth82:162160825487:NJamieson_82@hotmail.com:1982-12-12:AU:F:60.228.2.179:Natalie
struthrz86:pooker::1991-11-13:US:F:none:struthrz86
struthyb:pinkness1:oleisatigerwholovesbeer@hotmail.co.uk:1988-01-07:GB:F:none:ruthy b
struth_4:mystique::1979-10-03:AU:F:NULL:NULL
struth_mate327:NOWHOT30:estelle_1990@hotmail.com:1990-11-11:AU:F:none:Kimberley Brewster
struth_mz:ruth1984:ruth_mz84@hotmail.com:1984-08-15:AU:F:92.40.230.141:Ruth
strutiff:glee123:kayla_went@yahoo.com:1983-06-26:BR:F:201.53.166.214:NULL
strutilcutie4427:cutiepie211::1997-08-24:US:F:96.244.60.232:kaityln
strutile_cutie442:909180::1999-06-01:US:F:99.1.16.155:kay
strutin:freight:fortner55@hotmail.com:1948-09-01:US:M:none:george harrison
strutin1969:tldp1:xphile@geocities.com:1971-02-10:CA:M:none:m s
strutin1970:tldp1:strutin@gmail.com:1970-02-09:US:M:96.55.25.58:Mike Strutinski
strutindastuff:dynomite::1992-12-10:US:F:none:strutindastuff
strutis:oceanos1:patricialena1@gmail.com:1986-09-12:BR:F:84.90.198.147:Len LS
strutis300:strutis333:godadag@gmail.com:1997-02-11:LT:F:84.46.242.145:NULL
strutit:fabulous10::1998-08-01:GB:F:86.132.106.174:Jordan
strutitonthecatwalk:06bitch:nady28@hotmail.com:1991-01-01:GB:F:76.102.151.170:Annie
strutitsasha:s.p.s.:bratzgirl@einstoon.com:1983-06-01:US:F:none:Stace
struti_lilol:gatinho88::1999-07-07:BR:M:189.105.26.164:ronivaldo junior
strutj:shorty:princessjess88@hotmail.com:1988-11-24:AU:F:none:jess struthers
strutlanger:hanguk0802:zsazsz@hotmail.com:1990-02-17:US:M:72.4.18.163:Justin
strutlecutie4427:cococutie24::2001-07-16:US:F:72.207.74.1:nevaeh
strutlecutie5:limabean50::2001-05-15::F:24.197.24.15:NULL
strutlekitty4427:unicorn12::1998-11-05::F:66.8.178.108:NULL
strutle_kitty4427:pui911:jessicalmaltman@yahoo.com:1995-02-23:US:F:173.71.211.224:NULL
strutlikeastar:happybunny123:clairesneopetsaccount@gmail.com:1994-08-27:US:F:69.236.164.22:NINJAHSTAR
strutlikethat:j6d13s88:thesacredkitty@hotmail.com:1988-06-13:US:F:76.93.243.251:Strut
strutlikeyoomeenitx:snowben123:x_sexy-rach_x@hotmail.co.uk:1990-05-30:GB:F:none:Rachael Rice
strutlikumeanit03:jasmine110:oxsunshiinex3@aim.com:1991-02-10:US:F:165.138.87.253:meg kent
strutlover34:strutrightin7:alicebender@bellsouth.net:1966-08-10:US:F:none:Eliza Merriman
strutmastergmsncom:Sinclair1:strutmasterg@msn.com:1990-11-30:GB:M:none:Stuart Leith
strutn:booters00:strutn4fun@msn.com:1957-12-29:US:F:207.118.94.139:Tami Hickey
strutnoddy:fucker97:crusaderz96@hotmail.com:1994-06-19:SG:M:165.21.155.16:okokokokokokok
strutnoddy243:fucker12::1999-05-02:SG:F:220.255.7.135:seah
strutotu11:1234512::2009-9-30:CO:M:166.210.23.204:juan pablo
strutr7:honey::1994-01-01:US:F:none:strutr7
strutrooster:timmy:strut@thirdroad.com:1986-10-16:GB:M:Mail from shy_me0304:AccountFrozen
strutrooster41:teehee:blahaha_9@hotmail.com:1978-09-13:US:M:none:TreeEert
struts19_93:15326::1993-09-27:NO:F:none:struts19_93
struts716:617sturts:struts@struts.st:1906-10-26:HK:F:none:struts struts
struts93:95762::1993-09-27:NO:F:none:struts93
strutsapphire:lol000:izzykingside@hotmail.com:1990-12-12:GB:F:78.105.123.188:Izzy
strutsekleshenger:passord::1992-11-19:NO:F:none:strutsekleshenger
strutsen:lunarstorm:funny_emmy@hotmail.com:1987-09-27:SE:F:none:Emma Levin
strutsen344:sandra:struts@hotmail.com:1991-01-01:NO:M:none:struts struts
strutsen8:elvira98:ellenteir@hotmail.com:1994-11-14:SE:F:83.233.232.148:Apa
strutseys:struts12::1996-05-24:US:F:67.183.213.225:ashlee
strutsherstuff:walker:beachblondeone7@aol.com:1990-08-29:US:F:none:hannah atkinson
strutsies:csn2006:catherine_norris17.10.91@hotmail.com:1991-10-17:GB:F:82.16.122.8:catherine
strutsies102:csn2006:assdfghjkl@hotmail.co.uk:1991-10-17:GB:F:82.16.122.8:catherine
strutster1:ah1122:dannipooh@aol.com:1991-11-22:US:F:none:Bigd star
strutstratus:connor27:lovehatesme2772@yahoo.com:1990-05-12:US:F:72.74.197.144:shaky
strutstreet:pandaZ98:kirbykirby98@hotmail.com:1993-05-11:US:F:99.71.199.208:Dinosaur!!
strutstrut:65strut::2001-06-20:US:F:99.20.199.88:NULL
strutstuff:gree1n:highclasshatblack@hotmail.com:1985-07-19:US:M:none:isaiah Mcvay
strutstyle:poodle1337:lolly_blondey@yahoo.co.uk:1990-05-25:GB:F:65.44.143.162:pooi
strutstylin:Jesusisrisen101:bffmaltese@embarqmail.com:1996-10-15:US:F:184.0.127.39:Nicole
strutsy:dontforget01:shrimp_basher@hotmail.com:1987-11-11:TD:F:82.28.208.246:Olivia
struts_93:15325::1993-09-27:NO:F:80.212.201.65:struts_93
struts_pride:092791:dopey_dwarf_7@yahoo.com:1991-11-27:US:F:none:Collie Smooth
strutt:DANIEL1791:full_tim3_sk8r@hotmail.com:1991-07-01:AU:M:none:DANIEL SAVAGE
strutt12:peter12:dhdsihdksjdjf@djsiosesj.com:1982-05-07:GB:M:82.43.252.79:peter
strutt130:tabby::1994-02-03:GB:F:none:none
strutt200:z1a2c3:cool_guy_13_90@hotmail.com:1990-01-21:AU:M:Battledome Challenge:Zac srutt
strutt22:maskar:nisse1991@hotmail.com:1990-08-14:SE:M:none:Tobias J
strutt56:mctht4::1994-01-13:AU:F:203.206.104.166:strutt56
strutt682:::2005-05-14:US:F:173.71.162.38:NULL
strutt789:adgjl::1992-06-06:US:M:none:strutt789
strutt999:straty22::1996-06-24:PH:M:121.54.32.68:james
struttabutt:jordan23:shaela_s10@yahoo.com:1996-01-12:US:F:69.245.142.172:shaela
struttaclez:strutt2107:nickstrutt21072@hotmail.com:1987-02-07:CA:M:173.33.115.88:NULL
struttas:5strutke:kstrutt@tiscali.co.uk:1982-05-25:GB:F:none:kevin strutt
struttbrat78:99$$$:macey@iloveneopets.com:1993-03-30:US:F:none:MACEY STRUTT
strutten987:strutten::1993-05-23:SE:F:none:strutten987
strutten_my_stuff101:baker18:racenascar2005@aol.com:1988-08-18:US:F:none:melina lasloses
strutter:mitsybaby:debred77@bigpond.net.au:1984-07-17:AU:F:121.209.4.183:The Devil In Wallpaper
strutter04:mysimba:xxpurple_people_eaterxx@hotmail.com:1989-10-17:CA:F:none:stephanie chapman
strutter05:iluvkiss22:static_signals_x103@yahoo.com:1989-01-20:US:F:24.225.26.187:Shayla Howard
strutter1:strutter12::2003-01-13:IE:F:89.184.47.6:j
strutter10:gunner09:sweetdevi@sc.rr.com:1994-04-07::F:98.25.254.204:NULL
strutter101:madlove101:strutter101@sc.rr.com:1990-12-07:US:M:24.88.84.134:austin chandler
strutter10188:cooper12::1999-05-21:US:F:24.152.231.45:Savannah
strutter102:cooper12::1999-05-21:US:F:75.97.171.110:Savannah
strutter134:sexy!:11047@alexandracollege.ie:1992-04-12:IE:F:none:Alicia Hollywood
strutter191:dms22895:dsand228@yahoo.com:1989-01-01:US:M:69.232.212.78:
strutter1975:farrah75:killroy1875@hotmail.com:1975-11-18:CA:M:76.70.123.24:johnny wayne
strutter199:0401tazz:ejonda@hotmail.com:1980-12-31:US:F:none:Eliza Schuller
strutter2006:spirit2006:freadybob13@yahoo.com:1994-02-26:US:F:67.8.203.119:ashley
strutter2007:spirit2006:strutter2006@hotmail.com:1988-02-26:US:F:184.4.151.158:ashley
strutter21:pusass21:C-dawg_12@hotmail.com:1993-08-16:US:M:71.251.253.127:cody
strutter37x:jasper61:jasper1861@gmail.com:1994-08-11:US:F:68.46.160.2:Alexandria
Strutter41:dance41::1997-10-14:US:F:75.108.223.194:Em
strutter411:daisy247::1987-05-27:US:F::Anna Audrey
strutter444:pie444:willispie4life@aim.com:1992-10-10:US:M:69.243.223.146:willis
strutter493:14145:aliciahollywood@hotmail.com:1992-04-12:IR:F:none:Camilla  duncan
strutter4life54321:dance!::1994-02-19:US:F:none:strutter4life54321
strutter65:12godofthunder::1997-02-03:US:M:68.57.125.114:Conner
strutter666:genesimmons9788:julianosousa8@gmail.com:1988-07-09:BR:M:none:juliano sousa santos
strutter77:charlie77:zach4985@hotmail.com:1975-08-29:CA:F:70.55.22.63:zach
strutter828:fuzzy828:strutter828@sbcglobal.net:1980-12-31:US:F:none:Liza s
strutter840:motleycrue1:sarah.moore2@telewest.co.uk:1985-12-12:GB:F:none:sarah moore
strutter9:Loveyou24:orange_monki_gurl@yahoo.com:1991-03-25:US:F:24.32.231.133:NULL
strutter96:neoplantes96:vinicius_todemais@yahoo.com.br:1985-12-10:TF:M:189.15.221.241:Luan Faísca
strutter97:struttergirl60::1997-08-08:CA:F:142.167.58.19:kaela
strutter98:lovegun98::1998-09-10:US:F:67.9.39.251:brooke
strutter99:meow94:shopper972_@verizon.net:1994-01-01:US:M:71.177.187.234:Desmond
strutter999:lovegun10::1998-11-17:US:F:173.170.12.8:NULL
strutteranne1210:amazed!:anniebaby2009@yahoo.com:1991-03-15:US:F:none:elizabeth anne
strutterbabe1212:041293::1993-04-12:US:F:none:strutterbabe1212
strutterbabes97:hilary97:katieliz@cebridge.net:1997-03-30:US:F:none:strutterbabes97
strutterbee:buzzer23::2007-07-12:US:F:70.253.59.135:amber
strutterbubs:bluenotes33:thunderstruck_180@hotmail.com:1991-05-09:CA:F:96.49.194.182:kerpal
strutterbug:124578sm:robe4687@bellsouth.net:1987-08-24:US:F:none:LynnRobertson
strutterbutter41_8:iloveyou41:strutterbutter@yahoo.com:1991-08-21:US:F:74.93.228.57:sarah
strutterdude13:bubba13::1992-07-30:US:M:none:brandon womble
struttergirl:snowflake72:superstaref@aol.com:1995-04-21:US:F:99.162.204.245:Melissa
Struttergirl123:strutters12:dawnydo295@yahoo.com:1995-12-01:US:F:99.67.116.252:NULL
struttergirl16:newmoon16::2000-02-16::F:98.195.55.145:NULL
struttergirl33:popstar33::1999-12-22:US:F:12.124.26.22:holly
struttergirl9:monkeydoo90:struttergirl8@hotmail.com:1987-08-09:CA:F:142.167.42.108:mackaela
strutterkid:011187:strutterkid@yahoo.com:1987-01-11:US:M:none:ryan bell
strutterms:artie76:struttersuperior@aol.com:1982-03-26:US:F:75.50.179.151:ElizabethCarlie
strutters:010101:imissubb09090@yahoo.com:1985-01-01:US:M:76.79.129.50:strutters
strutterscapt:5281991:hkfan4life@hotmail.com:1991-05-28:US:F:Mail from theneopetsteam:HelloKitty
struttersrule:krista21::1998-02-20:US:F:74.197.165.238:Kayrianna
strutterz:800130957:imahalfa@hotmail.com:1992-03-18:CA:M:69.158.96.233:David
strutter_:luzterin42:geri.mark@gmail.com:1993-08-05:BG:F:195.138.149.125:Gergana
strutter_123:niceskater12:niceskater_123@yahoo.com:1975-04-23:US:M:24.98.215.239:will
strutter_666:smelly666:pink_n_black_s2000s@hotmail.com:1987-05-13:AU:F:none:kate brady
strutter_70:kiss123::1999-01-08:US:M:98.197.48.97:NULL
strutter_74:darkside:strutter_74@hotmail.com:1961-07-06:US:F:none:jess sica
strutter_i:(davids):bobo_the_monkey3@hotmail.com:1992-03-18:CA:M:none:David Hua
:::::::
strutter_rafa:75841901:rafahubner@gmail.com:1992-06-20:BR:F:187.39.48.133:Rafa Hübner
struttgirl01:pigsrock01::2000-08-03:US:F:75.183.144.22:NULL
struttgirls_r_fierce:mylife22:tarynvwilson@aim.com:1993-01-14:US:F:98.24.143.173:Taryn
struttgrl3aolcom:foxe23:struttgrl3@aol.com:1991-02-19:US:F:none:Deana Engelkens
struttgrl56:foxe23:struttgrl3@aol.com:1991-02-19:US:F:none:Deana Engelkens
struttgrl65:pickles23:struttgrl3@aol.com:1991-02-19:US:F:64.12.116.135:Deana
struttguild:poppop67:irishdancegurl97@yahoo.com:1990-01-01:TJ:F:71.237.94.3:Strutt Guild
struttgurl:tokstylez::1992-12-22:NZ:F:none:struttgurl
struttgurl04:loser567::1994-03-02:US:F:none:struttgurl04
strutthatass:123asd:Boxofrox48@aol.com:1995-1-20:US:M:68.200.36.196:Brandon
strutthatgetostuff:geto!:totalcute@hotmail.com:1991-02-02:US:F:none:hannah coots
strutthatrunway:bumlette_04:fivebarrs@npgcable.com:1990-01-01:US:F:24.121.72.244:Dancer
struttherooster:bratwurstomega13::1990-09-06:GB:F:84.67.189.4:AName
struttii:hellocat18:emilystrange189@hotmail.co.uk:1990-11-18:GB:F:81.152.81.51:emily
struttincharlie90:charlietexpepper90:qhfillygirl@yahoo.com:1993-11-07:US:F:216.76.240.39:Lauren
struttindevil:neniabryan69:struttindevil@aol.com:1984-05-03:US:F:75.204.154.70:Nenia Buckingham
strutting:m1ssk1tty:robintimberwick@gmail.com:1992-06-10:US:F:24.247.143.116:Kenny
struttingchickens:jesuss:cheese_makes_me_sneeze@hotmail.com:1980-07-21:GB2:F:none:Rainfall Starstruck
struttingcow:thebookthatis12:ruiz.niko@gmail.com:1990-01-01:US:M:208.57.90.23:Niko
Struttinglion:chester12:vm_juju@hotmail.com:1994-07-12:BE:F:178.116.86.204:NULL
struttingmanatee:Underwater14:ande0016@student.umu.se:1989-07-13:CA:F:94.255.174.218:Aurora
struttingmonkey:rosefalcon:sadiesaunders3@hotmail.com:1989-09-13:GB:F:none:Sadie Saunders
strutting_soup:shea12:strutting_soup@hotmail.com:1987-05-05:US:F:none:Debra Ireland
struttinnstyle:neopetsdancer96:sjkivett@bellsouth.net:1987-11-01:US:F:none:Summer Kivett
struttinxgrand:3449436:struttinxgrand@yahoo.com:1987-08-22:US:0:none:Britt any
struttinxxgrand:iloveu2:rearingxhorse@aim.com:1987-08-22:US:F:74.236.73.20:Rain
struttin_charlie:texpepper*::1993-11-07:US:F:none:struttin_charlie
struttin_charlie_90:*texpepper:qhfillygirl@yahoo.com:1988-11-07:US:F:none:Lauren  Lambeth
struttin_mcfly:motherlode14:laxdoc1@hotmail.com:1909-12-21:JP:M:65.34.167.200:Fredrico
struttin__style713:makka!:energetic2much@yahoo.com:1992-04-06:US:M:none:A$HT0N ?????
struttle69420:muffin12:famous_gurlie1992@yahoo.com:1969-04-20:US:M:71.195.38.25:pootytang
struttles2209:iluvpancakes01:kyerstin429@yahoo.com:1989-11-29:US:F:71.31.224.130:kyerstin pruett
struttman_067:wordpass67:struttman_67@hotmail.com:1992-09-29:US:M:207.119.200.220:ryan
struttman_67:bitch1:struttman_67@hotmail.com:1992-09-29:US:M:none:ryan struttman
struttstar12:bunnys22::1994-11-24:US:F:98.21.205.203:jaimi colt
struttt:squirt16:strutguild@hotmail.com:1992-12-16:US:F:24.155.196.173:Strut
struttus:791946:Tobias22j@hotmail.com:1989-08-14:SE:M:213.66.148.163:Tanaka
strutty:lastrutt::1993-09-21:GB:M:Mail from theneopetsteam:strutty
strutty1423:strutty14235:struttyy@aol.com.au:1990-08-17:AU:M:58.179.107.74:alex
strutty425:strutt:cool_guy_13_90@hotmail.com:1954-04-16:AU:0:none:zac S
struttyostuff13:heyybby1:itsannabby@aim.com:1993-08-02:US:F:none:anna magurany
struttystruter:pass99:jrs93@hotmail.com:1993-12-04:NZ:M:125.239.173.15:James
struttz:romero12:delilafargo@yahoo.com:1997-03-04::F:24.119.102.32:NULL
strutt_gurl:jazzie:dani010391@aol.com:1973-01-03:US:F:none:Death Strike
strutt_hott:6365014::1992-03-24:TT:F:none:strutt_hott
struturstuff1:nh261055::1987-01-01:US:M:none:John Smith
struturstuffk613:SINGER:struturstuffk614@yahoo.com:1990-06-14:US:F:none:KYLIE HARPER
struturstuffk614:DANCE:struturstuffk614@yahoo.com:1990-06-14:US:F:none:KYLIE HARPER
strutxit:mermaid1::1988-07-24:US:F:65.87.160.40:ELLiE
strutxmaxstuff:76421gryff:spruce18@hotmail.com:1987-01-01:AU:F:none:The Next Gemma Ward
StrutxStylexGlamourx:cole311:diipiitlowx5x@aim.com:1990-04-27:US:F:71.201.252.123:Strutx
strutxthexrunway:love34:frenchxmehxbby@aim.com:1990-03-05:US:F:76.16.6.59:kasey
strutxxlady:chicksrule10:applesliceownies@yahoo.com:1993-08-10:US:F:72.144.12.230:Jenica
strutxyurxstuffx:peace13:letscuazeascene@aol.com:1991-10-13:US:F:none:marisa
struty:brunasthephanni123:brunastsms@yahoo.com.br:1992-05-22:MX:F:189.73.5.93:Bruna
strutyastuff:bitch::1994-02-26:GB:F:none:strutyastuff
strutyerstuff:Roxyabs45:debbiestrachan@talktalk.net:1993-02-07:GB:F:90.212.209.184:Claire
strutyoorstuff:piggy123:princess-tilly@hotmail.co.uk:1993-01-28:GB:F:212.84.96.45:Tilly
strutyourstuff:kyleebroke101:softball20grl@yahoo.com:1990-07-24:US:F:65.28.4.8:kylee
strutyourstuff1:nh261055::1987-01-01:US:M:none:John Smith
strutyourstuff498:makeup5:jbcomba@shaw.ca:1993-02-15:CA:F:none:Jill Comba
strutyourstuffyall:private97::1997-05-03:CA:F:173.32.203.181:Jenny
strutyourstuff_:they0me:knivesarefun@gmail.com:1988-03-26:IT:F:none:i have no name
strutyourstuff__:chica02:brains0702@yahoo.com:1993-05-01:US:F:68.1.153.74:Strut
strutyourstuff__40:1234567890987654321:d_harlos@yahoo.com:1992-03-25:US:F:none:sarah harlos
strutz:*Strutz03*:lu.plincesa@gmail.com:1988-08-10:BR:F:187.2.162.108:Ninna
strutz111:noah311::1999-12-10::M:75.135.79.221:NULL
strutzel:marry55:alinestrutzel@hotmail.com:1996-06-05:BR:F:201.83.210.228:aline 
strutzenberg:wereareyou1:thebeezkneez16@yahoo.com:1989-03-01:US:F:none:Jamie B
strutzii:missi:donkey_love@jippii.fi:1990-01-17:NC:F:none:Gwenny Gwen Gwen
strutzk:388949519:kare_bear217@hotmail.com:1984-02-17:US:F:none:kerry strutz
strut_2:fishing22::1994-03-17:AU:F:58.170.172.250:Tayla
strut_3:iwolff1::1994-04-02:AU:F:none:strut_3
strut_baby:doggygirl1:annikab@sbcglobal.net:1993-07-25:US:F:66.169.115.48:Melinda
strut_baybee_x:kaykay1:shortiiox3@aol.com:1989-03-15:US:F:69.121.241.136:kaylee miller
strut_baybee__:kaykay1::1994-03-15:US:F:none:strut_baybee__
strut_grl_strut:luvcory43:stefizzle_96@yahoo.com:1992-07-07:US:F:72.209.217.246:stegh
Strut_It:guildaccount00:maddi.centerstage@yahoo.com:1995-01-01:US:F:68.93.178.30:(
strut_it_babe:loveya1:bloomsbooh147@aim.com:1992-08-31:US:F:none:Fashion Girl
strut_it_babex3:loveya1:BloomsBooh147@aim.com:1991-08-31:US:F:none:Strut It Babe Best Guild EVER
strut_like_dat:omg540:outoftouch716@aim.com:1994-04-15:US:F:69.253.5.225:Jocelyn
strut_my_stuff181:im133::1993-12-14:AU:F:none:strut_my_stuff181
strut_real_sassy:sugarhoneyhoney*12:love-is-pure@hotmail.co.uk:1990-10-23:GB:F:212.32.68.98:Rachel
strut_that_runway:heeed123:NatterBatter@gmail.com:1994-07-28:US:F:67.149.249.150:Soph Dahhhling
strut_that_stuff:flip*:lsvodanovich@xtra.co.nz:1993-01-27:NZ:F:none:ella vodanovich
strut_ur_stuff:mochad12:eugenie1596@gmail.com:1992-01-15:US:F:96.18.200.12:Rosalie!
strut_ur_stuff25:charter8:look_at_me852@yahoo.com:1991-06-03:US:F:none:courtney amanda
strut_ur_stuff999:yoyosh94::1994-02-27:US:F:none:strut_ur_stuff999
strut_your_stuff:danz545::1993-10-06:US:F:71.75.233.185:i have no name
strut_your_stuff11:nephews12:lil_mizz_funky@hotmail.co.uk:1993-05-24:GB:F:195.93.21.8:Sarah
strut_your_stuff_0:cute17:acpinkcutie17@aol.com:1987-06-01:KY:F:none:Natalie Waldorf
strut_your_stuff_123:watson!!_123_4::1994-03-16:US:F:none:strut_your_stuff_123
strut_your_stuff_hun:socks123:aw.jarvis@virgin.net:1992-07-02:US:F:86.26.204.22:Matty
strut__23:iwolff2::1994-02-17:AU:F:none:strut__23
strut__it:meis1:1ocd@sbcglobal.net:1992-12-29:US:F:none:Brittany
strut___x:runway94:muzik_freek27@yahoo.com:1994-08-30:US:F:24.5.205.18:Madi
struud:w00dstock:astruud@yahoo.dk:1991-10-23:US:F:62.199.35.75:Astrid
struude:love10:x________grrr@hotmail.com:1993-11-10:MX:M:201.152.144.101:akkaka
struudel00friend:dont kill63:hobothejobo@gmail.com:1980-10-31:US:M:24.42.237.131:clorange
struudeli:nosexbar:struudeli_@msn.com:1989-03-29:FI:F:none:Emilia ...
struufje:struving98:skorps4life@hotmail.com:1990-04-24:NL:M:85.150.188.158:oscar
struuke:green123:satori600@hotmail.com:1987-12-03:US:M:none:Derek Reid
struunerpjotr:M!(he!_:micheljonker@hotmail.com:1986-12-03:NL:M:none:Hein Hielkema
struunk:cabana14:ana.alovs@gmail.com:1990-03-14:BR:M:201.34.237.135:Niffo z:
struupy:9463Struupypower9463:struupy_xx@hotmail.cOM:1995-08-18:CA:M:86.90.122.121:Struupy
struutt:37113529:cookislandsoldier_nz@hotmail.com:1993-04-08:AU:M:61.69.234.33:lorenzo
struuudel:6449598:rockthe40oz@mail.com:1985-07-22:US:F:none:stru del
struux:camarista171:vct.fake@gmail.com.br:1993-05-07:BR:M:201.51.87.185:Victor
struuy:roxygirl55!:roxysheena5@hotmail.com:1990-1-29:CA:F:65.95.160.83:Sheena
struvaluva:floby:harrystruv@msn.com:1991-01-30:GB:M:none:Harry strouthous
struvan:superman1:struvan_@hotmail.com:1975-09-11:SE:F:none:Sara Johansson
struvarion:350450:mateusnvillela@yahoo.com.br:1970-02-03:BR:M:187.58.235.34:NULL
struve:8623973:danielamerlin@hotmail.com:1994-08-20:VE:F:190.73.96.237:Lulu...
struve1:struve12:seje-jacob@hotmail.com:1990-08-31:DK:M:131.165.112.170:jacob
struve10:rosie10:groovystruve17@yahoo.com:1994-08-10:US:F:74.193.93.60:maddy
struve123:struve1234:seje-jacob@hotmail.com:1990-08-31:DK:M:131.165.112.170:jacob
struver:molestia1:struver_@hotmail.com:1970-01-01:BS:M:none:Struver El nomo-molesto
struvey:loveit:babeblue298@aol.com:1988-10-07:US:F:none:Michelle Struve
struvey051:football77:struvey051@yahoo.com:1989-06-29:US:M:96.31.2.194:Brady
struvey08:loveit16:babeblue298@aol.com:1989-11-08:US:F:none:Michelle Struve
struvinger:gtasan23::1999-07-09:VE:M:201.248.15.51:hubert
struviz:49722252:apiise7@hotmail.com:1995-10-08:BR:F:201.27.31.70:vanessa
struvle:redheart!127654321:ronydalc@hotmail.com:1995-06-20:CA:M:70.30.74.27:Michael
struvx:meischa28:sportie_fan@yahoo.de:1986-02-09:DE:M:83.221.80.165:tim
struwaard:dewrede99::1999-01-04:NL:M:83.189.255.17:gijs
struway_bird:caralho:rafael.loureiro@gmail.com:1980-10-11:BR:M:none:Rafael Loureiro
struwburry:U8UfmdgF123:mandy.fischer96@web.de:1996-01-20:DE:F:91.61.53.199:Mandy
struwbury:inuyasha12:katie122333@gmail.com:1994-01-25:US:F:68.231.164.225:Katie
struwe:0627274790:Marst0102@hotmail.com:1990-02-01:NG:M:86.80.40.52:Michael
struwe06:76529968:www.djstruwe@yahoo.de:1978-04-06:DE:M:none:benny hauke
struwe6:elli22995:ratellen@gmx.net:1995-09-22:DE:F:91.1.251.221:Ellen
struwel:matze19:antje1992@gmx.de:1992-12-24:DE:F:95.33.49.73:antje
struwelinchen:147852:vivienp.1990@hotmail.de:1990-12-18:DE:F:none:Vivi P.
struwellin:liebe::1992-11-28:LU:F:none:struwellin
struwelpeter:cornelius97::1997-03-24:DE:M:80.129.62.22:Florin
struwelpetra:S1a1b1I1n1e1:yasmin.kunzi@gmx.de:1992-04-03:DE:F:95.91.14.195:Yasmin
StruweThielke:739152:funkystranger@gmail.com:1987-05-27:DK:M:194.239.203.142:NULL
struwi9:TPX78DVEA::2000-04-22:DE:M:85.179.142.28:karl
struwig:struwig1009::1993-09-10:NZ:F:122.57.81.59:Kimberley Struwig
struwwel:vorfreude1:nora_usa@web.de:1989-12-28:DE:F:none:Nora Reger
struwwel1:triff00:marci1994-hameln@web.de:1994-06-04:DE:M:84.130.52.52:struwwel
struwwelbohne:Erato12.:little-eto@web.de:1994-04-26:DE:F:79.203.180.74:Erato
struwweljimmy:number23:jimmyknott@hotmail.com:1993-07-01:GB2:M:82.31.78.31:Jimmy
struwwelpeter:black123:kathrynSchaub@mac.com:1991-12-04:US:F:96.240.8.17:Kathryn
struwwelpetra:unesep897:kwwcarr@gmail.com:1990-11-22:US:F:69.138.64.9:NULL
struwwelpupp:7pp4ff:RachePur@gmx.de:1989-10-23:DE:F:87.155.111.200:Candy
struwwel_1_1:sandra44:sandra-piepenbrink@web.de:1994-02-26:DE:F:88.76.215.129:Sandra
struwwl79:missy79:Struwwl@yahoo.de:1979-05-24:DE:F:178.7.46.5:Paty
struwwls_pets:missy79:Struwwl@hotmail.com:1979-05-24:DE:F:217.6.41.130:Patys Pets
strux93:bandit!:strux93@hotmail.com:1992-03-12:US:F:71.222.96.84:strux93
struxd:52891tw:uezpz@yahoo.com:1991-05-28:US:M:96.40.146.252:joey
struxen:death7070:sovietrussia@rocketmail.com:1990-11-08:US:M:71.252.147.68:hannah montana
struxk:t5289:iitztimmy@yahoo.com:1988-05-28:US:M:none:BLOW THE WHISTLE
struxo:123452212::1993-12-22:AU:M:none:struxo
struyk:ramstein12:weloveyouto@live.nl:1992-06-12:NL:M:77.250.133.117:Hugo
struyke2:NEOPETS23::2000-02-18:CA:F:76.69.9.43:Emily
struykj:struyk20:joshstruyk@hotmail.com:1994-03-20:CA:M:70.49.15.45:josh
struykj123:struykjosh20:joshstruyk@hotmail.com:1989-03-20:CA:M:70.51.76.254:Josh
struykj6:struykjosh20::1997-03-20:CA:M:76.69.15.137:Josh
struykjs:struykjosh20::1997-03-20:CA:M:76.69.9.43:Josh
struysinator:bl00sclues:char_struys@hotmail.com:1990-10-18:CA:F:none:charlene struys
struyven83:stoffel:esther_de_kok@hotmail.com:1986-11-10:BE:F:none:Esther de Kok
struz:googoo11:poetman70@hotmail.com:1983-04-25:US:M:71.156.83.224:spencer
struze:adbrew77::2001-2-15:US:M:174.60.28.133:andrew
struzer:81ionaway::1994-04-29:GB:M:none:struzer
struzer505:81ionaway::1994-04-29:GB:M:none:struzer505
struzey_boy:lsvenergy12:lilstruan@aol.com:1986-07-14:GB:M:94.197.106.64:struan
struzhkina:rebeca07:saps-94@hotmail.com:1992-04-22:ES:F:62.57.143.72:natalyaspet
struzi:143587::1998-11-04:IT:F:93.148.104.232:susanna
struziik26:sarahann26::2007-09-12:US:M:24.34.177.73:Makiko
struzinski:masternick123:j_love_forevea@yahoo.com:1992-01-11:US:M:none:nick gbf
struzz:snowball::1991-04-18:US:F:none:none
struzzal:michy166:hottmich@hotmail.com:1980-10-03:CA:F:216.16.224.169:Struzzal
Struzzi:2cool4u:struzzi2166@yahoo.com:1985-03-01:US:M:76.18.244.43:NULL
struzziero11223:laine12345::2002-06-04:US:F:76.179.183.246:NULL
struzzo:michael98:jjt.timmers@home.nl:1980-09-25:NL:F:none:N Pet
struzzoman:pentarou72:gabrielemevio@yahoo.it:1972-09-26:IT:M:217.202.172.52:Lele
struzz_struzz:MaGaZiNe12::1997-06-04:PH:F:122.53.170.37:Anna
stru_owns_me:d0lph1n22:averi4122@gmail.com:1990-12-09:US:F:98.201.123.249:Averi
strv:21080:strv121@hotmail.com:1983-05-22:SE:M:none:Sebastian Jansson
strvbll2:2012rkm:scott_mc@comcast.net:1992-08-09:US:F:none:Cara mcconnell
strvela:elmosworld12::1997-10-24:US:F:72.10.125.238:Martay
strvfr7:zeke34::2002-07-11::M:98.218.100.25:NULL
strvingartist:dunkin360:eekluwin@gmail.com:1985-06-03:US:F:71.228.135.213:Emily
strvinlykmarvin3:mozart33:ciky_33@yahoo.com:1989-06-06:US:M:69.208.11.229:justin
strvinmarvin:1016am:starvinmarvin1016@hotmail.com:1988-10-22:US:M:none:aaron kay
strviplost:noventanoventa90:gustavo.10vc@hotmail.com:1995-02-04:BR:M:189.27.98.232:george
strvit1000:129694998::1992-07-13:TW:F:none:宣瑋 黃
strvllybll94:droge:sparklez58@aol.com:1991-05-17:US:F:none:Shann Drogie
strvltz2486:sokker2:niskypv2486@aol.com:1988-01-05:US:F:none:Pole Vaulter
strvn:sytse:sytseriniavannauta@hotmail.com:1992-05-12:CL:M:none:strvn strvn
strvnartist:sugarplum:khanford@alltel.net:1990-04-08:US:F:Mail from catcrazy_eh:Susan Kachman
strvngartst10:nirvana7:strvngartst710@yahoo.com:1988-08-10:US:F:none:Jessica Corbett
strvnmarvn:taylor07::2001-10-22:CA:F:99.227.109.59:tay
strvnvagitarian:tanquery56:xbphx@MocoSpace.com:1953-09-29:US:M:69.171.160.159:terry
strvw5yv:gve4y34y5v3:yui12@gotcha.com.my:1969-11-19:KR:M:none:5yv3 2v5y
strvz:passive69:ravazesatria@yahoo.com:1988-12-23:ID:M:125.161.170.36:satria
strw:8135462:puma_ls@hotmail.com:1991-01-05:MX:M:200.66.47.156:oscar lopez samarripa
strwab293:cats02::1997-11-02:US:F:205.188.116.138:lynette
strwaberr:J9kelly::1993-09-11:SG:F:none:strwaberr
strwaberry:kitten008:x0me0x@yahoo.com:1990-01-30:US:F:98.200.190.132:Sarah
strwaberry123:eboine1234::1997-10-30:US:F:199.80.65.3:taylor
strwaberry1234:eboine1235::1997-10-30:US:F:199.80.65.3:Taylor
strwaberry28:sexyback28:baezmarfel@live.com:1994-01-28:US:F:67.84.46.14:marfel
strwaberry32:strawberry32::1999-07-20:CA:F:76.11.42.129:michaela
strwaberry734:awsome12::1999-01-01::F:142.165.183.155:NULL
strwaberry94:ian_94:england_lover808@hotmail.com:1992-02-08:US:F:209.179.168.51:Kristen
strwaberrydaquri25:johnlynn:strawberydaquir7@aol.com:1987-11-09:US:F:none:Jessica M
strwaberrydebutante:041287:sandeemusready@yahoo.com:1986-03-09:US:F:none:ShelliF
Strwaberrykiwi:zaria124::2000-08-24:US:F:70.130.158.215:NULL
strwaberrylips:Glennsboo27:angel_wif_horns_69@yahoo.com:1988-10-10:NZ:F:none:Celanchia van As
strwaberryprincess:662397kepasini:teddybearprincesscutey@live.ca:1993-04-29:CA:F:38.111.125.211:Kepasini
strwaberryshorty30:yummy:kaitym@hotmail.com:1990-05-29:US:F:none:kaity mcpherson
strwaberrysquirrel:0579455:flutkid6142@hotmail.com:1990-12-24:US:F:none:Let me think about this ....NO!
strwaberryteacake:srogi11:srogi1@eq.edu.au:1993-12-01:AU:F:58.104.218.183:steph
StrwaberryXCheescake:images123:rumaisa2008@hotmail.co.uk:1990-12-24:GB:F:2.221.90.175:NULL
strwaberry_09:lavelle:strwaberry_09@yahoo.com:1991-03-25:US:F:none:stephanie lambert
strwaberry_101_123_1:skyhorse15:horsegirl_lia1@yahoo.com:1985-04-03:US:F:none:jgkejgljs jhfjshkjhslkfhs
strwaberry_berry6:lilboi13:m.threatt@yahoo.com:1991-03-08:US:F:71.248.153.65:natalie
strwaberry_blueberry:helenchan97:lil_babyangel_7@hotmail.com:1990-02-14:CA:F:24.84.227.115:Helen chan
strwaberry_cupcake:iamnotlame:i_am_so_lame@msn.com:1989-05-09:AU:F:Mail from jellybeans_mixed_one:CatherineBorck
strwaberry_cutie454:razorgirl1:vanessa_model555@yahoo.com:1993-11-18:US:F:none:Kate Smith
strwaberry_dinorawr:12tiemyshoe:boo6106@yahoo.com:1991-08-15:US:F:99.160.7.129:sarah
strwaberry_lollypop:30200088:strawberrys_n_cream91@hotmail.com:1986-11-25:US:F:none:Julia Smith
strwaberry_luvr:cvbnmj:elizabethorr@hotmail.com:1988-06-06:US:F:none:strawberry luvr
strwaberry_mm:cherry:strawberry_shortcake_mmmmm@msn.com:1966-12-28:BY:F:none:hi hi
strwaberry_nezz:iluvu:nezzy_90@hotmail.com:1990-03-31:AU:F:none:nuray subuler
strwaberry_pop:32602245::1997-11-04:BR:F:187.18.237.117:mirella
strwaberry_shart_cak:karate!:ic3princess72@aim.com:1905-10-06:US:F:none:Sara Lee
strwaberry_shortkake:sierra88:barbie_5577@hotmail.com:1990-01-25:CA:F:99.243.255.179:sierra
strwaberry_shrotcake:strawberry13:uniquemcqueen@yahoo.com:1996-01-30:US:F:69.171.160.101:unique
strwaberry_snow06:benaffleck:rachiel_leigh062004@yahoo.com:1985-03-01:PH:F:none:Donna Redondo
strwaberry_tart112:Carlie12::2001-08-16:GB:F:91.105.241.109:Charlie
strwaberry_waffles:ARS_1996:camo_411@live.com:1990-05-06:US:F:216.105.224.96:amanda
strwaberyshortcake7:3071997:saminfam@netvision.net.il:1987-07-30:IL:F:none:m s
strwacket:strwacket12::2009-12-31:AR:M:190.245.165.124:strwacket
strwanderer:ilovenick1::1993-09-28:US:F:none:strwanderer
strwar:lightsaver:joycestrong@shaw.ca:1988-04-05:CA:F:none:lukina skywalker
strwarberrycake:lollipop12::2001-02-05:US:F:122.107.128.243:NULL
strwarclone:sushi:mel_belle@sbcglobal.net:1988-08-01:US:F:none:Melanie L
strwars:starwars::1992-06-17:US:M:none:none
Strwars123:alfredoc12:karinac9@gmail.com:1995-08-14::F:69.180.171.151:NULL
strwars2001:cody2004::2001-06-16:US:M:24.15.162.22:Kyle
strwars8776:colnewars87::2001-07-09:US:M:209.107.209.14:ryan
strwars95:password11:eje01@aol.com:1980-06-18:US:M:71.201.112.34:eric
strwarsfreek:271mcal:strwarsfreek@aol.com:1992-08-21:US:F:152.163.100.132:Jade
strwarsfrk:whatever:moviefrk1357@yahoo.com:1987-10-13:US:F:none:Sydney Bristow
strwarskjs:shirky:mathboygeek92@microsoft.com:1991-05-17:US:M:none:Kyle Shirk
strwars_luvr516:thechewy:postmaster@incopets.itgo.com:1970-05-24:GB:F:none:Madison Dahlquist
strwary:televisao12:neoponts@hotmail.com:1996-10-04:US:M:187.111.10.130:strwary st ow sng
strwawberryguy:superman22::1998-03-25:US:M:207.200.116.139:Amari
strwawberrylver:findingnemo27::1984-07-27:GB:F:none:natalie rodes
strway2zepen13:642351:bluenaku2@aol.com:1982-11-13:US:F:none:Allie
strwb293:cats02::1997-10-02:US:F:64.12.117.13:anna
strwb3rii:strawberry11:vanilla_princess123@hotmail.com:1991-05-15:CA:F:99.235.92.76:strawberry
strwb3rrii:bubbles12:candie.chan@yahoo.com:1991-05-16:CA:F:99.235.93.209:candii
strwb3rry101:h0peful::1993-10-25:US:F:none:strwb3rry101
strwb3rrykissez:kmgkmg33:missbabydoll247@yahoo.com:1985-06-01:US:F:75.132.109.131:Gabby
strwb3rrysn0wbubl3:taeyeon1:jasminekim@hotmail.com:1989-05-12:US:F:none:Jasmine Kim
strwb3rry_sh0rti3:vonazare::1993-10-04:US:F:none:strwb3rry_sh0rti3
strwbarie210:sallen:sallen167@attbi.com:1987-02-10:AQ:F:none:Sally Holmes
strwbarishrtcke:coolio424:patticakez7@aol.com:1987-11-19:US:F:none:Mackenzie
strwbary9876:jwon9876::1997-04-04:US:F:97.97.102.61:Lori!
strwbaryshrcke:jesusrox:superchik44@yahoo.com:1989-07-19:US:F:none:carleigh smith
strwbblnd9:strawberry:www.strwbblnd9@aol.com:1988-09-08:US:F:none:Jordan Beach
strwbblondey:julie1:jreedme@comcast.net:1992-06-06:US:F:71.59.19.88:Julz reid
strwbearrywhine17:deanna:dkhorses@juno.com:1987-04-12:US:F:Acceptance:Heather Ellis
strwbeary:cb4ever13::1997-01-06:US:F:69.230.128.13:Bug
strwbearybaby:sunshine:luffybunny@hotmail.com:1986-12-10:NZ:F:none:Mrs Sarah Bloom
strwbearybloombabe:sunshine:luffybunny@hotmail.com:1986-12-10:NZ:F:none:Mrs Sarah Bloom
strwbearydlite77:Tiffany1:dumbblonde6602@hotmail.com:1989-09-12:US:F:none:Tiffany Warner
strwbeeryshotcake:225541:rickbellasteph@yahoo.com:1991-10-14::F:24.167.20.141:NULL
strwberesh0rtcke:ilanamm1:prettycrazycurlz@hotmail.com:1988-01-11:US:F:none:Ilana MaryTylerMoore
strwberi:9054772798:funnycarmenguan@gmail.com:1994-08-13:CA:F:99.238.22.103:carmen
strwberi220:charu29::1997-08-06:AU:F:72.145.129.106:Kayla
strwberidevil:piwealth2:strwberidevil@hotmail.com:1986-03-31:US:F:24.0.194.83:serena tse
strwberiencream5:cheeto!:leabobea@comcast.net:1980-06-11:US:F:none:hi bob
strwberieshrtck:marie8:greenstrwberry88@aol.com:1988-08-05:US:F:none:Lauren **BeRrY** Merideth
strwberiesrule05:strawberries::1992-06-05:US:F:none:strwberiesrule05
strwberie_sweethrt09:cher11:choirgrl09@myspace.com:1991-01-16:US:F:152.163.100.74:Selena
strwberiflds:snlrocks13:Strwberiflds@aol.com:1989-09-13:US:F:72.224.118.51:Jay
strwberiflds9:mccartneylennon93:strwberiflds@aol.com:1990-09-13:US:F:72.224.59.152:Julianne
strwberiie123:SHAKEY11:TYSHAY_ISALLTHAT@YAHOO.COM:1994-09-28:US:F:68.80.117.15:TYSHAY
strwberiikiszes:douglas:strwberiikiszes@aol.com:1983-12-13:US:F:none:Kelley Odell
strwberiizncreme:juju910:strwberiizncrem@netscape.net:1990-09-04:US:F:71.201.135.228:Oliver
strwberii_mochi:sarang::1992-06-28:US:F:none:strwberii_mochi
strwberikist:Tweety72:strwberikist1372@cox.net:1989-05-24:US:F:none:Holly Bidanjiri
strwberilover272:kissez:spoiled19@sio.midco.net:1990-08-19:GB:F:none:Laura Reese
strwberishorty:chelsea:skittllez704@aol.com:1990-07-04:US:F:none:Chelsea Giroux
strwberishrtcke:chelsea1994:pooh_bear_shanny_2002@hotmail.com:1982-09-07:CA:F:69.159.59.55:Shannon R
strwberishrtcke10:jesus212:pinkie010k@yahoo.com:1992-06-23:US:F:none:amanda timpte
strwberishrtcke_:chelsea1994:strwberishrtcke1982@yahoo.com:1982-08-07:CA:F:none:Shannon R
strwberistar:kat1989:sassykat1989@cox-internet.com:1989-04-20:US:F:Acceptance:kathleen hilton
strwberiswirl87:lilkitty:blueeyore87@comcast.net:1987-07-15:US:F:none:Jessica Bowman
strwberitwst:peanut18:strwberitwst@aim.com:1987-06-29:US:F:none:Katie Markham
strwberizncream:91673753:prinzes_gurl@yahoo.com:1985-06-22:US:F:none:straw berry
strwberizncream808:piglet53:prinzes_gurl@yahoo.com:1985-06-22:US:F:none:kindy kim
strwberi_dakury:b1l8i2nk:sozasama@hotmail.com:1987-05-14:US:M:none:Soza Jain
strwberi_qt:funkymoney:vision_nguyen@hotmail.com:1989-05-17:CA:F:68.148.226.225:SQ
strwberrees:sh00tinstar:teafini@yahoo.com:1992-02-08:US:F:none:Tiffany Guo
strwberri:jojo345:sasjojo_2002@yahoo.com:1994-05-26:US:F:98.194.168.3:jojo
strwberri1985:ij7vetau:strwberri@ordoilluminatorum.com:1985-12-09:NO:F:none:Line Therese
strwberri2:126060:strwberri1@hotmail.com:1960-12-14:US:F:65.29.178.57:ha boren
strwberri3lollip0p:hershey10710:babiecapricorn10@yahoo.com:1992-01-19:US:F:none:Ashley
strwberri8907:monkey:strawberries8907@yahoo.com:1989-08-01:US:F:none:Brena
strwberribaby65:jordan:lovealotbaby65@hotmail.com:1990-04-19:US:F:none:Bre Sun
strwberribaybee:21910:xxkristen219oo@msn.com:1989-02-19:US:F:Trade Closed:Kristen
strwberriblondee:limegirl:amethystangel444@msn.com:1988-06-23:US:F:none:Kristin Hasvelt
strwberribubbles:gogreene13:jamicanmewrite@yahoo.com:1995-06-03:US:F:4.254.137.43:Eva
strwberribunny:yhtak143timttmtr58:katherine_baduria@hotmail.com:1996-08-05:CA:F:68.145.74.58:NULL
strwberrice:creamyice03:toxicalmiie@hotmail.com:1982-10-25:SG:F:165.21.154.69:debbie
strwberriced:doa29901c:toxicalmiie@hotmail.com:1987-10-25:SG:F:218.186.12.9:debbie
strwberricoctail_xx:werty7:rustyricebubbles92@girlfriend.com.au:1990-10-12:AU:F:Trade Closed:SUMM3R
strwberridaq93:emochic93:strwberridaq93@aim.com:1993-06-19:US:F:75.100.64.111:Cathie
strwberrie:iloveme12:lbriana12@yahoo.com:1992-04-24:US:F:76.19.221.54:briana
strwberrieangel16:nichole:teddygrams4000@yahoo.com:1988-03-22:US:F:none:Erica Daisey
strwberrieblond8:mallory7:strwberrieblond8@aim.com:1992-06-07:US:F:none:\"               \" \"               \"
strwberriecake:mortality123:newgirlondablock@gmail.com:1988-09-12:CA:F:70.31.20.122:Tania
strwberries0317:orange1:laura_frase@baylor.edu:1984-11-30:US:F:none:Laura Frase
strwberries14p:patrick:or_la_nd_o_bl_oo_m@yahoo.com:1990-11-05:US:F:none:Jill Kilts
strwberries2010_0817:aro925:yunnie2010@yahoo.com:1992-08-17:US:F:none:Drexler McCrary
strwberries2323:RIPMAGMAR::1991-07-16:US:F:none:strwberries2323
strwberries593:newcastle45623::1997-12-05:GB:F:86.141.177.232:tanne
strwberries8884:cream:sexyeminem8884@aol.com:1988-12-19:US:F:none:Tracey  Baker
strwberriesncream369:938369:sweetbabyboo18@aol.com:1989-03-09:US:F:none:Sam Smith
strwberriesweeti:terrill:kellyleighd@yahoo.com:1987-11-23:US:F:none:Kelly
strwberries_nani:amberwright:heather_cheer06@hotmail.com:1988-08-06:US:F:none:Heather Wright
strwberriezncrem69:christian:daddysgirl931242@aol.com:1982-07-18:US:F:none:S. Bruckner
strwberrifields4evvr:rebels01:zdah27@goldmail.etsu.edu:1993-08-26:US:M:76.122.202.92:Jude
strwberrigrl:d1vadevil:swalcal@pacbell.net:1986-10-25:US:F:none:Sylvia
strwberrii:andrea_14:andy_3395@hotmail.com:1994-06-01:ES:F:88.1.165.76:andrea
strwberriikiisses:8602656:strwberiikiiss3s@aim.com:1989-12-04:US:F:none:Kooter Bugg
strwberriisw33ti:girlie:nev_billionbabe@excite.com:1947-10-23:US:F:none:Sara Maurer
strwberrijam:stars:strwberrincream@hotmail.com:1985-05-01:US:F:none:StrwberriJam
strwberrik11:lilk11:strwberrik11@aol.com:1996-02-26:US:F:72.27.105.84:Kara
strwberrikiss13948:benni13:hungryhippo13@msn.com:1992-01-05:US:F:none:amy lothenbach
strwberrikisses13:jeramiahw55:peppermintpatty10@sbcglobal.net:1986-07-02:US:F:74.135.44.170:morgan murawski
strwberrikissez24:d4kot4:strwberrikissez8@yahoo.com:1986-11-26:US:F:71.253.126.125:chrissy
strwberrikissezx:527667:guilty_dreamz@yahoo.com:1989-06-20:US:F:Can I be your NeoFriend?:ask me
strwberrikiwi17:tootiefruity:miaegil@comcast.net:1977-04-26:US:F:none:LaurenGil
