stubbytati4me:princess129::1999-07-21:US:F:72.199.0.93:tatiana
stubbytazz9494:shannon9494:tazzman9494@yahoo.com:1975-10-22:US:M:none:Stephen Stubblefield
stubbythe4inchdragon:kelsie12:reid_langston@yahoo.com:1993-11-10:US:M:65.30.123.63:u wish stalker
stubbythebeast:nanna4::1993-03-29:US:M:none:stubbythebeast
stubbythedeer:london98::1998-09-20:CA:F:64.180.217.253:amy
stubbythedwarf:foolz11:red3235@aol.com:1990-09-21:US:F:none:Ryan Barker
stubbytheiii:ashley13:stubbytheiii@aol.com:1985-01-29:US:M:none:dylan sommer
stubbythumbs:patriot:sk8girl612@aol.com:1990-06-12:US:F:none:Lauren  Kyle
stubbytiffany79582:doggies789::1998-09-16:US:F:65.32.79.175:tiffany
stubbytiffany795822:doggies789::1997-09-16:US:F:71.101.58.14:tiffany
stubbytiffany79582_1:doggies789::1998-11-03::F:71.100.192.180:NULL
stubbytiffany7995822:doggies789::1998-09-16:US:F:65.32.79.175:tiffany
stubbytigger:bart10::1993-07-28:US:F:none:stubbytigger
stubbytinker109:geema109::1999-08-26:US:F:65.35.251.16:Danielle
stubbytoe:42cowdray:bracket.star-@hotmail.com:1993-08-09:SG:F:220.255.7.152:Chanette
stubbytoe10:snoopy::1994-02-07:CA:F:none:stubbytoe10
stubbytoehead:6133625:anlarkin@hotmail.com:1973-07-22:UM:M:none:Frank Giammalva
stubbytoes:bloom:jhoneydew95@gmail.com:1991-09-05:US:F:none:Stubs -
stubbytoes__aa:flinstones12::1999-10-22:US:M:74.163.134.110:alex
stubbytootoot:youtube11:stephennye@verizon.net:1967-1-15:US:F:71.116.101.211:tanya marie nye
stubbytotoot:youtube22::2000-11-18:US:M:71.116.64.51:stephen nye
stubbytrapperz123:spanky28:lemming.on.line@gmail.com:1909-10-31:US:M:71.222.88.250:Toru
stubbytubby:358743::2001-02-26:US:F:71.180.212.50:ami
stubbytubby101:358743:superhot40@gmail.com:1995-02-20:US:F:71.180.212.50:jami
stubbytubby4555:johncena101::1999-02-09:US:F:71.180.212.50:ammy
stubbyturtle:shirley12::1992-06-25:CA:F:64.180.42.231:none
stubbyturtle007:butterflies007:stubbyturtle@hotmail.com:1994-03-17:CA:F:174.5.52.166:Telsey
stubbyturtle_7_7:hawianparty!::1993-08-15:CA:M:none:stubbyturtle_7_7
stubbytyler102:102899::1999-10-28:US:M:71.205.112.87:tyler
stubbytyson:lozzie::1997-02-07:AU:F:58.170.168.192:stubbytyson
stubbyuk:spirit:ian.stubbington@circle-studio.com:1969-04-28:GB:M:none:Ian Stubbington
stubbyundercover:lantern::1988-08-30:CA:M:none:jake mcguirk
stubbywalker:proview99:hawthorne_bitch@yahoo.com:1992-03-15:US:F:none:sarah walker
stubbywby03:800803:03braari@altoona.k12.wi.us:1984-05-30:US:F:none:Arielle Bradway
stubbywhite:pavelbure:stubbywhite@hotmail.com:1985-05-04:CA:M:216.121.241.221:B
stubbywhite_safe:captaintwinkie:stubbywhite@hotmail.com:1985-05-04:CA:M:none:BryanWhite
stubbywiebe7:johncenakicks:shove_it_36@hotmail.com:1905-07-02:CA:M:none:Cody Konchuk
stubbyworld:stubby11::2000-10-22:US:F:24.31.182.184:Catherine
stubbywubby02:beemer::1992-06-25:US:F:none:none
stubbywubby0202:beemer:dogpowow02@yahoo.com:1980-06-25:US:F:none:tessy guefen
stubbywubby111:may and holly:hollyworrell@hotmail.com:1992-02-03:GB:F:none:holly worrell
stubbyx33:hammonton1:stubbyx33@aol.com:1992-12-24:BR:F:71.255.18.32:Christina Cavallaro
stubbyyal:theman22::2000-11-05::M:159.83.4.149:NULL
stubby_0028:sweet28:dnajnqwiw_wd@hotmail.com:1991-05-24:SG:M:none:spencer stubbins
stubby_04:244706:wictam0119@aol.com:1990-10-19:US:F:Mail from booklover1130:Starr shifflett
stubby_09:mackin09:ohsow3t@aol.com:1991-01-25:US:F:76.102.0.106:nakita
stubby_1:football99:baller0081@yahoo.com:1988-04-23:US:F:208.17.69.154:joe
stubby_10:bearbear11:joshsgirlb@yahoo.com:1994-04-11:US:F:67.142.130.11:Anna
stubby_100:hotdog100::1999-09-29:US:M:71.68.44.115:Tomas
stubby_101:mississippi:bganzal1159@aol.com:1976-10-31:US:F:none:lindsey parker
Stubby_11:ash123:bball_playa_4243@yahoo.com:1991-07-27:US:F:69.209.104.29:Ashley
stubby_110:stubbylol11:stub9326@email.adsb.on.ca:1992-02-26:CA:F:69.159.13.140:amanda
stubby_112:melman1:poop_eveywhere88@hotmail.com:1990-04-29:AU:M:none:daniel henley
stubby_11_:stubby11:dogloverstevie@aol.com:1989-03-26:US:F:68.47.240.30:Stubby
stubby_123:tubby123:don.le@hotmail.com:1991-08-19:CA:M:76.10.135.153:stubby
stubby_123456789:cool_cats:prettykitty_1234@hotmail.com:1993-03-05:CA:F:none:Krysta Dease
stubby_13:catsanddogs::1991-07-18:CA:F:Mail from hawiangirl215:stubby_13
stubby_131313:skippy!:geek_squad_geek@yahoo.com:1992-04-01:US:F:none:nicole mortenson
stubby_1335:math1::1992-03-17:US:M:none:stubby_1335
stubby_14:stubby14::1999-02-04:AU:M:125.168.80.210:Daniel
stubby_14725:l!ttlebit::1993-09-24:US:F:none:stubby_14725
stubby_18:harrypotterrock11:brittany_stubby@hotmail.com:1991-06-11:CA:F:70.67.167.112:Brittany
stubby_181:BigJob11:stubby_18@hotmail.com:1988-08-18:AU:M:59.100.14.242:Ryan
stubby_19:stupinsky19:eastsyde_prynce@hotmail.com:1990-06-22:CA:M:99.242.241.187:Soulless
stubby_2012:dillon::1993-10-01:US:F:none:stubby_2012
stubby_22:stip9::1994-01-30:CA:F:none:stubby_22
stubby_225:trees1:poop_eveywhere88@hotmail.com:1990-04-29:AU:M:none:daniel henley
stubby_23:patchwork23:mr.amars@msn.com:1987-07-04:US:F:71.37.152.253:NULL
STUBBY_262:STUBBY12::2004-07-17::M:99.250.242.207:NULL
stubby_2_2_2:stub2997:stacymp0206@hotmail.com:1994-02-09:US:F:76.247.141.242:Sydney
stubby_3:23stubby:qqaazzppllmm@google.com:1985-07-10:US:M:4.154.94.203:top dog
stubby_3000:aishajoaninha::1994-02-19:US:F:none:stubby_3000
stubby_311:uniden0:spolchinski@yahoo.com:1974-05-06:US:F:75.129.156.225:stephanie polchinski
stubby_313:car123:yo_wazup000@hotmail.com:1992-04-17:CA:M:none:randy daw
stubby_333333333:#3rocks::1993-03-03:US:M:none:stubby_333333333
stubby_39:sister39::2000-01-04::F:76.10.148.123:NULL
stubby_3_3:hawthorn15:groggers_12@hotmail.com:1995-03-16:AU:M:203.51.174.157:josh
stubby_4lif:cyprus*:paphitiss@hotmail.com:1993-01-21:AU:F:none:stavroula paphitis
stubby_5:bloemkool::1992-06-23:NL:F:83.83.84.24:stubby_5
stubby_653:233333::2005-09-09::F:97.81.232.10:NULL
stubby_6_0:callie88::2009-8-3:WK:M:99.21.37.155:callie
stubby_7070:stubs70:melo15swoopes22@aol.com:1993-09-05:US:F:none:cass jani
stubby_713:mouse123::1996-06-27:CA:F:172.168.9.222:Destiny
stubby_74:brittany18:brittany_stubby@hotmail.com:1990-06-11:CA:F:70.67.167.112:Brittany
stubby_88:033188:provo_man88@hotmail.com:1988-03-31:US:M:none:mike davignon
stubby_94:doggies::1993-07-08:US:F:none:stubby_94
stubby_a88:xwafr9jt88::2000-10-13:US:F:96.242.55.122:Rina
stubby_blue:pandas:kcrox911@hotmail.com:1990-07-28:US:F:none:stubby blue
stubby_boardman:daniel4856:beauty_o_f_words@yahoo.com:1991-03-27:US:F:67.72.98.109:Stephanie
stubby_boi:hi1234:ninthu2000@hotmail.com:1991-09-03:CA:M:none:_xSaru x_
stubby_boy:scout204::1998-06-12:US:M:68.186.21.7:Bubba
stubby_buddy:podracer:sjmcnic@earthlink.net:1985-11-05:US:M:none:Steven McNicoll
stubby_buddy_cloe12:sh50946:slhuckabay@microsoft.com:1985-08-29:US:F:none:................. .................
stubby_bunny01:tetdemerde:chewtoy558@yahoo.com:1988-03-12:US:F:none:jessica walker
stubby_cat_11:hehehe::1992-10-26:CA:F:none:stubby_cat_11
stubby_chubby123:pokemon51:www.poppy@sympatico.ca:1996-02-14:UG:M:76.69.124.253:zac
stubby_cooler99:03467::1993-09-30:AU:M:none:stubby_cooler99
stubby_cutie_01:stubby::1992-12-21:US:F:none:stubby_cutie_01
stubby_dude:deadly:igor_the_grouch@hotmail.com:1979-05-22:AU:M:none:sam Shaw
stubby_dude_900:aleqa12::1993-11-30:US:F:none:stubby_dude_900
stubby_finger:JimmyJoe64:stubby-finger@hotmail.com:1992-07-02:CA:M:129.128.147.74:NULL
stubby_fingers:cH6SWu7:john24474@gmail.com:1908-04-01:US:M:75.27.127.112:Giggety
stubby_gurl:ilovetitanic:hellicopter_no@yahoo.com:1985-11-02:US:F:74.179.99.24:natasha hall
stubby_honey:bluebear:stubby_honey@hotmail.com:1990-08-19:AU:F:none:hollie sellers
stubby_ismyhero:milkshake::1992-12-03:US:F:none:stubby_ismyhero
stubby_jack:stubbyjack12::1997-02-20:US:F:75.108.173.72:clara
stubby_kjos:597600:crazygal210@aim.com:1989-08-27:US:F:none:stubby  jones_ kjos
stubby_lucky585:0113430::1997-09-23:US:F:98.242.235.52:shantal
stubby_mom:jef123:jef8383@bellsouth.net:1973-12-17:US:F:74.171.180.237:Jennifer
stubby_monkeys:55ntwo:stubby_monkeys@hotmail.com:1985-01-25:CA:F:none:Monkeyish
stubby_mow:Stubby:enia_kakaflikas@hotmail.com.au:1991-03-23:AU:F:none:Jessica Kakaflikas
stubby_nubby_23:adis1626:blondbomb223160@aol.com:1984-02-24:US:F:none:rachel samson
stubby_nublets:amputee:roxy_roxy7@hotmail.com:1905-10-05:CA:M:none:stubs nubss
stubby_one:eyore09:jasmine.cottage@btinternet.com:1971-01-19:GB:F:86.169.129.50:Louise
stubby_or_bust:chestnut:xfiles289@hotmail.com:1987-03-31:US:F:none:Samantha Sullivan
stubby_pencil_8189:notebook:metec2000@aol.com:1981-12-22:US:F:none:Maple Lee
stubby_penguin111:shorty:stubby_penguin@earthlink.com:1989-08-08:US:F:none:Molly Hartwick
stubby_person:stubby04:emofatcake@hotmail.com:1993-09-10:US:M:70.189.229.140:Chris
stubby_ruffles:snuggles:andy_dy49@hotmail.com:1989-12-12:US:M:none:Andy DeYoung
stubby_shay:sharon:xlilangelcutee@yahoo.com:1986-04-20:US:F:none:sharon kwon
stubby_skibble:stubby666:tombozza_rocks8@hotmail.com:1991-01-05:AU:M:none:Nulla Bore
stubby_soccer:1fred4::1998-10-02:US:M:65.87.135.26:Max
stubby_soccer_star:1falcons:stubbify@hotmail.com:1990-12-31:CA:F:24.222.219.73:thomas stubbs
stubby_sof:connorlito265::1998-03-12:US:M:74.163.214.150:connor dreichler
stubby_strummer:RyanEarl82:Stubby_strummer@comcast.net:1994-08-02:US:M:24.1.224.88:Ryan
stubby_stuff:justinsinclair14:andreinaleon805@yahoo.com:1994-03-02:US:F:68.6.93.78:Brianna Rocha
stubby_stuff_878:itpoops2::1993-05-21:US:F:none:stubby_stuff_878
stubby_teh_ninja:9281055r:stubbytheninja@aol.com:1992-09-29:US:M:50.10.68.24:Ryan
stubby_the_burd:mypets22:ilovestubby@yahoo.com:1987-04-01:AU:F:none:stephanie
stubby_three_legs:Jesse2:mdcunningham@btinternet.com:1991-12-30:GB:M:none:Michael+Daniel Cunningham
stubby_toe3345:pieisgood1234::2000-02-13:US:M:72.45.2.196:Andrew
stubby_toes:igotoucla:dmthuy40@hotmail.com:1984-04-05:US:F:none:stubby toes
stubby_vanwagon:iml33t:fishead2002@hotmail.com:1993-11-16:US:M:209.158.204.122:
stubby_wubb:jadenguyfergerson11::1996-01-03:AU:M:70.255.94.244:guy
stubby_wubby:MONKEY63::1997-06-16:US:M:68.190.131.173:zack
stubby_wubby123:neopet_123:qingwu515@hotmail.com:1920-04-09:CA:F:none:Joy Jin
stubby__21:peekaboo!@#:flower_daisiez@hotmail.com:1989-06-09:AU:F:none:Steffi                    L
stubby__4:deathray44::2000-09-02:AU:M:121.208.168.172:NULL
stubby__44:canfa123:kid-g-oku@hotmail.com:1993-08-14:GE:M:none:kim brown
stubby__52:beefy52:sstubber@alltel.net:1993-06-03:US:M:71.31.65.147:Scott
stubby__kk:rah123:kid-goku@hotmail.com:1993-08-14:GE:M:none:Rockie stubb
stubbz1:ilovekelly17:i.am.dynamic@hotmail.com:1986-03-17:CA:M:24.76.231.48:Robert
stubbz12:124578963:stubbz12@hotmail.com:1983-07-29:CA:M:none:Stubbz
stubbz1234:pgssoccer1234::1995-10-30:US:F:74.244.251.152:Chanel
stubbz14:50862:stubbz14@sbcglobal.net:1986-07-19:US:M:none:shane hunter
stubbz14dyme:samantha:upstatesfinest14@yahoo.com:1989-10-17:US:F:none:Samantha Ferrara
stubbz16:lupe16:rawlelupe1@aol.com:1989-04-13:CA:M:none:Rawle Harding
stubbz299:hotmail:amy_stubberfield5@hotmail.com:1991-01-16:GB:F:none:stubbz299
stubbz420:riddlebox11:rock_n_roll20012008@yahoo.com:1992-06-11:US:F:69.166.176.193:NULL
stubbz555:DOLLY12::1993-11-04:AU:F:none:stubbz555
stubbzan:ljungberg:freaky_chick85@hotmail.com:1989-02-10:IS:F:none:Karen Dögg Úlfarsdóttir
stubbzie123:eeniemeenie1214:ofielia@hotmail.com:1996-04-05:AU:F:58.164.135.29:NULL
stubbziy:blockgang99::1998-06-03:GB:M:92.1.188.138:Josh
stubbzizcute:harley09:callieisbell@yahoo.com:1995-05-10:US:F:74.248.215.44:Hannah
stubbzluver:stubbz08::1997-05-08:US:F:74.248.221.178:Callie
stubbzors:imbored22:guitarplayr03@hotmail.com:1992-12-20:US:M:98.244.111.48:Wilson
stubbzorz:v24trd:stuart@revolvingdoorslammers.net:1952-09-08:AU:M:118.210.93.12:Stu
stubbzy:hiowdy12:dskeating6@msn.com:1984-11-11:US:M:63.230.158.223:sean
stubbzy101:nyknicks101:the_time_lord_240893@hotmail.co.uk:1992-05-09:GB:M:none:liam stubbs
stubbzy13:sunflower13:p.estubbs@tesco.net:1993-03-13:GB:F:86.29.95.87:sophie
stubbzy2010:nellweatherill2003:bezziezrmything08@hotmail.co.uk:1997-7-5:GB:F:92.17.25.4:Jordan
stubbzy46:romsey19::2000-07-04:GB:M:2.127.37.250:NULL
stubbzy77:kim77:hornyblondeno1@hotmail.com:1985-07-19:GB:M:none:james stubbs
stubbzz:shaned11:ry4naddiictt3dd@aim.com:1988-01-07:US:M:76.5.24.114:Shane
stubbzzz_27:stubby:meandhorses@hotmail.com:1980-03-25:US:F:Mail from pearlbabby:Lexa Lloyd
STUBBZ_12:dancequeen98:browneyedbabe98@gmail.com:1994-9-8:US:M:74.244.251.152:abby
stubbz_124:smartazz:stubbz@comcast.net:1989-01-24:US:F:none:Zoe  Smith
stubbz_2k8:chico64:sophie_watson92@hotmail.com:1992-11-12:GB:F:92.11.115.61:sophie
stubbz_numba1:dr@gon:stubbz_aka_numba1@hotmail.com:1989-06-28:CA:M:none:stubbz banga
stubbz_riguel:katkin888:sophies.account@gmail.com:1991-03-11:AU:F:210.49.138.132:Stubbz
stubbz_sturm:sydney13:sydneystubbs@gmail.com:1911-11-11:US:F:74.244.251.152:jennnifer
stubbz_tha_klown:hello11:nightmarez_on_wax@hotmail.com:1992-04-05:GB:M:83.100.132.44:stubbz
stubb_13:marchand:stubbd@innw.net:1990-06-01:US:F:none:kayla stubblefield
stubb_4_lyfe_97:10142005::1997-05-14:US:F:99.20.211.13:chasity
stubb_butt:mypets:stubb_gull92@yahoo.com:1991-10-19:CA:F:none:star
stubb_emi_rule69:stubbie:stubb_cozz22@hotmail.com:1990-09-10:AU:F:none:Sophie Bayley
stubb_nails:alvarado09:vivianlee@ymail.com:1994-05-11:US:F:69.104.140.40:Vivian
stubb_rules:stewart:babyfisher17@btinternet.com:1991-05-21:GB:F:neofriend:ChristinaHenly
stubc:MAYBEBABY:stubc001@medway.org.uk:1986-01-12:GB3:F:none:CAMILLA STUBBS
stubcon:yhnujm::1994-07-12:US:M:none:stubcon
stubdah:bloo08:xo-lw@hotmail.co.uk:1993-09-26:GB:F:80.41.216.69:Lauren
stubdutt:!!!!!::1992-09-01:US:M:none:stubdutt
stubdw12356543552:pinkyp146::2002-09-11::M:75.186.120.190:NULL
stube:lopop::1993-07-07:GB:M:none:stube
stube0:asdfg12:stuart.lester@hotmail.co.uk:1994-09-16:GB:M:92.237.104.76:stuart
stube04:yunarox:sxikssr@yahoo.com:1975-11-30:US:F:Can I be your NeoFriend?:Serena Silverwings
stube132:gwazi123:stuart.laban@gmail.com:1986-03-04:GB:M:86.0.98.132:stuart
stube1993:tuomas::1993-09-12:FI:M:none:stube1993
stube20:drawboy::1993-03-10:US:M:Battledome Challenge:stube20
stube449:toybox:bvcx@aol.com:1991-05-27:US:F:none:luna hart
stube543:543543:stube_543@yahoo.com.tw:1991-11-12:TW:M:203.75.232.185:子銘哥﹐
stube56:drawboy::1993-03-10:US:M:none:stube56
stube60510:cklyrr65731:susan870416@yahoo.com.tw:1969-04-22:TW:M:163.30.55.5:康書維
stube8529:neumiller123:cl_neumiller@hotmail.com:1992-11-13:US:M:69.26.30.13:colton
stubea05:stuart05::1979-07-26:US:M:68.118.178.250:stuart
stubean:michael89::1995-12-03:CA:M:70.78.144.65:stu
stubeans007:cb650:stubeans007@hotmail.com:1965-03-23:US:M:none:Stuart Bryan
stubeans007623:cb650::1994-01-28:DZ:M:none:stubeans007623
stubeanz444:stuart:stubeanz@hotmail.com:1986-04-19:GB2:M:none:stuart short
stubear:pooky63:tyasui@lava.net:1963-06-07:US:F:72.234.200.234:happygirl
stubear121:fireworks121:stubear121@msn.com:1982-06-05:GB:M:82.37.193.35:stuart
stubear18659:snuggles91:d0ggy4d0g2@hotmail.com:1989-09-27:CA:M:68.150.191.202:stuart
stubearpig:Guitarist88:stu_mac69@hotmail.co.uk:1988-09-01:GB:M:188.223.234.48:NULL
stubear_101:stuart18659:doggy4dog2@hotmail.com:1987-09-27:CA:M:24.64.223.205:stuart
stubear_11:Webkinzgirl11::1997-01-25:CA:F:70.77.22.96:Shelby
stubeaver00:bystander:stubeaver@hotmail.com:1988-01-10:GB2:M:79.75.116.124:Stuart
stubechr:675574:soonersman36@yahoo.com:1983-02-26:US:M:68.102.156.83:taylor
stubeck:snizzle92:ksbabyyy@aim.com:1988-09-24:US:F:74.173.237.242:Kathryn
stubed123:123456789cc::2002-04-22:US:F:99.165.231.24:carolyn
stubed3333:beagle00::2001-06-10:US:F:65.191.116.20:kyleigh
stubedchucks:admin3:ahomacolor@hotmail.com:1990-04-06:US:M:none:grea tchus
stubee:*clumsy:xo.shorty.ox@hotmail.com:1990-10-14:CA:F:142.161.88.221:jules joyal
STUBEE1:stuart55::2005-05-31::M:76.232.51.150:NULL
stubee10:stubee05::2005-05-31::M:76.232.51.150:NULL
stubee5:catnip55::1997-05-19:CA:M:70.48.33.151:eric
stubee78:charnley:info@stuartbrooks.co.uk:1978-12-22:GB:M:none:Stuart Brooks
stubeef11:angus:stubeef11@aol.com:1963-07-04:US:M:none:Mary-Kate Olsen
stubeef777:westyork:robknaub@aol.com:1983-07-04:US:M:none:robert knaub
stubefie:omgomgomg:morbid_nightmare@hotmail.com:1991-09-26:CA:F:none:Val + Sarah
stubefy:8901241d:si_hui@hotmail.com:1989-01-01:SG:M:none:Goh Sihui
stubejoe:alex28::1999-08-28::F:74.103.154.40:NULL
stubek5:bigbro888::2001-03-14:AU:M:211.27.172.162:broden
stubekis:pepper01:stubekis@foxvalley.net:1969-08-24:US:F:76.210.0.30:Samantha
stubel:melissa45:trolldolly@hotmail.com:1992-02-09:CA:F:85.243.68.91:melissa
stubelina:cats10:moorles@msn.com:1967-01-01:US:F:4.255.197.199:KJ
stubeloo:isobel:stubeloo@hotmail.com:1982-08-05:GB:M:94.193.250.225:Stuart Brown
stubels:karlee936::2000-08-30:US:F:68.184.185.140:maddison
stubels_140:123456789::2000-08-30::F:75.141.141.209:NULL
stubels_188:123456789:maddison.ingle@yahoo.com:1949-08-30::F:71.8.122.66:NULL
stubels_200:123456789::2001-08-30::F:71.8.122.66:NULL
stubelt45:lostit14:amandastubelt@yahoo.com:1989-01-29:US:F:173.61.150.3:amanda
StuBenedict:Hatsip12:anihawk1@aol.com:1985-10-03:US:M:172.18.90.56:NULL
stubenemo:MiKa1991:vampire_neo@hotmail.de:1991-05-21:DE:F:87.161.60.181:i have no name
stubenfliege:handball:blanko18@web.de:1984-06-05:DE:F:none:Stuben Fliege
stubengirl123456:Sakret38:heiklau@hotmail.de:1994-08-10:DE:F:78.54.170.77:Sandra
stubenhocker:Senta19:kitticat4@freenet.de:1991-05-22:DE:F:84.139.224.41:Patricia Ehlert
stubenkatze66:kevin666:stubenkatze66@web.de:1979-08-31:DE:F:178.203.80.241:Bianca S.
stubenlarfen:mylifeis89:shirt_shinobi12@hotmail.com:1988-11-15:CA:M:none:Rufus Harden
Stubenqualm:jessica07:marco_stubenrauch@hotmail.com:1975-06-12:DE:M:79.202.231.30:Marco
Stubenrocker:be6122102vw:snaffu@hotmail.de:1991-09-20:DE:F:69.31.50.31:Ann-Kathrin
stubenstein:stephanie:skernmd@yahoo.com:1971-09-18:US:F:none:stephanie estrada
stubentiga:lesben87:littlelilith89@aol.com:1989-08-30:DE:F:85.180.191.116:Barbara Simon
stubentiger1:nixdorf11:stubentiger5@web.de:1992-07-16:DE:F:217.225.167.142:Anna
stuber:91218533:dez_steibel@yahoo.com.br:1995-07-06:BR:M:201.37.81.70:andre
stuber09:sugar16:blue_bubbles_2009@hotmail.com:1990-04-02:US:F:none:Amanda Stuber
stuber10:stubi11::1998-07-17:US:M:90.136.153.213:kenneth
stuber1009:erica2k5:stuber190@yahoo.com:1987-09-07:US:F:69.142.160.24:meep
stuber11:kenni11::1998-07-17:US:M:90.134.48.189:kenneth
stuber12:91218533:dez_steibel@yahoo.com.br:1995-05-12:BR:M:201.21.253.252:romulo
stuber15:jacktitty15:e.stuber@hotmail.com:1989-04-03:CA:F:24.66.94.142:
stuber22:s1114s:stuberswoosh212@aol.com:1990-11-14:US:M:none:Sam Stuber
stuber26:macymay26:turquoise.aquamarine26@hotmail.com:1994-03-26:US:F:69.71.40.15:Kayla
stuber42:pinkmya42::1999-03-29::F:216.227.48.39:NULL
stuber5448:bonnie11:maggielillybuddy@aim.com:1955-04-09:US:M:24.166.84.126:JimBob
stuber674:674stuber::1993-10-04:CA:F:none:stuber674
stuber98:iluvtyler09::1998-12-18:US:F:74.240.58.211:sybil
stuberg:alyssaisveryhot:wesleykaleb@yahoo.com:1990-08-09:US:M:none:wesley weirg
stuberg_4:54609010:treeman_223@hotmail.com:1993-03-18:AU:F:none:stuart plews
stuberina:password77:nater.tater@adelphia.net:1993-03-24:US:F:76.190.131.112:Sydney
stuberlynn:crystal92:lil_stuber@yahoo.com:1992-06-27:US:F:75.133.70.121:Crystal
stuberman231:chadman::1994-02-07:US:M:none:stuberman231
stubern101:hillbillybabe:poohbearstreat@yahoo.com:1991-11-11:US:F:none:precious moments
stubern123:sushi10::1994-04-11:CA:F:none:stubern123
stubern1379:$horty::1993-09-07:US:F:none:stubern1379
stubernangel93:0701857:stubernangel93@yahoo.com:1993-01-05::F:63.227.99.22:NULL
stuberndog:lover2:sassy_kitty_cat@cutey.com:1992-05-07:US:F:none:Courtney Barrow
stuberngirl:fairybaby#3:redfayedh@hotmail.com:1993-07-13:US:F:none:cheyenne maine
stuberngirl13:13mountainlion:stuberngirl21@yahoo.com:1994-07-04:US:F:72.81.44.10:sabrena
stuberngirl14:14mountainlion:araminta28@msn.com:1994-07-04:US:F:72.81.44.10:sabrena
stubernick:tank01:shannonthecannonmccowns@yahoo.com:1994-02-12:US:F:209.30.174.79:stubernick
stubernkitty:lover2:courtney_balarina92@yahoo.com:1992-02-01:US:F:none:alex barrow
stubernmule:olivia:rwhatley@bigpond.net.au:1972-07-03:AU:M:none:ron whatley
stubernpuppy:bdog1:arielle.marsh@comcast.net:1993-01-01:US:F:none:stubern puppy
stubernstud:ccaparadon07:Jbug530@aol.com:1993-12-27:US:F:64.12.116.207:meaghan
stubern_donkey:putty::1993-05-22:US:M:none:stubern_donkey
stuberry:st2rSnou:suzqu@juno.com:1983-05-29:US:F:none:Ledzo Ellington
Stuberry63:duncun12:flynnyflynn23@aol.com:1993-08-25:US:M:69.23.96.147:NULL
Stuberry703:ysabel87::2003-07-01:PH:F:112.210.169.49:NULL
stuberryjay:1psgm2sj:stu_johnston_2004@hotmail.com:1988-02-24:GB:M:none:stu johnston
stuberrypie:stustu22:erninl@yahoo.com:1996-06-10:US:M:75.70.4.150:Ernin
stubert:kevin:kthypergurl@aol.com:1989-09-26:US:M:none:Billy Buttcheakes
stubert02:stubert00:lilstart02@aol.com:1995-12-15:US:M:68.39.19.157:lil stubert
stubert05:stuonline05::2007-05-31:US:M:75.62.157.125:stu
stubert1:whln12:theznobodyimportant@hotmail.com:1991-04-12:AU:M:58.160.58.186:Stuart
stubert1000:binkyboo:mwse@blueyonder.co.uk:1989-07-08:GB2:M:none:stuart perry
stubert178:fatty:sgiles5773@aol.com:1990-11-05:GB:M:none:stuart giles
stubert227:vvere:elizabethsimmons@msn.com:1985-04-07:US:M:BattleDome Opponent Waiting:stuart simmons
stubert440:Leftfield4:joesph_m_nero@sbcglobal.net:1990-02-23:US:M:none:Robert Nero
stubert85:rachel:leappad85@hotmail.com:1985-10-16:US:F:none:Rachel Harmon
stuberta:Breezy17:sfaith14@portergaud.org:1996-02-17:US:F:76.26.197.105:Stu
stubertmix:noway::1993-05-08:US:M:none:stubertmix
stubertmon:stubert:smd_89@hotmail.com:1980-05-05:GB:M:none:stubert mon
stubertnlaura:iloveu:leggylou1989@hotmail.com:1984-12-05:GB:M:none:stuart laura
stuberto:virus:akenny525@aol.com:1981-08-08:US:M:none:Stuart Kenny
stubertsg:vani11a:stubertsg@hotmail.com:1977-06-03:SG:M:none:Stubert Sg
stuberville:tuberville:sandytuberville@yahoo.com:1991-02-04:US:F:none:Stephanie Tuberville
stuber_12:91218533:stubersantos@yahoo.com.br:1981-05-26:BR:M:189.27.245.109:andre
stuber_attitude:chickychick*:hannahstuber@insightbb.com:1991-09-20:US:F:none:Hannah Stuber
stubes:feedback:stuartweste@hotmail.com:1987-08-31:AU:M:none:stuart weste
stubes124:nick1:blackbeltjeffrey@aol.com:1990-01-24:US:F:none:amy stubits
stubes2000:897111:townsch@hotmail.com:1972-01-15:MN:M:Battledome Challenge:chris topher
stubes212:jimjam500:dkimble@bham.wednet.edu:1991-04-18:US:M:none:Daniel Kimble
stubes23:joshau23::2003-03-29:US:M:71.79.28.76:NULL
stubetmeekness:27384:bigtocheukhung@yahoo.com.hk:1988-01-02:HK:F:none:Yan Wing To
stubetty:830417::1994-04-17:TW:F:none:stubetty
stubev:nightelf12:stuartbeavon@gmail.com:1991-01-23:CA:M:99.241.70.205:Stuart
stubey:stayoutpleaz:teddy_bear_s@hotmail.com:1987-02-25:CA:F:none:sarah stuber
stubey07:peeka07:ehernandez008@yahoo.com:1992-02-06:US:F:76.30.203.182:jessica
stubeydoo:homo77:danni_rox_02@hotmail.com:1909-10-31:BB:F:114.77.101.87:Homo Unerectus
stubey_116:ski11ithe:stu_carter_116@hotmail.com:1988-09-11:GB:M:131.231.229.252:Stuart
stubfordoejer:10kkcool09:kirstenkristiansen91@msn.com:1991-09-10:DK:F:80.165.149.59:Kirsten Kristiansen
stubg1141162024166:+++++5:obi4ampetq@yahoo.com:1987-06-19:BG:M:none:Krasimir Petrov
stubgirl:sisgirl12::1997-09-30:US:F:69.68.14.171:Ellie
stubgirl10:081889:stubgirl10@hotmail.com:1989-08-18:US:F:75.141.60.44:Monika James
stubgymnast91:alliecat91:cartwheelprincess91@yahoo.com:1991-11-06:US:F:none:Alexa Vender
stubh007:night5::2000-12-08:EN:F:NULL:NULL
stubhub:ps2111::1999-07-24:US:M:99.119.116.254:NULL
stubhub_18:heyy12:coltschick1887@yahoo.com:1990-12-09:US:F:75.19.158.61:Audrey
stubi:borisknut!:ines-84@web.de:1984-02-20:DE:F:none:Ines Rudolph
stubi0:james223:dstubinger@yahoo.com:1988-09-17:US:M:none:dave stubinger
stubi11:kenni11::1998-07-17:US:M:90.136.193.64:kenneth
stubi65:Drummer:potheadgothic@hotmail.com:1984-08-24:GB:M:none:Stu Maxwell
stubi7:sara17::1997-09-17:DK:F:83.91.191.100:Sara
stubia:mini15::2000-06-07:GB:M:86.149.214.97:jack
stubiboy:moodless123:whatzzup@gmail.com:1988-05-02:SG:M:none:stubi boy
stubid11:myself11::1996-11-29:AU:F:124.181.10.200:beth
stubid12323:stubid::1990-03-29:BT:M:none:none
stubid21:5123lauren::1997-05-01:US:F:72.241.10.175:lauren
stubid456:ashleysbomb:bs446@hotmail.com:1984-09-09:CA:M:173.0.1.212:brandon duter
stubid911:torres11:kevinmarkowitz@yahoo.com:1986-02-16:US:M:72.153.96.181:jm
stubidboy01:crazyboy01::2003-05-20:SG:M:119.74.223.151:NULL
stubidboy9987:dudu111:stupidboy9987@yahoo.com:1992-07-06:US:M:67.181.73.249:connor begley
stubidcat:clon6:sonygaryhung@yahoo.com.hk:1992-01-13:HK:M:none:wai hung ng
stubidcow:bangcow12::2000-06-17:US:F:166.137.132.25:Marina
stubidcow123:bangcow123::2000-06-17:US:F:69.180.105.208:marina
stubidcow123bangcow:bangcow123stubidcow::2000-06-17::F:75.74.249.92:NULL
stubiddude12:121990:abc12345wl@yahoo.com:1990-12-19:US:M:none:Win Lau
stubidevil:iloveu520:lawrence_lws@hotmail.com:1993-06-25:MY:M:60.53.69.10:liew wei seng
stubidlife_56:lalala:dingeronimo@aol.com:1984-12-29:US:F:none:syubid life
stubidman:terry305::1993-09-03:HK:M:183.178.84.241:stubidman
stubidolittlefatbaby:tennis_rocks123::1993-04-06:CY:F:none:stubidolittlefatbaby
stubidoo22:greystoke2005:stubidoo_22@hotmail.com:1986-03-02:GB:M:none:Stuart Forrester
stubidtom:7709600882:phoiphung2000@yahoo.com:1983-03-02:US:M:74.224.166.230:thompson
stubidvicky:victoria8:jennyandystubbs@tiscali.co.uk:1992-09-19:GB:F:none:victoria stubbs
stubid_90880:mckell88:coolmomkj@hotmail.com:1990-03-28:US:F:72.8.72.229:mckell
stubid_blonde666:dominick2:tyler_hailee1315@yahoo.com:1990-07-12:US:F:none:Hailee Catenaccio
stubid_donkey:fireservice:multicoloured_spider@hotmail.com:1987-11-07:GB:F:none:Sarah Pullen
stubid_girl233:linda_60924::1992-12-09:TW:F:none:stubid_girl233
stubid_guy:meat_loaf:adallaco@bigpond.net.au:1988-01-01:AU:M:155.143.185.106:jacob smith
stubid_me:y0569257:sabrina08082001@yahoo.com.hk:1989-08-08:HK:F:none:Hau Yau Lee
stubid_punk:sonofx515:pixie_858@msn.com:1985-01-22:US:F:none:stupid punker
stubid_tiger:amber5424::1998-01-20:HU:F:140.130.198.63:林貓咪
stubie:natalie:monkey03@att.net:1991-05-06::F:none:FoNDueRoX
stubie07:wedding06:stubie_baby@yahoo.com:1986-04-22:US:F:98.93.89.215:Sarah
stubie110:gravedigger:cstuebner_69er@hotmail.com:1990-09-11:AU:M:none:chris stuebner
stubie123:crazy9611::1996-10-23:TW:M:116.59.186.115:ㄚ佑
stubie222:irock1:95poohbear@comcast.net:1993-03-29:US:F:none:u will never no
stubie333:th1715753:fable99999333@hotmail.com:1995-01-20:US:M:72.35.125.11:Timothy Hildreth
stubie37:trumpet:stubie37@aol.com:1981-07-22:US:F:Trade Closed:R.D. Goldstein
stubie37p:peanut37:rachel.d.goldstein@gmail.com:1981-07-22:US:F:none:R.D. Goldstein
stubie40:th1715753:hildrethtimothy@yahoo.com:1995-01-20:US:M:64.4.229.190:Timothy Hildreth
stubie79:carter18:nyyankeesgirl4eva@hotmail.com:1979-06-29:US:F:none:angela donoldsin
stubiecool7:pencil44::1993-12-02:NZ:F:none:stubiecool7
stubiedoo:pandas83:Stubie.f@hotmail.com:1982-03-15:US:M:66.162.72.67:stuart
stubiefields:treesaregreen:stuiefields@hotmail.com:1981-08-26:AU:M:Item:stubie fields
stubiewoo:caleb10::1999-07-22:TH:M:63.116.244.100:caleb
stubigjoe:frankie1:jacobscreek123@hotmail.co.uk:1972-04-04:US:M:none:Stuart Jones
stubih:lam123:applecake2810@gmx.net:1991-10-28:DE:F:none:Lam Tran Luu
stubii:jacky92:stubi4life@hotmail.com:1992-09-06:AT:F:90.146.244.33:Jacqueline
stubilein:herkules12:dominikstuber@gmx.net:1994-11-06:DE:M:91.20.113.17:Dominik
stubill:whitley118:billyboywhitley@hotmail.co.uk:1996-08-04::M:77.101.58.141:NULL
stubilly:dookie:moshed@prodigy.net:1989-12-14:US:F:none:naomi mcdaniel
stubiloboss:francais:handyhat@hotmail.com:1988-03-12:CA:M:none:Lentil Rattray
stubin:turrikka95:pappakarppinen@hotmail.com:1995-01-21:FI:F:87.95.93.119:Jasmin
stubina:alcore:burgess_mate@hotmail.com:1970-09-16:US:M:none:StuieBurgess
stubinaa:1158843:handawer@hotmail.com:1984-11-06:MX:M:none:Maguin m.l
stubinblubberflub:wxydvr1:stubin497898131@aol.com:1906-04-27:EC:F:none:STUBERT GALE
stubing:212121:stubingblush@hotmail.com:1943-10-03:BR:F:201.25.204.74:Milene
stubing1000:reuben1:crestfallen_martyr@hotmail.com:1985-01-01:GB:M:none:Stuart Howard
stubingif7000:chachica05::1993-03-03:US:M:none:stubingif7000
stubinkuber:lalaland::1994-01-02:US:F:none:stubinkuber
stubinsky1234:chelsea1234:chelsea_stubinsky@hotmail.com:1993-07-30:CA:F:76.64.120.227:chelsea
stubin_0:stub12::2003-02-26:US:M:68.108.4.229:NULL
stubip1:147852:a553345d@yahoo.com.tw:1943-06-04:TW:M:none:12345678 12345678
stubip2:147852:q651255@yahoo.com.tw:1983-06-06:TW:M:none:123 123
stubip3:147852:q651255@yahoo.com.tw:1980-04-06:TW:M:none:654 65465
stubip4:147852:q651255@yahoo.com.tw:1905-03-22:TW:M:none:zfdgx fghj
stubip5:147852:a6512311@yahoo.com.tw:1905-09-09:TW:M:none:werftghj dfghjuk
stubiquotus:brnsiege13:stu1029384756@yahoo.com:1989-07-24:US:M:72.177.157.192:Stuart
stubird123:llllll123::1998-06-06:US:M:66.66.243.163:stuart
stubiro:stubiro11:isaiaspassos_11@hotmail.com:1993-11-05:BR:M:189.105.160.104:Stubiro
stubiroo:302010diego:diegomondeck@hotmail.com:1993-01-09:BR:M:189.105.172.70:Diego
stubis:23kjohi::2001-06-25:ZA:M:189.96.109.24:sparki
stubishop:02Fishbits:stuwiggle@hotmail.com:1975-06-19:AU:M:124.168.135.203:Stuart Bishop
stubismyman:alicia:rughcrew@earthlink.net:1989-01-09:US:F:none:alicia rugh
stubiss:bissstu:popocoo@attbi.com:1992-03-26:US:M:none:stuart bisbee
stubitdragon:581999::1999-08-05:VN:F:123.24.199.122:meo5899
stubito:malene18:malene.ligges@arcor.de:1989-11-09:DE:F:77.11.221.195:malene
Stubits09:hotdog09::2001-04-17::M:65.29.115.140:NULL
stubitsch96:Stubes96:nikolette1996@aol.com:1993-09-09:US:F:none:Nikolette  stubitsch
stubitz:sammy3::1993-07-04:US:F:none:stubitz
stubitz5:sammy3::1993-07-04:US:F:none:stubitz5
stubix:1q2w3e::1994-09-13:US:M:74.185.90.10:stubix
stubix333:5rdx5rdx:lizardownz@yahoo.com:1994-02-18:US:M:74.185.90.10:NULL
stubix940:430043:chevicarbajal@hotmail.com:1992-09-26:PE:M:none:Sebastian Carbajal
stubixley:eadgbe::1994-09-13:US:M:68.159.191.122:stubixley
stubixly:sonicheros:kpruitt@gmail.com:1997-02-13:US:M:74.185.90.10:stubixly
stubizup:streets123:whatzzup@gmail.com:1971-03-17:SG:F:none:jdioasjd iodjiojasd
stubjub:batman12:stubjub@aol.com:1990-01-01:US:M:98.118.17.99:Moe
stubjub_7:kg1234::2000-05-28:US:F:71.212.231.5:Kristi
stubk08:thun1der^2:keyring_dude007@yahoo.com.au:1990-11-08:AU:M:none:kiza smith
stubking05:5746720:stubking05@yahoo.com:1985-04-18:US:M:75.0.10.94:Stub King
stubl:pentium4:marsundsnickers@web.de:1981-10-17:DE:M:none:jo schmitt
stuble555:dontsettle1:nerdilicious@hotmail.com:1984-07-28:AU:F:none:Ann Gunning
stuble888h:8stuble::1993-05-03:US:F:none:stuble888h
stublea123:patty::1992-08-10:US:F:none:stublea123
stublegs:rickybobby215:peaches.sheltie@gmail.com:1995-07-15:US:F:174.70.42.29:NULL
stubleheadkid:kiacat:stubleheadkid@yahoo.com:1987-09-04:US:M:128.252.254.16:Max Power
stubler101:stubid::1992-04-09:US:F:none:stubler101
stublerumps:r963v751::1993-03-13:CA:F:none:stublerumps
stubler_4:Headset12::1997-03-02:DE:M:91.6.231.199:ole
stubles1313:1please:stud1313@hotmail.com:1990-03-13:US:M:none:s t
stublet1:boomer999::1994-09-17:US:F:none:stublet1
stublett35:00000:stublett36@hotmail.com:1990-03-04:US:F:none:Stub Stroup
stublett36:00120:lucky_duckie90@hotmail.com:1990-03-04:US:F:none:Lauren  Stroup
stublett3608:102803:stublett36@myway.com:1990-03-04:US:F:none:Lauren Stroup
stublett362008:102803:stublett36@myway.com:1990-03-04:US:F:none:Lauren Stroup
stublett4408:102803:stublett3644@netzoola.com:1990-03-04:US:F:none:Lauren Stroup
stubleu:s7uff:stubleu@gmail.com:1981-01-07:CA:M:none:Mikey
stubleuble:chrelen:bullfrogbomb@hotmail.com:1905-01-01:CX:F:none:Chrelen Bob
stubley32:horizon:angelcake40__ee@hotmail.com:1980-06-11:CA:F:none:michelle smith
stubley9:pokemon**69::2001-05-14:CA:F:24.67.121.1:NULL
stublin:heffer:littledragonsue@yahoo.com:1977-12-11:US:F:none:sue VANV
stubliz0208:basketballchick::1990-02-08:US:F:none:none
stublood22:conehead11:mrwiggles1014@aol.com:1946-01-01:US:M:68.55.46.32:stuart
stublossom:graycat12::1999-05-28:US:M:64.149.40.22:taylor
stublox4077:flag1:ali4077@hotmail.co.uk:1992-07-21:GB:M:77.99.241.254:Stuart B
stublu:hellome::1991-02-10:AU:M:none:stublu
stublu123:071303::2003-07-13:US:M:75.120.254.226:Nolan
stublu2000:Will56::2000-03-30:AU:M:124.169.97.117:stuart
stublu2002:perrykatz!::1993-06-30:US:M:none:stublu2002
stublu85:idiot:blustu22@hotmail.com:1985-06-22:GB:M:BattleDome Opponent Waiting:Stuart Archer
stublue_69:tubbies03:stublue_69@hotmail.com:1981-01-14:AU:M:none:stuart green
stubly11:gooman11:ludacris61489@aim.com:1989-06-14:US:M:97.80.121.81:Chris
stublyssa:yellow:alyssaladouceur@yahoo.fr:1986-09-08:CA:F:none:Alyssa Ladouceur
stubma:55661234:sufu14@yahoo.com.tw:1990-04-14:TW:0:none:書福 黃
stubmalone:irule:doktadementcha@yahoo.com:1985-04-30:US:M:none:Stub Malone
stubman1:stuber:rmgsport91@aol.com:1981-07-02:US:M:none:john walters
stubmarco06:tubarco56:razavala@peoplepc.com:1962-10-22:US:M:none:Marco Zava
stubmuffin545:blake1:hotchik545@aol.com:1992-05-20:US:F:none:shanny banany
stubmx:fishtank12::1998-01-02:GB:M:90.209.172.115:stuart
stubmyster:stayout:stubmyster@aol.com:1968-08-31:US:M:none:john ennis
stubn:ryan1:nicole9385@hotmail.com:1993-05-18:GB:F:none:Nikki stubbs
stubnapier:opinion:stubnapier@aol.com:1968-04-30:US:M:none:stuart  napier
stubness:svenn::1993-08-07:CA:M:none:stubness
stubnock:tweety!:michyisere@aol.com:1992-02-19:GB:F:none:michelle stubbs
stubo:optusyes:stuartdobbin@hotmail.com:1986-01-20:AT:M:none:Stuart Dobbin
stubo1:STUBO*::1992-08-12:GB:M:none:stubo1
stubo101:stubo123::1999-10-29:AU:F:124.176.167.19:brittany
stubo13:putter7:stubo13@aol.com:1992-08-12:GB6:M:none:Stuart Traynor
stubo1992:021292:stuart_duncan2@hotmail.com:1992-12-02:ES:M:217.127.0.250:stuart
stubo2567:lambie:stu256@msn.com:1990-02-26:GB:M:none:Stu G
Stubo86:hamon86:stubo86@live.co.uk:1986-10-11::M:86.179.248.204:NULL
stubob:hotdog1:stu_bob_square_pants@ntlworld.com:1986-10-18:GB:F:none:stuart mckeon
stubob11:bob13013bob:dianehollenbaugh@comcast.net:1995-10-01:US:F:67.180.87.40:natalie
stubob123:liver:stu123_123@hotmail.com:1985-11-03:GB:M:Item:stuart clark
stubob14:liver:stu123_123@hotmail.com:1987-11-03:GB:M:Trade Closed:stuart clark
stubob15:LIVER:stu123_123@hotmail.com:1990-11-30:GB:M:none:STUART CLARK
stubob1983:underdog11:wolfbrother1983@yahoo.com:1983-09-16:US:M:none:Robert Stuart
stubob2006:zappers1:stu1989_798@hotmail.com:1987-03-23:GB:M:none:stu spawton
stubob67:5qu1gle:stu_banks7@hotmail.com:1986-07-10:GB2:M:none:stu banx
stubob88:stubob:djmusic@btclick.com:1985-05-02:GB:M:none:stuart mawdsley
stubob89:051589:soccerstu89@aol.com:1989-05-15:US:M:none:stuart spray
stubob989:liver:stu123_123@hotmail.com:1990-11-03:GB:M:none:shane clark
stubobd:stuart:stubobd@hotmail.com:1984-05-29:GB:M:none:stubob davies
stubobjunior:wheedle:sonja.johnstone@boltblue.com:1984-08-03:GB:F:Trade Closed:Sunny Johnstone
stubobmonkey:camels::1992-08-19:US:F:none:dani k
stubobsquarepants:1416rmo:afc_minidude@hotmail.co.uk:1980-10-18:GB:M:86.15.168.113:stuart mckeon
stuboi:southpark:darkness187_95@hotmail.com:1990-10-01:GB:M:Mail from theneopetsteam:stuart clark
stuboi1990:stuart1:stu_tait1990@hotmail.co.uk:1990-07-25:GB:M:none:stuart tait
stuboid:stubear:stuboid@hotmail.com:1981-06-19:CA:F:Mail from cora19:Amanda
stubol:TbS*01:mcgroo2004@aol.com:1983-06-08:GB:M:none:stu m
stuboltz:alexander:s_t_u_a_r_t@hotmail.com:1989-09-28:NZ:M:Mail from theneopetsteam:Stuart Cunningham
stubomatic:stub84::1993-11-03:US:M:none:stubomatic
stubomb10:stubot1:stubot1@yahoo.com:1988-05-13:US:M:67.183.152.95:Stuart Summerfield
stubomb15:stacey:stu_bomb18@hotmail.com:1989-06-08:US:M:none:stuart cady
stubomb9114949602:13690:www.stuhandley@msn.com:1988-11-26:GB2:M:none:stu handley
stubon:munton123::1998-09-19:US:M:72.219.129.210:cole munton
stubon123321:46339::1990-12-19:CA:M:74.114.191.20:none
stubone:horseshoe12::1998-02-22:US:F:72.66.48.155:alex
stubone21:chickenfish1::2001-12-16:US:M:24.113.24.119:stubone21
stuboo123:christian44:stuallen11@yahoo.com:1994-05-11::M:72.228.59.105:NULL
stuboo22:12291::1991-12-02:US:M:none:stuboo22
stuboo666:2294824:poo@crap.org:1990-06-23:GB:M:90.240.73.171:stu
stuboo6666:2294824:stuboo666@hotmail.co.uk:1995-06-19:GB:M:90.240.73.171:stu
stuboo90:satch::1990-12-18:US:M:none:none
stubook1:minniemouse:doreencarman@aol.com:1992-03-28:GB:F:92.18.224.32:r r
stuboos:meep23:junk446688@yahoo.com:1990-01-01:CA:F:64.180.59.141:Lisa
stuborn:school::1991-07-10:US:F:none:stuborn
stuborn101_2:brat05:stubornbrat101@yahoo.com:1993-05-21:US:F:71.110.196.186:kyra
