stuffyfluff:ballerina::1992-11-10:US:F:none:stuffyfluff
stuffyfluff1:chicky:spicy_fingers15@hotmail.com:1987-02-05:US:F:Item:Suzy R
stuffyfluff312:SF!!!:4spooners@sjp.sch.essex.uk:1992-09-17:GB:F:none:stacey spooner
stuffyfluff4:bubbly42::1998-06-07:GB:F:86.30.44.230:carly
stuffyfluff98:monkeyjuice98:kyra_lyerla@yahoo.com:1995-5-28:US:F:98.118.115.40:Kyra
stuffyfluffy:ally4100:indigoangel@another.com:1987-10-04:GB2:F:Mail from germital:alice mendelowitz
stuffyfluffy121:celine1043:BbReEtWsEyR@aim.com:1987-10-11:US:F:69.154.77.0:bb
stuffyfluffy22:27abcd123::1996-03-20:CA:F:99.236.234.37:rose
stuffyfluffy38:beccalecca38::2001-04-17::F:76.168.119.83:NULL
stuffyfluffy8:cutie10::2001-05-16:US:F:76.93.12.188:brenda
stuffyfluffy97:123456stuffy::1999-10-13:PH:F:125.60.252.172:Pamela
stuffyfluffy_580:5634891213579::2007-08-03::M:68.204.106.157:NULL
stuffyflufy:neopets22::2000-09-01:AU:M:58.169.76.156:Cappillo
stuffyfreak_3:girlie22::2000-04-01:CA:F:96.48.176.90:map
stuffyfree86:contest321::1999-02-19:US:F:74.76.217.70:Sarah
stuffyfy:timmy::1992-07-23:GB2:M:none:stuffyfy
stuffygal:kittycat100:nicolerocks100@hotmail.com:1960-06-04:CA:F:24.222.213.243:Nicole
stuffygallery:cyclura:timtiki@earthlink.net:1963-05-11:US:M:Acceptance:Timothy Haack
stuffygirl1:4747885::2001-04-08:CA:F:76.68.60.155:tia
stuffygirl12:ring1::1993-11-29:US:F:none:stuffygirl12
stuffygirl13:ring2::1993-11-29:US:F:none:caitlin crawford
stuffygirl1993:irishcutie93:patrat97@aol.com:1988-08-26:US:F:none:erica graef
stuffygirl85:sierra32::2000-11-09:CA:F:70.78.47.153:sierra
stuffygirl9:madison12::2001-10-26::F:72.95.56.135:NULL
stuffygirls48:lilbabes:luckygirl4800@aol.com:1987-11-09:US:F:none:March Maxell
stuffyguy:12344321:glassjellyfish@aim.com:1975-02-27:IT:F:66.207.242.224:Clevag
stuffyguy21:kevins23:kevins@yahoo.com:1987-11-03::M:69.203.209.84:NULL
stuffyguy221122:2222221:fart22@hotmail.com:1927-12-12:AU:M:211.30.223.190:killer
stuffyguyguy:nathan1:lkreiser@yahoo.com:1905-12-31:AF:M:none:a j
stuffyh15:mustangfree!::1994-09-25:US:F:76.214.116.242:Stuffy
stuffyhater07:wells05::2002-03-16:US:M:76.251.2.251:Danny
stuffyhaven:l0vestar123::2000-08-23::F:24.7.137.1:NULL
stuffyhead337:stevenh12:bandgeak48@aol.com:1980-08-21:US:M:none:hvfbvn hgcfgfg
stuffyheya:atschool123::1998-07-06:NZ:F:121.72.131.176:Sophie
stuffyheya321:passwordis456::1998-07-06:NZ:F:121.72.142.102:sophie
stuffyhuffypuckerpuf:pokeypuff12:cghnj@surewest.net:1993-01-25:GB:F:67.180.241.58:dani
stuffyice:nibby5236:escort_gib@hotmail.com:1989-06-19:SG:F:165.21.155.74:Vivian
stuffyiuv:puppyiuv::1993-05-17:US:F:none:stuffyiuv
stuffyjacob:stuffyshutup::1994-05-07:US:M:none:stuffyjacob
stuffyjelly:hihodldo::1991-06-06:US:F:Battledome Challenge:stuffyjelly
stuffyjelly256:hihodidlo::1992-06-06:US:F:Battledome Challenge:stuffyjelly256
stuffyjr:farty4::1997-05-30:US:M:75.135.136.127:stuffyjr
stuffyk1:kkkim92::1999-03-30:US:F:72.199.219.84:kimberly
stuffykangaroo:snuffles12:bjluo1@gmail.com:1980-07-01:US:M:66.188.125.242:Beej
stuffykarr:barbie123::1997-09-04:US:F:64.234.58.248:Karaline
stuffykat:gunner13:fantasy-not-reality@hotmail.com:1992-04-13:CA:F:206.45.111.128:Stephanie
stuffykay:fixless5:godsswatteam@yahoo.com:1989-06-13:US:F:none:Kari Parker
stuffyking:carter999::2003-07-24:CA:M:99.241.16.207:NULL
stuffykins113:bob23::1994-05-08:US:M:none:stuffykins113
stuffykins123:spongebob123:ickle-miss-emily@hotmail.co.uk:1990-08-19:GB:F:86.151.55.141:emk8
stuffykins407:bob24::1994-05-08:US:M:none:stuffykins407
stuffykinsandmarr:neopets12::2004-08-14:US:M:174.28.175.82:Henry
stuffykinsd1:::2004-11-24:US:M:174.28.144.130:NULL
stuffykins_143:squeakers20:brownkiwikid@aol.com:1993-09-07:US:F:none:lena son
stuffykinz:harley#1::1993-04-16:US:F:none:stuffykinz
stuffykinz00:natalie00::2000-03-10:CA:F:24.64.223.205:Natalie
stuffykit:prince5:roleplay_blondie@yahoo.com:1993-01-01:US:F:none:Sam
StuffyKitten:serena12::1998-11-23::F:92.28.194.245:NULL
stuffykittis123:demetrice12::2001-11-19::F:74.89.22.180:NULL
stuffyle:minukoer::1993-01-15:EE:0:none:stuffyle
stuffyle100:cowan100:gtcowan@btinternet.com:1993-07-27:GB:M:none:george george
stuffylo:0pheila0:plushesdoll@hotmail.com:1992-04-21:AU:F:220.239.168.155:Doll
stuffylolo:Liedekerke:thienpont_lorna@hotmail.com:1990-06-25:BE:F:none:Lorna Thienpont
stuffylover901:5906366::1997-08-10:CA:F:68.144.202.200:Jordan
stuffyloverpepa4422:stuffys::1995-07-17:US:F:none:stuffyloverpepa4422
stuffylovers:kathryn::1993-12-22:CA:F:207.216.138.187:stuffylovers
stuffylovers6016:world::1994-04-09:CA:F:none:stuffylovers6016
stuffylover_7:greenday32:warrior_angel@live.ca:1988-11-08:CA:F:24.138.8.162:Cassandra
stuffylu:neopet10::2000-02-05:US:F:189.223.6.192:lizz
stuffyluffyco:stuffyluffy91:phil@phillipmueller.com:1991-03-15:US:M:24.107.209.164:Isaiah
stuffylump1011:comma!:liltowlie@aol.com:1985-01-20:US:F:none:Brad Esterle
stuffyluna5680_2_5_0:potterlover45:arianna5680@yahoo.com:1994-06-05:US:F:74.101.28.243:NULL
stuffyluv:PUPPYLUV::1993-05-17:US:F:none:stuffyluv
stuffyluv1111:DARK*::1993-05-17:US:F:none:stuffyluv1111
stuffyluver:caitlin10:djgirl_2003@yahoo.com:1980-09-27:CA:F:99.192.62.248:caitlin
stuffyluver4:503545:kcooke1063@msn.com:1994-02-14:US:F:65.83.206.220:Ashley
stuffyluvr:apapjash88:chocopuffs92@aim.com:1991-03-26:US:F:71.185.253.231:Paige
stuffyluvsu:kiwi88:ati10242ris@aol.com:1988-11-04:US:F:none:Stephanie  Carbone
stuffym:martin::1992-05-06:US:F:none:stuffym
stuffym175:martin::1992-05-06:US:F:none:stuffym175
stuffyman10:cars10::2003-01-24:CA:M:216.197.243.203:NULL
stuffyman12345:mnbvcxz:aaaaa@sbcglobal.net:1960-12-23:CH:M:none:I left it on a peice of paper some were...
stuffyman3:conman34::2001-09-14:US:M:69.152.2.12:connor
stuffymaster109:217421::2001-05-21:US:F:74.195.240.129:NULL
stuffymcchicken:qwilleran:matthew_kostiuk@hotmail.com:1911-09-11:US:M:Trade Closed:matt
stuffymcstuff29:poopy:alfonsogotenks@yahoo.co.uk:1901-11-25:GB:M:none:crazy cheese
stuffymcstuffstuff:dollpart:everyspeckoftile@aol.com:1984-11-14:US:F:none:none ofyourbusiness
stuffymelon:runaway27:hshreefter@gmail.com:1990-04-27:US:F:24.239.128.80:NULL
stuffymember:magi874slid296:ngohmanhua1994@hotmail.com:1980-02-15:SG:F:202.156.11.4:Man Hua
stuffymikee:mori.75:ammhayka_me@yahoo.com:1994-09-08:PH:F:121.97.215.159:Ammaica
stuffymonkey:tashandsteph:littlestuffy@hotmail.com:1981-05-21:CA:F:none:Carrie Andrews
stuffymonkey900:A04021989:missing4awhile3@yahoo.com:1988-11-06:US:F:none:H. O.
stuffymuffin:derlaga:you-think-you-can-stop-me@comcast.net:1989-01-23:US:M:none:Barto KooIie
stuffymuffins:muffin12:boogs5000@aim.com:1985-08-05:US:F:72.77.173.132:Jessica
stuffymuffy888:stufflikeginger::1993-06-13:NZ:M:none:stuffymuffy888
StuffyMuffyGirl:dante2034::1997-06-09::F:174.58.102.68:NULL
stuffymuffyp:11lollipop::2001-05-24:US:F:76.209.133.91:NULL
stuffymuus:Lanzelot6:stephi_19-92@hotmail.com:1992-11-24:CH:F:none:Stephi aebi
stuffyn0se:leader123:stuffyn0se@writeme.com:1984-10-12:US:F:none:L N
stuffynato:troops1:spazchick36@hotmail.com:1985-08-20:US:M:208.20.67.235:skygamble
stuffyneo169:shops77::2000-06-29:US:F:98.201.62.108:heidi
stuffyneoprincess:5843263:terri_merrymoo2132@hotmail.com:1949-02-17:CA:F:none:Nic ^^
stuffyness_2006:mememe#:lissalichinua@aol.com:1992-04-10:US:F:none:kelsey kelsey
stuffyness_abcgum:bluey1:bthompson@relatedgroup.com:1989-04-15:US:F:none:William Bloo
stuffynoeskin:smartbob21:circumcisedsheep@hotmail.com:1985-05-10:US:M:none:Zack Hutnick
stuffynono:600610::2000-6-17:US:M:98.28.155.165:nick
stuffynonoo:600610::2000-06-17:US:M:98.28.155.165:nick
stuffynoose10000:91789:a0326hwang@hotmail.com:1988-03-26:US:M:none:Andy Hwang
stuffynose:popcorn:bumblebeebetsy@yahoo.com:1972-02-09:US:F:none:betsy kelley
stuffynose08:kittenest:stuffynose08@yahoo.com:1990-03-25:US:F:none:Amber Chaston
stuffynose13:katie13:stinkerbelle94@yahoo.com:1993-11-14:US:F:68.46.19.241:katie
stuffynose2512:buddy2512:kura_sumi@yahoo.com:1993-08-26:US:F:173.57.123.137:kura
stuffynose320:dontstuff::1993-07-20:US:F:none:stuffynose320
stuffynose388388:mango14:stuffynose388388@yahoo.com:1984-06-14:US:F:none:Jane York
stuffynose392:booger:eclair@charter.net:1959-02-13:US:F:none:Pam Denbow
stuffynosee:321320749:shirang@hellokitty.com:1997-03-19:CA:F:64.56.226.211:gopp
stuffynoseshe67:stuffynose:stuffynoseshe67@yahoo.com:1991-06-14:US:F:none:StephanieShih
stuffynose_6_6:redhead1:stuffynose1295@yahoo.com:1993-05-12:US:F:76.106.113.246:stuffy  nose
stuffynose_911:camping1991!:chadmagier@gmail.com:1991-10-13:CA:M:173.32.152.192:NULL
stuffynotbuffy:cutie23::1996-02-29:US:M:74.69.248.55:smart guy
stuffynoze:dudeness:stuffynoze@hotmail.com:1983-12-19:CA:M:Acceptance:Ryan Sterling
stuffynozegrl:ilovedogsandsoftball::1992-01-01:US:F:none:stuffynozegrl
stuffynuffy:cocochanel::1992-12-10:US:F:none:stuffynuffy
stuffynuffy01:cocochanel101:www.sweethearttaila@msn.com:1990-11-10:US:F:none:Tava Thompson
stuffynuffymonkie:lanli101::1993-03-28:US:F:71.118.172.65:Lanli Su
stuffyo:fans$:marygallen@adelphia.net:1992-03-11:US:F:none:gum byu
stuffyo0:2goto:marygallen@adelphia.net:1991-03-17:US:M:none:yiu jike
stuffyodd:spanner:stuffyoddagain@hotmail.com:1984-11-09:GB2:M:none:Alan Moore
stuffyold_eeyore:Girlfire:stuffold_eeyore@hotmail.com:1990-01-18:AU:F:none:Natasha G
stuffyold_eeyore37:Girlfire:stuffyold_eeyore@hotmail.com:1990-01-18:AU:F:none:tash g
stuffyone5000:inuyasha1:stuffyone5000@yahoo.com:1990-01-15:US:M:none:Jimmy Milly
stuffyoo:u7555:marygallen@adelphia.net:1990-01-24:US:M:none:pop deff
stuffyorca:stuffyorca1:stuffy_cat3@hotmail.com:1991-11-10:CA:F:67.193.251.10:Kayla Bolton
stuffyos:quadroc12:stuffyos@videogamesrock.com:1988-04-15:US:M:75.41.59.72:bobby jim
stuffyou:sweetbunns::1992-07-28:AU:F:none:Savannah Roberts
stuffyou1:stuff:bethanietrewin@hotmail.com:1990-05-07:AF:M:none:beth trewin
stuffyou11:narnar:smellybean_hannah@hotmail.com:1991-03-23:AU:F:Acceptance:hannah mitchell
stuffyou131:suckers:reva_360@hotmail.com:1901-01-01:US:M:none:Zach Jack
stuffyou2:azza123:nic_rocks_most@hotmail.com:1988-06-01:AU:M:none:jessica jak
stuffyou85:7175sb:spaceoddity253@yahoo.com:1990-09-12:US:F:24.17.165.242:Sasha Beggs
stuffyou88:bandit96:u.fish@hotmail.com:1990-09-13:AU:M:121.219.162.230:bruce
stuffyou92:nikita::1992-09-03:AU:F:none:stuffyou92
stuffyoucow:85624::1993-01-06:NZ:M:none:stuffyoucow
stuffyouhate:l0s3rs:senttodestroy666@aol.com:1978-08-25:TG:M:71.202.175.97:no remorse
stuffyouiam8:darcy8:tvance144@hotmail.com:1992-06-26:AU:M:none:d v
stuffyouneonerd:721462:chrisarki@hotmail.com:1988-09-30:BE:M:none:wsdrgv wsrtfvb
stuffyourface:browniespalmtrees36:luckyme7707@aim.com:1993-05-07:US:F:65.78.17.39:Senny
stuffyourface248:rachel::1994-03-12:US:F:none:stuffyourface248
stuffyoushouldknow:LesMiserables2397:sierracampbell2397@gmail.com:1994-02-23:US:F:68.110.111.32:Lady Sierra the Theater and Gryffindor Diva
stuffyoutoo:scarymezzy:stuffyouthen@hotmail.com:1987-06-28:AU:F:none:mary  A
stuffyouwant:jason2:jnw1993@yahoo.com:1988-09-25:US:M:24.3.195.130:Jay
stuffyou_9:fuck you:botyboo@hotmail.com:1989-09-01:AU:F:none:kia coats
stuffypawns:tuffy123:stuffypawn@yahoo.com:1990-09-19:US:M:74.37.153.16:Josh Geuben
stuffypb4lyar:icecream4:i_luv_cheese4@yahoo.com:1989-11-05:US:F:none:steph pshhhtjustcallmestuffy
stuffypeng8:trenton86::1999-11-13:US:M:67.8.130.98:Trenton
stuffypenguin:drgnend123:lostandneedajob@gmail.com:1988-02-28:US:M:67.214.168.179:Andrew
stuffypet:starwars4000::1999-01-03:US:F:72.14.116.137:emily
STUFFYPET1234:alexandra123:rjoaquin65@yahoo.com:1951-07-11::F:98.112.74.129:NULL
stuffypets:lover63::1998-03-03:US:F:75.60.60.40:magey
stuffypie:stophbaby12:buttercupp_xo@hotmail.com:1990-11-30:CA:F:24.215.51.44:Stephanie
stuffypie86026:shinylight02::2000-06-26:US:F:75.81.209.6:NULL
stuffypink:squimp:spencermeyer@btinternet.com:1978-06-26:US:F:none:Scarlett Meyer
stuffypink682:jdd414::2000-04-14::F:67.149.193.63:NULL
stuffypink711:pieluv11::2000-04-14::F:67.149.195.119:NULL
stuffypooch:ripley08:jereyon8@aol.com:1991-07-31:US:M:97.87.1.197:Jerad
stuffypop:1337haxor::1994-07-13:US:M:173.16.189.149:stuffypop
stuffyprincess:teddie::1993-07-16:US:F:Mail from motorduck:stuffyprincess
stuffyprincess101:teddie::1993-07-16:US:F:none:stuffyprincess101
stuffypuff:stuffypuff123::1999-05-12:US:F:173.71.214.80:Jenna
stuffypuff107:marlins19:fishhard19@yahoo.com:1975-08-01:US:M:none:Michael Perez
stuffypuffy:coolpool:monkeybutt_wildgirl@hotmail.com:1992-03-02:CA:F:none:kristen mcveigh
stuffypuffy007:rudababy07:Silverseven07@aol.com:1990-08-29:US:F:71.56.19.107:Nicole
stuffypuffylovable:hotness!:godsavethefree@hotmail.com:1907-03-03:HK:M:none:haha hoho
stuffypuffy_12:chloe!::1993-11-30:AT:F:220.238.156.171:chloe prince
stuffypup101:monkey101:angel_goldenretriver@yahoo.com:1991-02-14:US:F:none:Sam nochez
stuffypuppy:ripley:jereyon8@aol.com:1989-05-23:US:M:none:Scooby Doo
stuffypuppy123:doc123::1999-8-25:US:F:76.186.155.99:julia
stuffypuppy123_123:hothot123::2001-11-27::M:74.193.166.24:NULL
stuffypuppy200:pickett:flopsymopsy2000@yahoo.com:1981-10-25:US:F:none:Elizabeth Arden
stuffypuppy93:jjasley1:stuffypuppy93@yahoo.com:1992-06-05:FR:F:none:Jenie Ashley
stuffypuppysrule:Bl0wer1::1999-07-02::F:96.225.231.20:NULL
stuffypuppy_590:hothot123::2001-11-27::M:74.193.166.24:NULL
stuffypuppy_855:06puppy::2004-04-30::F:66.211.121.15:NULL
stuffyqueen003:victoria100:librarymom317@yahoo.com:1994-04-23:US:F:24.158.131.111:Tori
stuffyqueen03:victoria10:stuffyqueen@charter.net:1994-04-23:US:F:70.49.19.49:Tori
stuffyqueen3:1victoria1:stuffyqueen@roadrunner.com:1960-04-23:US:F:76.5.150.148:Tori
stuffyr7:joyce:str7@cdc.gov:1981-04-17:US:F:Item:Stephanie Ray
stuffyrabbit:12woody:Dogrulefun800@aol.com:1993-10-07:US:F:66.122.73.1:Caroline
stuffyrain:koopas45::1999-02-19:US:F:24.105.162.19:Sarah
stuffyrocks:gorge1234:mark1311d@aol.com:1990-05-13:VG:M:24.29.77.10:Tyler
stuffyrocks55:ginger55::1999-01-13:US:F:75.82.239.227:chloe
stuffyrooni:Anna grace::1993-10-09:CA:F:none:stuffyrooni
stuffyrox:anderson41:rkramer@cableone.net:1974-04-01:US:F:67.61.86.68:Ashley
stuffys:982718:legendz_1302@hotmail.com:1981-02-13:SG:M:165.21.154.8:low
stuffys9111:nerual1:gamefreak111111@yahoo.com:1988-05-25:US:F:none:Ashley Smith
stuffys99_4_4_4:cotton99::2000-04-23:CA:F:70.65.27.146:storm
stuffysally:coyote:stuffysally@aol.com:1991-01-03:US:F:none:Sally Compton
stuffysbestbff:stuffy753::1998-08-13:US:F:72.218.66.226:Kayla
stuffysbud:aaron45:myndee78@yahoo.com:1978-08-26:US:M:69.92.41.169:aaron
stuffysgirl:daddo::1993-09-28:US:F:none:stuffysgirl
stuffyshattering:abcde:oops14@hotmail.com:1948-04-09:US:M:Can I be your NeoFriend?:heh gaag
stuffysheep:1newlife:stuffysheep@yahoo.com.tw:1987-03-19:TW:F:none:Fannie Shao
stuffysnuffy:savannah:foxeyes.farm@gmail.com:1993-11-30:US:F:208.107.26.118:stuffysnuffy
stuffysnuffy2:frogeyes::1993-11-30:US:F:208.107.41.242:stuffysnuffy2
stuffysnuffy3:frogeyes2:willixkatz@comcast.net:1985-10-30:US:F:none:Mandy Farlland
stuffysnuffy5:stuffy55::2004-02-08::F:71.244.111.13:NULL
stuffysox:echo2:punk_princess0202@hotmail.com:1990-04-25:CA:F:none:? ?
stuffystar:GMNTbfmy12::2002-09-19::F:68.4.181.235:NULL
stuffystar123:puppiesrock123::1998-11-29:US:F:71.80.126.149:victoria
stuffystarz_:dollies::1997-09-15:US:F:Battledome Challenge:stuffystarz_
stuffysteffie:ilvnick:ssmith@logowatches.com:1982-01-09:US:F:none:S. Smith
stuffysteffystiffy:amooquoz::1991-04-23:GB:F:none:none
stuffysteffystiffy40:amooquoz::1991-04-23:GB:F:none:none
stuffysteph:krissy!:stuffysteph@06.aol.com:1993-09-08:US:F:none:dadrules peltier
stuffysteph06:peltier13:dadiorules@yahoo.com:1993-09-08:US:F:74.32.228.42:stuffy
stuffysteph12167:bunny:stephaniefram76@hotmsil.com:1991-02-17:CA:F:none:Stephanie Fram
stuffysteph12252:bunny::1992-02-17:CA:F:none:stuffysteph12252
stuffysteph46:jade1::1992-02-17:GB:F:none:stuffysteph46
stuffystephers:water51:stephkryzak@charter.net:1991-12-22:US:F:68.118.178.17:Steph
stuffystephie:armyandsam:starlight_luv_2002@hotmail.com:1979-10-18:CA:F:none:Amber Stephanie
stuffystew:girlfriend:stuffystew@yahoo.com:1985-03-10:AZ:M:none:fkdsjaflksadjfkldsjfl;ka fdsafdas
stuffystiff:wilberdan:stuffystiff@hotmail.com:1985-12-19:SG:F:none:steff oh
stuffystop:2004106723:ayce_86@yahoo.com:1985-12-16:PH:F:none:Aisa Quirante
stuffystripes:pawprint::1993-07-21:US:M:none:stuffystripes
stuffystrong:neostuff354:mswjax@yahoo.com:1908-03-09:US:F:76.18.202.226:hobohibo
stuffystudeyesbob:thhhthhh555:ifvibidpdorm@hotmail.com:1971-05-13:AU:F:none:Bob Emilie
stuffystuf:stufstuffy::1990-11-28:CA:M:none:stuffystuf
stuffystuf267:asshole!:postmaster@rodra.nl:1988-03-07:NL:M:none:robin knol
stuffystuff:boxer:drumadicinclas@aol.com:1986-05-29:US:M:none:josh myers
stuffystuff10:moon97:lunasrainbow@gmail.com:1891-01-01:US:F:69.204.250.146:NULL
stuffystuff123abc:retire123::2000-11-26::F:24.107.139.208:NULL
stuffystuff22:chii22:hitori_no_unmei@hotmail.com:1980-05-22:US:F:69.227.2.195:That
stuffystuff46:stuffrocks::1993-12-27:US:F:none:stuffystuff46
stuffystuff531:mollydolly531:usdoodle@netscape.net:1982-05-31:US:F:none:May !
stuffystuff597:jared597:mrjunkyjunk@yahoo.com:1987-07-10:PH:F:none:I LOVE HORSES!!
stuffystuff9:hol0008::1997-03-06:AU:F:58.107.252.92:Emily
stuffystufferson:groggle13::1996-09-30:US:F:208.157.168.26:Fiona
stuffystuffing:stuffy:naturalist21@msn.com:1960-02-21:US:M:Trade Closed:Bernie Garza
stuffystuffstuff:stuffrules4:mi_rubber_duckie_lives@hotmail.com:1968-04-20:AU:F:220.239.14.78:mary evergreen
stuffystuffykk:6622km::1993-09-28:US:F:none:stuffystuffykk
stuffystuffystuff:tigress:abby_rox@hotmail.com:1989-09-03:AU:F:220.253.160.20:there haslemuslepinspetalon
stuffystuffz:12k3h4:crazy_man767@hotmail.com:1993-05-20:CA:M:76.64.108.5:
stuffysummer18:summerrules18::2001-06-30:US:F:99.195.62.241:summer
stuffys_2_2:little12:wescombe.claire@hotmail.com:1990-01-05:US:F:203.75.232.189:Ashally
stuffys_90:jani90:sowhat_10@hotmail.com:1990-01-24:FI:F:none:Jani Syrjälä
stuffytaz:stuffy56::1999-02-19:US:F:74.76.217.70:sarah
stuffyteddy:froggy03:calvinaeng@cox.net:1991-03-08:US:M:68.3.70.64:NULL
stuffythehippo:c0lumbia:anetaniziolek@hotmail.com:1984-01-15:CA:F:none:Simone neta
stuffythestuff:stuff:naturalist21@msn.com:1983-01-06:US:M:none:dddd ffffff
stuffythings:hotdummys:hottyking703@yahoo.com:1989-07-03:NZ:M:none:bvvgvb vvvvvb
StuffyThingy:1bubivo1:honehyyboo@hotmail.com:1997-07-27:US:F:67.49.87.220:NULL
stuffytiger:ripley:jereyon8@aol.com:1989-07-31:US:M:none:Scooby Doo
stuffytissue:marie12:laceybaby15@cox.net:1987-04-04:US:F:98.162.217.167:stephanie
stuffytissuex:marie12:laceybaby15@cox.net:1987-03-04:US:F:98.162.199.78:stephanie
stuffytoureene:gabe03::2003-01-22:US:M:72.135.231.50:NULL
stuffytoy:qweewq12::1998-02-07:PH:M:125.60.243.47:Jason
stuffyturbo:stephanie2212::2000-09-08::F:76.174.171.152:NULL
stuffyturbo3:scarlet22::2000-9-8:US:F:76.174.166.222:stephanie
stuffytwin:stuffy1016::1997-10-16:US:F:71.254.240.3:stuffy
stuffyu789:password12::1997-11-12::F:70.238.55.176:NULL
stuffyuffypuffy:uffystuffy::1995-03-03:AU:F:144.132.145.7:stuffyuffypuffy
stuffyu_1:lulu96::1997-11-12:US:F:70.238.50.42:Stephanie
stuffyv2:***000:sunshinegurlly@yahoo.com:1985-01-22:US:F:none:ty yt
stuffywhitecuty:ginger77::2002-10-24:US:F:75.82.239.227:ava
stuffywillis:sexcsteph12:stuffywilliis@hotmail.com:1993-07-27:GB:F:82.37.33.83:steph
stuffyworld1:130376::1999-07-05::M:96.48.37.125:NULL
stuffyworld10:stuffy89::2000-08-07:CA:F:70.70.42.139:NULL
stuffywuffy:griffinn4:grasagirl3@yahoo.com:1993-06-25:BS:M:none:Magz Magz
stuffywuffy16:steffi15:stephigirl81@hotmail.com:1990-03-15:JM:F:none:Steph Melville
stuffywuffy16__ll:2_hot:stephigirl81@hotmail.com:1990-03-15:JM:F:none:Steph Melville
stuffywuffy92:wuffystuffy:brittany92@fuse.net:1992-03-31:US:F:none:brittany centers
stuffyx:da79925:kelllybearrr@aim.com:1994-02-11:US:F:72.166.37.167:Kelly
stuffyxnoodlexoodle:ilikemybaloney64:stephliu64@gmail.com:1993-06-04:US:F:none:Stephiee Liu
stuffyxxyyzz123:starwars12::1999-05-27:US:M:98.216.219.38:Noah
Stuffyy:folmaywaix00::1998-06-26:FR:F:81.48.137.207:NULL
Stuffyyyyy:stuff101:iwillrockyou@yahoo.com:1996-01-01::M:69.109.40.82:NULL
stuffyzebra2:wishbonegirl::1992-03-17:US:F:none:none
stuffy_03yahoocom:stuffy03:stuffy_03@yahoo.com:1985-10-15:PH:F:none:charme ong
stuffy_07:becks1234::1999-11-28:GB:F:86.172.61.148:Stephanie
stuffy_09:booboo11:sophie-stuffy@hotmail.co.uk:1996-02-26:GB:F:81.97.248.184:sophie
stuffy_1:bunny_1:gr8cheerprincess@yahoo.com:1987-11-08:US:F:none:Ashley Burnett
stuffy_101:SPIFFYNESS:quicksliver_01@msn.com:1989-09-27:US:F:Can I be your NeoFriend?:Courtney combs
stuffy_101_82:stufstuf11::2000-03-22:US:F:24.98.139.35:stuffy
stuffy_102:THEOMATIN9:quicksliver_01@msn.com:1989-09-27:US:F:none:Courtney combs
stuffy_1074:sammy_22:sammyceraulo@yahoo.com:1994-06-12:US:M:12.202.60.124:sammy
stuffy_111:whiteroom64::2002-02-05:US:F:96.229.209.157:NULL
stuffy_112:whiteroomy68::2002-02-05::F:96.229.209.157:NULL
stuffy_1234:becks1234::1999-11-28:GB:F:86.148.191.179:stephanie
stuffy_15:cham85:cham_85@yahoo.com:1985-10-15:PH:F:none:charme ong
stuffy_18:scouting18:karelde5@hotmail.com:1989-03-03:NL:M:82.171.42.157:leon
stuffy_1996:chienchat1996::1996-05-31:AU:M:58.172.69.182:vcitor
stuffy_1_1:bill1:bob.bill@hotmail.com:1992-07-23:SG:F:none:bob bill
stuffy_2:tesorero02:darwin_kristoffer@yahoo.com:1992-12-15:PH:M:none:darwin oquendo
stuffy_200:ilove56::2002-09-01::F:65.93.197.35:NULL
stuffy_200_09:ilove56::2002-09-01::F:65.93.197.35:NULL
stuffy_205:Angel56::1998-09-01::M:67.10.101.33:NULL
stuffy_24:complicated24:pritopriko@yahoo.com:1994-11-22:PH:F:222.127.223.72:abby
stuffy_2506:futurama25:lil_angel_2506@yahoo.com:1990-06-25:AU:F:none:Nina Huynh
stuffy_276:paige327::2004-06-02::M:67.240.59.87:NULL
stuffy_28:megywegy11::1998-12-05:US:F:65.8.18.16:Megan
stuffy_291:azerty_12::2001-08-28:US:F:71.62.59.217:sheima
stuffy_316:Stuffy316:friend-fabulous@hotmail.com:1991-03-15:US:F:none:Stephanie Lewis
stuffy_32:stephanie32:xoskittles32xo@aol.com:1993-08-14:US:F:76.179.213.255:stephanie
stuffy_4:panda14:great2draw@yahoo.com:1993-06-15:US:F:none:Emma Snarfblatt
stuffy_410:ajt137::2004-03-25::F:69.119.11.221:NULL
stuffy_411:teddy:fabnkq@yahoo.com:1987-09-28:TT:F:none:Nneka Quashie
stuffy_4_4_4:1Moma1::1999-04-02:US:M:98.245.93.90:jackson
stuffy_5:doodles123:pink_stinks_123@hotmail.com:1988-01-18:CA:F:none:abbey allen
stuffy_50:ASDFGHJKL12::1998-09-02:CA:F:99.241.4.85:KELLY
stuffy_5225:tresh#1:wadeabram1@yahoo.com:1987-12-13:US:F:none:Madeline Abram
stuffy_5_5_5_5_5:MuffMarsh_52:rocnrach@msn.com:1996-07-19:US:F:71.211.159.188:NULL
stuffy_6:ja6ja6::2000-04-17:GT:M:190.148.19.194:NULL
stuffy_63:$brockk$55::2000-10-06:US:F:71.245.11.246:Kali
stuffy_74_9:6588889::2001-04-09:US:M:99.27.19.149:stuffy_74_9
Stuffy_779:Stuffy77::2000-12-06::F:203.59.165.181:NULL
stuffy_851:softbutt12::2008-05-05::M:69.21.39.43:NULL
stuffy_85yahoocom:stuffy85:stuffy_85@yahoo.com:1985-10-15:PH:F:none:charme ong
stuffy_87:yoley6:halez_87@yahoo.com:1987-09-09:PH:F:none:zefra villardo
stuffy_871:magsalin77:jesus_edu77@yahoo.com:1980-12-08::M:112.202.191.60:NULL
stuffy_89:ilovemarc12:fire_flies58@hotmail.com:1992-06-17:CA:F:24.65.225.18:NULL
stuffy_8_8_8:rebelpride12::1997-10-27:US:M:68.212.86.64:Brandon
stuffy_90:thr_91t68T94_871:stuffy_91@yahoo.com:1991-02-09:AQ:M:none:stuffy _91
stuffy_91:thy_91t68T94_871:flesh.imp91@gmail.com:1991-02-09:SG:M:218.186.8.228:Francois
stuffy_910:freak:stuffy_91@hotmail.com:1991-02-09:AQ:M:none:FreakoMayo
stuffy_915:cat100::1993-09-15:US:F:none:stuffy_915
stuffy_98:stuffy98::1998-04-25:GB:F:195.93.21.10:Sophie
stuffy_986:pdffpy45::2000-03-03::F:70.113.8.233:NULL
stuffy_a98:yahoo76::1998-06-08:US:F:68.5.8.6:julianna
stuffy_an9el:booboo03::1991-08-07:CA:F:none:Stuffy_An9el
stuffy_angel:mzblond96:anabeth@spexports.com.au:1996-02-27:AU:F:202.173.151.202:Anabeth
stuffy_animal:cocopie:squirllcat@yahoo.com:1991-04-01:US:F:none:emma nunna
stuffy_bear:garrido:cookie_mwahnster@yahoo.com:1990-04-13:PH:F:none:jessica secretario
stuffy_bear89:coconut tree61::1999-06-19:US:F:69.234.228.11:marina
stuffy_bear_222:merinda:mooofriend@hotmail.com:1983-03-25:US:F:none:non of your bysness
stuffy_bear_888:merinda:mooofriend@hotamil.com:1988-03-13:US:F:none:non ya!
stuffy_bond:shaun123::1999-01-18:GB7:M:82.6.22.96:Shaun
stuffy_boy:turdle:xingwang89@hotmail.com:1979-02-17:GB6:F:none:bunny turnover
stuffy_brain:BenManly:nancy_manly@hotmail.com:1982-11-24:US:M:none:Stuffy Brain
stuffy_buffys_mom:PUGIE:kstar336378@aol.com:1985-09-10:US:F:none:KURSTEN STARKIS
stuffy_bunny:gram01$$::1999-06-19:US:F:71.207.108.189:rachael
stuffy_candy:pastor30:mikpastor@yahoo.com:1995-08-19:PH:F:119.95.183.143:Mikaela
stuffy_cheese:repto234:thecheeseboy@hotmail.com:1985-01-01:US:M:none:cheese stuffy
stuffy_dog:aricsidell:stuffy_dog@yahoo.com:1964-01-01:US:F:72.93.182.214:tinax
stuffy_dog1:lovelylavender29:perquelated@aol.com:1993-09-23:US:M:205.209.66.163:NULL
stuffy_dog_66:sirlovealots25::1996-05-03:AU:F:203.39.15.32:Mandy
stuffy_doll:master77:schembeck@gmail.com:1987-10-10:BR:M:201.43.133.205:Lucas
stuffy_ducky:popcorn:melybug2000@aol.com:1988-08-26:GB:F:none:maggie stauss
stuffy_fay:sfsapril:cutenikki_77@hotmail.com:1990-04-28:US:F:none:stephani somethin
stuffy_fluff:98626830::1992-10-17:AU:F:none:stuffy_fluff
stuffy_fluffy:cat12:dancin_princess@hotmail.co.uk:1980-12-01:US:F:none:katie williams
stuffy_fluffy1993:shivani::1993-04-12:US:F:none:stuffy_fluffy1993
stuffy_fluffy93:shivani::1993-04-12:IN:F:none:stuffy_fluffy93
stuffy_friends:brownie:rohender@rogers.com:1987-09-02:CA:M:none:cam henderson
stuffy_gurl:jadeanne_d:echusah@yahoo.ca:1992-11-17:PH:F:none:jade tan
stuffy_j:jellytime77:jmbswimming7@hotmail.com:1993-02-20:US:F:108.18.157.163:Julia
stuffy_killa:george12:omg1253@yahoo.com:1989-06-28:US:F:68.207.114.59:ally
stuffy_larry12345678:snuffels1:sk8dollie@aim.com:1980-05-11:US:F:none:alksjdfh alkdsfh
stuffy_la_la:allergy:oimaylo@msn.com:1991-07-06:US:F:none:hehe
stuffy_len:654231:THLen_825@live.hk:1991-08-25:HK:F:123.202.8.184:Len
stuffy_lilly:fluffy22:games06@hotmail.com:1995-06-25:US:F:12.203.31.20:cassandra
stuffy_lover:ilov3stuffys:floyde_63@yahoo.ca:1992-05-13:CA:F:none:Sabina O
stuffy_lover_123:alex123::2000-06-18:US:F:98.202.43.32:NULL
stuffy_lover_1997:ashee100:asheeboras@hotmail.com:1995-04-20:IE:F:208.38.9.164:Anna
stuffy_luffy:morgan99::2001-05-30:US:F:71.230.209.141:morgan
stuffy_lyn:pastor30::1998-08-19:PH:F:112.207.51.85:Cindy
stuffy_man:carpet13:check_it_out_@hotmail.ca:1996-04-10:CA:F:69.156.88.12:NULL
stuffy_ma_bobby:homhom:lindacandy@planetprepaid.net:1991-04-27:AU:F:none:Linda  N
stuffy_mc:messenger:stuffy_mcgizmo@hotmail.com:1986-04-11:IS:M:none:Gunnar gudlaugsson
stuffy_me:(computer):kimberleyhuttema@hotmail.com:1993-12-06:CA:F:64.59.144.24:kimberley huttema
:::::::
stuffy_monkey4:hagrid1234:jason_gold10@hotmail.com:1987-09-25:CA:F:none:<u>The Dopia</u>
stuffy_neo:bluey12::1999-12-19:AU:M:118.208.52.56:Radical
stuffy_nose:macy1105:crazyoldnuter44@aim.com:1985-09-07:US:F:none:Blondie
stuffy_nose05:macy1105::1992-09-07:US:F:none:stuffy_nose05
stuffy_nosesii:weeman1221:fibershort@hotmail.com:1980-04-21:US:M:24.239.230.190:Dylan
stuffy_nose_21:jennypenny:crazy4cartoons@hotmail.com:1990-06-01:AU:F:none:Anna White
stuffy_nose_charger:happy feel good:baybaythejetplane@gmail.com:1990-09-14:US:M:none:stephanie bryant
stuffy_one:stuff0001:escapingstuff@hotmail.com:1992-04-17:US:M:75.85.209.139:Matthew
stuffy_paris:11lollipop::2001-5-24:US:F:74.60.248.243:paris
stuffy_pie:snoodles22:nstosic@sbcglobal.net:1990-06-13:US:F:75.15.202.154:morgan
stuffy_pig:asd123::1996-09-03:IE:M:86.43.72.131:sweaty armpits
stuffy_princess:julie:squatingturtle@hotmail.com:1987-02-07:CA:F:neofriend:julie delish
stuffy_puffsy:puff11::2000-03-13:BN:F:118.103.254.206:layla
stuffy_puffy:Bluffy:andressashu@hotmail.com:1990-05-09:US:F:none:Puffy Shu
stuffy_pup:monkey101:petzcheckers@yahoo.com:1989-02-17:US:F:none:Sam
stuffy_puppy123321:zoemoe:joe171921@hotmail.com:1982-05-03:CA:F:none:Sally
stuffy_python:440magnum:fatfuzydonkey01@insightbb.com:1986-08-24:US:M:none:Andrew P.
stuffy_qoh04:and_one:blueangel_092000@yahoo.com:1988-10-22:PH:M:none:Mark Anthony Leorna
stuffy_race:cheese11:krisrules@fsmail.net:1988-08-19:GB:M:none:Kristofer Reiman
stuffy_rue:1123455::2000-12-08:US:F:12.205.138.125:CailieEllen
stuffy_s2:graci321::1997-10-03:BR:F:165.254.53.125:Graciela
stuffy_sab:120962::1998-11-03:US:F:12.219.176.109:Sarah
stuffy_short:12281971:michaelmorrow76@hotmail.com:1971-06-05:US:F:none:michael morrow
stuffy_shoyru:breeanna::1992-12-07:US:F:none:stuffy_shoyru
stuffy_starz:45483019518761:low_sze@yahoo.com.sg:1991-05-01:SG:F:none:low sze
stuffy_steph:bball32:alanangelico@peoplepc.com:1992-08-14:US:F:none:Stephanie Angelico
stuffy_steph123:popsicle136:stuffysteph123@yahoo.com:1993-05-31:US:F:68.162.86.13:stephanie
stuffy_stephxoxo:stephanei32:xoskittles32xo@aol.com:1993-08-14:US:F:4.156.66.241:stephanie
stuffy_stuff100:stuff_a_luff:adrianrinks@yahoo.com:1991-11-11:US:F:none:adrian rinks
stuffy_thingys:81270::1992-11-23:SG:F:none:stuffy_thingys
stuffy_toy123:199297:vsun1995@yahoo.ca:1987-07-02:CA:F:none:Tiffany van
stuffy_toy14:159159:viviansun1995@hotmail.com:1984-04-14:CA:F:none:Lillian S
stuffy_toy147:125874:lly_vn@yahoo.ca:1987-04-02:CA:F:none:Tiffany Van
stuffy_toy2325:785214:vsun1995@yahoo.ca:1987-07-02:CA:F:none:Vivian
stuffy_vanessa:stuffyvanessa123::1999-04-26:CA:F:24.71.223.152:vanessa
stuffy_warrior:!@#$%^12::2000-07-31:US:F:74.83.188.186:sydnie
stuffy_watermelon:4262348:skillzninga7@gmail.com:1928-08-08:KR:F:68.40.179.56:plauseek
stuffy_wumples:treker:glibnip@yahoo.com:1976-03-03:US:F:none:Elizabeth Page
stuffy_x99x:becks1234::1996-11-28:GB:F:86.172.232.93:NULL
stuffy_xxx:woorden2:hhmmm.mushrooms@gmail.com:1987-02-04:EG:F:none:stuffy stuff
stuffy_yupp:poohbear:stormymae@hotmail.com:1985-03-11:AU:F:none:Gabbi Backster
stuffy__00:stuff00:frens_2day@hotmail.com:1988-11-20:NO:F:85.164.23.18:kokos melk
stuffy__10:bulfer05:jsbulfer@frontiernet.net:1993-01-12:US:M:70.100.19.212:Jeff Bulfer
stuffy__16:stuffy123456::1999-02-09:US:M:24.121.239.175:jake
stuffy__18:scouting18:karelde5@hotmail.com:1989-03-03:NL:M:82.171.42.157:leon
stuffy__21:tati12:stepphaniekallio_2005@yahoo.com:1987-06-19:US:F:66.225.4.130:stepphanie
stuffy__23:sexy21:stuffychickenwing@hotmail.com:1993-03-26:AU:F:none:stephanie white
stuffy__48:password12::2000-01-12:US:M:162.40.209.203:troy
stuffy__54:3053699::1999-06-03:US:F:68.57.39.70:Nikki
stuffy__66:12345y:daniel.lofgren@telia.com:1993-06-30:SE:M:none:daniel löfgren
stuffy__86:francesca!:maricamuscat@hotmail.com:1967-12-06:MT:F:none:papra safra
stuffy__90:grandma!1:stuffy_19@hotmail.com:1987-07-08:GB:M:none:carl claricoates
stuffy__91:515161::1999-10-14:US:F:66.126.39.18:lilly
stuffy__aa:44zaners::1998-10-14:US:M:12.19.116.65:zane
stuffz0rz:460374:kendall5792@yahoo.com:1992-05-07:US:M:74.232.151.24:kendall
stuffz123:jarlor12:mingmimgeverytime@hotmail.com:1994-04-07:US:M:98.77.182.253:Michael
stuffz13:stuffz27::2000-02-01::F:199.224.105.236:NULL
stuffz35:freak3::1993-11-20:US:F:none:stuffz35
stuffz360:shooz123:hightops123@sbcglobal.net:1991-04-16:US:F:none:Unkown Person
stuffz37:stufz37::2002-01-01:TO:M:67.204.192.162:meh
stuffz455:valdespar22::2002-02-23::F:24.23.77.133:NULL
stuffz74:valdespar22::2002-04-23::M:67.172.89.225:NULL
stuffz777:stinger:hogon@gmx.de:1985-10-04:DE:M:none:Sven Neumann
stuffzayjasdfgmsdf:50445100::2007-05-03::M:173.120.51.134:NULL
stuffzerz:coolppl::1993-11-12:SY:F:none:stuffzerz
stuffzforstuffz:hump11:alvina328@gmail.com:1990-01-01:AU:M:123.243.146.248:Shadow
stuffzgoingon:2hot4u::1996-10-10:US:F:68.50.254.39:nataiya
stuffzies:3zies:megglezies@hotmail.com:1988-04-12:US:F:none:Megan Lee
stuffziggy:ziggy2:ziggybuggy@hotmail.com:1992-06-01:CA:M:none:ziggy buggy
stuffzilla:571803::1998-04-15:US:M:66.69.27.4:Christopher
stuffzin:rebeca12:joseotavioperez@hotmail.com:1984-01-01::M:200.148.159.20:NULL
StuffZombie:apr127:stephenscray@yahoo.com:1994-06-13::M:75.3.82.14:NULL
stuffzone:doydoy1::1994-03-18:US:M:none:stuffzone
stuffz_1:guiagirl11::1997-10-11:PH:F:121.1.58.118:Guia
stuffz_stuffz_stuffz:jessie12::1997-03-13:ZA:M:196.25.255.218:kwala
stuff_007:lydz 007::2004-06-08:UY:F:125.239.164.181:veronica
stuff_00o__54:lupe69:ruffrider111@yahoo.com:1993-09-16:US:M:166.109.55.254:Devon
stuff_01:lepagerox:yahoo1232@hotmail.com:1979-12-25:AU:F:none:>>§€x×xÿ
stuff_01z_7_7_7:jeane222:jeane_jc_o@yahoo.co.id:1986-01-13:ID:F:125.163.74.109:jeane
stuff_02z__17:lm7186:braingirl7@aol.com:1991-07-27:US:F:205.188.117.74:lauren
stuff_0552:piemaster5000::1998-11-30:US:M:69.255.6.108:Brett
stuff_05k_6:Mohamed45::1997-06-19:AU:M:121.219.76.229:Patrick
stuff_08:yours 2::1993-03-26:AU:M:none:stuff_08
stuff_0808:dodie08::1987-09-07:CA:M:none:josh p
stuff_0818:august18:trx_farewell18@yahoo.com:1990-10-06:PH:F:none:Trixia Mae
stuff_0992:pepsi1:nikki_0992@yahoo.ca:1990-08-11:CA:F:none:kira gile
stuff_0ae_a51:pink_95:brit_x_purple@hotmail.com:1975-04-23:AU:F:58.104.167.205:mrs x
stuff_0bc_6_6:openup00::2003-01-10:US:F:66.201.147.252:lexie
stuff_0cw_a59:madison67::2003-12-14:US:F:99.194.84.11:taylor
stuff_0dh_7:samsung11:honey-bee-2007@hotmail.com:1987-12-02:CA:F:216.197.171.198:christine
stuff_0fu_1:edgar::1995-12-24::M:NULL:NULL
stuff_0gx_a33:examen::1998-07-29:EN:F:NULL:NULL
stuff_0gz_7:0125::1973-01-25:EN:F:NULL:NULL
stuff_0js_2_2:claudia::1984-07-27:EN:F:NULL:NULL
stuff_0l8_a63:loser46:jenelle@yahoolove.com:1989-04-26:US:F:96.250.77.84:chenel
stuff_0lu__aa:3909370::1996-08-31:MY:M:118.100.81.11:Lim Hua Chen
stuff_0mn_8_8_8:prin13aly:yasmin.hirji@ontario.ca:1948-09-18:CA:F:142.108.128.239:yasmin
stuff_0vf_a73:katee12:donnafriedley@yahoo.com:1994-09-06:US:F:71.87.75.224:tinkerring14
stuff_0vs_8_8_8:gundam12:Dray_b@hotmail.com:1990-11-12:CA:M:209.202.52.84:daniel
stuff_1:roman1:jroman78@hotmail.com:1988-09-02:US:F:none:jesseca roman
stuff_100:gabe1:gabehill@yahoo.com:1972-04-06:US:F:none:gabe razo
stuff_101:froggy5:islandbabe598@aol.com:1979-05-04:US:F:neofriend:nuna business
stuff_101__ll:fuck u:failed_7@hotmail.com:1939-04-14:CA:F:none:hsdh hsdfhsd
stuff_10s_a12:tyler00:lein@msn.com:1991-08-02:US:F:71.106.123.178:jfasl
stuff_11:rocco12::1998-07-27:US:M:24.74.155.33:bob
stuff_11614:cocoa64:mrskpalmer2003@yahoo.com:1964-11-11:US:F:none:trina palmer
stuff_117:stuff 117:lspirtl@hotmail.com:1995-03-04:US:F:75.100.169.211:christina
stuff_12309:whoami123:rodriguez.mauro32@yahoo.com:1996-02-23:US:M:75.148.217.129:Mauro
stuff_1234:people99:speck29@gmail.com:1989-01-01:AU:F:218.214.124.179:zo
stuff_12345:eimer1eimer1::2000-09-08:GB:F:81.111.65.54:eva
stuff_1234567:longtran12:longlonglonglt@yahoo.co:1982-02-28:US:M:69.243.14.92:NULL
stuff_123456789:hellno12:diana_princess619@yahoo.com:1993-02-17:US:F:72.199.188.102:diana
stuff_1236:hello12::1998-02-17:US:F:72.220.17.131:diana
stuff_12409:whoami123:rodriguez.mauro32@yahoo.com:1996-02-23:US:M:209.170.115.101:Mauro
stuff_14:seen783::1993-10-25:PH:F:none:stuff_14
stuff_15e__aa:kaliisawesome13:kalisfriendsrock@yahoo.ca:1992-05-07:CA:F:70.51.82.111:Jane
stuff_16:stuff16:snapple16@hotmail.com:1993-01-27:US:F:24.189.14.201:clarissa
stuff_16z_7_7:supergirl78::2000-10-09:GB:F:86.8.84.54:sophie
stuff_19:654321as:metsbats86@aol.com:1998-01-11:US:M:67.80.191.112:NULL
stuff_1gz_1:9493200::1998-04-05:YE:M:115.135.33.216:god
stuff_1mg__39:z2xcv4b5:rana_gurtegh@hotmail.com:1993-03-28:GB:M:87.102.74.177:vvxc
stuff_1uv_8:nickdog27::2002-03-12:US:F:75.68.206.24:abbie
stuff_1v6_9lisaann11:mileyc11::1999-12-21:MY:F:60.53.235.233:lisa
stuff_1x7_a60hkanson:aaaa22:bbqjessie@i-cable.com:1975-12-29:HK:M:61.10.92.42:jhkjkjkf
stuff_2:dylan:horsesareourangels@hotmail.com:1992-02-02:CA:0:none:christy irwin
stuff_200:tamagotchi22:zavier_70@hotmail.co.uk:1978-09-04:GB:M:77.98.139.95:luke
stuff_2000_2002:william::1992-06-04:US:F:none:stuff_2000_2002
stuff_2004123:sassy:bornastar_66@hotmail.com:1991-05-08:CA:F:none:Jenna  Mclean
stuff_2006:pussycat:stuff_2005@mindless.com:1990-12-10:AU:F:none:jessica campbell
stuff_2008:delete2008:camilla.zanini@hotmail.com:1993-09-12:BR:F:201.67.77.213:Camilla
