stunnakid:555577:pressurekid@hotmail.co.uk:1993-02-08:GB:M:none:Nick Odutoye
stunnakid123:stunner123:topshotta_015@hotmail.com:1993-10-01:US:M:72.51.102.161:Craig
Stunnakidd:shark1212::2002-12-12:US:F:71.142.180.2:NULL
stunnaking:jones09:hott_sexy_player@hotmail.com:1991-02-18:US:M:67.60.187.122:Stunna
stunnalivia:madlivia:loopylivia12@hotmail.co.uk:1991-11-15:GB7:F:none:livia evans
stunnaloa:homerun:stunnaloa@yahoo.com:1987-03-29:US:M:Can I be your NeoFriend?:jay anderson
stunnaloa2:homerun11:usmcamboree87@yahoo.com:1991-03-29:US:M:138.162.128.55:amz
stunnaloveexo:113886:Lildudett91@aol.com:1991-12-28:US:F:74.173.207.45:Samantha
stunnalovee_xo:122891s:stunnaloveexo@aim.com:1991-12-28:US:F:69.138.100.155:samantha
stunnalove_:vivian23:stunnalove@yahoo.com:1990-07-06:US:F:131.252.252.134:vivian
stunnaluva13:nickiz:lttlngl13c@aol.com:1988-04-13:US:F:68.231.225.193:Nicki Zeidler
stunnaluver20:crombo20::1994-01-16:US:F:none:stunnaluver20
stunnamaan:slimshady23:rossercj@yahoo.com:1996-04-20:US:M:98.244.82.116:cj
stunnamachine:fishtank67:ksol@charter.net:1990-04-09:US:F:71.13.21.107:Bunky
stunnaman14:10101994:Audiboy136@gmail.com:1994-10-10:US:M:97.91.162.45:josh
stunnaman17:papercut:toofinetoowhine@hotmail.com:1985-05-02:US:M:Battledome Challenge:Patrick  Leahy
STUNNAMAN1717:ASSMILK17:darkhatch17@yahoo.com:1981-11-20:US:M:174.61.33.95:NULL
stunnaman2:qazx1234::1999-01-01:US:M:64.85.233.8:NULL
stunnaman2009:mississippi01:lilreese2009@yahoo.com:1994-07-31:US:M:98.114.78.239:mo
stunnaman22:world22:baycruz22@yahoo.com:1994-06-21:US:M:169.199.80.100:sergio
stunnaman23:kobebryant24::1998-04-19:US:M:69.47.247.83:Eric
stunnaman400:yo777:grilzz101@yahoo.com:1992-09-27:US:M:76.160.63.173:Marcel Brice
stunnaman434:retro23:jordanttaylor@yahoo.com:1993-04-17:US:M:67.187.31.82:Jordan
stunnaman5:6393939:seld@comcast.net:1994-01-11:US:M:67.182.124.161:Sammy
stunnaman6:6393939:basketball-4-life_24@live.com:1994-01-11:US:M:67.182.124.161:Sammy
stunnaman7:6393939:seld@comcast.net:1994-01-11:US:M:71.50.77.132:Sammy
stunnaman713:houston713:ramirezmartin713@yahoo.com:1989-09-03:US:M:64.92.56.124:Martin Ramirez
stunnaman92:rockstar92:rockstardude92@yahoo.com:1992-07-24:US:M:128.231.88.4:raul
stunnaman93_4s4life:gettinmoney33:liond93@sbcglobal.net:1990-02-28:US:M:68.253.180.34:Delano
stunnamane:garu34:stunnamaney@gmail.com:1992-06-06:US:F:76.254.27.9:Jess
stunnamanhero:mollywhop11:kentn95@yahoo.com:1995-09-28:US:M:24.162.207.103:kent
stunnaman_1:spiderman24::2000-3-8:US:M:76.171.164.89:Kobe
stunnaman_18:six123:dagreatonemetal@yahoo.com:1993-05-18:US:M:24.168.95.5:Anthony
stunnaman_davon:green12:fletcherjones1933@yahoo.com:1993-11-19::M:24.126.60.225:NULL
stunnamay12:snapper12:mayaracastilho1@hotmail.com:1993-01-03:US:F:24.115.93.94:mayara
stunnamayne1:holla1:thomasfamily22@verizon.net:1990-10-25:US:M:none:David Thomas
stunnameg916:megan:localocz916@yahoo.com:1989-04-24:US:F:71.143.18.104:stunna meg
stunnamell:mango92:lebolicious92@hotmail.com:1992-10-25:AU:F:none:melissa mel
stunnamike:Mickey123:mickey_sfa@hotmail.com:1995-05-13:TT:M:186.45.251.81:NULL
stunnamonet:potter14:chucknorris26@live.com:1990-07-09:US:F:12.195.124.136:Caitlyn
stunnanation1:coco13:originalshades@yahoo.com:1990-02-26:US:M:24.21.172.89:stunna
stunnanumba1:issues:xxmelgurlxx@aol.com:1986-05-10:GB:F:none:melissa copeland
stunnanumberone:QUEEN12:xxsugarcutie19xx@hotmail.com:1988-05-07:US:F:Trade Closed:stephanie m
stunnaone:google1:stephfoniev3@cs.com:1993-06-26:US:F:none:Stephanie Vidis
stunnaosa123:groundzero000:oaman6@gmail.com:1997-08-30:US:M:74.72.136.118:NULL
stunnaplayer:tec13:stunna_12@hotmail.com:1986-07-25:CA:M:none:HFresh BFL
stunnaplayers:Mohamed1:hfresh@sympatico.ca:1985-07-25:CA:M:none:Moe Huss
stunnaprincess69:4066192:stunnaprincess@yahoo.com:1986-10-08:US:F:none:MArsha  h.
stunnapuff:jasper:stunnapuff@hotmail.com:1973-06-07:GB3:F:none:KarenPeek
stunnar:stunnar01:mean_maori_mean619@hotmail.com:1993-10-08:NZ:M:125.237.219.165:stunna
stunnar113:Cooper123:jakewaite@ymail.com:1996-12-06:US:M:71.233.40.31:Jacob
stunnarella:mltmm777:stunnarella@gmail.com:1991-02-07:CA:F:209.170.113.42:tamara
stunnareo:90oiram:stunnasypher2@yahoo.com:1989-09-28:US:M:71.131.151.182:Reo
stunnaria:bitch01:stunnaria@aol.com:1994-07-14:US:F:75.130.135.224:Maria
stunnarlium:1989412:st_un_na@hotmail.com:1989-04-04:NZ:F:none:roseario kete
stunnaroberts:Matthew13:stunaroberts@hotmail.com:1991-01-29:US:M:67.172.86.206:Matt
stunnar_92:$antal:an9el31@hotmail.com:1992-09-28:AU:F:none:Sharon Lewinski
stunnar__15:steph91:stephckj@hotmail.com:1991-02-28:GB:F:90.212.223.132:Steph
stunnas:alskdj1:azngirlie34@aim.com:1988-07-14:US:F:none:nicole jones
stunnas101_101:dn2007:nsazon96@yahoo.com:1988-04-23:US:F:68.104.22.49:Nik
stunnas2:admins06:jeffreyanh06@hotmail.com:1988-04-17:US:M:none:Jeffrey Nguyen
stunnasarah:87cosmo:vivalasarah@gmail.com:1991-05-25:US:F:76.21.19.136:Sarah lives on Thames Street
stunnascott11:030694:sksjr94@yahoo.com:1994-03-06:US:M:64.168.56.2:Scott
stunnasean:sean13::1997-08-17::M:173.52.23.81:NULL
stunnashade5:easy12:lovenyoux0o0o@aol.com:1991-11-22:US:F:98.145.157.169:Alexis
stunnashader:14569pinkie:sunfunhottie_nat@yahoo.com:1980-10-24:US:F:none:Natalie Matson
stunnashades:ronald1:randomlover06@hotmail.com:1992-01-25:US:F:none:Snap Yo Fingers
stunnashades0526:wtf456:elyssagal33@yahoo.co.uk:1993-05-26:US:F:70.234.142.94:Arebella
stunnashades1:bouchon01:hntrgrl@gmail.com:1993-03-14:US:F:75.14.208.17:niki
stunnashades100:someday121::1997-08-29::F:24.33.133.115:NULL
stunnashades123:honey1:cexy_chicka@yahoo.com:1988-02-07:US:M:none:stunna shades
stunnashades13:november20:cuteprincez06@netscape.net:1990-11-20:US:F:96.251.63.30:Briana Garcia
stunnashades15:lightning15:hoopshottie015@yahoo.com:1995-07-22:US:F:66.41.174.249:Erin
stunnashades1993:llamer93:stunnashades1993@yahoo.com:1993-01-08:US:F:12.0.64.160:Sierra
stunnashades3000:orlando!:hurleygirley1231@aol.com:1993-05-17:US:F:none:Jessica Weaver
stunnashades31:homephone00:StunnaShades31@aim.com:1990-04-04:US:F:68.62.32.16:Jessica
stunnashades456:ilovenala12:karisamercer@hotmail.com:1993-07-22:US:F:69.226.45.21:karisa mercer
stunnashades89:$stun:fineblackgrl_50@yahoo.com:1989-06-05:US:F:none:jessica gillam
stunnashades9494:hannahkaii1:toocute4u110@yahoo.com:1993-02-03:US:F:none:oliva stunna
stunnashades99:macha15:angied99@yahoo.com:1992-04-12:US:F:75.30.76.104:Karla
stunnashadesatnite:20578649:numbr_1_fan_of_cena@yahoo.com:1992-12-23:US:M:none:richard tai
stunnashadeson07:margaret88:stickygurl07@hotmail.com:1988-12-08:US:F:none:Sara Moro
stunnashadesron:iluvu5::1994-01-18:US:F:none:stunnashadesron
stunnashadesx55:cm1219:clare.star2@yahoo.com:1995-12-19:US:F:24.151.118.114:Clare
StunnaShadesXx:ilovetigger141:stunnashades101@live.ca:1996-8-26:CA:F:207.81.19.48:Dayna
stunnashades_:87cosmo:xxrunway@gmail.com:1993-05-25:US:F:76.21.19.136:hatehate squid squid dai dai
stunnashades_x3:tapper95:gummyduckie@aim.com:1995-08-22:US:F:67.116.252.16:DYLANN
stunnashades__:phoenix9925657:kittehsaurus@gmail.com:1993-12-25:US:F:76.83.118.187:Jezeeeeel
stunnashades___:b1adtzmaru1::1995-09-11:SG:F:68.127.137.104:khadejaaaaa
stunnashadez:mexican1:nnothingbutnet@yahoo.com:1990-03-08:US:F:none:nikholah yuhcheir
stunnashadezz:gokussj44:stunnashadezz@hotmail.com:1990-10-14:CA:M:70.27.42.7:Stunna
StunnaShay:taytay66:ariesnig69@yahoo.com:1995-03-28:US:F:108.69.140.229:NULL
stunnashea:redred12:sheabuttbuttbutt@yahoo.com:1992-06-16:US:F:74.193.149.209:Stunna
stunnashine:stunnalo6:soccerloverab@yahoo.com:1994-02-08:US:F:74.37.113.31:Andrea Lua
StunnaSlavz:dmitriev22:dmitriev.slava@gmail.com:1992-01-10:CA:M:99.226.227.63:NULL
stunnasmack1:diamond12:stunnasmack1@yahoo.com:1993-12-12::F:65.0.207.205:NULL
stunnasoheight:fuckyou08:stunnahs08@hotmail.com:1990-05-25:US:F:71.237.157.62:Kels
stunnastar:rhone13:btrenee@aol.com:1993-01-02:US:F:205.188.116.74:bianca
stunnastar03:stunnastar03:qwallacep18@aim.com:1992-06-15:US:M:72.135.122.77:Quinn
stunnastavy10254:218302:rayakaratedr@aol.com:1991-03-12:US:M:207.200.116.73:stavros
stunnastephy:stephy50m.:hiiiiistunnnnna@hotmail.com:1994-01-03:US:F:66.41.103.174:stephy
stunnasunglasses34:august 17:angeline.glaspey@gmail.com:1994-01-26:US:F:71.117.232.81:angeline
stunnasuppastar:skater95:emilee.tran@gmail.com:1994-09-17:US:F:157.95.211.50:x3 Mucho EMILEE
StunnaSwag:7136954204::1998-05-08:US:F:98.198.225.177:NULL
stunnasyd:fresh24:stunnasyd24@yahoo.com:1990-08-01:US:F:none:Syd Berrard
stunnasyd_3:fresh24:stunnasyd24@yahoo.com:1990-08-01:US:F:none:Syd Berrard
stunnasz1:phattyz28:stunnasz1@yahoo.com:1990-09-23:US:F:74.72.148.159:GEORGA
stunnas_on:h3ckn0:layla_tha_playa@yahoo.com:1987-03-17:US:F:none:none yer
stunnat:penpen571:timlawlee@yahoo.com:1991-04-16:US:M:75.65.32.154:Timothy
stunnat51:taryn51::1995-12-16:US:F:12.210.143.61:Taryn
stunnateddy:slamsquad21::1999-05-21::M:74.230.239.62:NULL
stunnaval4:ohhlala22:gvaleree@yahoo.com:1994-01-04:US:F:68.3.49.72:valeree
stunnaval44:ohhlala24:gvaleree4@yahoo.com:1994-01-04:US:F:75.83.204.66:Valeree
stunnavince916:chnzkid916:chnzkid916@yahoo.com:1991-04-07:US:M:none:vincent phung
stunnawolf:wildwolf15:kels6392@hotmail.com:1992-06-03:US:F:206.220.40.51:Stuntin Is A Habit
stunnax:9721861::1997-04-06:US:M:173.52.196.112:Edison
stunnax123:9721861:ruan_eric@yahoo.com:1996-03-06:US:M:173.68.230.101:keivn
stunnaxdaker:rahjah68:stunna8o8@yahoo.com:1990-07-03:US:M:70.95.135.105:DAKER
stunnaxgibbsta:gummygum07:monkeymouth5@yahoo.com:1990-03-04:US:F:76.160.106.241:Gibbs
stunnaxhiennnn:123hello:xitshiennn@aol.com:1993-06-11:US:F:99.128.241.92:hiennn le
stunnaxkay:040608:xxkaylawicole825xx@yahoo.com:1992-08-25:US:F:69.207.91.143:Kayla
stunnaxman:stunnaxman40::1997-08-10:US:M:71.130.78.157:chut
stunnaxox:jlawaa1307:JAdams3180@hotmail.com:1989-01-14:US:F:24.61.239.194:Jamie
stunnaxoxo:hotfudge01:cmangel_6386@yahoo.com:1986-06-03:US:F:173.188.190.29:NULL
stunnaxshadesfoo:ilovehim13:hopeless__romanticxx@gmail.com:1990-12-06:US:F:76.171.136.199:Jennayy
stunnaxsteffbby:yellow123:stunnaxstef@yahoo.com:1994-03-11:US:F:71.57.230.13:Steff
stunnaxsteph:water12:stunnnaxsteph@aim.com:1994-01-09:US:F:66.229.2.121:stephanie
stunnaxxtay:rockstar23:stunnaxxtay@aol.com:1992-08-23:US:F:66.67.238.179:Taryn
stunnaxxtay23:allen23:stunnaxxtay@aol.com:1992-08-23:US:F:70.101.40.217:Tay
stunnaxxxx:caitlin123:caitlinryan22@yahoo.co.uk:1996-07-09:IE:F:86.44.139.34:NULL
stunnaz:poodle1::1992-12-14:AU:F:none:stunnaz
stunnaz1:emilys01:chocoholic_emz@hotmail.com:1988-11-20:NZ:F:222.155.107.219:
stunnaz117:homieantwan17:sharigan08@yahoo.com:1993-05-16:US:M:75.45.110.183:antwan
stunnaz2:rebeccastunell1:becstunell@hotmail.com:1992-12-14:AU:F:121.217.184.244:Rebecca St***
stunnaz3:12rebecca34:becc.y@hotmail.com:1992-12-14:AU:F:none:Beccy Smith
stunnaz350z:nissan350z:dhatstunnakiid@live.com:1995-03-29:CA:M:64.229.23.46:Alex
stunnaz37:blowmefag37:stunnaz37@live.com:1990-06-02:US:M:76.178.84.120:mike
stunnazatnite:20578649:th3xs1n@yahoo.com:1992-12-23:US:M:none:richard tai
stunnazz:nigga1:aniket1411@hotmail.com:1988-11-14:NZ:M:none:aniket adhikari
stunnaz_08:hottie01::1994-03-31:NZ:F:none:stunnaz_08
STuNNaZ_808:HeRRO44z2m:shmicky808@hotmail.com:1996-02-09:US:M:70.114.146.214:NULL
stunnaz_904:harry5pot:redpeppa@comcast.net:1990-01-28:US:F:none:liz biz
stunnaz_baby_tayy:girlygirl11::1997-07-13:US:F:174.107.156.54:Taytay:D
stunnaz_on:RICHMOND1:disneyb2k@aol.com:1991-12-15:US:F:none:KENNISHA JONES
stunna_07:nicole17:stunna_07@hotmail.co.uk:1989-06-28:GB:F:89.242.61.220:nicole
stunna_0x:golthic11:silvermustang101@yahoo.ca:1989-03-26:CA:F:209.115.255.165:Burgandy
stunna_1:Pimp1:cj_jans89@hotmail.com:1989-05-30:US:0:none:Caleb Janssen
stunna_10:marion10::1997-11-24:US:M:64.12.117.18:marion
stunna_101:memory::1992-12-02:CA:F:none:none
stunna_101_:lilly10::1998-11-16:US:F:74.171.182.207:faith
stunna_11:bouncers::1991-06-04:CA:M:none:stunna_11
stunna_123:sophie:sophie_j12@hotmail.com:1991-08-04:US:F:none:sophie jeffery
stunna_15:folk13:dj.shaffer13@yahoo.com:1994-07-31:US:M:74.244.212.224:Daniel
stunna_18:fubugear:deplayer_18@hotmail.com:1986-05-11:BB:M:none:Ian Thorpe
stunna_1968:bigtymers20:doggpound64@hotmail.com:1968-02-18:NL:M:145.7.224.12:clyde boekstaaf
stunna_1_1_1:paringa!:azpekmez@picknowl.com.au:1993-01-18:AU:F:58.174.210.68:Anja Pekmez
stunna_2:whatever1:nucks83@hotmail.com:1983-05-01:CA:M:24.82.200.213:E P
stunna_2002335:luciouslips:mervynhdr@aol.com:1984-02-21:GB7:F:none:*Emma*
stunna_24:Jess102:young_n144@yahoo.com:1991-06-16:US:F:75.28.48.154:Damian Azure
stunna_25:8367644a:bmaleke@yahoo.com:1994-09-18:US:M:76.206.235.77:maleke
stunna_29:killa:teetee35@hotmail.com:1988-03-03:CA:F:none:tt remer
stunna_3:malik1:them112@hotmail.com:1988-07-26:JM:M:none:Aaron Scott
stunna_4:natoya09:sexy.nesha@yahoo.com:1991-06-17:US:F:67.50.184.5:tanesha
stunna_420:pearwindow244:stunna.irl@gmail.com:1980-02-10:US:M:none:Bryan Baik
stunna_483:ben108::2001-06-03::M:99.72.117.216:NULL
stunna_4life424:elephant:stunna_4life424@hotmail.com:1989-12-19:CA:M:Acceptance:Ryan Smith
stunna_5:CSR!#:holler_at_meeh@yahoo.com:1993-04-16:US:M:none:Johnny Camel
stunna_65_6:jjvaladez27:shana_fulks@hotmail.com:1989-02-02:US:F:207.157.23.43:Shana
stunna_69:number69:bad_b_69@hotmail.com:1991-09-04:US:M:204.185.233.249:Beau
stunna_6_6_6:sarah51::1996-05-24:US:M:67.181.37.219:hunter
stunna_7:mickey:ami_kinda@hotmail.com:1990-01-25:GB:F:none:Stunna!
stunna_72:love91:aussie_honey711@hotmail.com:1991-12-31:AU:F:121.222.7.181:Jillian
stunna_823:sonic32:justmarquise@yahoo.com:1994-04-17:US:M:69.235.88.77:marquise
stunna_84:741852:sportyshortyiqra@hotmail.com:1996-04-22:CA:F:99.228.69.153:iqra
stunna_9_9:kill2:forliferich@yahoo.com:1992-10-08:US:F:none:jay more
stunna_ace:fizzle:dizzoubt@hotmail.com:1989-06-14:US:M:none:Daryl Cannot Tell
stunna_ant:backstreet502:dontewood97@myspace.com:1996-06-25:US:M:69.171.176.95:NULL
stunna_a_boogie:hotmama13:BJO1118@YAHOO.COM:1982-01-01:US:F:70.208.37.141:ALEXIS
stunna_baby13:niece13:niece224sho@yahoo.com:1992-09-02:US:F:99.99.32.158:jai hodge
stunna_baby2403:sexy21:gangstr_baby@usnavy.com:1992-03-17:US:F:75.36.219.207:jsdjmh
stunna_baller11:school11:bigg_timer_10@yahoo.com:1992-03-17:US:F:64.148.173.1:Angie Bradley
stunna_baybee:oriel93:x-_oriel_-x@hotmail.co.uk:1993-07-25:GB:F:82.12.82.243:Oriel
stunna_baybee_x3:jw3ezy23:stunnabaybeex3@aol.com:1994-09-18:US:F:74.60.201.139:Lexi
stunna_bby101:peaceout14:mescusie@msn.com:1993-05-16:US:F:69.144.147.182:NiCOLE
stunna_boi:gg44k:ladyashabazz@yahoo.com:1984-07-26:US:F:none:kjnvhgv jiopujbvoib
stunna_boi_07:yayarea925:shawn_carbin@yahoo.com:1990-12-12:US:M:68.125.2.88:shawn
stunna_bowy:b-ball::1992-11-11:CA:M:none:stunna_bowy
stunna_boy:april241995:cutemixedlegend123bam@yahoo.com:1995-04-24:US:M:76.212.81.126:devonte
stunna_boy88:haha123:kari65@comcast.net:1993-05-02:US:M:67.183.56.61:ax
stunna_c:single1:chrissypope@msn.com:1992-07-19:GB2:M:none:chris pope
stunna_cat:17thdecember1990:stunna_cat@hotmail.com:1990-12-17:GB7:F:none:Catrin Gabriel
stunna_chase:1aggies1:longhornssk@yahoo.com:1994-07-05:US:M:12.44.141.134:chase
stunna_chick:martese20:ao4443@haugan.aspirail.org:1995-01-17:US:F:67.36.191.199:amber
stunna_crew:cunt1234:fairy93_erica@yahoo.com:1993-09-22:US:F:65.215.14.1:Erica
stunna_dee_pinay:alexis1:herdion@sbcglobal.net:1992-09-09:US:F:none:Alexis Azarse
stunna_dunn_19:stunna19:stunna_rhunkz_19@hotmail.com:1993-04-22:BS:M:24.206.27.25:NULL
stunna_emily_77:silverly77:hes_my_everything_77@yahoo.com:1990-03-16:US:F:216.67.196.60:Emily
stunna_fam3_32:mommommom32:kinkaidtony31@yahoo.com:1992-07-06:US:M:76.240.69.175:Lawrence
stunna_frames_on:mm8388:mmattuc2@uiuc.edu:1988-08-03:US:F:71.201.206.225:m
stunna_fresh:FRESHPRETTYBOI25::1997-12-02:US:M:75.172.193.70:ALAN
stunna_g:paolomar::1993-04-19:CA:M:none:stunna_g
stunna_gal_7:missisaugaicedogs:lwosaka@telusplanet.net:1988-11-12:CA:F:68.145.41.201:Stacy  Osaka
stunna_girl:zack42:alressel@sbcglobal.net:1991-01-24:US:F:none:Alayna Ressel
stunna_girl42:zack42:layna02@sbcglobal.net:1991-01-24:US:F:none:Alayna Ressel
stunna_glasses:trey12:uzahoe910@aol.com:1991-04-04:US:F:none:bob ....
stunna_gracieee:letters123:gracie2clever@yahoo.co.uk:1992-01-09:GB:F:86.18.9.255:Grace
stunna_gurl:supericelolly1:cherry0flava@aol.com:1990-03-15:US:F:Item:Lil\ Miss P
stunna_gurl4lyf:newman1:skittlez_gurl_4_u89@yahoo.com:1989-06-11:US:F:none:Lisa Cheeka
stunna_gurl650:pgh616:stunna_gurl5@hotmail.com:1991-02-02:US:F:none:Elisabeth Barragan
stunna_ice:stunna11:drzivan@yahoo.com:1993-04-11:US:M:68.199.110.126:ivan
stunna_jah:jahdal96::1996-11-10:US:M:65.188.150.93:youngutta
stunna_jamez:stunna333:panic-itsxjamie@hotmail.com:1994-04-03:US:M:71.204.168.227:James Watts
stunna_jr:mere358:reamy_j22@yahoo.com:1988-11-22:US:M:74.67.49.95:killah
stunna_jub_jub:stunna15:zanicorrales@yahoo.com:1992-09-06:CA:F:71.118.20.52:Elizabeth
stunna_kaaat10:generals10:stunnaKAT10@yahoo.com:1992-08-22:US:F:72.79.204.174:Kat
stunna_ls_babyg:applez00:topshotta_015@hotmail.com:1993-02-02:BB:M:72.51.70.161:Me
stunna_luva:whatever12:brookemitchell@msn.com:1988-09-27:CA:F:76.71.93.189:i have no name
stunna_mack:helda01:stunna_mack@rocketmail.com:1990-10-07:US:M:99.144.93.104:tristan
stunna_mami:rafael11:monkeybabixd@aim.com:1993-08-29:US:F:24.211.105.110:Nicole
stunna_man08:anthony08:Ahedgecorth@yahoo.com:1994-06-06:US:M:98.214.120.1:Anthony
stunna_man2:eli123::1999-03-24:US:M:76.197.13.27:elias
stunna_man_9000:vikings28:nyamccoy@yahoo.com:1997-01-28:US:M:99.26.207.99:layton
stunna_megan:fiona33:fiopatra@yahoo.com:1993-05-05:US:F:70.95.115.14:Megan Hein
stunna_money:yaman12:deonchampion@rocketmail.com:1990-07-29:US:M:71.178.67.31:Deon
stunna_neo01:lalalala::1990-01-27:CA:F:none:stunna_neo01
stunna_nujabs:cgirls69:ericakenz@yahoo.com:1989-08-17:US:M:76.200.148.138:Kai
stunna_numba_one:southpark:serrano_daniel_21@hotmail.com:1988-05-17:US:M:none:Daniel Serrano
stunna_princess:dolla123:tatie346@hotmail.com:1990-10-18:BS:F:none:tatiana curry
stunna_pwincess:gunitgirlz69:mz._Soccer@hotmail.com:1969-11-16:AU:F:58.109.114.74:kara
stunna_r:qwertyuiop55::1997-12-03:US:M:70.123.171.120:rashawn
stunna_raven:$digg$13:lala99@netscape.net:1995-03-14:US:F:68.57.191.142:Raven
stunna_runna:stunna96::1996-11-17:US:F:71.142.208.63:Sydney
stunna_shades:popcorn1:memonkey@gmail.com:1987-12-23:US:M:none:Josh Rinc
stunna_shades101:alex101:lynne_powell@yahoo.com:1992-11-24:US:F:76.105.29.100:ashley
stunna_shades23:faggot45:babygurlblonde36@yahoo.com:1991-09-03:US:F:207.163.1.200:Danielle
stunna_shades_87:hollywood13:hockey_4_life003921@hotmail.com:1987-12-31:US:F:76.219.180.226:Misha
stunna_shades_911:66020v:dancingcutieaz@yahoo.com:1988-03-20:US:F:70.162.176.245:Princess
stunna_shades_love:111800n:x0xmissprissx0x0@aol.com:1995-01-10:US:F:70.117.253.141:nicki
stunna_shades_luva28:epogen01:Bubblegurrl4428@aol.com:1993-11-02:US:F:8.14.104.4:Abby
stunna_shades_x0:iloveyou43:xxmuffinxxloverxx@yahoo.com:1993-05-03:US:F:74.77.90.179:nicole
stunna_shadez:stephanie27:wog_chick123@hotmail.com:1990-01-27:NZ:F:222.154.18.170:steph panagiotidis-mcmaster
stunna_shadezz:gokussj44:stunna_shadezzz@hotmail.com:1990-10-14:CA:M:70.51.73.57:NULL
stunna_shadezzz:gokussj44:stunnashadezz@hotmail.com:1990-10-14:CA:M:64.231.113.59:NULL
stunna_shady:nba1street:chambatokah@yahoo.com:1987-07-19:AF:M:none:dede dede
stunna_snail:Hubble11:Lazzle@live.com:1993-02-14:US:F:69.107.88.93:Leah
stunna_so_freshh97:jadapen12::1997-11-14::F:71.90.21.76:NULL
Stunna_Status_94:marijuana420::2001-07-31:US:F:174.24.1.245:NULL
stunna_ston7:willow11:adidasguy22@hotmail.com:1991-07-22:US:M:208.74.247.249:Weston
stunna_stunna_rawr:boogieman11:kramer.chelsee@yahoo.com:1996-06-24:US:F:173.85.52.150:chelsee
stunna_tony:tmiforever26:tonyg1992@gmail.com:1994-05-07:US:M:97.207.199.161:Tony 
stunna_wc2004:loiscasey:stunna_wc@hotmail.com:1983-02-10:AL:F:none:lois curtis
stunna_wow:golddesk85:stunna_wow@yahoo.com:1987-07-20:GB:F:82.17.98.163:rocky
stunna_xox:andre27:xo-candybabe420@hotmail.com:1991-06-07:CA:F:216.167.251.237:Priscilla
stunna_yo:twinkie:thepinkdiablo@yahoo.com:1986-04-14:US:F:none:DeziAvila
stunna_z:r0ckstar:makaveli_263@hotmail.com:1990-04-16:CA:M:none:Adam Tuck
stunna__:hannahlynn200:mlswan@cox.net:1991-08-11:US:F:96.231.75.116:Jordan
stunna__13:jason11:NisNis_13@hotmail.com:1993-11-12:US:F:196.1.168.107:kaci
stunna__43:djcbd44:djcbdl@netzero.net:1994-01-21:US:M:165.248.247.131:brandon
stunna__45:killers22:stunna@yahoo.com:1990-03-25:US:M:99.145.89.177:tariq
stunna__aa:mean10:stunna_1992@yahoo.com:1994-09-21:US:M:98.226.8.41:maleke
stunnball_13:miriam11::1998-06-02:US:F:70.167.59.162:miriam
stunnbelivable:lilrod11:rh3pro@sbcglobal.net:1990-02-18:US:M:70.228.58.12:#1 Stunna
stunnboy132:stunner:stunnboy1@yahoo.com:1987-07-26:US:M:none:Andrew Tucker
stunnd:soccer16:kae1942@Louisiana.edu:1990-06-20:US:M:68.229.130.23:Kevin
stunned101:khalid:osamahhakmi@hotmail.com:1990-06-21:BS:M:none:khalid alsheikh
stunned111:Tsunami:magoo12252@aol.com:1990-01-22:US:M:Mail from swissamiga1:ChrisKaufman
stunned13:kumper:andrewcoolsk8r@comcast.net:1987-02-14:US:M:none:SteveySpaceball
stunned2005:Makki1:soccergalwendt@hotmail.com:1987-03-29:US:F:none:Heather Wendt
stunned26:duude::1993-11-12:US:M:none:stunned26
stunned35:shad0e:kymmba36@hotmail.com:1964-06-30:US:F:24.156.45.58:t r
stunned36:shad0e:kymmba50@hotmail.com:1963-06-30:US:F:75.25.95.104:t w
stunned41:locamotive::1994-08-04:GB:F:none:stunned41
stunned88:molus:alizdg@hotmail.com:1988-09-25:HU:F:none:Alice D G
stunnedblonde:Maddie02:stunned_blonde@hotmail.com:1982-07-13:CA:F:24.139.23.228:Bev
stunnedcar:13099699x:magicboy353@hotmail.com:1955-09-13:SG:M:220.255.7.145:Stanley
stunnedd:tayla670:spicet@live.com:1988-02-04:CA:F:68.149.166.22:Sadiee
stunnedd_:tayla670:spicet@live.com:1990-02-04:CA:F:68.149.166.22:Sadiee
stunnedet:11stunned:benderdeds@yahoo.com:1981-01-01:US:M:69.29.211.197:sinatra
stunnedfool:asakura51:demonfromashes@yahoo.com:1988-05-31:PH:M:124.6.183.158:John
stunnedfusion:urmom12:raymatara@hotmail.com:1993-11-19:US:M:64.126.59.120:Max
stunnedgirl91:gabby14::2001-08-23::F:67.84.52.50:NULL
stunnedguys:xbox123:marlon_jochems@hotmail.com:1992-05-06:NL:M:83.84.222.84:Marlon
Stunnedie:qwerty2520*:i.can.live@hotmail.com:1996-07-05::F:198.53.243.148:NULL
stunnedinyourroom:kapow123:samsabro@live.ca:1991-06-04:WK:F:206.116.125.87:crimm!
stunnedmonkey:bandit:pebbles925@yahoo.com:1981-09-21:CA:F:none:Lauren Taylor
stunnedmullet07:nharriso35:stunned_mullet_07@hotmail.com:1990-09-10:AU:M:124.168.235.45:Nick
StunnedOut4Life:babyface16::1998-07-21::F:98.118.7.42:NULL
stunnedvacant:hated:x0siberianxkiss0x@yahoo.com:1988-01-13:US:F:none:Andreais cool
stunnedvacant1:moomoopoof1:stunnedvacant@yahoo.com:1988-01-13:US:F:none:andrea andrea
stunned_:kralenm!:yo_yaaa@hotmail.com:1991-10-03:NP:M:81.68.100.58:i have no name
stunned_01:349438:mkymouse951@aol.com:1992-05-22:US:F:69.171.166.18:none
stunned_485:boomer33::2000-05-13::M:173.55.243.157:NULL
stunned_cookie:moana1:stunned_cookie@hotmail.com:1987-07-29:NZ:F:none:leigh-moana m
stunned_fish:asdfjkl;:shrimpykid000@hotmail.com:1980-09-02:CA:F:none:f d
stunned_jedi:lucycat:matthewalden_13@hotmail.com:1990-06-04::F:none:matt alden
stunned_kitty:courtney::1983-03-23:CA:F:none:Lauren Devine
stunned_monkey:120590:verbalwar@hotmail.com:1990-05-12:GB:M:none:Net-Lard
stunned_mule:ilikerice96:m_telfordherdman@hotmail.com:1988-04-24:NZ:M:none:rah sta
stunned_mullet_04:heather:stunned_mullet_04@hotmail.com:1980-09-10:AU:M:none:nick harrison
stunned_princess:dell_time:jackson_jeniffer@yahoo.com:1992-10-10:US:F:none:jeniffer jackson
stunned_rancid_punk:gothpunk:punx_mohawks_rancid@yahoo.com:1971-05-23:US:F:none:goth punk
stunned_shad:123654789:fierywywern@mail.ru:1988-05-31:RU:F:79.120.35.62:Loky
stunned_suga:arthurthecat:stunned_suga@hotmail.com:1988-09-09:GB:F:none:Chloe Smith
stunned_the_guild:united_states11:ksharm01@gmail.com:1970-09-26:US:M:71.139.30.13:STUNNED
stunned__:yea01:fkap422@hotmail.com:1991-09-08:US:F:none:Emma ...
stunnenferrari29:066927690:heart_of_skullz@hotmail.com:1993-11-29:CA:F:99.237.78.92:Priya
stunner:minishanny:xox_invisible_xox@hotmail.com:1989-05-24:CA:F:Mail from lisalocketdo:Cayden Knittle
stunner0:stunner00:royxgxbiv@gmail.com:1990-05-24:US:F:69.14.46.97:JayCee
stunner0000:tinhole::1993-03-13:GB:F:Challenge Accepted:stunner0000
stunner00001:RACHEL::1987-08-27:US:M:none:EVAN  WELLS
stunner0000335:zxcvbnm600:andrea_clark@btconnect.com:1991-03-13:GB:F:none:charlotte clark
stunner0001:benny222:chloee__16@hotmail.com:1992-02-18:AU:F:59.100.69.186:Chloe
stunner0021:chesterrules:dogcrazee@bala13.freeserve.co.uk:1992-05-02:GB7:F:none:stunner0021
stunner007:laurenjill12::1995-01-04:GB:F:86.131.137.180:Lauren
stunner01:undertaker01::2001-10-24:US:M:24.215.152.208:Jack
stunner0101:jackrabbit01::1997-10-25:US:F:66.102.16.10:chasity
stunner0102:123456654321:lil_wanksta2171@hotmail.com:1991-01-01:CA:M:none:steven delacruzer
StunNer011:iloveyou011:tarnya_bright@hotmail.com:1993-02-22:NZ:F:122.58.160.159:NULL
stunner0123:purepokemon11:stunner1456@hotmail.com:1986-10-30:CA:M:69.156.5.252:jordan
stunner016:b1jwwm69:guyanese_stunner@hotmail.com:1990-09-16:CA:M:none:Brian Singh
stunner052192:slobber:smokescreen4u@cs.com:1985-03-18:US:M:none:Heve  Gover
stunner06:William06:dosometym@yahoo.ca:1989-06-06:CA:F:75.155.151.4:Bobbi
stunner07:53088:chtambrowneyes@aol.com:1989-05-30:US:M:none:Dewayne Means
stunner08:caty08::1998-10-01:US:F:66.102.16.10:macey
stunner0920:austin0920:zafaranet@hotmail.com:1988-03-05:CA:M:64.180.5.14:Shuttler
stunner09200920:austin0920:jkim0920@hotmail.com:1988-04-02:CA:M:70.79.183.158:JAson
stunner09201207:austin09201207:jkim0920@hotmail.com:1980-01-01:CA:M:67.52.170.227:All star
stunner1:pusscat1:love.to.love.you@hotmail.com:1987-09-12:GB:F:none:Emilia Millward
stunner10:pinky::1992-03-12:US:M:none:stunner10
stunner1000000:ben7alex::1993-11-24:US:M:none:stunner1000000
stunner101:emsey:affro100@hotmail.com:1985-08-07:GB:F:none:Rachel Owen
Stunner1011:aewzome11::1999-07-02:CA:M:99.233.40.80:NULL
stunner101_21:ball21:bliined85@yahoo.com:1994-11-13:US:M:72.201.75.203:Ballin
stunner1023:8298334::1994-01-07:PH:M:none:stunner1023
stunner103:stunts:candace_ritchie@rogers.com:1989-06-13:CA:F:none:kyle ritchie
stunner1030:ahhmazing10:yaya-riah1015@hotmail.com:1994-10-25:US:F:71.1.122.90:Mariah Turner
stunner1042:aderine:letsplay6771@aol.com:1971-06-08:US:M:none:joshuavillanueva
stunner105:lilwayne101:stunner10561@yahoo.com:1993-03-08:US:M:24.178.199.65:malcolm
stunner110:ahsan:ahsanrulez@hotmail.com:1985-09-26:CA:M:none:Mohammad  Ahsan
stunner111392:jamie11:coreyr@yahoo.com:1992-11-13:US:M:65.110.156.250:corey
stunner117:potter:garylyanks@aol.com:1985-10-04:US:M:none:Gary Lee
stunner12:NEWBYGIRL12:puppy4paws@hotmail.com:1992-08-03:GB:F:none:amy rumble
stunner1207:austin1207:pc_room_freak@hotmail.com:1980-02-02:CA:M:67.52.170.227:Eddie Rabbit
stunner121:nana123:stunna1@live.com:1994-01-02:TZ:M:219.148.197.154:I am teh stunna
stunner122:jakey:ashyates841@hotmail.com:1990-09-22:LK:F:none:Ashleigh Yates
stunner123:death90:waiting4ages@hotmail.co.uk:1993-08-15:GB:F:none:laura cogle
stunner1231:austin::1991-12-31:US:M:Mail from contest_judge:stunner1231
stunner12345832:hello12:manveerdehal@telus.net:1992-02-01:CA:M:none:manveer manveer
stunner12360:million:crazzy194@hotmail.com:1982-10-05:SG:M:Item:Ng ChewTiong
stunner124:surfup101:tamsin.kemp@btinternet.com:1994-07-25:GB:F:86.137.110.39:Tamsin
stunner13:piggott13:cassiecupcake13@hotmail.com:1995-01-13:US:F:75.120.171.191:cassie
stunner133:snakexr6:rjdogg10@hotmail.com:1987-12-04:US:M:152.38.26.106:RAMA Jaby
stunner136:stunner:ultrafix@bigpond.com.au:1991-07-24:AU:F:none:Kassy Male
stunner137:turkey137::1999-09-29::M:76.1.211.9:NULL
stunner13neo:xyenon:alnea001@wsgfl.org.uk:1990-12-18:GB:F:none:Bel Alner
stunner14:394180:mjcl_tessie@yahoo.com:1987-08-14:PH:M:203.87.211.106:Yurif
stunner144:simone::1993-02-21:GB:F:none:stunner144
stunner15:purple15:ladie_browneyez14@yahoo.com:1994-08-05:US:F:173.60.24.27:NULL
stunner150:viewmate:sullymech@cox.net:1978-06-28:US:M:none:Jeff Sully
stunner151:LOCKEDUP::1993-01-11:US:M:none:stunner151
stunner15121:melissa12::2000-10-19:US:F:99.73.198.48:Kayla
stunner153:scamp:brian@braeside11.freeserve.co.uk:1989-04-24:GB6:F:none:nicola  m ilwraith
stunner1618:jessrox:j_girlz_stun@hotmail.com:1990-03-16:AU:F:none:Jessica Wynne
stunner168711:XCALIBUG:stunner_168711@hotmail.com:1987-02-21:US:M:none:S T
stunner1691002:karyn1234:stunner1692000@yahoo.com:1989-01-04:SV:M:none:carlos  guevara
stunner1692000:roshel456:stunner1692000@snowboard.com:1989-01-04:US:M:none:carlos guevara
stunner17:rakstar12:rak16@hotmail.co.uk:1993-12-11:GB:M:90.209.116.203:rak
stunner170:little::1992-12-22:GB:M:none:stunner170
stunner1719:stunner17:sweetpea1418@yahoo.com:1993-11-05:US:F:75.248.4.228:Addie
stunner172370:STUPID:katenbadge@ladymead2.fsnet.co.uk:1968-06-12:GB:F:none:janet badger
stunner173:727667::1992-06-24:US:M:none:stunner173
stunner1871:4mkmr2:strongblkman37@yahoo.com:1971-12-12:BT:M:none:keith stokes
stunner1993:justbringit::1993-09-25:GB:M:none:stunner1993
stunner1994:mysterio:ngalluccio@optonline.net:1990-07-03:US:M:Item:nicolasgalluccio
stunner1995:random19::1995-12-12:AU:M:220.253.17.173:john
stunner1996:omg12345:ofenegion@kfl.dll.fi:1996-04-11:FI:M:212.54.10.245:Joonas
Stunner1999:royboy12::1999-04-29:US:M:98.86.137.65:NULL
stunner1a:blure::1990-04-22:US:M:none:none
stunner1superstar2:amyleefan:amylee1618@aol.com:1986-09-30:US:F:Acceptance:Brittany christoffersen
stunner2000:pokeng4:flipracer00@yahoo.com:1986-11-04:US:M:98.112.60.192:font colorredmarqueestunner2000marquee
stunner200477:stunner::1992-10-06:AU:F:none:stunner200477
stunner2006:STUNNER2001:westside0892001@yahoo.com:1989-06-18:US:M:68.123.224.80:RonaldMartinez
stunner20089:killer21:bryan700@hotmail.com:1993-01-28:DZ:M:76.93.248.127:
stunner2009:tails25::2006-09-25:US:M:75.138.118.46:Stunner
stunner2010:smokey223:whiteboy_29@hotmail.com:1992-07-29:BS:M:24.231.35.228:Anwar
stunner2012:456ertdfg:gun1978@live.com:1998-02-06:TT:M:190.213.242.171:NULL
stunner20226:leann26:sanket@rogers.com:1993-10-20:US:M:none:SAN SAN
stunner203:simpsons::1994-01-23:PK:M:none:stunner203
stunner208:rooor:sexy-mexy89@hotmail.com:1989-10-10:US:M:none:Johnny Ortiz
stunner21:ashley21:a7xchick_1@yahoo.com:1992-08-27:US:F:75.208.86.22:ashley
stunner222:david33:wh1tetiger2003@aol.com:1989-09-28:GB:F:none:heather cording
stunner225:054730:stunner225@hotmail.com:1986-03-14:CA:M:none:#1 Contender
stunner227:whiteninja227::1997-10-13:US:M:68.99.219.95:riley
stunner228:kimmie1:stunner228@aol.com:1991-07-24:US:M:none:Latharius Lee
stunner23:hollister98::1996-02-24:US:M:70.240.88.161:austin
stunner231:edwin::1991-01-03:US:M:none:stunner231
stunner232:assassins27:dowdy2211@aol.com:1997-07-18:US:M:24.158.191.29:NULL
stunner234:stunner394:stunner30@windowslive.com:1990-10-14:NZ:M:122.57.234.12:stunner
stunner235:smocky1230:jack1mel@aol.com:1985-09-27:US:M:none:Jac Sasaman
stunner2356:BurningGundam:trunks2356@hotmail.com:1966-05-03:US:M:none:christian ?
stunner238:huggo:farrarclan@hotmail.com:1987-10-09:AU:F:none:kayla farrar
stunner24:12598j::1998-12-05:US:M:67.191.7.249:josh
stunner2421:rjm2421:rjm2421@yahoo.com:1981-06-24:PH:M:202.86.198.130:Ronald John
stunner243:wazzup:kurbie555@yahoo.com:1980-02-28:US:M:none:none none
stunner2435:51015:yugi316@msn.com:1987-03-30:US:M:none:Zackary Doughty
stunner25:jking25::1998-04-25::M:110.55.180.216:NULL
stunner262:smiler:ray1693midd@aol.com:1985-05-23:GB:F:none:Emma Longthorp
stunner268:tinker:x_stunner_x250@hotmail.com:1982-11-20:GB:F:none:brandy robson
stunner29:nam123::2003-07-29:US:M:24.25.203.232:Ashton
stunner290:ghjkl::1992-12-14:US:M:Battledome Challenge:stunner290
stunner299:strawberry:dancinbaby80@hotmail.com:1969-03-16:GB:F:none:kezzy aspinall
stunner2cool:stanely1:scottyyiec@mail2pop.com:1991-07-27:MM:F:none:stunner 2cool
stunner3000:wiiwii94:klegagneur@yahoo.com:1993-06-13:US:M:68.45.236.71:karl henry
stunner306:45765:dragonboyshadow@yahoo.com:1987-10-03:US:M:none:phillip antes
stunner307:whisky::1993-11-10:SG:M:none:stunner307
stunner313:missy:lisamusic66@hotmail.com:1989-11-03:US:M:none:Shawn Music
stunner315:dixon::1992-01-10:US:M:none:none
stunner316:hemorrhage1:cory_105@msn.com:1990-12-30:US:F:none:Cory Snider
stunner316161:stunned115:stunner4756@yahoo.com:1995-01-01:US:M:173.84.210.123:i have no name
stunner3164:sports34::1992-09-11:GB:M:none:stunner3164
stunner316619:lealwashere:gilmour_biggest_fan@hotmail.com:1985-05-04:CA:M:none:geoge lopez
stunner319:fucku:justinsemaan9@hotmail.com:1964-07-10:AU:M:none:justin lolo
stunner340:stings:fouf_rocks21@hotmail.com:1965-02-27:BM:M:none:Youseff  Jarmash
stunner34488:undertaker:scleary89@aol.com:1987-12-13:US:M:none:stephen leary
stunner355:guild::1992-12-15:GB:F:none:stunner355
stunner360:yomama23::1996-10-20:CA:M:64.229.236.114:johnathan
stunner365:dayley::1993-06-30:US:M:Trade Closed:stunner365
stunner371:Police21::1997-10-05:US:M:71.207.114.168:Gage
stunner3712:Hunter23::1997-10-05:US:M:71.207.114.168:Gage
stunner37_aa:Helper37::1997-10-05:US:M:71.207.114.168:Gage
stunner41088:player:bacardibabesx2@hotmail.com:1988-10-04:GB:F:none:laura fredhead
stunner411:jamesv68:deb-63@hotmail.com:1963-06-01:US:F:68.106.177.179:Debbie
stunner415:ked0st:ingver@gmail.com:1987-09-17:EE:M:194.204.22.25:Sass Saepuru
stunner41_:chuy123:jesus_perezherrea@hotmail.com:1985-10-05:MX:M:189.235.111.227:Stunner
stunner42:biggie45::1993-04-26:US:M:none:Justin Martinez
stunner420:TOONNY06:s_w_e_d_420_06@hotmail.com:1988-06-06:CA:F:none:Bobbi Loveseth
stunner44106:master:stunner44106@yahoo.com:1987-04-27:US:M:129.1.209.37:ELIEGH ROBINSON
stunner45:vaster:stunner452001@yahoo.com:1985-07-07:CA:M:none:seth smith
stunner4554:player32::1998-07-07:US:M:67.186.144.237:tyler
stunner456:1q2w3e4r5t::1997-07-18:US:M:24.159.37.27:michael
stunner48:paperboy:coolguy_08@hotmail.com:1990-09-08:CA:M:110.32.230.230:John Smith
stunner4970:bissell1:walker285@lycros.com:1977-02-14:US:M:none:mike jones
stunner4eva:290394:sex-bomb-06@hotmail.com:1994-03-29:GB:F:86.154.18.9:kirsten
stunner4u:linkinpark:stunner4u@hotmail.com:1988-05-25::M:82.46.53.204:daniel brabazon
stunner4x:mastergg::1993-01-11:US:M:none:stunner4x
stunner500:HLR2010:Stunner500@hotmail.net:1995-08-09:US:M:70.174.19.60:Aaron
stunner509:zoe2008:maggiecana@yahoo.com:1992-04-08:US:F:72.144.63.143:maggie
stunner5107868:richestman:juice2x@earthlink.net:1987-01-11:US:M:none:Rich  Rich
stunner513:werdall43:evanfries@hotmail.com:1994-02-09:CA:M:71.17.113.100:evan
stunner515:paper515:kehar1930@telus.com:1992-01-27:CA:M:none:manveer dehal
stunner53:stonecold::1994-02-17:US:M:none:stunner53
stunner540:jepojlde!::1993-04-16:GB:M:none:stunner540
stunner55us:macintosh:stunner55us@yahoo.com:1987-01-31:US:M:68.95.110.1:Richard Fajardo
stunner56:gangster565:cool_dude_adam@hotmail.co.uk:1990-09-15:GB:M:none:adam gould
stunner56184:30535353::1991-09-06:US:M:none:none
stunner561848:30535353::1991-09-06:US:M:none:none
stunner59:yellow:hypa_rod@hotmail.com:1990-11-28:BB:M:none:RODNEY ODLE
stunner6:hardyboys::1989-06-06:US:M:none:none
stunner6000:jaken::1992-08-06:CA:M:none:stunner6000
stunner601:100300:rahmatjachow@aol.com:1990-04-17:US:M:64.12.117.208:harrison
stunner60564:morrison:ayo_odusanya@hotmail.com:1987-09-25:US:M:Can I be your NeoFriend?:Ayo Odusanya
stunner616538:stunner123:manveerdehal@hotmail.net:1992-02-01:CA:F:none:killer steel
stunner61921:dee1551:stunner61921@yahoo.com:1987-07-21:US:M:none:jj max
stunner619316:spinner::1993-03-28:AU:M:none:stunner619316
stunner622:spiderman622:abarnett48@yahoo.com:1995-07-12:US:M:71.43.109.114:austin
stunner67:DragonBlaster::1987-06-23:US:M:none:Samel Feratovic
stunner699:Strikerno.1:bloodhawk_100@hotmail.com:1990-01-24:SG:M:none:Razi Ahmad
stunner707:Melissa::1993-04-07:US:M:none:stunner707
stunner7118:stonecold::1994-02-17:US:M:none:stunner7118
stunner72215:cop544::1994-02-06:US:M:none:anthony
stunner72370:gunner!:stunner72370@yahoo.com:1988-07-17:US:M:none:Joshua Miller
stunner740:tucker08:littledickies@yahoo.com:1993-07-02:US:M:12.206.31.92:Tucker
stunner741207:tracy:green7492@yahoo.com.tw:1985-12-07:TW:F:none:碰柑 格格
stunner75:babymac:pussboy2003@hotmail.com:1985-08-19:VI:M:Can I be your NeoFriend?:Jay Descartes
stunner750:12skillz::1997-08-04:US:M:68.205.106.226:iceberg
stunner7606:roflpwned7606:austinbiggs42@yahoo.com:1992-01-01:US:M:70.20.76.251:quagmire
stunner77:louisemeup77:masterloubernardo@yahoo.com:1992-01-12:PH:M:203.87.186.118:lou
stunner872:wubbahubba24::2002-04-19:NZ:M:125.237.185.112:william
stunner90:room1234::2000-05-09:US:F:75.75.89.28:diamond
stunner9070:october:leslie_3030@hotmail.com:1990-10-10:SG:M:none:leslie see
stunner91:isa91adam:h.eric91@yahoo.com:1985-07-11:US:M:74.67.148.180:eric
STUNNER937:CENA1999:WJAYONTAE@GAMES.COM:1964-07-26::M:76.235.37.139:NULL
stunner944:gertie07:shaundellalfred@yahoo.com:1994-01-24:GY:F:190.80.24.5:Tonya
stunner95:masterlock95:gmoffo@yahoo.co.uk:1994-08-20:NG:M:41.219.218.11:Mofoluwaso
stunner96:Yanky::1994-03-10:AU:F:none:stunner96
stunner962:keepout:sunny4652030@hotail.com:1989-07-07:CA:M:none:sunny cheema
stunner985:wazzup:kurbie555@yahoo.com:1980-10-29:US:M:none:yes i know yes
stunner99:shimano:seanfielding99@hotmail.com:1990-04-20:AU:M:none:sean fielding
stunner990:andrewman:auntkiki21@aol.com:1990-06-07:US:M:none:Andrew Lackie
stunnerat420:toonny06:DoSomeTym@yahoo.ca:1989-06-06:CA:F:70.77.241.108:Bobbi
stunnerbabee:nickyroxy11::1999-11-01:YE:F:122.57.110.99:Bridget
stunnerballer12:111889:louisvillestunners@yahoo.com:1989-11-18:US:F:none:Krista Phillips
stunnerbeast:tormentor::1992-09-13:GY:M:none:stunnerbeast
stunnerbiscuit:janks:stunnerbiscuit@hotmail.com:1988-11-05:US:F:Mail from tinamterry:Samantha  Smith
stunnerboi:buster:horse_guy59@hotmail.com:1984-05-09:US:M:none:Jason
stunnerboi8793:871993::1993-08-07:US:M:none:none
stunnerboy:birdman:tipsy2010@hotmail.com:1992-05-13:US:M:none:matt mclamb
stunnerboy11:spiderman1:dakotaseb@worldnet.att.net:1988-03-31:US:M:72.130.243.53:dakota ganitano
stunnerboy12:spiderman1:dakotaseb@worldnet.att.net:1988-03-31:US:M:24.94.86.40:dakota ganitano
stunnerboys74:coolkid75::2002-03-01:US:M:97.96.144.129:austin
