stupersteve212:080908::1993-09-07:US:M:none:stupersteve212
stupersteve212_2:080908::1993-09-07:US:M:none:stupersteve212_2
stuperstickysteve:steveyboy13:dave@nicky50.fsnet.co.uk:1990-10-02:GB:M:90.195.224.98:steven  collins
stuperstr2308:ilovehim17:nykeemabooker@yahoo.com:1992-01-27:US:F:76.174.249.118:nykeema
stuperstretch:smarties12:Ashton.Dore@gmail.com:1989-04-19:CA:M:216.254.206.184:Ashton
stuperstrong:soulweaver4:the.black.bard@gmail.com:1989-03-23:US:M:none:Tim Henderson
stuperstronguniverse:5555kl55:stuperuniverse@hotmail.com:1987-03-27:US:F:none:angela stonkavich
stuperstyle777:846750:mgwiggins@satx.rr.com:1990-11-10:US:F:Can I be your NeoFriend?:Megan Wiggins
stupersuniverse:42182556766:xnether@gmail.com:1992-12-06:US:M:75.16.110.202:Richard Thomas
stupert1:85773p:stupert@sbcglobal.net:1993-06-21:US:M:71.141.136.172:stuart
stupert333:muffin7::1994-03-18:US:M:none:stupert333
stupert334:muffin7:talkingmuffin7@yahoo.com:1988-03-18:US:M:none:Jimmy Gerdes
stupertiultrati:megati123:miloandmin@comcast.net:1994-10-10:US:M:65.96.90.88:stupertiultrati
stuperti_32_filsit:espertas10::1998-06-24:PE:F:201.240.202.49:maria cristina
stupertrooper:appletree::1991-07-08:US:F:none:stupertrooper
stupervisor:chocolate:zoo_keeper_rox@hotmail.com:1990-02-01:AU:F:none:Ash
stuperweird94:ikiroc2::1994-03-02:US:M:none:stuperweird94
stuperwoman37:brookie37:kittybaessler09@hotmail.com:1993-03-23:US:F:206.9.221.13:Brooke
stuperwonka:batoul12:purple0shark@hotmail.com:1995-11-29:CA:F:76.68.172.71:batoul
stuperxstarr:britt_97:horsechicgurl3@aol.com:1991-03-14:FR:F:none:Stuperstar Britt
stuperzebra:JLXZpr56::1997-11-28:US:F:98.150.37.37:Caitlann
stuperzsnagg:fatboi:fatboisnagg@yahoo.com:1991-01-01:US:M:Can I be your NeoFriend?:Joe Tan
stuperzsnagg04:snoopy1:fatboisnagg@yahoo.com:1991-01-01:US:M:none:Joe Tan
stuperzsnagg06:snoopy101:daredevilsnagger@yahoo.com:1991-01-01:US:M:68.126.183.20:Nathan Tang
stuperzsnagg08:snoopy101:daredevilsnagger@yahoo.com:1991-01-01:US:M:68.126.217.110:Nathan Tang
stuper_account:soccer15:bracefacetk2010@hotmail.com:1991-09-22:US:F:173.216.10.93:nonamenonamenoname
stuper_bois_chick:onetreehill:a_walk_to_remember21@yahoo.com:1984-09-28:US:F:none:Brooke   Davis
stuper_chick:ho1996::2006-12-28:NZ:F:124.198.165.123:Holly
stuper_dude68:mymomnet:samman1211f@aol.com:1988-12-11:US:M:none:Samuel Finger
stuper_duper:thomas3:damionhosmer@comcast.net:1993-06-16:US:M:none:thomas thomas
stuper_fwee:fwee5:mikey_said_something@hotmail.com:1989-02-20:AQ:F:none:fwee is so cool
stuper_girl:11983121143075:im_stuper_girl_oyeah@yahoo.com:1992-10-05:US:F:65.89.233.22:Tori
stuper_hero:742481:djiles@compuserve.com:1988-06-03:US:M:none:andrew jiles
stuper_heros:stuper*:az_fun13@hotmail.com:1991-09-03:HU:F:none:We\re Stuper Heros!
stuper_kewl_chick123:popcorn:kewl_er_than_u@yahoo.com:1990-11-25:US:F:none:chika mika
stuper_man1999:mannatrainer99::1999-05-11:CA:F:70.40.143.207:NULL
stuper_of_thought:98148:s_brinkerhoff@hotmail.com:1983-09-28:US:M:none:Scott Brinkerhoff
stuper_smart_teehee:tee_hee:katrina_tontegode@hotmail.com:1989-12-03:CA:F:none:katrina tontegode
stuper_sqirrle:11112:waterproof125@yahoo.com:1969-01-01:US:M:none:asaf ASFG
stuper_star:h93fewn3i2:marche995@yahoo.com:1981-02-23:US:M:66.87.4.228:NULL
stuper_star88:notforyou:stuper_star65@yahoo.com:1987-09-13:US:F:none:Katie Riplie
stuper_star_2006:sammie2007:stuper_star_2006@myspace.com:1989-04-09:US:F:207.200.116.130:melissa
stuper_star_89:11u444:prettyinpurple@comcast.net:1991-11-12:US:F:71.201.140.246:brittany
stuper_stephy666:truelove:sugerly_sweet67@hotmail.com:1991-04-10:CA:F:none:Stephie Anderson
stuper_stuff:stuff:greenandgoldrox@msn.com:1991-10-05:US:F:none:tammy patterson
stuper_trooper:buttons::1970-12-31:DZ:F:Can I be your NeoFriend?:Xena princess
stuper___dude12434:oppets:famcdpc@yahoo.com:1987-07-04:US:M:none:mason chagnon
stupes:schneckenschleim12:claudiatsc@arcor.de:1971-09-17:DE:F:88.68.121.176:claudia
stupes05:gotcha4:mottomatt@hotmail.com:1991-03-20:CA:M:none:franks red hotsauce
stupesies:custom2006:side_x_effects@yahoo.com:1989-01-08:US:F:68.50.240.12:Evelyn
stupest1997:s9737313b:sohmx97@hotmail.sg:1997-10-27:SG:M:175.156.46.23:NULL
stupes_:RADICAL__:kachot@aol.com:1985-06-13:GB:M:none:Eranan Thiru
stupet:fort7497:maude_w14@hotmail.com:1993-02-02:CA:F:67.193.85.224:i have no name
stupet3:bilbo12:stuartgreen2@yahoo.co.uk:1993-03-01:GB:M:86.135.66.131:Stuart
stupet348:lilaaznboiix11:lilaaznboiix@yahoo.com:1984-03-28:US:M:12.207.56.196:feeee
stupet623:superman14:michaelchan9814@yahoo.com:1980-05-14:US:M:12.226.77.243:Mike
stupet7:tessdog08:singingstu@gmail.com:1981-06-01:AU:M:122.110.35.110:Stu
stupet8502:magician354::1993-02-22:BR:F:none:stupet8502
stupetch123:92846158ninja:stupid_stew_@hotmail.com:1990-05-13:CA:M:24.235.229.201:Stu
stupetest:654123:zenmasterabc@hotmail.com:1992-06-02:CA:M:none:Timothy Shen
stupetking:ferrari100::1993-08-18:US:F:none:stupetking
stupeto:googoogaagaa:fartingfreaks@hotmail.com:1980-08-25:AU:F:none:Big Mama
stupetoe:1 password 1::1999-10-01:US:F:67.166.216.173:ellen
stupetooo:MIKAYLA 123456789:jea9@yahoo.com:1981-10-14:US:F:none:MIKAYLA BUSS
stupetrecer909:kasecenceitive00::2000-10-01:US:M:66.99.115.162:alec
stupets:stu130013:guess.who.just.signed.in@hotmail.co.uk:1991-05-22:GB:M:195.93.21.129:Stuart
stupetstephanie:heidi:sunsetsoldier@netzero.com:1989-11-11:US:F:none:stephanie colman
stupette:kim657:angelamaier1@gmx.de:1992-07-22:DE:M:75.176.49.231:maier
stupet_5_5_5:_aerosol_::1994-04-11:CA:F:none:stupet_5_5_5
stupet_wizard:rb_soccer16:wizard_656@hotmail.com:1993-01-12:CA:M:99.238.205.7:stupet_wizard
stupeur:TiBo10:thibault.domenget@gmail.com:1989-12-01:FR:M:82.65.11.215:
stupey21:mountaindew:dothedew313122@yahoo.com:1991-01-01:GB:M:none:s d
stupey4532:usuk123456789::1999-03-29::M:69.129.47.16:NULL
stupeyd:blue122::1992-08-26:US:F:none:stupeyd
stupeyfy241:izzyrox22::1997-01-28:AU:F:124.185.30.252:isobel
stupeyhead:13174:nrylee@alltel.com:1991-05-08:US:0:none:Nathan Rylee
stupeyjimette:jimjima321:jtancer@gmail.com:1988-11-27:US:M:24.188.103.57:Jimette
stupeypoopy:stubey:adidasisinme@netscape.net:1982-02-17:US:M:none:Fred Tijer
stupey_dupey:bettina00:10293064@student.uts.edu.au:1990-01-01:AU:F:58.178.44.70:Betty Woo
stupe_a_dupe:andi123:cowboy_horse4u@yahoo.com:1993-08-02:US:F:216.14.238.102:Andi
stupe_edyet:alleine:b268325@yahoo.com:1988-02-09:US:M:none:Stupid Idiot
stupe_sister_123:petsneopets12::1998-01-24:YE:M:69.23.154.43:milman
stupffreunde:ricci13::1997-10-20:AT:F:62.47.229.176:Ricarda
stupfiants:acide11:arno_leblanc@hotmail.com:1990-09-04:BS:M:none:Herpès Bucale
stupfid_reo:postmanpat:melissa.oshaughnessy@bigpond.com:1987-12-02:AU:F:none:mel somebody
stupfier:998361:emilytomberlin@cox.net:1992-07-10:US:F:none:Emily
stupfly:moorc75:jrrycroom@aol.com:1991-02-04:GB:M:74.170.125.15:Darron
stupfra:hallo12:tete-boehm@gmx.de:1996-11-23:TK:F:84.181.219.177:h
stupfrutieswag:steven78:desireeparsons16@yahoo.com:1992-01-17:US:F:97.104.68.174:desiree
stupfrutieswaga:steven78:desireeparsons78@yahoo.com:1992-01-17:US:F:97.104.68.174:dezy
stupgallon:awesomegirl12::1998-03-26:AE:F:96.253.126.95:kelly
stupgirl:qazxsw24::1995-07-20:US:F:24.168.108.139:anna
stupgrim:water99:stupgrim@yahoo.com:1984-05-05:US:M:none:stup grim
stuph9116:livestrong:www.musicmaniac9116@aol.com:1991-12-16:US:F:none:Stephanie Flores
stuphaluf:hievery1:cheesylouisey@hotmail.com:1985-08-05:US:F:24.76.181.30:stuph aluf
stuphanie:teddylove:stephaniemenger@hotmail.com:1987-04-11:NL:F:Battledome Challenge:stephanie menger
stuphanu:september09:step-on-me_tuna@hotmail.com:1995-09-09:CA:F:99.237.192.246:Stephanie
stuphboy:chewie63:mikieschoen@hotmail.com:1988-03-08:US:M:74.143.95.18:Michael Smith
stuphe:Mauritio007::1996-03-19:DE:F:78.42.234.214:Stephanie
stuphe13:Mauritio007:lillifeemauritio@yahoo.de:1996-03-19:DE:F:78.43.172.125:NULL
stuphead:orange:lilshaz_06@hotmail.com:1987-01-04:CA:F:none:shaz thats
stuphead101:brebre123:TurboRockstar@yahoo.com:1996-11-16:TG:F:75.181.105.28:Kymbre Dumma
stuphead324:252525:yugi2@umpire.com:1990-08-03:US:M:none:Roy Robinson
stuphead97:sunshine97:hje@charter.net:1990-08-01:US:F:66.191.241.9:kabra
stuphel:1osama1::1994-03-29:BE:M:none:stuphel
stuphen:plk007::1993-10-26:HK:M:none:stuphen
stupher:beechey1:stuart2734037747@aol.com:1988-09-27:GB:M:none:stuart smith
stupher101:ilovecody33:ilovecodylinley_33@hotmail.com:1992-11-11:US:F:24.170.161.245:stephanie
stupher27:beechey12:stuart2734037747@aol.com:1988-09-27:GB:M:195.93.21.42:stuart
stuphfore:445599:way2much_stuph@yahoo.com:1985-04-11:US:F:none:Stephanie Fore
stuphguy:martin:drock700@aol.com:1989-03-07:US:M:none:Christopher  Liloy
stuphido:78945612:stuphid_madafaka@yahoo.com:1968-09-25:PH:M:Item:sdgrg drgdry
stuphid_madafaka:putangiroy:amigo_tayo@yahoo.com:1987-11-23:PH:M:none:Untitled Dead Leaf
stuphie:Mauritio007:lillifeemauritio@yahoo.de:1996-02-04:DE:F:95.208.62.122:Stephanie
stuphie45:zippy78::2001-05-26::F:69.115.123.203:NULL
stuphil:begin!:philyreed@hotmail.co.uk:1990-09-15:GB:F:none:philip reed
stuphman23:stuphman66:Dylank12@live.com:1994-11-27:US:M:207.119.103.219:Dylan
stuphnon_:twilight14:jonathanfpaula@yahoo.com.br:1995-07-02:BR:M:187.59.218.144:Jonathan Fernando de Paulo
stupho232:STEPHO::1991-10-28:CA:F:none:stupho232
stupho65:knibbs:samantha_knibbs@hotmail.com:1988-07-14:US:M:none:gregory knibbs
stupho69:dumpweed69:stupho69@hotmail.com:1989-05-27:GB:M:212.219.198.128:Bill
stuphsteph_92:ilovebrand22:star_studded_sky@hotmail.co.uk:1992-05-08:GB:F:195.93.21.100:Stephanie
stuphums:aframan12:stephdrucker@yahoo.com:1990-03-29:US:F:199.79.170.217:Stephie
stuphy33:166844:m234@neb.rr.com:1991-08-17:US:F:none:Emma Lurk
stuphy_alyak_bffaa:china::1993-02-12:CA:F:none:stuphy_alyak_bffaa
stuphy_rocks_ya:china33::1991-07-29:US:F:none:stuphy_rocks_ya
stuphy_steph_petlove:steph::1991-05-07:US:F:none:stuphy_steph_petlove
stuph_me:emily_strange:steph_roks@hotmail.com:1992-07-25:GB:F:none:steph person
stupi:RHEAOJC1::1993-09-22:CA:F:none:stupi
stupi007:katana:checocaca@hotmail.com:1991-08-13:MX:M:none:Fernando Gutiérrez
stupi11:apple::1993-01-28:US:F:none:stupi11
stupi111:dingdong:bublyman@yahoo.com:1984-03-03:US:M:Mail from fantabuloushoney1:james bond
stupi123:ashley123::2002-07-15::F:24.32.45.50:NULL
stupi128:lil flip:ellcox@bellsouth.net:1990-09-17:US:F:Can I be your NeoFriend?:ashleigh pennerman
stupi1d:deanise::1992-04-27:US:F:none:stupi1d
stupi1dfarter:deanise:azngrlfoever@yahoo.com:1990-04-27:US:F:none:monaluu
stupi1dfarters:amloser:azngrlfoever@yahoo.com:1991-04-27:US:F:none:MonaLuu
stupi252:spiderman:gut452003@yahoo.com:1987-06-28:US:M:none:Ryan Summers
stupi29:55442211::1991-01-01:US:F:71.196.22.72:blabber
stupi33:bli22ard:fatso2006_10@hotmail.com:1980-08-26:CA:M:204.244.198.158:tyler
stupi44:zavier1234:afrothunderkid@yahoo.com:1995-06-26:US:M:76.0.183.55:Xavier
stupi444:hiiamcasie!:stupi44@yahoo.com:1991-01-01:US:M:72.253.2.7:efdgwd qwregqwres
stupi45:22011:matedteo@yahoo.com:1988-06-25:US:M:none:john bartolome
stupi51:51heart51:stupihaha33@yahoo.com:1994-12-04:US:F:161.253.156.156:Melena
stupi60:lyoko::1994-04-30:US:F:none:stupi60
stupi666:joeyjoey::1992-12-21:FR:F:none:stupi666
stupi8:bbmmpp79::1999-07-09::M:98.212.161.27:NULL
stupi8_104:bbmmpp79::1999-06-09::M:98.212.161.27:NULL
stupia93210:melanie::1993-05-03:US:F:none:stupia93210
stupiak:kitaro99:heimao73@hotmail.com:1980-12-04:MY:M:none:stupiak turtle
stupiak003:5224280:yy_law@hotmail.com:1984-12-16:US:M:192.25.42.225:jo jo
stupiak158:880815125583:stupiak815@hotmail.com:1988-08-15:MY:M:none:Temothy Chong
stupiak90:kanasai619:bogeygirl90@yahoo.com:1990-05-09:MY:F:60.50.244.229:Teo Esther
stupiak93:pcd93:bebot@neo.com:1993-01-01:MY:F:none:bebot bebot
stupiakboy:654681:mercurial_19@yahoo.com:1981-04-17:MY:M:none:Joseph N.
stupiakboyz:0889449:rogergohp@hotmail.com:1927-07-27:MY:M:60.50.31.25:Roger
stupiakgirl90:kanasai619:bogeygirl90@yahoo.com:1990-05-09:MY:F:none:Esther Teo
stupiakkkk:789987789:claries84@yahoo.com:1980-02-29:MY:F:Acceptance:a b
stupiakningg:ning12:ning_ting_sakura@hotmail.com:1995-01-28:MY:F:124.82.32.85:ning
stupiak_:joanne1012:joanne_1012@hotmail.com:1980-10-12:MY:F:60.50.107.135:Miu
stupiak_1:connie11::1998-01-05:MY:F:60.54.90.89:connie
stupiak_2:00f&vannila:nemo_941110@hotmail.com:1991-02-27:MY:M:none:faicai lapsap
stupiak_55669:6469428::1996-04-16:MY:F:60.50.3.228:stupiak_55669
stupiak_idiot:*012345*:selinateng90@gmail.com:1990-07-18:MY:F:118.100.213.16:stupiak
stupiak_kat:dunno88:kat_happy0926@hotmail.com:1990-09-26:SG:F:118.101.6.64:Katherine
stupiak_ying:0168886173:xiaoyaoi@live.com:1987-09-10:MY:F:124.13.251.224:XIao=YIng
stupib:watermelon:riahjayne@hotmail.com:1989-11-29:AU:F:none:sariah  manning
stupib1026:771010:stupib1026@yahoo.com.tw:1988-10-10:TW:F:none:E MI
stupibpiggirl:z9870602:chuwaiyinhk@yahoo.com.hk:1988-03-16:HK:F:Battledome Challenge:肥 豬
stupibrattypants12:wowzer::1992-07-25:US:M:none:stupibrattypants12
stupic4:THESWORD:crateelectra20@aol.com:1988-04-17:US:M:Mail from footballperson:GREG MCKINNON
stupica100:jacob:homestu@mindspring.com:1996-12-15:US:M:none:stupica100
stupica1234:5822109:nrbears@mindspring.com:1984-10-07:US:F:Mail from theneopetsteam:Samanthastupica
stupica678:friends4ever::1993-10-07:US:F:none:stupica678
stupica99:jacob123:husky@mindspring.com:1987-12-15:US:F:none:jacob stupica
stupicd:ugly2772:milly@foopets.com:1939-04-04::F:69.243.131.77:NULL
stupicguy:password24::2002-01-24::M:97.97.46.180:NULL
stupichen:carlmarshall11::1997-02-13:IE:M:62.40.49.241:Carl
stupickle:CaChick1:fudgesicles-r-yummy@hotmail.com:1991-05-17:US:F:none:Marisa K
stupickles_321:rugrats321:stupickles_321@yahoo.com:1989-09-07:US:F:none:stu pickles
stupicldonghorsecow:daksie926:sierra4143@yahoo.com:1992-04-22:US:F:24.19.115.5:Dakerra Burt
stupicookie112:piggy:h2oqueen011@yahoo.com:1901-11-24:US:F:none:C T
stupicupidgoogoo123:mamama:katybravora@yahoo.com.au:1976-08-24:AU:M:none:Simon Kintver
stupid:oohish1:vizslastupid@yahoo.com:1906-01-01:US:M:none:Stupid Stupid
stupid00:susan1:pinkpanther391@hotmail.com:1927-11-02:US:F:71.8.195.18:Susan Miller
stupid000:srvrfus11:im.just.stupid@hotmail.com:1994-01-03:SG:M:218.186.14.74:stupid
stupid00000:902841::2004-05-18::F:99.75.120.116:NULL
stupid00000000000000:jackass:kcmanko@sbcglobal.net:1986-03-26:US:M:none:kevin manko
stupid00000557:megaman00:stupid000557@yahoo.com:1990-11-07:FJ:F:59.51.241.131:Jeni
stupid0000557:megaman0000:stupid000557@yahoo.com:1989-11-07:US:F:none:Jenny Fung
stupid0001:wazup0::1993-11-12:US:M:none:stupid0001
stupid000123:noway12:stupid5736@yahoo.com:1990-01-01:UY:M:8.2.208.4:blash
stupid000160:meandyou:derekaustin95@aol.com:1968-10-19:US:F:none:me mwe
stupid000557:babypillow28:cerest@charter.net:1990-11-07:US:F:97.93.44.192:Ceres Trinh
stupid000_9_9_9:10101::1993-12-29:US:M:none:stupid000_9_9_9
stupid001:fan123:stupid993@hotmail.com:1991-09-26:SG:M:none:ching mun chung
stupid0011:940930:marionjonesfan@hotmail.com:1992-10-01:US:M:none:Juatae Huntley
stupid0016:stupid:stupid00@hotmail.com:1988-01-01:US:M:none:bin mei
stupid0025:angel::1992-12-18:US:F:none:none
stupid0026:55125:davevyang@yahoo.com:1992-03-21:US:M:none:andrew yang
stupid004:1513456:yerin-park@hanmail.net:1991-04-13:US:F:none:Newman Kiki
stupid005:5stupid5:m_a_h_swedish@yahoo.com:1990-11-06:AU:M:72.42.68.72:Bob
stupid006:5988sgd1:lau_charlotte@hotmail.com:1983-01-04:HK:F:none:stupid suu
stupid007:fortify00::1994-04-23:GB:M:87.224.96.184:Chris
stupid007007:golf4bird:golfindude22@msn.com:1987-09-25:US:M:none:nick  calhoun
stupid008:Lupe7::1991-01-08:US:M:none:Charles  Cortier
stupid008531:sydney::1993-08-15:US:F:none:stupid008531
stupid00head163:playball::1993-10-15:US:M:Mail from theneopetsteam:stupid00head163
stupid00head933:soccor::1993-10-15:US:M:none:stupid00head933
stupid00s:mulcture:si_donohue@hotmail.com:1988-11-28:GB:M:Acceptance:Si D
stupid01:217960:PinkPanther391@Hotmail.com:1993-11-02:US:M:24.240.190.67:nathan
stupid0100:love711:pro_noob94@hotmail.com:1990-08-11:CA:M:none:tai gigi
stupid0102:limps(:lostcause0102@yahoo.com:1988-03-24:US:M:none:askjdf kile
stupid0105:310097:stupid12300@yahoo.com.tw:1989-05-21:TW:F:none:思霓 陳
stupid0107:loveislove0107:flavagrl14@aol.com:1987-01-07:US:F:67.61.87.61:Allison
stupid010tw:19840119:stupid010.tw@yahoo.com.tw:1984-01-19:TW:F:none:林 怡伶
stupid0121:iloveuchris:lilbabyangel1985@yahoo.com:1985-01-04:US:F:none:Alyssa Martins
stupid0122:boy1762753:boys7535@yahoo.com.tw:1996-01-21:TW:M:203.75.232.161:NULL
stupid0123:st00pid:tilly05@msn.com:1987-01-30:US:F:71.32.102.203:Me Too
stupid012345:rockon:tapperoonie@hotmail.com:1990-04-03:CA:M:none:b-rad G
stupid0128:idiot85:soccermaniac3596@aol.com:1992-01-28:US:M:none:matt luchini
stupid01340:marcus::1993-07-09:GE:F:none:stupid01340
stupid0135:po12369874:stupid3235@yahoo.com.tw:1995-03-26:TW:F:60.248.25.184:陳敏兒
stupid0147852:lalala123:leonheart_o8o8@hotmail.com:1986-06-15:SG:F:none:min tan
stupid01750:RICKYMARTIN::1993-02-12::F:86.167.90.114:none
stupid0199:loser0199::2000-08-08:US:M:70.178.34.48:leslye
stupid0403:stupid0403725966:stupid725966@yahoo.com.hk:1995-04-03:HK:M:61.18.170.48:ho
stupid042:12345678901234567890::2002-03-15::M:98.206.11.165:NULL
stupid0521:105521:l22389205330@yahoo.com.tw:1989-05-21:TW:F:203.75.232.183:陳思霓
stupid056:treesap12:elkdkk@bresnan.net:1997-2-8:US:M:207.255.233.215:dk
stupid0707:hayahaya0707:hayaikeno@ymail.com:1991-07-07:US:M:76.21.7.197:The chosen one
stupid0925:COOL90205:stupid.0925@yahoo.com.tw:1997-09-25:TW:F:203.75.232.169:NULL
stupid0987:fofo09:agadoe@gmail.com:1993-11-03:US:M:77.67.91.86:NULL
stupid0987879:fart654::2005-12-29:US:M:98.163.100.95:johm
stupid0belmonts123:gensokyo11:obsessed0with0anime@hotmail.com:1996-10-27:US:F:71.55.88.113:NULL
stupid1:210460::1998-11-09:US:F:99.113.211.149:NULL
stupid100:polopiuy12::2000-04-08:US:F:72.220.119.117:NULL
stupid10000000000:score10:Kingreyp@msn.com:1995-12-31::M:98.118.249.181:NULL
stupid1000000800:urbz10:crazyshez@aol.com:1995-07-06:GB:F:81.131.191.165:stupid1000000800
stupid10001000:rachelkimball6824::1997-11-25:US:F:173.27.170.101:stupid10001000
stupid100082:2828jose::2002-08-20:US:M:69.86.161.229:jose
stupid1001_583:skulls11:mindless3sons@comcast.net:1994-03-26::M:68.49.13.82:NULL
stupid100_aa:999444::2000-04-17:US:F:70.149.200.168:Courtney
stupid100__46:simba100::2000-11-16:US:M:76.110.66.55:nick
stupid101:cjvaldez00:cjvaldez0@gmail.com:1996-09-04:US:M:99.8.106.159:NULL
stupid1010101010101:stupidfucker11::1999-01-21:NZ:F:125.236.44.43:aly
stupid101016:neopets101016::1997-04-03:US:F:75.175.215.223:Anita
stupid1011:dumbo12:norman.island@yahoo.com:1991-03-04:US:M:204.9.147.2:NULL
stupid10114:gr4p3s:alexwelsby@hotmail.com:1981-03-30:GB:F:188.220.194.195:alexwelsby
stupid1012:lovedbyGod78:med1543@hanmail.com:1995-02-08:US:F:75.34.85.49:Stupid
stupid10136:pink101::1999-04-12:CA:F:142.22.16.59:mimi
stupid10155:shorty101:imdone101@aol.com:1996-6-18:US:M:66.172.195.85:alex
stupid10181:dumass12::1998-02-18:US:M:76.174.47.22:ricky
stupid101_1:butthead01:soonergirls@yahoo.com:1991-02-08:US:F:71.114.60.27:melanie
stupid1077thebull:the_bull123::2000-04-04::F:24.178.224.29:NULL
stupid10__10:paige21::1996-08-31:US:F:71.28.239.163:paige
stupid1100000000:crazycat22::1996-11-14:US:F:121.55.251.125:velmarie
stupid111:::2004-05-11:US:M:71.201.116.94:NULL
stupid1111:poulet93:voom6@hotmail.com:1993-07-25:US:F:65.5.15.36:NULL
stupid11111:hello11:stupidhi1@yahoo.com:1970-01-01:US:M:96.225.25.124:ss
stupid11196:kal123:Stupid11196@yahoo.com:1990-12-7:US:F:72.88.69.31:kim
stupid111__aa:stupideleven11::1999-05-07:US:F:67.238.214.108:Taylor
stupid1120:1p42041120:stupid_1120@yahoo.com.tw:1995-11-20:TW:F:123.204.131.151:惟 *
stupid112345:mommy1123::2002-07-14::F:69.232.85.229:NULL
stupid118:bones79::2000-03-10:US:M:74.236.33.239:NULL
stupid119:dormos31::1999-05-22:GB:M:82.34.118.105:henry
stupid12:::2004-04-05:US:F:74.89.176.118:NULL
stupid1200:whatsup12::1999-03-31:US:M:76.16.138.144:jared
stupid12083:ICANY909:NICOLE_LEYVAS@YAHOO.COM:1958-06-04:US:F:75.82.139.204:ALALAL
stupid121:5luke7::2005-05-05:US:M:24.11.86.198:NULL
stupid12112:sr12112:bigbird28227@yahoo.com:1990-02-17:US:F:75.181.117.44:stephanie
stupid1212:1212mk::1999-10-04::F:173.72.4.234:NULL
stupid1214:tape1214::1998-12-14:US:M:76.115.168.121:michael
stupid1216_248:coolcat12::1999-12-03::M:74.136.90.26:NULL
stupid123:tiger123:joelowfl65@hotmail.com:1992-01-01:SG:M:115.132.107.214:NULL
stupid12300:1200430:l22389205330@yahoo.com.tw:1989-05-21:TW:F:203.75.232.176:霓霓
stupid123123:stupid123::2002-02-13::F:68.185.135.231:NULL
stupid123321:!!!!!!123::1998-04-01:AU:F:203.206.39.103:denise
stupid123321892:booboo12:lindsriss@yahoo.com:1990-08-18:US:F:208.101.165.153:Lindsey Wiggins
stupid1234543212:chick500:depshna@gmail.com:1981-07-03:US:F:76.254.26.173:mary
stupid1234566:gman12345::2001-04-13:US:M:67.167.164.73:NULL
stupid12345678:925181::2001-02-27::M:68.56.253.191:NULL
STUPID1234567819:QWRASRZXR86:alex91@yahoo.com:1991-12-31:US:F:98.112.178.19:NULL
stupid1234567867:mrb1992:mbergeron10@gmail.com:1991-02-04:US:F:129.22.17.213:NULL
stupid1234567890_355:stupid455::2000-09-18::M:71.49.45.162:NULL
stupid1234567890_4:mason55::1998-3-30:US:M:12.74.63.100:mason
stupid1234567891:hotpedro13:vasquezpedro964@gmail.com:1996-06-08:US:M:68.199.168.149:pedro
stupid12345678910:stupid23:headskis@aol.com:1891-07-04:VG:F:74.89.176.118:NULL
stupid123456789_136:3445864012::2001-08-21::F:24.92.13.96:NULL
stupid123456789_734:10075NY::2001-01-01::M:207.38.148.234:NULL
stupid12345689:coco12::2000-11-10:VN:M:122.107.243.136:moooo
stupid12345_3:tiger12345::1997-05-20:US:F:74.171.125.50:alexis
stupid12345__53:loser12345_57:heather_hunnicutt2622@yahoo.com:1995-03-15:US:F:71.98.69.184:taylor
stupid123474:dashbord12::2001-02-06:US:M:76.226.193.57:NULL
stupid123481:rooster123::1999-05-04::F:97.96.71.110:NULL
stupid1234_4:224466:pazhmon@yahoo.com:1994-12-20:US:M:67.85.215.117:jake
stupid1239:stupid139:happypillow@hotmail.com:1991-01-01:CA:F:70.27.20.3:.
stupid123riga:22stupiddogs::2008-12-22::M:184.58.103.76:NULL
stupid123smart:2283193:luck2662003@yahoo.com:1986-02-18:US:F:130.245.231.177:Ann Li
stupid123yo:snoop2:heatsdg@msn.com:1988-04-23:US:M:66.122.241.158:dustin gaillard
stupid123_:stupid321::2006-02-15:US:F:72.199.240.172:NULL
stupid123_1:bananana12:imprintingbyrenea@comcast.net:1988-10-15:US:F:71.212.73.50:maranda
stupid123_2:bananana12:jamesgang@1015.com:1985-10-13:GB:F:67.170.64.236:NULL
stupid123_3:bananana12:juliejames1@q.com:1992-10-15:US:F:97.126.54.108:NULL
stupid123_3_3:12345qwerty::2000-01-23:US:M:173.55.236.19:ian
stupid123_764:131452002::2002-03-31::M:24.185.64.175:NULL
stupid123_q95:kids1:augustotong@hotmail.com:1980-05-05:SG:F:none:augusto tong
stupid123__12:abie123::2003-04-30:US:F:72.95.165.43:siarra
stupid123__21:pause45:lena1995@cox.net:1994-05-07:US:M:68.100.167.158:lena
stupid123__28:english99::2001-05-30:US:F:68.19.237.231:lorna
stupid123__47:the123:tayyterror@yahoo.com:1990-07-30:US:F:76.0.192.189:clarissa
stupid123__60:12360stupid:sea_1500@hotmail.com:1992-05-02:BN:M:none:Sean mia
stupid123__aa:mario11:rosswill1312@aol.com:1994-02-11:US:M:71.172.133.181:Enzo
stupid12480:Stupider125::1991-10-02:US:F:none:stupid12480
stupid124873:stupid123456789:soxypie@hotmail.com:1991-05-17:US:F:none:Lorie Rine
stupid12494:idiotes1:default360@yahoo.com:1991-01-24:US:M:none:stupid idiot
stupid125:758574:bonzothestd@yahoo.com:1985-04-05:CA:M:none:keenan mcfarlan
stupid12503:smart1:phatboy_1357@yahoo.com:1991-01-26:CA:M:none:shandon maracle
stupid1253452:love12114:yuly62334@yahoo.com.tw:1990-05-09:JP:F:none:青木百合 小白目
stupid12661:pooopy31::1999-12-08::M:99.62.83.217:NULL
stupid1278:angl12780::2002-04-02::F:75.166.230.38:NULL
stupid129:watrudoin:iluvbeer@hotmail.com:1901-01-01:MZ:M:neofriend:Jim Nasium
stupid1293:shanna12::1993-07-31:US:F:none:stupid1293
stupid12kid:vrienden1991::1993-11-26:NL:F:none:stupid12kid
stupid12log:brat34::1999-10-01:CA:F:64.59.144.87:bita
stupid12_21:04071221:stupid_pig080@hotmail.com:1993-12-21:US:F:202.151.198.5:stupid
stupid12_4:rayyan00::2002-03-14:GB:M:92.30.235.136:rayyan
stupid12_6:918273645::2001-8-28:US:M:99.25.153.63:carter
stupid12_8_8_8:julia joy:cheertree1@aol.com:1993-11-02:US:F:24.136.73.116:Trecia Saldana
stupid12__74:hesoyam12:blame_hound1235@yahoo.com:1980-06-21:PH:M:202.163.221.11:asdfghjkl
stupid12__yy:girls2::1994-03-16:US:M:none:stupid12__yy
stupid130013:h8her:patti_alan@hotmail.com:1992-02-01:US:F:none:Charlie Na-La
stupid13032:nicole32486:sazygrl2040@aol.com:1986-03-24:US:F:none:Nicole Entwistle
stupid131:snazzy:snazzyblondegirl@yahoo.com:1990-06-19:PA:F:none:courtney bush
stupid132:Iloveyou687:hevdan@comcast.net:1987-06-18:US:M:none:danny tylee
stupid132006:crazy15:mrlilbugsathome@aol.com:1990-06-18:US:M:none:brandon carpenter
stupid13212:sexwoman:davidblrjdr@aol.com:1980-05-20:GB:F:none:jade jukes
stupid1322:stupider::1992-07-03:US:F:Mail from theneopetsteam:stupid1322
stupid1323:dummy1:carrotgurl101@yahoo.com:1989-06-26:US:F:none:Kelsey Kantor
stupid13239:13426::1991-10-03:US:F:none:stupid13239
stupid1324:obama1324:mewto99@hotmail.com:1985-08-03:KR:M:115.60.169.224:julie
stupid1325675:167432:shutup_@yahoo.com:1976-03-09:DE:M:none:javier pouncey
stupid13285:stars:heather0963@go.com:1990-09-08:GB:F:none:jess jones
stupid133:alexander:spaaazo@yahoo.com:1975-04-14:GN:M:none:Mitchell Thompson
stupid1330:DUHHH:mitjo@attbi.net:1983-08-31:US:M:none:Matthew Jones
stupid13376:stupid:kat_luverz@hotmail.com:1989-02-23:CA:F:none:nm nm
stupid13402:freak:whats_ur_problem@hotmail.com:1986-04-28:AL:M:none:ghj jhdgj
stupid1345:13456::1993-04-29:CH:M:none:stupid1345
stupid1354684:asdf123:dogsrule4life@hotmail.com:1993-01-01:US:F:none:Jenny Yuan
stupid1354_1:gutgutgut6:stupid1354@hotmail.com:1988-12-14:US:M:none:not_ telling
stupid1354_2:gutgutgut9:stupid1354@hotmail.com:1988-04-15:US:M:none:sieutbiw siefuebo
stupid1354_3:gutgutgut6:stupid1354@hotmail.com:1979-06-09:US:M:none:45grecgecgec gdcrhe6hr53ech
stupid13579:dummy2468::2001-08-25:US:F:97.100.83.192:NULL
stupid135sw:aimfire56::1999-01-13:US:M:96.246.29.167:Anthony
stupid135_1:de2de2de2:www.jasonx332@yahoo.com:1993-01-07:US:M:none:shawn beach
stupid1362:s1234567z:jazlynong93@hotmail.com:1984-12-10:SG:M:none:Ronald Ong
stupid13625:07000707:stupid13625@netscape.net:1988-07-30:US:F:74.71.194.14:Ashley Matthie
stupid13655:beer$:jmoron13@yahoomail.com:1981-10-30:US:M:none:joey moron
stupid1393:shanna13::1993-07-31:US:F:none:stupid1393
stupid13fish:dumbe::1994-04-04:US:F:none:stupid13fish
stupid13itch44:taylarox:minpinlover4455_96@hotmail.com:1990-09-07:US:F:Battledome Challenge:Brianna Duffield
stupid13yrold:yourmomsmom!::1992-10-10:US:F:none:stupid13yrold
stupid13_5:woop13:www.buddy1@yahoo.com:1992-08-28:US:F:69.20.167.105:markie
stupid13_6:audrey1:free2datebyz@yahoo.com:1993-11-11:US:F:68.202.119.78:shaina noel
stupid13_6_1_2:garret12345::2001-04-13:US:M:68.59.236.250:NULL
stupid13_8_8:lester30:lester_dumayas@yahoo.com:1985-11-29:US:M:none:lester dumayas
stupid14:hehehe:brainyangel@hotmail.com:1990-05-20:AZ:F:none:stupid ugh
stupid1420:13821:stupidpunkin@hotmail.com:1968-07-13:CA:M:none:Courtney Wilson-Howard
stupid14232:leon13243:baga14232@gmail.com:1991-06-01:TW:M:203.75.232.175:Supid
stupid1430:ladyslover12::2002-05-30:US:M:173.79.147.225:NULL
stupid144:mark8:mcdnick@aol.com:1990-09-05:US:M:none:dillon romero
stupid145:stupidneopets11:loz.kafei@yahoo.com:1995-09-07:US:F:70.111.43.52:oh hell no
stupid1451997:ale1451997:delfina.arce@hotmail.com:1994-04-09:US:M:75.72.126.79:ale
stupid145whaleslushi:littlesmallfry12::1997-01-26:US:F:72.15.108.144:Professer Small Fry
stupid145_251:bitchigo13:latasha5hamako6hines@yahoo.com:1956-08-13::M:99.62.184.71:NULL
stupid1463:blue24:hellokitty96717@yahoo.com:1984-01-24:US:F:none:picle noy
stupid146644:12312::1994-03-29:US:M:none:stupid146644
stupid147_9:83707563:zhanghao600@yahoo.com.cn:1988-01-28:CN:M:none:皓 章
stupid147_9_7:83707563:zhanghao600@yahoo.com.cn:1988-01-28:CN:M:none:皓 章
stupid148:squadmate:yingying85@chickmail.com:1985-04-06:SG:F:218.186.54.18:lih ying
stupid1498:jean3430:grace810115@yahoo.com.tw:1991-01-15:TW:F:none:小嫺
stupid14xx:naruto13xx:xanthony14xx@AIM.COM:1990-07-03:US:M:96.225.30.30:arthur
stupid15:fairy::1992-10-24:BT:M:none:stupid15
stupid150:mouse::1993-06-17:US:M:none:stupid150
stupid1501:flame:duane.robbins@sympatico.ca:1991-02-05:CA:M:none:Darian Robbins
stupid15108996:617675:krupni.miki@gmail.com:1982-12-17:EE:F:86.58.20.124:stupid15108996
stupid152:simple plan:shirleyhunter57@yahoo.com:1963-09-21:BS:F:none:vanie care bear
stupid1523:stupid1998::1998-09-12:US:M:75.19.38.33:Bryan
stupid153:power1:blue_lan10@hotmail.com:1992-06-26:AU:F:none:nam nguyen
stupid15325:ib1995:soccerfrek24@aol.com:1906-11-07:US:F:none:Jacvkie Roberts
stupid154:dummy:dbarone1@sbcglobal.net:1990-12-20:US:M:none:anthony barone
stupid1545:rhiannonkasta::1993-07-22:US:F:none:stupid1545
stupid1552:rhiannonkasta::1993-07-22:US:F:none:stupid1552
stupid156234:abcdef45::1999-02-27:WS:F:76.124.102.198:ggg
stupid157:boulder$:geocosmic50@comcast.net:1992-09-08:US:M:none:sean decaro
stupid158:stupid158:kandyxcreamx@Yahoo.com:1993-01-06:US:F:76.111.247.26:chelly
stupid158197:814115::1992-10-23:US:M:none:stupid158197
stupid159169:gameboy:tonyverret@hotmail.com:1990-10-25:US:M:none:stupid159169
stupid159258357456:karenchan57:karenchan57@yahoo.ca:1984-05-07:CA:F:none:Karen chan
stupid15926:ZDTXFY199::1999-08-02:US:M:209.30.133.15:neo
stupid1593571857:wrath10:coopsclode@xtra.co.nz:1990-09-01:NZ:M:125.238.40.175:matthew clode
stupid15992:bralons12:leppertrus@netzero.com:1986-12-26:US:M:64.136.26.226:tobias lepper
stupid15__aa:thomass45::1999-01-04:US:M:96.18.212.17:thomas
stupid160:karan123:ca_war@hotmail.com:1993-07-06:CA:M:99.227.202.56:mac
stupid16043:16043stupid:kawaiingirl@yahoo.com:1996-04-17:US:M:66.215.140.203:micheal
stupid16166:jones::1990-06-25:CA:F:74.127.204.66:none
stupid162:dylan:214125@aol.com:1991-11-02:US:M:none:adrian coffey
stupid163:babygl:jsilva@bresnan.net:1981-06-05:US:F:none:kaden steveson
stupid163106:freddy:prissy707@aol.com:1901-02-01:DZ:M:none:bill johnson
stupid164:sexylexie::1994-02-12:US:F:none:stupid164
stupid166:poople123:katmatdad@hotmail.com:1991-11-01:JP:M:Battledome Challenge:matt sullivan
stupid16683:15243::1992-11-29:BM:M:none:stupid16683
stupid168:hellotim:onebbonebb@yahoo.com.hk:1980-01-01:HK:M:none:stupid168 stupid168
stupid1680:ying88:tyq_1994@hotmail.com:1987-02-09:MY:F:none:tan qi
stupid17::tmweepaw@yahoo.com:1985-12-29:US:M:107.8.148.168:NULL
stupid170170:idot1::1905-12-25:FR:F:Mail from unclesam94:dj corrswier
stupid170761:12#$%^:HeatherMcKeon@cox.net:1992-08-19:US:M:24.234.165.18:STUPID
stupid1716:shutup::1991-03-13:US:F:none:stupid1716
stupid171992:sijia171992::1978-09-09:US:F:none:sijia sijia
stupid172:4545128:lowhs@streamyx.com:1990-07-03:MY:M:none:yee siong Chong
stupid17345:alexandria94::1994-03-09:US:F:none:stupid17345
stupid175:barney6::1994-03-04:GB:F:none:stupid175
stupid177:tad1993:Dvspt5@aol.com:1993-04-14:US:F:71.3.114.123:Tiffany
stupid178:hooters:pigpin1994@yahoo.com:1991-01-13:US:M:none:Aaron Cramp
stupid17945885:338776:krupni.miki@gmail.com:1943-11-11:AS:F:86.58.20.124:stupid17945885
stupid1799:popopopo:iamcool7@msn.com:1989-04-13:CA:M:none:Jonathan Lacelle
stupid18:wombat18:tomcurtis94@hotmail.com:1989-05-01:GB:M:84.13.23.91:Tom
stupid180:meto101::2001-03-11:US:M:75.100.146.71:NULL
stupid1800:rawrarawr12:anna.has.banana@gmail.com:1983-04-05:US:M:68.73.172.61:Stupid
stupid180252:Olivia::1993-04-08:US:F:none:stupid180252
stupid180__xx:sexygirl34::1993-10-27:US:F:none:stupid180__xx
stupid181:815181:happy_home_funny@yahoo.com:1992-01-01:MY:F:none:hallo ang
stupid18211922:jessi::1993-12-02:US:F:none:stupid18211922
stupid184:lwy36nsc:lyy_lm@yahoo.com.sg:1985-07-11:SG:F:220.255.7.163:lam yi
stupid185:iloveliz*:spade.fights@gmail.com:1969-05-20:NZ:M:125.238.68.27:Unknown
stupid1857159357:wrath10:coopsclode@xtra.co.nz:1989-09-01:NZ:F:none:matthew clode
stupid18629:qsesq12:npoultney@hotmail.com:1991-11-24:IT:F:none:ikneriou setgset
stupid1865:jovana27::2001-01-27:US:F:75.63.62.26:jovana
stupid187:camryn02::1999-01-19:US:M:70.143.25.244:NULL
stupid18743:trish:dvssk8r3491@aol.com:1991-03-04:US:M:none:mike  lepson
stupid1883:cosmo:titans_go@msn.com:1987-09-21:US:F:none:Emma P
stupid188987:nimkinpoop981::1998-03-03::F:69.21.137.235:NULL
stupid189:phua189::2001-08-11:SG:M:220.255.7.212:justin
stupid1890:smelly1:paulcathy@mountaincable.net:1979-09-01:CA:M:none:Andrew  Hines
stupid1891:whatever:figrsk8erkoala@hotmail.com:1964-04-24:US:F:none:sarah white
stupid189107:110266::1993-06-10:US:M:none:stupid189107
stupid19:login::1991-12-21:US:F:none:stupid19
stupid1900:angus12:anna.has.banana@gmail.com:1991-11-29:US:M:68.73.172.61:Juggalo
stupid1919:55556:maryatch@hot.rr.com:1982-09-03:US:M:none:roibby gor
stupid191997:stupid2001::2001-01-27::F:66.248.176.1:NULL
stupid192:sweetapple:cutiez_boo_ghost2@yahoo.com:1950-11-27:US:F:none:julie yoon
stupid1922:stupid:marinah@comcast.net:1990-05-21:US:F:none:hgfhfh gyhgjh
stupid1930:triton1930::2003-2-3:US:F:67.35.70.253:jade
stupid194:werty::1992-09-29:US:M:none:stupid194
stupid19554:squid::1993-07-17:US:F:none:stupid19554
stupid1968:inalfa45:ansega7@aol.com:1985-01-01:GB:M:195.93.21.102:dhillon
stupid19693:cutiepie::1991-07-07:US:M:none:stupid19693
stupid197:helen:yimxxxc61@yahoo.com:1965-03-03:JP:M:none:tommy huang
stupid198:spring::1993-07-29:CA:M:none:stupid198
stupid1983500:codyd:twiddle_99@hotmail.com:1986-09-10:US:F:none:Meredith  Russel
stupid1984:092284:freetoplaythegame@yahoo.com:1984-09-22:US:F:none:amanda appleby
stupid1987:tote338mow882:stupid1987@gmail.com:1987-02-01:MY:F:202.73.8.178:doris yong
stupid199:defjam:blindxsk8er13@yahoo.com:1991-05-17:US:M:none:brando ramos
stupid1990:12dudu12:crazy12021990@web.de:1990-02-12:DE:F:none:Julia Schmidt
stupid199073:FARTS::1994-03-19:US:M:none:stupid199073
stupid199116:010491:missyjonson@yahoo.com:1982-07-05:US:M:76.28.163.112:moo
stupid199230:melissa::1992-07-22:US:F:none:stupid199230
stupid19933:8942165::1993-05-21:US:M:BattleDome Opponent Waiting:stupid19933
stupid1994:210394:hamtaroeb@hotmail.com:1994-03-21:MY:F:60.52.14.231:Elaine
stupid1994988:catsrule1::1994-02-21:NZ:F:none:stupid1994988
stupid1995:losangeles35:theresa_tspy@hotmail.com:1995-05-27:SG:F:219.95.143.113:Adele
stupid19954:peewee:scotchtapegirl@aol.com:1990-05-02:US:F:acceptance:jen j
stupid19960204:clever19960204::1996-02-24:HK:M:221.126.108.233:yipshingyui
stupid19962007971_ne:6z298....:sister_dracula2007@hotmail.com:1927-12-09:US:F:218.111.7.56:qwertyuiop
stupid1996_3:kaka1:kristeeny_beeny@hotmail.com:1993-01-03:CA:F:none:kristeen batog
stupid1998:joshua:cutie_doll213@yahoo.com:1989-04-27:US:M:none:Jo T
stupid199848:WELCOME12::1998-02-25:US:F:68.186.211.100:STEPHANIE
stupid19_2004:shannon::1994-03-29:US:F:none:stupid19_2004
stupid1a:bobjoe88::2000-06-21:US:M:74.130.183.31:Jake
stupid1and2:kingof123:garicknight@hotmail.com:1985-01-10:SG:M:none:ga rick
stupid1boy:104047::1998-8-7:HK:M:222.166.181.168:lam tik hei
stupid1dhead:jasonroks1:kevinchuang000@yahoo.com:1988-07-21:US:M:none:jason chang
stupid1hatesthisgame:dumbbut:tickoj@hotmail.com:1992-02-06:CA:F:none:jess k
stupid1head:crazy:teen2000girl@yahoo.com:1981-05-10:US:F:none:shirley lom
stupid1immigrant_8:steve97::1996-05-27:US:M:69.251.171.201:steve
stupid1ion:johnny1:skimbum36@aim.com:1970-12-03:US:M:none:john deer
stupid1kind:kristi:wienertsonmaui@yahoo.com:1974-06-29:US:M:none:paul wienert
stupid1loser:07929960929:emma.townsend@hotmail.co.uk:1993-08-28:GB:F:86.139.165.235:3mmie
stupid1lucky13:hahaha:yanuandemily@hotmail.com:1985-08-08:US:F:none:ash !!!!!!!
stupid1million:lucifer13::1998-01-01::M:69.178.114.123:NULL
stupid1o1:ginger:olivia_folsom@hotmail.com:1985-12-14:CX:F:none:olivia folsom
stupid1sean:snoop44::1999-7-6:GB:M:82.24.230.241:sean-patrick
stupid1z1:becky20:djalphonix@aol.com:1987-01-20:US:F:71.183.217.76:becky
stupid1_1:crazy12:rubikcocube@yahoo.com:1989-01-16:US:M:72.14.194.37:who am i
stupid1_2:555ab:djjust@fedex.com:1992-08-08:US:F:none:krissy jay
stupid1_365:camy45::2001-01-03::M:98.219.211.240:NULL
stupid1_3_3:kinman1:treyntinak@yahoo.com:1969-12-24:US:M:none:frank smith
stupid1_6_6_6_6:sike12345678910::2000-01-14:AU:M:58.171.109.234:harry
stupid1_7:241283abc::1993-11-15:MY:M:none:stupid1_7
stupid1_72:chankalok12::2001-01-01:CN:M:221.127.23.105:chankalok
