stupidhatman:s00prkr@zy:hat_man@hotmail.com:1996-07-26:CA:M:99.244.176.24:Merr Bear
stupidhavetochoose:0::stupidhavetochoose2:M:1905-08-02:0:computer broke down
stupidhaxxorz:x167215:sweetiegirl12344@yahoo.com:1994-06-14:US:F:65.185.42.167:ally
stupidhcers:123popcorn:000222116874a@gmail.com:1986-01-01:US:M:24.27.178.247:I Hate Stupid HCers
stupidhciz:chiz2001::2001-01-27:US:F:71.161.133.32:NULL
stupidhe:edwardhe123:edwardhe_2007@hotmail.com:1990-06-24:CA:M:99.245.108.184:Bruce
stupidhead:crazy::1982-06-04:CA:F:none:f d
stupidhead000:oyun52::2000-12-09:MY:F:118.101.76.193:Yong Ju EE
stupidhead000000:ben10:happiestpersonever@yahoo.com:1961-08-26:US:M:none:Anthony Wong
stupidhead0001:cherry::1993-09-30:CA:F:none:stupidhead0001
stupidhead000956:Joeish:guynamedjoeomega@yahoo.com:1971-11-17:US:M:none:*pokes username*
stupidhead002:stupid:stupidhead002@hotmail.com:1987-07-02:US:F:none:WHO  CARES
stupidhead01:hinder!:missalyssa624@hotmail.com:1986-06-24:US:F:none:Alyssa Noneyabusiness
stupidhead010101:qzwxec:kristy0nline@yahoo.com:1985-02-26:US:M:none:mr big
stupidhead011:92307:johnwhite1162@yahoo.com:1964-12-26:US:M:none:john white
Stupidhead04:braxton04::2004-02-17::M:68.110.20.139:NULL
stupidhead0494:chubbs::1994-04-23:US:M:none:stupidhead0494
stupidhead050:19960728:longyin.chow@gmail.com:1987-07-28:HK:M:210.6.176.142:Rick
stupidhead0500:stupid:stompmud03@yahoo.com:1990-12-28:US:F:none:Holly Green
stupidhead0731:Shantelle:hizzyshizzy0731@aol.com:1991-05-31:US:F:none:Shantelle Caballero
stupidhead1:peace:lilnightmare123@hotmail.com:1991-09-28:US:F:none:Jamie Atkinson
stupidhead101:kolohe:mck@hawaii.rr.com:1987-04-27:US:F:none:chelsea bauman
stupidhead1010101:75125:jvakno64@aol.com:1988-11-21:US:M:none:John Novak
stupidhead1011:seanm:nene_4@hotmail.com:1981-10-19:US:M:none:I don\t know my name?
stupidhead101__aa:silly32::1997-07-29:US:F:216.135.11.50:betsy
stupidhead1020:yue92:wongshumin0310@hotmail.com:1988-02-10:US:F:none:Debster Wang
stupidhead1055:22511:lbfb@mn.rr:1989-01-06:US:M:Acceptance:Jamie Perault
stupidhead1059:578946123:j_yang1095@yahoo.com:1988-03-29:US:F:69.106.178.222:Jenny Yang
stupidhead11:dumb99:kalembajunk@sbcglobal.net:1927-10-31:US:M:24.7.149.112:andrew
stupidhead111:tayman22:shorey95@yahoo.com:1992-03-07:US:M:65.3.242.172:taylor
stupidhead1111:tony11:tonyjli2001@live.com:1990-01-01:US:M:209.237.86.123:Tony
stupidhead11111:werid11:tonyjli2001@live.com:1990-01-01:US:M:209.237.86.123:tony
stupidhead1111111111:imstupid:mejo9@msn.com:1985-04-28:US:F:none:Not Telling
stupidhead111216:dumbut:gaurdo411@yahoo.com:1959-12-29:AL:F:none:k t
stupidhead1120:sea12:lilasiangirl12@aol.com:1987-01-24:US:F:none:stupid head
stupidhead11292:cudlecudle252::1992-09-02:US:F:none:stupidhead11292
stupidhead114:AmirR.::1993-08-13:US:F:none:stupidhead114
stupidhead1158:spongegar:jay_sargent11@hotmail.com:1965-09-04:US:M:none:Jay Sargent
stupidhead120:donna*:reis7@swbell.net:1990-01-22:US:M:12.213.80.54:Michael McConaha
stupidhead121:dummy:clare-rigby@msn.com:1901-12-29:BT:M:Can I be your NeoFriend?:Dummy Dummy
stupidhead1230:imfat2:gerryicecream@yahoo.com:1984-11-01:US:M:none:gerry tan
stupidhead1231:neopets12:stupidhead1232@aol.com:1994-09-21:US:M:68.10.246.196:Kevin
stupidhead1232:kacheek:mysaviour@cox.net:1990-09-21:US:F:none:Brandy
stupidhead12321232:Maniac12:stupidhead1232@yahoo.com:1988-09-21:US:M:24.253.151.85:Kevin
stupidhead123342:rosey:crazy_lil_kitten@hotmail.com:1985-09-11:AU:F:220.253.213.31:k h
stupidhead1234:stupidhead321:kevinchou612@yahoo.com:1979-04-25:YE:F:76.87.168.192:butch
stupidhead123456:Trooper1:abowoke111@hotmail.com:1965-12-29:AU:M:none:Jacob Kellett
stupidhead12345621:anthony::1992-06-15:US:M:none:stupidhead12345621
stupidhead1234567162:dumbdumb:craziepunk1990@yahoo.com:1987-07-04:US:M:none:hitori reto
stupidhead12345678:whazzup::1992-08-24:US:F:none:stupidhead12345678
StupidHead123456789:hellocooljoe12::1999-01-19::M:70.78.22.249:NULL
stupidhead12345_656:fafa123:smith4384@aol.com:1911-10-03::M:99.153.229.132:NULL
stupidhead12356789:bunchof11::2001-02-02:US:M:174.125.79.83:levi
stupidhead12369:fucker:stupidhead12369@yahoo.com:1987-01-11:US:M:none:john  ly
stupidhead123abc2005:browneyeball:craigs5j@cfl.rr.com:1985-09-01:NL:F:none:Katie Hobo
stupidhead123iloveyo:1!2@3#4$::2002-05-07:US:F:75.252.149.132:NULL
stupidhead123_123:stupidhead100:stupidboy@gmail.com:1960-08-29:US:F:none:Angry Stupid
stupidhead123_4:177179::1998-07-16:US:M:166.102.136.9:raymond
stupidhead123__87:177179::1997-06-25:US:M:99.109.24.121:raymond
stupidhead124:loganrocks34::2001-01-02:US:M:76.182.69.236:NULL
stupidhead1260:slapshot::1991-07-07:CA:M:none:stupidhead1260
stupidhead1274:google:duffy208@hotmail.com:1991-07-31:GB2:M:none:Mark Duffy
stupidhead13:Hello13:trekkiedevil@yahoo.com:1992-10-09:CN:F:219.238.212.114:i h8 u
stupidhead13215:head101::1992-11-21:US:F:none:stupidhead13215
stupidhead13439:weirded!::1993-11-29:CA:F:none:stupidhead13439
stupidhead15:skittle15::1998-08-18:US:M:68.39.196.242:Gabe
stupidhead1500:dumbbutt::1992-11-13:US:F:Item:stupidhead1500
stupidhead150150:gelert:stupid_hi@hotmail.com:1905-02-14:CN:F:none:Jahangir Ashraf
stupidhead156789:idiot132:stinkbug605@gmail.com:1994-01-15:US:M:24.149.237.170:stupid head
stupidhead1579:three1::1992-09-30:US:F:none:stupidhead1579
stupidhead16:gumma21:bbydncrgrl@verizon.net:1995-07-02:US:F:98.110.226.18:NULL
stupidhead1649:nah1e:ateague166496@aol.com:1990-08-05:US:F:none:a tea
stupidhead169:9399891::1991-05-08:US:M:none:stupidhead169
stupidhead17:753133::1993-06-22:CA:F:none:stupidhead17
stupidhead173:school::1993-10-31:AU:M:none:stupidhead173
stupidhead174:dummy::1992-01-26:JP:M:BattleDome Opponent Waiting:stupidhead174
stupidhead1784:753133:neopet_petpet@hotmail.com:1963-02-26:BZ:F:none:stupidhead17 flober
stupidhead186:ilovecarly:jm_14_13@hotmail.com:1989-12-30:US:M:none:james milne
stupidhead189:idontknow::1994-04-26:US:F:none:stupidhead189
stupidhead191:112233a:gotmailz3@yahoo.com:1974-03-04:US:M:204.102.108.22:sfgsdg
stupidhead196:boyfriend:sktrza@earthlink.net:1990-08-05:US:F:none:stephanie  trzaskowski
stupidhead19619:mabeaudoin1:stevedude12@cs.com:1991-12-12:US:M:none:steven allen
stupidhead199:789451233625!@#$%bk:arisco889@hotmail.com:1980-11-08:CA:M:70.53.45.139:brittany cheung
stupidhead19932004:spookie::1993-10-21:US:F:none:stupidhead19932004
stupidhead20034:rugby14:stupidhead2003@hotmail.com:1960-11-29:CA:F:none:noneee nonnnee
stupidhead2004306:stupid:madmonkeygirl2004@hotmail.com:1991-07-05:GB:M:none:dylan newman
stupidhead2008:apple:amandax08@yahoo.com:1978-02-25:NL:F:none:mark stlastian
stupidhead202:stupid:bureze@telus.net:1901-10-13:IQ:F:none:Stupid Head
stupidhead205:dogdog:sdfsafas@yahoo.com:1963-12-29:BM:M:none:Billybob Joedirt
stupidhead206:something::1993-02-12:US:M:none:stupidhead206
stupidhead21:twizzler101::1994-09-12:US:M:none:stupidhead21
stupidhead213:gogo123::1999-08-24::M:99.153.229.132:NULL
stupidhead213433:qas123::1992-10-11:US:M:none:stupidhead213433
stupidhead2217:pokemon2217:eringaringer@gmail.com:1996-04-15:US:M:98.110.33.78:i have no name
stupidhead2234522345:stupid::1993-03-07:AU:F:Mail from theneopetsteam:stupidhead2234522345
stupidhead22392:zebra:alm92@optonline.net:1986-02-24:US:F:none:Brittany Ko
stupidhead22988:777666:damiondavis@hotmail.com:1962-07-07:US:M:none:Damion deslaurier
stupidhead23:Hi$youtube23::2000-04-23:US:F:96.238.202.224:NULL
stupidhead231:kev123::1991-05-07:CA:M:none:stupidhead231
stupidhead2323:hello23:snakeguy91@msn.com:1991-02-18:US:M:none:Chris Fuqua
stupidhead2352:chalet:luke_15_93@hotmail.com:1990-03-13:US:M:none:jay williems
stupidhead238:78987::1994-04-20:US:M:none:stupidhead238
stupidhead24:(COOLANDSTUPID):djiharbour@aol.com:1984-07-29:US:M:none:Insung Harbour
:::::::
stupidhead2410:chrisandsarah:kidpowersrule241@aol.com:1987-02-01:AF:F:none:john jacob
stupidhead242:jd676:huang_jonathan@sbcglobal.net:1980-12-14:US:M:none:Tim Suo
stupidhead25:dico40:fgdgrfdtd@yahoo.com:1993-06-01:US:M:71.10.23.197:ethan
stupidhead2593:ducks1::1992-08-17:US:M:none:stupidhead2593
stupidhead26:stringer:ambernicolecool@aol.com:1990-03-23:US:M:none:CharlieBrown
stupidhead266:neoholic123::1992-08-24:US:F:none:stupidhead266
stupidhead273:password25::2001-11-10::M:71.161.223.210:NULL
stupidhead2762:GIRL1007::1992-12-28:US:F:none:stupidhead2762
stupidhead2796:stupid02:cutemonkey80@hotmail.com:1990-02-08:US:F:none:Kari DeLeeuw
stupidhead2846:smith602:foxfire2468@yahoo.com:1988-06-12:US:M:none:Billy Borkowski
stupidhead2856:megan23:madthunderdog1@aol.com:1991-02-18:US:M:none:Chris Fuqua
stupidhead29:ALISHA::1992-10-25:US:F:none:stupidhead29
stupidhead303:asbk368:pangnelson@hotmail.com:1962-06-25:CA:F:74.117.185.161:jack spicer
stupidhead304_1:morgan304:morgansflva@yahoo.com:1906-12-19:US:F:none:aiosa adgrik
stupidhead305:memory:masterevimon5000@yahoo.com:1990-12-20:US:M:Trade Closed:mattborders
stupidhead31119:dumhead31119:dallinpd@comcast.net:1991-07-12:US:F:none:Dallin Dressman
stupidhead32:weirdo032:gosiawaz@yahoo.com:1994-03-14:TR:M:76.203.19.154:blhablahd
stupidhead322:ez2dj::1992-05-07:KR:M:none:stupidhead322
stupidhead3245:monolisa22::1999-07-04:TJ:F:76.106.227.251:kathy
stupidhead32566:barlow:hmiles872@aol.com:1984-09-16:US:F:none:sheryl ruen
stupidhead329:houston::1993-11-17:US:M:none:stupidhead329
stupidhead33:Hellos:blingzw9@yahoo.com:1989-02-11:US:M:Trade Closed:Zach Shwood
stupidhead33311:heysup:rikimkel@aol.com:1983-10-21:US:F:none:kim ridolfi
stupidhead3333456789:simone2:soccercheeka223@aim.com:1972-05-12:CN:M:none:Simon Smith
stupidhead3355:dudet::1993-03-17:US:M:none:stupidhead3355
stupidhead3362:mrwoffie:starrynight8822@aol.com:1989-10-22:IE:F:Mail from theneopetsteam:AdrianCombs
stupidhead338:Dumbo::1994-03-02:US:M:none:stupidhead338
stupidhead345:password20:sashaletovsky@aol.com:1993-06-13:US:F:24.62.229.116:Stupid
stupidhead348:wetthebed::1993-11-07:US:M:none:stupidhead348
stupidhead356:wierdo::1983-12-15:US:F:Mail from jaguareyes:hayley bateman
stupidhead360:5410628:bkyk1827@hanmail.net:1987-10-05:US:F:none:Michelle Jang
stupidhead363:POOGAN::1993-11-08:US:F:none:stupidhead363
stupidhead372:Diane:gryffindorqt1230@aol.com:1990-10-01:US:F:none:Diane Johnson
stupidhead392:midnight:shopforeman@aol.com:1991-08-02:US:F:none:stupid head
stupidhead4:nicorobin5:heydontbejelous@aol.com:1969-07-20:TW:F:none:ghh fghhhhe
stupidhead409:hellow123::1993-11-26:AU:F:none:stupidhead409
stupidhead42:fish1296::1998-05-29:US:M:174.53.159.19:josh
stupidhead420:weed420:xxx_romantic_tragedy_xxx@yahoo.com:1906-05-27:US:F:none:xdgfsdf sdfsdf
stupidhead429:bionicle::1992-05-20:US:M:none:stupidhead429
stupidhead435:matrix:kjbph1@netzero.net:1990-02-24:JP:M:none:Neo  Andrasin
stupidhead440:mgj440::1993-05-01:US:F:none:stupidhead440
stupidhead45:bree56:jackq@sttrstqy.melb.catholic.edu.au:1976-01-24:AU:F:61.69.12.16:jack
stupidhead451:killme9:bryan_8494@yahoo.com:1980-08-04:US:M:none:bryan chau
stupidhead456177:driller::1992-11-20:PR:M:none:stupidhead456177
stupidhead456_8:trent2822:triplex13800@yahoo.com:1993-01-01:US:M:none:Austin pablo
stupidhead465:dumdum:jr@yahoo.ca:1971-09-07:CA:M:none:junior mohammed
stupidhead4lyfe:steven:chubbyazian@hotmail.com:1980-02-17:US:M:none:steven kuan
stupidhead4real:yellow123:hiph0plova4life@aim.com:1991-09-14:US:M:none:ugly butt
stupidhead50:walker52::1999-06-29:US:F:76.115.139.64:kayla
stupidhead50000:kiko9210:jesus_lover_101@hotmail.com:1980-10-03:AU:M:none:yes... what is my name???
stupidhead5059:stupid13:minkeygyrl@yahoo.ca:1992-09-09:CA:M:none:Matthew Day
stupidhead516:stupidbutt:steckman3@pennswoods.net:1987-11-27:US:F:none:sarah steckman
stupidhead522:*elmosworld*:basketballrox14@msn.com:1993-05-20:US:F:none:Colleen Wurtz
stupidhead535:watup:aaronspongebobsquarepant_patrickstar@hotmail.com:1991-08-13:CA:M:none:Aaron Gaetan
stupidhead55:poop55:ctena1@netzero.net:1910-12-31::M:208.191.226.25:NULL
stupidhead5534:smellybutts2:amoebagurl330@aol.com:1982-03-18:US:F:none:heads head
stupidhead5547:lameo:junkbuff@houston.rr.com:1990-03-05:US:M:none:j r
stupidhead556111:9929299::1994-01-31:CA:F:none:stupidhead556111
stupidhead556256:stup1d:userdragon670@aol.com:1992-05-16:US:M:none:Aaron Gonzales
stupidhead563:HOT!!!::1993-10-18:US:F:none:stupidhead563
stupidhead5643:562108::2002-01-25:US:M:70.241.114.189:vincent
stupidhead5656:322621:ashley_satumbaga@mailcity.com:1990-09-11:US:F:none:ashley satumbaga
stupidhead567:cooldude::1994-02-25:CA:M:none:none
stupidhead5673:password56738886:mastercatarm@yahoo.com:1905-09-23:US:M:none:Malcom Barrock
stupidhead581:stupid::1994-04-08:US:M:none:stupidhead581
stupidhead5890:monolisa11::1999-07-04:TZ:F:76.106.227.251:kathy
stupidhead599:dylan::1993-07-07:CA:M:none:stupidhead599
stupidhead5_7_7_7:hi111!::1993-12-31:US:F:none:stupidhead5_7_7_7
stupidhead600:ZARA1::1994-01-21:GB:F:none:stupidhead600
stupidhead619:97009:jayboo10@aol.com:1989-10-31:US:M:none:Jacob Dilla
stupidhead626:idiot:rcradiofreak@yahoo.com:1988-02-02:US:F:Acceptance:Rachel Cho
stupidhead655:buster:kyra53562@yahoo.com:1991-06-19:US:F:none:stupid head
stupidhead657:coryy:mbelcher8994@msn.com:1987-08-28:US:M:none:corky romano
stupidhead6573:sockmonkey::1993-08-17:US:M:none:stupidhead6573
stupidhead65735:sockmonkey::1993-08-17:US:M:none:stupidhead65735
stupidhead658:school:luvablelilgurl0669@yahoo.com:1989-07-20:US:M:none:NuNo Gomez
stupidhead666:dumbo777:fight.playwin@yahoo.com:1979-01-01:TO:F:98.217.133.168:havin fun
stupidhead675:weirdo90:srgregson@cox.net:1994-04-21:IT:M:72.211.244.198:Charlie
stupidhead679:speedy93::1993-06-02:CA:F:none:stupidhead679
stupidhead689:poopy:fangirl@cablespeed.com:1981-07-23:US:F:none:Dot Alcoser
stupidhead6899999:shutup1:gin_1996@hotmail.com:1987-01-01:AU:M:none:gtjbgjy sdfjkl
stupidhead69:derkaderka69:derk_marsman@hotmail.com:1927-03-02:CA:M:209.135.112.157:Babyface
stupidhead7:poopy1:wyattwatson@www.hotmail.com:1988-10-28:US:F:none:wyatt watson
stupidhead720:ollie:declanfinlay@msn.com:1991-02-26:GB:M:none:declan finlay
stupidhead7248:munkie9:monkey@infostations.net:1990-02-25:US:F:none:To coolio 4 u
stupidhead7249:poofyjack23:monkey@infostations.net:1987-09-27:US:F:none:Hot Stuff
stupidhead725:13133::1994-03-27:KR:F:none:stupidhead725
stupidhead733:unauna:bird_fish8@hotmail.com:1990-04-24:AU:F:none:una banana
stupidhead741:04198:silverstone@hotmail.com:1988-03-25:US:M:none:nomaan ahmad
stupidhead7424:JIMMY YANG::1992-06-25:US:F:none:stupidhead7424
stupidhead7474:monkeys:monkeygirl5113@aol.com:1976-09-10:US:F:none:t5thtrhy jyjjdrnyh
stupidhead75:smartperson::1992-04-22:US:F:68.73.95.45:Loohoo
stupidhead7583:38570:firehead2@charter.net:1985-12-06:US:F:24.183.192.135:second grade
stupidhead775:matty344::1993-04-22:US:M:none:stupidhead775
stupidhead777:tuesday:jessiburton08@yahoo.com:1990-01-16:US:F:none:Jessica  Burton
stupidhead77749:lurie1410347::2001-09-22:US:M:98.193.214.137:NULL
stupidhead780:missmeow:barrowjake@hotmail.com:1985-07-15:CA:M:none:jake barrow
stupidhead7810:tinkerbell22:amy_hongcy@yahoo.com:1991-02-22:MY:F:219.95.3.210:amy
stupidhead7812:Beautiful::1992-07-06:US:F:none:stupidhead7812
stupidhead7947:clock8989:danny.yang.owns@gmail.com:1995-01-08:US:M:24.4.177.41:Danny
stupidhead800:kimberly:totalbrat03@aol.com:1991-09-05:US:F:none:Kim bob
stupidhead803:buttbrain::1994-02-23:US:F:none:stupidhead803
stupidhead829:kikikiwi1:lilmissriley92@aol.com:1992-04-28:US:F:none:Jordan Riley
stupidhead838:MUDD^^:peggylucci@aol.com:1987-04-07:US:F:none:Christina Lucci
stupidhead84:stupidfoot12::2006-03-26:US:F:72.72.224.53:puppy
stupidhead840782:950308:softballstar1016@yahoo.com:1981-02-27:US:F:none:kelsey Bobetich
stupidhead844:melissa:kittyluver1010@yahoo.com:1987-04-22:US:F:none:missy odonnell
stupidhead8466:crazy_head:hsm-hpfan6@comcast.net:1988-08-12:US:F:none:Taylor Butter
stupidhead88:takemyaccount88:gardians.of.gahoole@gmail.com:1988-04-05:CA:M:216.232.4.133:Ronald
stupidhead881:lucky1:tiggycomehome@yahoo.com:1991-09-23:US:F:none:MR go awaY
stupidhead89:jeremie::1994-03-29:CA:M:none:stupidhead89
stupidhead8989:poop9:badabing16@msn.com:1989-09-28:US:M:none:doodoo fart
stupidhead90210:stupid:evil_nipper_charity@hotmail.com:1991-06-08:AU:F:none:brooke welf
stupidhead90_a21:peapeahead67::2000-06-04:US:M:76.22.189.13:austin
stupidhead918:crazy::1992-12-06:GB:M:none:oliver bond
stupidhead92:1234567890oo:xtreme_xing_chiao@hotmail.com:1992-12-27:MY:F:60.48.93.125:oo
stupidhead930:GhNh3344::2003-06-13:US:M:173.188.201.111:NULL
stupidhead9301:cool29::1998-05-25:IL:F:76.106.227.251:jessica
stupidhead9472:coola1::1994-05-05:US:F:none:stupidhead9472
stupidhead955:jillian1:sugarkitten123000@yahoo.com:1987-12-21:US:F:none:Jill Utter
stupidhead96:sh*tbirdz96:mck8289@optimaonline.net:1992-08-24:US:M:24.186.78.77:joe
stupidhead965:ME965:jderany@comcast.net:1987-10-04:US:M:none:Will Cohen
stupidhead9695:hershey:musicfam6@juno.com:1989-09-20:US:F:none:Jamie Gitcho
stupidhead981:idontknow:stephanie_sun2002@yahoo.com:1988-04-26:US:F:none:stephanie sun
stupidhead9876:14269:sophie.sun1@comcast.net:1993-01-23:US:M:none:daryl sun
stupidhead987654321:STUPID:ck.cj@comcast.net:1991-02-06:US:M:Mail from multiplayer_setup:christopher caulkins
stupidhead99299:amber1992::1992-07-05:US:F:none:stupidhead99299
Stupidheadbaby:110945687::2008-03-04::F:68.57.171.83:NULL
stupidheadbob:jason33:bobtoobig@hotmail.com:1988-12-18:US:F:none:Bob Bob
stupidheadbuttface:person123::1994-01-10:GU:M:none:stupidheadbuttface
stupidheadcom:idiot3:bullshit667@hotmail.com:1987-02-02:CA:F:none:mr special
stupidheadd:Isaac:zonkobonk@comcast.net:1973-02-02:US:M:none:Isaac Kookabara
stupidheadd121:Isaac:zonkobonk@comcast.net:1973-03-02:US:M:none:IKZjklgk HOUTG Zh
stupidheaddd:h03h03:shotxdeadxclean@yahoo.com:1993-08-29:US:F:99.26.137.36:nita
stupidheaddog:jings42::1999-03-30:US:F:68.238.236.94:kate
stupidheaddude:stupid:shenikachambers@yahoo.com:1901-05-04:JP:M:none:Stupid Drunk
stupidheaddumbcom:idiot!!!:dumbstupididiot@hotmail.com:1960-06-06:US:F:none:dumb head
stupidheaddummy:8991014:warrior._2@hotmail.com:1990-04-10:CA:M:24.36.73.60:Dummy
stupidheadedmoron:cannibal11:iluvsmexy@yahoo.com:1992-06-30:US:F:69.137.81.227:alicia
stupidheadeleven:turtle::1993-01-13:US:M:none:stupidheadeleven
stupidheadfaceducky:donkey:chaselemos@gmail.com:1991-07-13:US:M:none:Chase Lemos
stupidheadgal:crap29::1998-05-25:JP:F:76.106.227.251:jj
stupidheadgames:graykitty:wildchild6728@yahoo.com:1989-10-20:US:F:206.220.40.50:Sara Hadlay
stupidheadgeek:dork!:bubblefairy@cox.net:1992-04-08:US:F:none:Geek Fruit
stupidheadgrl123:rusty:boojack3@aol.com:1989-06-28:US:F:Can I be your NeoFriend?:linzy fox
stupidheadguy:deadmentellnotales12::1999-07-14:US:M:72.242.146.127:NULL
stupidheadhamster:imathief17:herman_68@yahoo.com:1982-08-17:CA:M:none:Wang Dingaling
stupidheadhole:gaybutt123:tiina_xd@yahoo.com:1992-12-08:US:F:69.224.32.78:jake
stupidheadiam:giddy13579:cellphonesaresoawesome@yahoo.ca:1987-01-05:CA:M:none:stupidheadiam dumdum
stupidheadkellyad:stupidcarol::1994-03-17:US:F:none:stupidheadkellyad
stupidheadkevin7:poopoo:stupidheadkevin7@aol.com:1990-06-25:US:M:none:kevin kulow
stupidheadlala:stupid::1994-04-26:US:F:none:stupidheadlala
stupidheadlalala:kyeti is dumb12:kyet_kyet@hotmail.com:1990-01-01:ZM:F:65.101.153.7:silly
stupidheadliam:liam10::1999-01-06:US:M:72.197.192.196:Liam
stupidheadloser:knickers::1988-01-13:AU:F:Acceptance:loser loser
stupidheadloserguy:101889:brenagan@sbcglobal.net:1986-10-18:US:M:none:stupid head
stupidheadman:jesselee16::2001-10-30:US:M:71.20.32.22:hunter
stupidheadman280:dumhead#1:brysonannakatie@aol.com:1987-11-12:US:M:none:Lance Hoover
stupidheadmoron:stupid:crazjp_400@hotmail.com:1990-06-06:US:M:none:James Moronic
stupidheadnep:stupid:thewiseguy92@hotmail.com:1964-04-23:BT:M:none:max mos
stupidheadnot:crying:beca567@aim.com:1985-06-20:US:F:none:rebeca yohros
stupidheadrebel:shorty1::1992-11-08:US:F:Battledome Challenge:stupidheadrebel
stupidheads:Treasure29:alice@deltacane.com:1991-04-29:GB:F:195.93.21.6:Treasure karikari
stupidheads128:stupid:buckeyegirl@fuse.net:1990-01-04:US:F:none:yhnfn gbnvnjyjn
stupidheads266:1234321::1992-01-17:US:M:none:stupidheads266
stupidheads92:mrman92::1993-07-04:US:M:none:stupidheads92
stupidheadsara:chubby:gryffindorbeater@cox.net:1988-04-09:US:F:none:no none
stupidheadsayskyle:sk84life:shutupstupidheadsayskyle@hotmail.com:1989-11-13:CA:F:none:kyle thompson
stupidheadsux:megansux:emm5@optonline.net:1989-02-06:US:F:Can I be your NeoFriend?:Gabriella Martin
stupidheadsux8:megansux:emm5@optonline.net:1987-01-01:US:F:Can I be your NeoFriend?:Gabriella Martina
stupidheadsuxmyass3:scooby22:sech1805@yahoo.com:1971-09-09:AT:F:none:zxcvbnm zxcvbnm
stupidheadsxd:abqf12::2000-01-01:US:M:69.210.252.121:stupid
stupidheadthedummie:ddddd:dddfrytoeimcnhdj3@hotmail.com:1960-12-25:US:F:Mail from theneopetsteam:ddd ddd
stupidheadthedummmie:286898:allstarzcoryizmybestfriendyup@hotmail.com:1985-12-25:CA:F:Mail from sporty_chick_83:none of your business!
stupidheadtoaster:jajaja::1995-01-07:US:M:none:stupidheadtoaster
stupidheadx2:relientk:hurricand@aol.com:1985-08-25:CA:M:none:Billy Bob
stupidheadxp:abqf12::2000-01-01:US:M:75.3.150.0:stupid
stupidheadxx:snapple22:appleheadalex@aim.com:1991-10-21:US:M:none:ugly looser
stupidhead_1:stupidhead 12::1996-08-15:AU:F:60.242.240.29:Emma
stupidhead_101:frick:davidsanddavids@verizon.net:1990-02-18:US:M:none:David Jaren
stupidhead_114:dumbass:caitlin114@msn.com:1989-08-06:AU:F:none:caitlin rogers
stupidhead_121:1z0mqaok:jmanreis@swbell.net:1992-01-22:US:M:12.213.80.59:njsdf gfds
stupidhead_17:honey_25:thecatindigs@msn.com:1989-10-31:US:M:66.215.28.217:Stephen Sarenas and Mary Eden Gueriena Sarenas
stupidhead_1_1:caelan3:westdixiebbq@cox.net:1973-10-13:US:F:none:billy matney
stupidhead_1_1_1:idiot1:zbhfish@nc.rr.com:1993-05-07:US:M:none:zach hunter
stupidhead_232:coolself10::2000-12-26::F:75.32.177.128:NULL
stupidhead_3:cheese12:kv93@sbcglobal.net:1993-09-10:US:M:207.160.98.250:kyle
stupidhead_4:clowns3:habla_4life_001@hotmail.com:1990-04-20:AU:M:210.23.137.9:andrew superman
stupidhead_425:kentuckyfan13::2001-05-24::M:24.100.84.154:NULL
stupidhead_47:poop200:ctena@netzero.net:1910-12-31::M:208.191.226.25:NULL
stupidhead_4_life:rooster:this_little_piggie10@hotmail.com:1987-11-28:CA:F:none:SubAccount
stupidhead_504:mccjames12::2001-11-11::M:98.226.213.202:NULL
stupidhead_59:bhrigu 59::2000-09-03:IN:M:59.162.23.9:bhrigudev
stupidhead_6:gracie10::1998-02-13:US:F:72.86.57.219:Alina
stupidhead_602:fish1296::1998-05-29:US:M:24.118.51.115:NULL
stupidhead_6_6:elijah23:wotthejuicebox@yahoo.com:1986-03-27:US:M:99.161.154.74:brad
stupidhead_7:rocko:charmein_ranola@hotmail.com:1990-08-07:AU:F:none:charmein ranola
stupidhead_7424:JIMMY YANG:gb153@yahoo.com:1989-08-25:TD:F:none:aimeea smichinburger
stupidhead_7_7:headblock243:pastashio@gmail.com:1994-11-16:KE:F:212.49.92.177:malia
stupidhead_7_7_7:mvick7:toajake@aol.com:1993-09-08:US:M:none:Christopher Cooper
stupidhead_8:getthe7:newyork1994k@aol.com:1990-02-28:US:F:none:Dally Sad
stupidhead_900:tycoon:sprite@t.hotmail.com:1968-01-10:CA:M:none:matthew hatcher
stupidhead_9495_032:character1:isi9495@netscape.com:1987-09-19:US:F:none:Qwerty Qwerty
stupidhead_9999:french88::1999-03-31:US:F:65.28.32.85:kasie
stupidhead_9_9:sissy23:tylerhi0@yahoo.com:1975-06-10:US:F:69.234.191.140:maxpowers
stupidhead_dummyface:elaine:stupidhead_dummyface@yahoo.com:1989-05-30:US:F:none:JoAnn Reed
stupidhead_ej:misty:ej_to_the_rescue@hotmail.com:1984-09-09:US:M:none:Elliot  Bates
stupidhead_farter:stupid::1901-06-23:US:F:none:Captain Canuck
stupidhead_lala:miniclip1:mikikatagi@hotmail.com:1968-10-29:US:F:none:henk zhang
stupidhead_xp:cars45:xpbasketballxp@yahoo.com:1980-03-25:US:F:none:jonathan huang
stupidhead__19__aa:andrea16::1999-11-24:US:F:70.190.95.173:yzabella
stupidhead__55:losers67::2001-05-27:GE:F:24.30.114.177:trinity
stupidhead__79:1234q:buwildered78@hotmail.com:1993-02-01:US:M:none:michael conlin
stupidhead__84:pookie!:jv@bigpond.net.au:1993-11-15:AU:F:none:deanna pokora
stupidhead__93:kittycatcute45:dixiebell@socal.rr.com:1985-11-25:US:F:none:hannah crowe
stupidhead__vv:headstupid1:kelly@rw-photo.com:1980-01-20:US:F:none:hi hi
stupidhead_____1:ABC123::1996-02-01:AU:F:61.69.200.245:holly.H
stupidheart:nahnah22:poprox_in_coke@yahoo.com:1986-10-17:EG:F:none:Sammie
stupidheart649:caroline53:cmsweny@comcast.net:1988-09-14:US:F:none:IM KOOL! IM KOOL!
stupidheart94:elamorlie::1994-10-29::M:189.141.3.138:NULL
stupidhearts:ab12345:tiffany_teddy@hotmail.com:1984-01-02:HK:F:none:peter  Lee
stupidhed:stupidhed00::1999-08-04:US:M:71.158.221.43:maison
stupidhed40:skoobydoo::1994-04-07:CA:M:none:stupidhed40
stupidhedd:youtube10::2009-10-6:US:F:69.245.239.244:Namine
stupidhed_313:buster:stupidhed_313@hotmail.com:1992-01-15:AU:F:none:mara ............
stupidhelen:helen2_2281:stupid.p@hotmail.com:1988-08-05:US:F:none:helen chung
stupidhellokitty:Chargualaf1::1993-07-28:US:M:none:stupidhellokitty
stupidhello_kitty:jialin::1987-12-01:SG:F:none:soh jialin
stupidhenry:AaBbCc12::1998-08-21:CA:M:76.71.224.229:henry
stupidhenry1:qwerty12::1998-08-21:CA:M:76.71.224.229:stupidhenry
stupidhentom:imstare22::1999-12-04:GB:M:90.199.101.103:jimbob
stupidhere05:looks::1993-04-26:US:F:none:stupidhere05
stupidheritagebeaver:miahamm:idontwannabeabeaver@yahoo.com:1990-05-27:US:F:none:not a beaver
stupidhero:dylan66::2000-02-04::M:98.234.28.54:NULL
stupidher_06:butterbaby95:froggergirl95@yahoo.com:1988-01-20:US:F:none:mary Cotter
stupidheyheyhey:sarge::1992-11-10:US:F:none:stupidheyheyhey
stupidhick:lonestar:txhockey16@yahoo.com:1987-04-27:US:M:none:steven hernandez
stupidhilary:vermounts:sillyhilary@yahoo.com:1987-05-02:MY:F:none:stupid hilary
stupidhin:94831984:royhin1988@hotmail.com:1988-08-29:HK:M:none:roy lee
stupidhippie05:bumble:stupidhippie05@yahoo.com:1991-11-28:US:F:none:AndreaHatchew
stupidhippie1066:1066!:stupidhippie1066@hotmail.com:1991-12-18:CH:M:none:Joe Momma
stupidhippie23:082392:stupidhippie23@aol.com:1992-08-23:US:F:none:Shericka Weaver
stupidhippieduck84:duckie:dizzielizzieme@yahoo.com:1989-09-02:US:F:none:Santa Clause
stupidhippo:cutecupid11:stupidalasa-cute-@hotmail.com:1993-01-01:US:F:67.183.238.78:alasa
stupidhippo23:hippo:3jaws3@mail.com:1984-06-06:US:F:none:stupid hippo
stupidhippo370:ski2003::1991-10-31:US:M:none:stupidhippo370
stupidhippy:w1ll1am::1993-07-13:GB:F:none:stupidhippy
stupidhipster23:arnoldpalmer23:hoobastanksandwich@yahoo.com:1995-12-19:US:F:76.190.156.198:Cellar Door
stupidho:454545:ofri_29@hotmail.co.il:1984-05-05:CA:F:none:45 45
stupidho02:laurenrose:lrd2188@aol.com:1988-02-01:US:F:none:Lauren Boyd
stupidho11:haveone11:a_blue_apple@hotmail.com:1980-04-05:CA:M:75.157.152.15:jaayt
stupidho13:dairyq:sour_n_sassy@hotmail.com:1988-08-26:US:F:none:Ruth Bowen
stupidhobbit:zoschattig:iksteekjeoogbaldruit@hotmail.com:1987-10-15:NL:F:none:suus clark
stupidhobby:crazymel:mel_yeap@hotmail.com:1982-06-10:GB:F:none:Melissa Yeap
stupidhobo11:turkey::1990-07-04:US:M:none:stupidhobo11
stupidhoe1:skank123:strawberrieso0o0@aol.com:1995-02-25:US:F:71.254.61.123:emily
stupidhoeexx:iluvyou1:omgstfucina@aim.com:1992-02-15:US:F:none:Cina Putnam
stupidhoesinc:fatduck:jthm@onramp113.org:1980-02-29:US:M:none:no comment your mom
stupidhoesinclxlo:fatduck4:jthm@onramp113.org:1980-04-04:US:M:none:fore stud
stupidhog:weewee21:sydneybuttercup@gmail.com:1997-07-05:US:F:71.246.213.60:NULL
stupidhole:stupid101:ohanaearle@verizon.net:1987-07-18:US:F:none:Lola Cow
stupidholloy:cakeboss123::2001-5-30:US:F:71.142.56.90:isabella
stupidhome:Stupidman!!!:aag_kool2@hotmail.com:1906-07-31:MT:M:none:Alexander Amato Gauci
StupidHomer:Omppu995:73j3@hotmail.com:1995-04-04::F:85.156.201.18:NULL
stupidhomework77:boredzhell77:iamsobored77@aim.com:1992-04-04:US:F:69.210.151.61:Katie
stupidhomiechicken:bob630:ltp2p@aol.com:1991-06-30:US:M:none:Ben Dover
stupidhood1:185494:weezy_bby01@yahoo.com:1992-11-07:US:F:173.58.103.204:psalms
stupidhoog:doughnuts::1993-12-16:US:M:none:stupidhoog
stupidhooihooi:bla23bla:hooi2_88@hotmail.com:1988-11-04:MY:F:60.54.27.37:hh
stupidhorse:aznboy123:azngamefreak516@yahoo.com:1959-11-29:US:F:none:Shelly  ung
stupidhoser:hoser1:stupid397@gmail.com:1991-06-05:US:F:none:Stephen Hogg
stupidhotdogbun:persevere23:assieisme@hotmail.com:1992-03-23:SG:F:220.255.1.175:esther
stupidhotie:jumpon0:zfiresk8ter@hotmail.com:1991-05-10:US:M:none:John Eagle
stupidhottmama122:damnbitch:notablonde122@netscape.net:1991-07-03:US:F:none:money matters
stupidhotty300:hotti:ari_rodrigue@cebridge.net:1992-06-03:US:F:none:ariel rodrigue
stupidhott_chick2028:blake:stupidhott_chick4048@yahoo.com:1990-03-28:US:F:none:Cheyenne Dawn
stupidhow:685563:terris.bin123@hotmail.com:1996-01-31:MY:M:60.51.19.167:how
stupidhsiao:xiao556615:g032546@hotmail.com:1991-03-25:CN:F:218.166.48.147:蕭德蕙
stupidhumaninfidels:diediedie:davish96@msn.com:1987-10-12:US:M:none:david buttry
stupidhumanity:A33_h0l3:stupidhumanity@gmail.com:1984-04-28:US:M:none:cam mayerchak
stupidhumansuit:x3889w:banestupidhumansuit@gmail.com:1989-03-08:US:M:74.236.79.28:Bane
stupidhummingbird:insi04:failedblondetest@aol.com:1950-07-05:US:F:none:high dude
stupidhun:525903:kuokhun@yahoo.com:1987-01-13:MY:M:none:mic kuokhun
stupidhungrymonkey12:Monkeyking::1993-12-28:US:M:none:stupidhungrymonkey12
stupidhunk:handsome1:stupidsexyhunk@hotmail.com:1906-05-31:SG:M:none:VINCENT LOW YI EN
StupidHunny:love12:lupitaf021@gmail.com:1911-02-05::F:209.234.150.11:NULL
stupidhurt:joker696:cupid_heart2003@yahoo.com:1989-03-15:PH:F:202.164.180.26:Fritz Golloy
stupidhurts130:owlet::1991-07-17:US:F:none:none
stupidhusband:ilbrent114:evaliu114@hotmail.com:1962-01-14:US:F:none:Eva Gorthy
stupidhwee:apple1234:teerriii@hotmail.com:1989-10-22:SG:F:165.21.155.88:cuteiswhatweaimfor
stupidhyena:saizou28:crosseyedtiger@yahoo.com:1992-01-28:US:F:71.38.56.252:NULL
stupidhyong:momdad11:yunkwon@telus.net:1992-01-20:CA:M:206.116.181.76:Brandon
stupidi:kimaw12:cheeki_pig@hotmail.com:1995-02-01:AU:F:123.194.131.133:Emma Hoang
stupidi104:dumdum24:arvnpannu@aol.com:1984-12-11:CA:F:none:carl buttmonkey
stupidi86:daviti12::2000-06-05:MX:M:201.160.254.123:david
stupidiam:iamstupid1:tayyahoosg@hotmail.com:1970-12-31:SG:M:none:tay tat
stupidiam367:3678033:stmcm8033@yahoo.com:1986-07-09:US:M:none:stu pid
stupidianyeung:9876543210:godfrey.chang@gmail.com:1953-04-04:HK:F:none:Jonathan Chang
stupidication:okIgivein!12:olivia@afenwick.wanadoo.co.uk:1994-01-21:GB:F:98.243.182.200:Olivia
stupidicci:skyrock:vivemoi5000@hotmail.com:1989-01-19:FR:F:none:laurène polu
stupidicci1:gogolus1:vivemoi5000@hotmail.com:1988-01-19:FR:F:none:Laurène mossu
stupidickleprincess:richard:stupid_ickle_princess@hotmail.com:1989-03-07:GB:F:none:kayleigh toyer
stupidicus:remodel)::1989-03-03:US:M:none:Loser Dumbo
:::::::
stupidicus2quel:vmkgohi1:billygoat_hi@yahoo.com:1992-05-20:US:F:none:S P
stupidicy:onnoislief666:ebuonauro@yahoo.com:1991-03-12:NL:F:77.164.53.235:Storm Side
stupidid:123698::2000-02-11:ZA:F:196.192.81.34:Suharni
stupidided_1234:thornquisthater12:wizwillowby@gmail.com:1986-01-18:US:F:68.189.87.141:Rosalenda
stupidideit:hellow99$::1999-03-04:US:F:75.162.54.3:mickie
stupidideotjames:bigfatslimeball::1992-03-27:GB:M:none:stupidideotjames
stupididget12:keokelly12::1996-10-06:US:F:24.136.173.111:Maggie
stupididi0t:happy123:cjm_stupididiot@hotmail.com:1993-02-24:US:M:98.197.158.144:chris
stupididi17:jenny213:marielssc_lasalle@yahoo.com:1987-03-22:PH:F:none:mariel ong
stupidididiot:Neoman::1993-03-10:US:M:none:none
stupididiot::katholickat@wowway.com:1987-05-04:US:F:68.93.85.25:NULL
stupididiot0:moron:nathansgame@wmconnect.com:1990-11-22:US:M:none:nathanial murry
stupididiot00:stupid00::2000-12-29::M:203.218.88.238:NULL
stupididiot007:fucker:whitetrashidiot007@yahoo.com:1988-12-09:US:F:none:Brandi Holland
stupididiot11:ihatecorbin:internetgirl4@charter.net:1990-06-12:US:F:none:natalie pena
stupididiot111:fatso::1993-10-13:US:F:none:stupididiot111
stupididiot12290:sammidog:shadowhand_13@hotmail.com:1901-12-31:BF:M:Acceptance:Stupid Idiot
stupididiot123:123789:ahboy_blue@hotmail.com:1987-01-04:SG:M:none:jfufu ftujftyuyftufty
stupididiot1234:poopy:cakeisyummy17@aol.com:1987-01-17:US:F:none:Salem Nouria
stupididiot12345678:052391:mandyparr@cox.net:1991-05-23:US:M:none:Peter Parr
stupididiot12367:052391:peterparrjr@cox.net:1991-05-23:US:M:none:peter parr
stupididiot12367890:052391:peterparr@cox.net:1991-05-23:US:M:none:peter parr
stupididiot1237:saimin425:fat_tiggy@msn.com:1991-04-25:US:F:132.160.76.134:stupid idiot
stupididiot1337:stupididiot13371:waldo314159@yahoo.com:1991-08-28:US:F:98.210.183.140:Jackie
stupididiot134:killar::1993-09-11:US:M:none:stupididiot134
stupididiot135:5161993:mslover5@hotmail.com:1979-04-23:US:M:none:idunwannatellu
stupididiot137:lmfao333:kogoro_holy_magic@yahoo.com:1992-11-23:US:F:12.72.193.234:Ziying
stupididiot14:element1:stupid_idiot14@hotmail.com:1991-01-09:AU:F:none:bam margera
stupididiot147:stupididot147:malou_das_zuckerl@hotmail.com:1901-10-10:AT:F:Acceptance:STUPID IDIOT
stupididiot161:loincloth:mikacc@home.com:1974-10-10:US:F:none:Stupid Da.  Idiot
stupididiot17110:ropes:cakeisyummy17@aol.com:1986-02-17:US:F:Mail from freakygurl17:poopy head
stupididiot1986:goldberg:tudge86@hotmail.com:1985-10-22:GB:M:none:Tyler Jones
stupididiot1991:ball1:megzone13@yahoo.com:1992-04-06:US:F:none:classified
stupididiot1992:friendsareimportant1:stefan.hibbert@hotmail.co.uk:1992-04-03:GB:M:217.43.242.143:stefan hibbert
stupididiot1993:337596::1993-02-12:MY:M:none:stupididiot1993
stupididiot2:alisha12::2001-01-21::F:98.82.64.45:NULL
stupididiot200310_01:anne12::1991-08-29:US:F:none:stupididiot200310_01
stupididiot2004:nicknick:slicknicks2004@yahoo.com:1990-02-21:US:M:none:nick sleeper
stupididiot20_4_4_4:!pink::1994-01-04:US:F:none:stupididiot20_4_4_4
stupididiot22022:froggie22::1993-08-31:US:F:none:stupididiot22022
stupididiot233:31691v:bluestardeville@hotmail.com:1979-03-16:SG:F:Mail from wilsonandallan:Shit Wee Wee
stupididiot25:imstupid:fantasticsams@icehouse.net:1978-01-01:US:F:none:lo pop
stupididiot271:bootbum3:hewjet@faroc.com.au:1974-08-02:MO:M:Item:LOPY NAME
stupididiot280:052391:peterparrjr@cox.net:1991-05-23:US:M:none:peter parr
stupididiot292:tyler22:tjspot@frontiernet.net:1991-05-22:US:M:none:Tyler Adams
stupididiot3:photo16:blink182gcfan@msn.com:1990-04-21:US:M:24.217.225.114:Nick
stupididiot351:!@#$%::1992-10-31:SB:M:none:stupididiot351
stupididiot39:Ryanj:jessaj@aol.com:1990-03-15:US:M:none:Ryan Jacobs
stupididiot393:dumbo::1993-06-22:US:M:Battledome Challenge:none
stupididiot4:seany::1992-01-30:US:M:none:stupididiot4
stupididiot400:stupid1:shdwpup7@aim.com:1906-02-22:MX:M:none:ezra fleishman
stupididiot41:dumb3:zwgregory@hotmail.com:1986-05-29:US:M:none:Zackariah Gregory
stupididiot434:basketball14:jenfarrell24@yahoo.com:1992-02-10:US:F:none:Jen Farto
stupididiot4444:hi657:stewievsbrandon@yahoo.com:1992-06-16:US:M:none:brandon mallette
stupididiot456:78901::1991-10-20:US:M:none:stupididiot456
stupididiot466:090506:baohui91@yahoo.com.sg:1991-12-24:SG:F:none:BaoHui Tay
stupididiot49086:qwertasdfg:jgillan@richnet.net:1977-09-25:US:M:Acceptance:why am  i here?
stupididiot50:jesse:impatient_jesse@hotmail.com:1983-12-25:CA:M:none:Jesse hamilton
stupididiot514:dodohead:stupididiot514@yahoo.com:1987-12-20:US:M:none:John  Khuu
stupididiot531:prize61::1993-06-15:SI:F:none:stupididiot531
stupididiot6:william:biggmc@attbi.com:1981-03-06:CA:M:none:bob god
stupididiot619:meg32:toffeehorse@aol.com:1985-06-24:GB:F:none:megan champney
stupididiot641:philip:philip64121@yahoo.com:1988-06-21:US:M:none:Phil. Sab.
stupididiot663:maggot10:sdowneslfc@hotmail.co.uk:1992-03-04:GB:M:none:steven downes
stupididiot666:dumbo666:coleyxrgrs@bellsouth.net:1927-12-25:HK:M:74.237.15.11:jimbo
stupididiot678:thomaslotter123:adamlotter@gmail.com:1984-03-05:UG:M:58.32.253.139:thomas
stupididiot6794:pacsun7:pixechk@comcast.net:1993-05-07:US:F:none:Jessica Valentine
stupididiot709:5446108:mentalmoron@hotmail.com:1991-06-03:US:F:none:Patti  Wentz
stupididiot72:fish777:esgp@juno.com:1998-06-15:US:F:76.180.122.45:NULL
stupididiot739:Orlando::1993-02-25:US:F:none:stupididiot739
stupididiot75:adam1:bohmakah@lycos.com:1990-11-29:US:M:none:adam brown
stupididiot765:mitch:wordlife24@comcast.net:1973-02-03:IQ:M:none:Bob Bobness
stupididiot78:stupid::1994-04-04:US:F:none:stupididiot78
stupididiot815:tyuchu815:stanleychan815@gmail.com:1989-08-15:US:M:none:qwer ty
stupididiot842:li8luck8::1993-01-08:CA:F:none:stupididiot842
stupididiot8429:kidsrule::1994-01-20:US:M:none:stupididiot8429
stupididiot842935:kidsrule::1994-01-20:US:M:98.227.20.138:AustinDunn
stupididiot85:vivian::1992-03-07:US:M:Mail from theneopetsteam:stupididiot85
stupididiot88:wkkysl:wong_chongjun@hotmail.com:1988-09-23:SG:M:202.156.13.3:Account Terminated
stupididiot892:chocolate37::1997-11-13::F:24.131.240.190:NULL
stupididiot9:iamgenius91:samtan91@hotmail.com:1991-04-30:SG:M:165.21.154.15:Sam
stupididiot90:brie1996:peanut9696@gmail.com:1990-03-08:US:F:74.47.26.40:
stupididiot91:joleneyeo:samtan91@hotmail.com:1975-04-30:SG:M:none:Sam Tan
stupididiot9112:billy:monkeyluver2451@hotmail.com:1977-11-24:US:M:none:bob jr.
stupididiot911345:569_1775:smileymicdumdum@aol.com:1990-09-08:US:M:none:jeff smith
stupididiot91794:anusface11::1999-04-25:US:M:68.109.162.190:NULL
stupididiot95:98566276::1994-04-18:SG:F:none:stupididiot95
stupididiota:stupidgame101:ryanwf494@aol.com:1972-04-03::M:70.123.139.116:NULL
stupididiotat1200:bernard:mike_dude_2003@hotmail.com:1975-08-06:AG:M:none:lobo uro
stupididiotboi:thaddeus:skyblue_110@hotmail.com:1988-09-10:SG:M:none:little boi
stupididiotboy6691:brittanyk:softballgirl9496@aol.com:1990-06-06:US:M:none:noser noneser
stupididiotboys:hello11:joy562c@yahoo.co.nz:1990-01-01:NZ:F:125.238.77.152:joy
