stvenolivia:puggle12::2001-03-11:US:F:71.230.229.248:madison
stvenom:carnage0987:mattgibbs93@hotmail.com:1993-12-21:AU:M:121.222.63.93:matt
stvenpabon:superman4298:stvnpabon@yahoo.com:1993-01-02:US:M:72.189.108.167:Steven
stvens:asdfgh11:stevegloudemans@live.nl:1993-01-29:NL:M:84.29.153.90:
stvens99:ghjk99:stoneculver@yahoo.com:1959-07-17:US:M:24.56.214.2:dug
stvensnoopy:loveblue:steven_snoopy831@yahoo.com.tw:1990-08-31:TW:M:Item:嵐 孤楓傲月
stvenson_14:chaylee16:bryan_stvnsn13@yahoo.com:1992-09-21:US:M:none:bryan stevenson
stvens_baby2004:blackpanther:mahjongg11@yahoo.com:1988-03-31:US:F:none:chistie bettinger
stventeen:3673306:amybule2004@yahoo.com.hk:1983-09-18:HK:M:none:八 寶粥
stvenusa:af8171boa:palomanapoli@gmail.com:1986-07-07:BR:F:189.25.59.162:Paloma Di Napoli
stvenwright:memphis12:ftballdude001@comcast.net:1995-3-24:US:M:70.154.119.171:stven
stvenwright_4:memphis12:dreidre_wright@yahoo.com:1995-3-24:US:M:75.64.124.114:stephan
stvenzwar:smilyface6:badgerbadger56@yahoo.com:1988-05-05:US:M:none:Steven Banta
stven_137:steven142::2000-06-02::M:76.255.214.123:NULL
stven_1555:sassy22:mamabea@charter.net:1986-03-25:US:M:74.242.67.223:steven
stven_9:i520cress:lightschool@hotmail.com:1993-01-28:SG:F:none:steven kuang
stven_dabid:29deoctubre::1999-10-29:CO:M:186.83.235.160:steven
stven_el_sentimental:estrella13::2006-06-25:PE:M:190.236.193.102:NULL
stven_jason9:rosasdzul23::1998-11-09:MX:M:189.148.54.39:jason
stven_krysko100:tupac1:steven_krysko@hotmail.com:1963-05-29:CA:M:none:xkjhfncxhmvrytkfxh
stven_ronaldo:steven10::2000-05-04:MX:M:189.152.135.52:stevenronaldo
stven_smith:3011marcelo:thelo.13@terra.com.br:1996-04-01:BR:M:187.10.174.63:Marcelo
stven_smith2:3011marcelo:thelo13@hotmail.com:1996-04-01:BR:M:189.110.101.165:Marcelo
stven_stven_2_2:meandjess23::1988-08-24:CA:M:70.48.97.200:steven
stven_taylor103:armani102::2001-09-08:GB:M:86.10.57.51:stven
stven_x:o85129385::1997-12-25:EC:M:190.95.155.70:steven x
stven_yi:123456y::1999-06-07:MY:M:60.50.222.69:yanhe
stven__hoeben:sho0401::2001-01-04:NL:M:90.145.61.214:NULL
stveo15:fitfit::1991-10-10:US:M:none:stveo15
stveo1991:Skippy:moomoo247@aol.com:1991-06-16:US:F:none:Steve o
stveo332:mmorpg66::1998-05-08:US:M:67.142.130.14:keenan
stveo8:fighter1:spt11795@aol.com:1992-11-07:US:M:none:Steven Tagliavia
stveostevo233:Telie95::1993-09-27:US:M:none:Steven Snelling
stveoyedud:spik666:ye_dud@hotmail.com:1992-11-14:BE:M:none:manu raw
stver2468:clock:popo1995_525@yahoo.com.hk:1968-10-25:HK:F:none:lam juju
stverity:1215225xixi:y_hope_k@hotmail.com:1990-10-29:NZ:F:121.98.145.92:Verity Li
stveronica17:corletta17:stveronica5@yahoo.com:1967-01-17:AG:F:209.59.70.247:Veronica
stverschoof:G1nidee:thomas.verschoof@hotmail.com:1992-03-06:NL:M:none:Thomas Verschoof
stversonalmeida:58525044:st_everson@hotmail.com:1994-11-23:BR:M:201.13.143.243:stverson
stves1992:Turtle::1992-04-30:US:M:BattleDome Opponent Waiting:stves1992
stvevanca:shawn56:stvpierre@yahoo.com:1972-05-30::F:76.111.230.107:NULL
stveven:steven:terri1capes@hotmail.com:1989-07-07:GB:M:none:steven capes
stvevenlemus:blind::1994-01-10:US:M:none:stvevenlemus
stveven_189:12345680:stevenestevez13@yahoo.com:1975-11-28::M:69.121.253.219:NULL
stvevn:ej0aup3:k4n4fu18@yahoo.com.tw:1992-07-03:TW:M:none:官閔 唐
stvevn73:zzccaaddsx::1992-07-03:TW:M:none:stvevn73
stvevny:0088008::1992-10-09:HK:F:none:stvevny
stvevn__28:stvevn58::2000-11-01:CN:M:203.75.232.162:陳楚勳
stvexf574:stfg123456:tp3344520@yahoo.com.tw:1988-07-10:TW:M:220.131.97.72:楊東霖
Stvey2001:edward2001::2000-04-09::M:76.218.17.41:NULL
Stvey2001_891:mark2003::2000-04-04::M:76.218.17.41:NULL
stve_123:stve12::2001-08-29:PE:M:190.233.50.194:steven
stve_4:cerdo12::2000-01-28:CR:M:190.10.48.191:NULL
stve_4_7:cerdo12::2000-01-28:CR:M:201.191.7.73:NULL
stve_cool:170796:damien_trany@hotmail.com:1994-01-15:AU:M:203.214.87.69:Stve  Fox
stve_stve__20:amores::1983-02-23:EN:M:NULL:NULL
stve_w_sharpe:fisherman27:shannonnix@ymail.com:1989-11-27:US:M:71.54.254.170:stevie
stve__:nickfg051095:nickfaht09@hotmail.com:1975-10-05:BR:M:189.72.87.98:nicholas gomes
stvfd:shafty25:pmanning@verizon.net:1994-03-04:US:F:72.95.162.29:kathy
stvfreak4ever_6:fab26:fab_stv_26@hotmail.com:1993-06-03:GB:M:none:Fraser Brown
stvg12000:malosos07::2000-06-16:MX:M:187.193.30.186:NULL
stvgab:asd123:gabriel_bibico@yahoo.com:1990-10-02:BR:M:201.26.193.221:kratos
stvgirlsrule79:777551:crazy4horses108@aol.com:1987-10-08:US:F:none:Tiana Grego
stvgordon:gdg12804::2004-01-01::F:67.183.163.44:NULL
stvgordon12804:gdg12804::2004-01-08:US:F:67.183.163.44:NULL
stvgrf:molly01:stvgrf@aol.com:1990-06-16:US:M:none:stephen griffith
stvgrt:972637:sgro1101@yahoo.com:1992-05-08:US:M:63.228.42.91:Steve
stvguyz:foryou::1992-10-07:SG:M:none:stvguyz
stvh84:spend:cst_04@hotmail.com:1988-08-08:AU:M:none:st vh
stvhead:bigdaddy0123:stvhead@aol.com:1958-01-24:US:M:none:steven headle
stvht:almendra1:sofiaisaidora@hotmail.com:1993-02-09:CL:F:none:sofia fuentes
stvicious:bert06:sophiestvicious@gmail.com:1985-02-28:GB:F:82.0.53.78:Sophie
stviciousvampire:dragin12:GiveHimGlory@switched.com:1989-12-17:US:F:69.131.237.58:Nikki
stvicky:vampiro*:popcorn_2810@hotmail.com:1992-10-28:MX:F:none:Victoria Liliana Abarca mart
stvictor182:1021967:stvictor182@yahoo.com:1985-09-04:US:F:none:lauren h
stvictor60:beauce60:tus003@hotmail.com:1993-05-16:CA:F:none:Anne-Marie Doyon
stvictorschool:41594:dabrainstorm07@yahoo.com:1963-07-23:US:M:none:asdfasdfag sdfsgv
stvidrine11:nala66:xprincessSteph6x@aol.com:1986-03-06:US:F:72.204.161.34:bgielaald
stvie:stevengcoplan12:steviegcoplan@aol.com:1988-07-14:US:M:none:estephaun coplan
stvie2:crystal23::1996-12-17:US:M:74.65.61.58:damian
stvie23:romeo23::2001-04-17:US:M:174.44.64.59:NULL
stvie505:saddle:azzo_hulan@yahoo.com:1991-01-03:IE:F:none:azzo hulan
stvie53000:pottty:sfguy42000@yahoo.com:1989-07-31:US:M:none:Stevie Wonder
stvie7:saddle::1992-01-30:IE:M:none:stvie7
stvie92:saddle:azzo_hulan@yahoo.com:1991-01-03:IE:F:none:Sky Mullin
stviegrr2:rosie:cliffsir@aol.com:1905-01-01:US:M:none:scar darkness
stviemoo:saddle11:azzo_hulan@yahoo.com:1992-01-03:US:F:98.212.180.205:Rachel
stvien:c67h91yl:brodystitt92@hotmail.com:1992-09-19:CA:M:70.48.251.249:brody
stvienix:42593::1993-04-25:US:F:none:stvienix
stviestviestviestvie:stvie:stvie88@hotmail.com:1989-03-24:AU:M:none:joe black
stvie_brock_fan:Rascals55:APTHOR02@aol.com:1989-10-30:US:F:74.130.193.25:WolfLover
stviinho:dsvcbl080696::1996-06-08:BR:M:189.18.68.107:Stviinho
stvimpala:sad12345*::2000-10-14:US:M:70.244.16.187:Shawn
stvinatl:9234868:stvinatl@yahoo.com:1967-04-20:US:M:none:steven gatt
stvince:steph(the one and only!)::steph(the one and only!):steph(the one and only!):steph(the one and only!):steph(the one and only!):steph(the one and only!)
:::::::
stvincent:31951536:bubueldivino@hotmail.com:1985-11-06:AR:M:none:Bernardo Garbuglia
stvincent09:midnight09:xtrasnooze@hotmail.com:1991-09-03:US:M:209.159.236.86:Vince
stvincent13::::::212.219.249.5:NULL
stvincent56::::::212.219.249.5:NULL
stvincentcheer:gphib00::2002-04-09:US:F:96.35.201.191:Natalie
stvincentcheer123:gphib00::2002-04-04::F:99.72.223.212:NULL
stvincentcresent:christmas2010::1997-05-25:GB:F:212.219.249.5:NULL
stvincentferreron65:stvincentferrer65:kmansportsfreak@hotmail.com:1993-11-15:AU:F:24.215.190.186:Nikki-Lauren
stvincentgurl:1029384756:st.vincent.gurl@hotmail.com:1993-07-11:CA:F:none:eliese grant
stvincents:skipper1::1993-05-27:US:F:none:stvincents
stvincents109:castleton39:good_charlotte_go@hotmail.co.uk:1991-09-29:GB:F:none:Lauren Mann
stvincents55:deadskies6:xxmonkeyskyzxx@aol.com:1960-01-02:US:M:none:Ryan Vincent
stvincintdepaul:draco!*:inthewind@fuse.net:1987-12-23:US:F:none:like u need to know none of your bisness
stvine:72492926::1994-05-02:BR:M:none:stvine
stvinnie16:gordon:stvinnie16@aol.com:1988-12-29:GB:M:none:Vincent Cuming
stvinnieschicklovejo:7ttty:denise_veurink@hotmail.com:1987-04-21:AU:F:none:denise veurink
stvinniesgirls:bfforever::1992-10-11:AU:F:none:stvinniesgirls
stvinniesgurl:madirox94::1994-04-23:AU:F:none:stvinniesgurl
stvinnysgirl:chocolate01::2003-04-10:GB:F:82.42.219.111:lola
Stviper1:1st009::1998-05-27::M:71.189.235.13:NULL
StViper45:Viper405::1998-05-27::M:71.189.58.19:NULL
stvirusjose:3270389:st.anger.franatic@hotmail.com:1988-12-27:NZ:M:none:jose miguel
stvit09:mich09:steven_randlett@yahoo.com:1983-09-09:US:M:71.79.66.49:Steve Randlett
stvital06:gr33ndell:greendell_falcons_17@hotmail.com:1991-06-10:CA:M:none:Brad Scott
stvital6:gr33ndell:brad-scott06@hotmail.com:1991-06-10:CA:M:none:Brad Scott
stvitalgirl:sweet::1994-02-18:CA:F:none:stvitalgirl
stvitus:shooter1:scarecrows_reality@yahoo.com:1988-04-19:US:M:none:Scare Crow
stviv12:114701::1992-04-10:US:F:none:stviv12
stvivir11:040693::1993-04-06:US:F:none:stvivir11
stvivirlms:040693lms::1993-04-06:US:F:none:stvivirlms
stvivs07:torymarie1:climbergal85@aol.com:1993-05-01:US:F:71.72.206.255:kala goings
stvivy:abcdeilovelp1314:penang@streamyx.com:1976-06-24:US:F:115.132.165.170:Ivy The Poison
stvixen:gris666fis:bjorkar@spray.se:1988-01-27:SE:M:90.233.151.67:Niklas Anner
stvixen_27:oneill48848:jessica_0027@hotmail.com:1990-01-15:US:F:none:Jessica O
stviy:oluap lig::1993-12-10:PT:M:none:stviy
stvj:jennifer11:hobo_dan_trash@yahoo.com:1960-12-03:US:M:76.118.195.184:STVJ
stvjklu:666333:SithLordCSKA@yandex.ru:1982-01-01:RU:M:86.62.64.193:GJK
stvjon:dino1:jimmossingholsteyn@hotmail.com:1986-09-25:NL:M:86.87.223.93:Jim
stvjps:meter7:pcjcm@msn.com:1992-04-13:CA:M:none:Jake Smith
stvju7:steven18:stvju7@aol.com:1989-04-18:GB:F:90.196.17.151:natasha
stvj_holliday_is_dee:nicolette123:being_diferent_is_fun@hotmail.com:1993-01-11:AU:F:none:Jumpy Bumpby
stvk599:stvk1:kristinmack@comcast.net:1985-02-27:US:F:none:1 1
stvkrsty:07021981:caramelkisses32702@hotmail.com:1981-07-02:US:F:Can I be your NeoFriend?:Kristy Brasseur
stvksl:135135:stvksl@yahoo.com:1984-04-30:MY:M:none:Stven Kho
stvladimir:johannes1:diamorfin@hotmail.com:1985-12-21:NO:F:80.213.41.55:Loco Lama
stvlb:pacha123:cool_pok_@hotmail.com:1988-08-22:CA:M:none:sv tl
stvleez_14:stevie14:estivalis_sandoval@yahoo.com:1993-12-14:US:F:75.57.20.127:stevie
stvleo6:happy101:sflores2@schools.mybps.org:1989-08-11:US:M:195.175.37.71:Steve Flores
stvlim4718:471828:stv_lim@tm.net.my:1979-01-08:MY:M:none:stv lim
stvll_jhn:6A2GFD:stvll_jhn@yahoo.com:1990-12-12:US:M:none:jonathan stovall
STVLNC:STVLNC25::1999-09-29::F:98.214.114.131:NULL
STVLNC25:STEVIEML25::1999-09-29::F:98.214.114.131:NULL
stvlp:shinysweethot:sirintaraeli@yahoo.com:1989-12-31:US:F:none:Sirin Taraeli
StvLucio:estevao7lucio5::2001-05-05:BR:M:187.77.33.46:NULL
stvl_z:abrete12::1998-01-31:CO:M:201.232.245.201:daniel
stvm333:BLUe32:stvm333@yahoo.com:1991-01-29:US:M:75.66.69.88:Steven Miller
stvman:andrew:stvman12@aol.com:1988-08-23:US:M:Battledome Challenge:stephen cote
stvmaster:Luigi771::1991-11-01:CA:M:none:stvmaster
stvmlnc25:stvlnc25::1999-09-29::F:98.214.114.131:NULL
stvmnptv:hu76ky::1998-10-28:CN:F:24.226.74.40:selena
stvmon:gaygay:monaghans@kinghenry.monm.sch.uk:1989-06-16:GB:M:none:Stephen Monaghan
stvmon2:gaygay:stvmon@aol.com:1989-06-16:GB:M:none:Stephen Monaghan
stvmqwn:duck12::2001-02-14:US:M:71.80.233.40:vanson
stvmrt2:dranzer1:stvmrt2@aol.com:1983-10-19:GB:M:none:stephen mortimer
stvmrt9:dranzer12:morty-06@hotmail.com:1989-02-24:GB:M:195.93.21.130:fgfgfgfg
stvmss:mandy1::1994-04-04:GB:F:none:stvmss
stvm_rocks:hannah123:ehinezmatasich@yahoo.com:1994-04-27:US:F:69.208.7.110:mackenzie
stvn00:mygooday88::2000-12-05:US:M:71.191.166.143:Steven
stvn01:crash45:stvn011@yahoo.com:1990-01-07:US:M:71.84.13.150:steven
stvn01lechuga:lakers:stvn22chavez@aol.com:1980-10-06:US:M:none:Steve  lechuga
stvn02:3393877:tevencast@hotmail.com:1993-09-19:CO:M:186.0.31.212:steven
stvn060:hogwarts1:steven@inbox.com:1992-04-15:US:M:none:steven ramirez
stvn07:20622454:sabelotodo_00@hotmail.com:1993-05-07:VE:M:190.73.156.203:Steven
stvn10:113730903:jsolism07@gmail.com:1988-12-06:CR:M:201.237.146.98:Stvn Solis Monge
stvn1002:gypsy13:stevenlg2@gmail.com:1995-7-1:US:M:71.48.139.240:steven
stvn1010:dragonballz10:estebanemo@hotmail.com:1997-10-30:EC:M:190.152.74.4:NULL
stvn1045:basket1:stvn1045@yahoo.com:1979-02-12:US:M:none:bob bobby
stvn13:cutter13:lil_karma_gurl@yahoo.com:1993-01-21:US:F:67.86.57.132:steven
stvn17:7835971:ww119@yam.com:1989-07-18:TW:F:none:郭 士玄頁
stvn209:tita831:stevenr.1995@yahoo.com:1995-07-19:US:M:67.181.81.37:stvn
stvn2097:sh2097:stvn2097177@yahoo.com:1987-04-26:US:M:67.188.252.249:s
stvn21217:7835971:ww119@yam.com:1989-07-18:TW:F:none:郭 士玄頁
stvn2468:norules::1992-11-05:US:M:none:stvn2468
stvn27:steven27::1999-06-27:US:M:207.47.45.219:steven
stvn3:2kandle:slighter_slicer@hotmail.com:1991-04-28:AU:M:none:Steven Truong
stvn32592:910130:kirstiwoodward@yahoo.com:1981-01-30:US:F:none:Kirsti Ortiz
stvn4990:stvn60885:chew4990e@hotmail.com:1955-09-23:SG:M:220.255.7.141:Steven
stvn4h:redalert:xdragon2k3@yahoo.com:1987-07-16:US:M:none:Jackson Vo
stvn525:noderer:stevennoderer934@hotmail.com:1991-08-30:US:M:none:StevenNoderer
stvn526:chester:stevennoderer934@hotmail.com:1989-08-30:US:M:none:stvn noderer
stvn6:sbepe#66:stvn.bvnzr@hotmail.com:1991-11-13:AU:M:211.27.196.9:Steven
stvn641:montgomery:stvn_641@hotmail.com:1989-01-27:US:M:Mail from theneopetsteam:Steven Barr
stvn666:assword1:buttmanluvesladies@hotmail.com:1980-10-19:US:M:none:stephen sor
stvn68:pimp68::1993-03-05:US:M:none:stvn68
stvn78:stvn27:michaeldobson78@yahoo.com:1994-06-27:US:M:207.47.45.219:steven
stvn790:ballgt:stevenmrtnz6@netscape.net:1989-05-04:US:M:none:steven martinez
stvn800:cca711:stevenly800@yahoo.com:1970-11-28:US:M:69.232.55.236:steven
stvn866621:stvnrules11:bloom6543@gmail.com:1992-10-26:US:F:75.45.245.81:Jessica
stvn89:1234stvn::1994-03-01:US:M:none:stvn89
stvn8919:LincolnLoren::1989-09-04:US:M:71.215.177.229:StevenAlldridge
stvn90:090890:slipknot0908@msn.com:1990-09-08:US:M:none:steven manson
stvn9900:stvn27::1998-06-27:GB:M:207.47.45.40:steven
stvn9990:karate:stvn9990@aol.com:1990-09-09:US:M:none:steve delosreyes
stvn99miller:packers420:megadox56@yahoo.com:1990-09-15:US:M:184.91.205.87:NULL
stvnbanilbo:stvn02:sbanilbo@yahoo.com:1992-12-08:PH:M:222.127.93.110:steven
stvncao:cloudy:adoreadork@yahoo.com:1985-06-04:US:M:75.22.64.204:Steven Cao
stvncheah:910330:stvncheah@gmail.com:1991-03-30:KR:M:none:Steven Cheah
stvnchui:09159424423:stevenivan@yahoo.com:1990-06-12:PH:M:203.87.164.136:Steven
stvncnkln:steven92:stevenconklin92@hotmail.com:1992-04-20:US:M:70.237.194.120:Steven
stvncnt:st3v@n89:stvn@live.com.au:1992-01-02:AU:M:121.221.101.226:stevan
stvncqch:assass11:StvnQch@yahoo.com:1994-04-28:US:M:216.100.94.2:Stvn
stvncrz87:johnlikespizza1:stvncrz@yahoo.com:1987-09-21:US:F:none:Stephen Cohrs
stvncstr0:coyotes09:stvncstr0@sbcglobal.net:1991-05-24:US:M:75.38.112.224:Steven
stvncuster:052681:stevenmcuster@aol.com:1981-05-26:US:M:216.237.234.183:steven
stvndragon6:dragon:black_dragon2@hotmail.co.uk:1988-01-28:GB:F:none:steven whitehorn
stvndrr:icecream:stvndrr@aol.com:1977-11-19:US:M:none:steven  darragh
stvndrr24:icecream:stvndrr@aol.com:1986-11-19:US:M:none:Steven Darragh
stvndrr42:icecream:stvndrr@aol.com:1980-11-19:US:M:none:Steven Darragh
stvnfrky:flame100:stvnfrky@aol.com:1989-11-27:US:M:none:Frankie Olea
stvng007:12 14 64:stvng7@yahoo.com:1992-05-23:US:M:Warning from The Neopets Team:fufu kaiwan
stvng07:12 14 64:stvng7@yahoo.com:1992-05-23:US:M:none:stevengomez
stvng121464:12 14 64:stvng7@yahoo.com:1992-05-23:US:M:Warning from The Neopets Team:stevengomez
stvng21:spic5440:stvng21@aol.com:1980-06-03:US:M:204.154.43.244:Steven
stvngllwy:1472001:stvngllwy2@yahoo.com:1992-01-22:US:M:70.127.189.131:steven
stvngna:kylied04:stvnsgrl24@yahoo.com:1984-05-08:US:F:71.94.72.15:Gina
stvnhatch:steven1:singing_rox_my_sox85@yahoo.com:1988-12-31:US:M:none:Steven Steven
stvnhunnii924:lauren:stavenangel0924@aol.com:1991-09-24:US:F:none:lauren lauren
stvnhuskins_12:tigers12::1999-05-11:US:M:184.37.8.219:NULL
stvnisangry:St3v@n.89:stvn@live.com.au:1989-01-02:AU:M:124.182.7.168:STEVAN
stvnishot_2014_lol:alkeks12:ladybug@tisd.net:1992-12-02:US:F:207.243.120.92:sabryna
stvnjhn:razors:bubbalouiebuba@sbcglobal.net:1901-09-11:US:M:none:****** *****
stvnju1991:411313211:stvnju@hotmail.com:1987-11-16:US:M:99.96.93.219:Steven Ju
stvnkang:catdog::1994-04-16:US:M:none:stvnkang
stvnkang300:catdog::1994-04-16:US:M:none:stvnkang300
stvnkang562:catdog::1994-04-16:US:M:none:stvnkang562
stvnkrr:joker:cartoon_freak360@hotmail.com:1991-04-16:CA:M:none:steven kerr
stvnl009:352352:stevenl318@aol.com:1983-10-24:US:M:none:Stevie bob
stvnlin2004:divineserene912::1995-04-06:CN:M:none:stvnlin2004
stvnloyd1234:pantera1:stvnloyd@yahoo.com:1985-11-29:US:M:none:Steven loyd
stvnlvr:amb1992:popcute3@aol.com:1992-09-23:US:F:205.188.116.20:April
stvnmat1193:wrestling7:mchief56@aol.com:1992-03-26:US:M:71.181.133.245:stephen matello
stvnmidge:joshua:bmyshell@yahoo.com:1985-09-14:US:F:none:Bridgette Haguewood
stvnmitchell:1289724697::1997-12-08::M:209.56.33.10:NULL
stvnmooboi:cloudy:anhbasteve@yahoo.com:1985-06-04:US:M:none:Steven Moo
stvnmtthwjms:qwerty98:steve_goes_to_vegas@hotmail.com:1991-09-01:GB:M:88.106.181.30:Steven
stvnneo:she124756::1996-06-28:MY:M:60.49.86.166:Neo
stvnneoo:she124756::1996-06-28:MY:M:60.49.86.166:Neo
stvnohe:brianna1:attynohe@aol.com:1992-05-19:US:M:none:steven smith
stvnoppnhm:unome1:steveopp2006@yahoo.com:1987-02-10:US:M:none:stoe joe
stvnoppnhm2:kayra:steveopp2006@yahoo.com:1970-11-20:US:M:none:steven peanut
stvnp07:mission93:stevenprice30@yahoo.com:1975-05-21:US:M:76.93.65.217:Steven
stvnpabon4298:superman4298:Stvnpabon@yahoo.com:1993-01-02:US:M:65.33.16.240:Steven
stvnpl:Fallout12:mdstiven@gmail.com:1988-12-13:PL:M:84.205.8.68:Wawrzyniec
stvnqch:assass11:stvnqch@yahoo.com:1992-05-27:US:M:71.107.143.51:Steven
stvnrbck:shiyu21:www.stvnrbck@yahoo.com:1988-01-12:US:M:71.12.20.167:steven
stvnred:199319811925:stvnredhard@yahoo.com:1993-01-14:GR:M:94.65.136.59:Steven
stvns15:redrocks:stevie_grl@yahoo.com:1986-07-14:US:F:none:Maureen Stevens
stvns4:redrocks12::1993-07-14:US:F:71.194.176.188:Maureen
Stvns93:Rochelle11:irish_grl93@yahoo.com:1995-07-14:US:F:71.194.176.188:NULL
stvnsbaby93:stevenluvsme93:stvnsbaby93@aol.com:1993-08-23:US:F:70.233.142.35:amanda
stvnsbabygurl:steven:stevens_baby04@yahoo.com:1982-08-01:US:F:none:tracy  Tilley
stvnsbbygrl18:baby96cakes:bigm124b@hotmail.com:1989-09-13:US:F:205.188.117.197:Melissa
stvnsgrl:steven:aries28_angel@yahoo.com:1990-03-28:US:F:none:angel foucher
stvnsgrl4sho:poohbear:ashleypooluvsu@yahoo.com:1989-04-24:US:F:Acceptance:ash ley
stvnsgrls4:radon1280:stvnsgrl24@yahoo.com:1983-05-08:US:F:71.94.78.168:gina
stvnsntx14:awawaw:gasdss@aol.com:1991-06-29:US:M:none:will wetterman
stvnsshly:tyler::2005-01-01:US:F:none:ashley stevens
stvnstvn:kamapaza2:stvnstvn@gmail.com:1991-08-16:US:F:98.237.251.64:Steven
stvnstvnstvn:kamapaza1:stvnstvn@gmail.com:1991-08-16:US:M:none:A B
stvntckr11:qasde1:steven6333@hotmail.com:1990-09-06:US:M:none:Steven Tucker
stvntrn:ih8h8ers:ghsdmtran@gmail.com:1994-01-02:US:M:68.106.239.112:NULL
stvntylrsnumber1fan:madilynn666:imnotmadi@hotmail.com:1992-07-28:CA:F:216.108.4.72:auns
stvnwhsnnt1:monkeyboy11:stvnwhsnnt@gmail.com:1996-07-09:US:M:70.145.255.114:stevo
stvnwilms:bigbang11:stvnwilms@yahoo.com:1989-07-16:US:M:74.76.119.94:Steven
stvnxx:computer11:stvn.fontaine@gmail.com:1990-09-13:CA:M:74.216.36.95:Steven
stvnz:watisit1:azn_silvercobra@hotmail.com:1985-12-04:AU:M:none:Bob Lee
stvnz8:laharl290756:stvn.8@hotmail.com:1993-07-29:ID:M:118.136.174.29:NULL
stvnzangl16:faith:ark_blt_06@yahoo.com:1988-04-27:US:F:none:brittany taft
stvn_641:montgomery:stvn_641@hotmail.com:1989-01-27:US:M:none:Steven Barr
stvn_clinky:steven187::1998-08-28:US:M:98.238.198.87:matt
stvn_clinky123:rachel187:ghettosoldier666@hotmail.com:1987-09-28:US:M:98.238.198.87:bob
stvn_colbr_lover:oso2013:kayana@windstream.net:1995-06-07:US:F:98.23.133.215:Kathryn
stvn_gllwy:1472001:stvngllwy@yahoo.com:1992-01-22:US:M:209.4.42.87:steven
stvn_jne:123qweasd:steven_la_di_da@hotmail.com:1990-10-09:AU:M:121.214.49.2:Steven
stvn_kng_lvr:wackdr:wakenotthedead@aol.com:1987-05-05:US:F:none:ballz h
stvn_poo:phanum11:stvnallred@yahoo.com:1984-04-27:US:M:24.193.98.26:Steven
stvn_rox:sierra99:bigdogfoot@aol.com:1992-04-26:US:M:65.5.196.44:Steven
stvn_wolf:wolves:stvn_grca101@yahoo.com:1991-08-02:US:F:none:Steven Garcia
stvn_wthrsp:smwtheking426:bigdogfoot@gmail.com:1992-04-26:US:M:70.144.135.104:Steven
stvo09:phoebe3:forgettingmemories@hotmail.com:1987-09-09:CA:M:none:Steven N
stvo0909:21754936:ses@123.com:1986-11-01:CN:M:none:礼贤 宁
stvo1111:stevo1:stvo1111@yahoo.com:1984-04-13:US:M:none:Steven Neilson
stvo3:11131:x_myk@yahoo.com:1975-12-03:PH:F:none:Steve Sanchez
stvo88_7_7:112345678:bug555666@gmail.com:1988-06-22:CA:M:24.203.151.37:stephen
stvo898:steven898:carwholesaler1@aol.com:1967-09-22:US:M:68.195.83.138:steve
stvo899012:igore89901:milkshaketwoway69@yahoo.com:1989-03-25:US:M:76.166.148.157:stevo
stvo999:phoebe34:forgettingmemories@hotmail.com:1987-09-09:CA:M:184.160.14.99:steve
stvoch:panter11:mikepanter@hotmail.com:1982-10-26:NL:M:83.85.176.151:NULL
stvon:34291:stefanie.vonhof@bfb.bfinv.de:1983-01-01:GP:F:none:s v
stvong:doggyww24:vongst@gmail.com:1988-09-24:SG:F:none:Tae Tan
stvong2004:avislovessvong:stvong2004@yahoo.com.sg:1989-09-24:SG:F:none:St Vong
stvong24:doggyww24:vongst@gmail.com:1927-09-24:SG:F:202.156.12.11:st
stvong_2004:avislovessvong:stvong2004@yahoo.com.sg:1989-09-24:SG:F:none:st vong
stvoodoo:voodoo77:violentft@aol.com:1981-09-03:US:M:152.163.101.16:stvoodoo
stvoodooguru:pooinmypants12345678:chrisnmpont@gmail.com:1993-03-01:AU:M:124.184.218.192:Chris
stvop:were22:dianaseeecb@taol.com:1982-02-23:US:F:66.68.203.154:gh
stvorenje:majels12::1997-07-19:AF:M:89.164.34.92:martin
stvor_ot:andrea20:iva_gates@yahoo.com:1987-08-25:MK:F:77.28.8.253:dea
stvoss:dabomb28:stvoss@students.usd382.com:1992-06-06:US:F:68.103.100.200:Stephanie
stvow1:53147m::1995-09-17:US:M:207.69.139.145:mikey
stvow111:53121m:stvow111@yahoo.com:1995-09-17::M:24.167.254.140:NULL
stvoy2081:win982:sc30002@excite.com:1982-01-01:US:F:none:Fat May
stvoyager:delta:workitboiii@hotmail.com:1982-10-24:AT:M:none:scott adams
stvoyager_8_8:sp00ty:rshark-getalife@peoplepc.com:1994-01-19:US:F:207.69.138.138:Rachel
stvo_5:112345678:bug555666@Gamil.com:1988-06-22:CA:M:70.82.143.18:Stephen
stvpena:10603:rayq123@optonline.net:1962-01-14:US:M:Battledome Challenge:steven  pena
stvpg777:oznerol335:blenzo_020493@yahoo.com.ph:1993-02-04:PH:M:203.87.201.134:Lorenzo
stvpid:freakyidiot:jigglyci@hotmail.com:1981-02-08:SG:F:218.186.11.11:Middy
stvpidppl:4345826:ilyxsam@yahoo.com:1991-11-14:US:F:67.9.74.106:SAM
stvrae:laguns80:stevie_rae@live.com:1993-05-09:US:F:66.215.206.203:NULL
stvrboy:samusaran::1991-11-14:US:M:none:stvrboy
stvrocks:iloveu23:nmw523@sbcglobal.net:1995-11-23::F:75.63.51.5:NULL
stvrormsby:blanca:stvrormsby@aol.com:1979-08-05:US:M:none:stevenormsby
stvs:123789::1991-08-09:EN:M:NULL:NULL
stvs00218:19981215daisy::1998-12-15:HK:F:112.118.88.142:cheungchungsang
stvs00309:20001028leo::2000-10-28:HK:M:116.49.83.195:cheungwingsang
stvsangl2004:randall:stvsangl2004@aol.com:1986-04-25:US:F:none:stevie m
stvschnell:schnell38::1979-10-20:US:M:76.91.52.59:Stephen
stvsels:lalala:deesjuh_loves_@hotmail.com:1989-03-26:NL:F:none:Stv tjuh
stvsfun369:hootie:nanolee@comcast.net:1964-03-27:BJ:M:none:7u54eyw ghfgdf
stvsgrl23:janice23:ugadawgs1603@aol.com:1987-10-30:US:M:none:lkhikjl lkjkiojn
stvsgrl34:kjb&sjc:bluejay_baby34@yahoo.ca:1971-05-27:CA:F:none:K Bowman
stvsgrl503:steve23:stvsgrl23@yahoo.com:1987-10-20:US:F:none:janice lkj;lj
stvshortstuff92:littlegirl::1992-04-30:US:F:none:stvshortstuff92
stvshrefk:star1wars:stvshrefk@aol.com:1985-01-24:US:M:69.145.200.95:Steven Schieferecke
stvskttn:klambake:stvskttn@yahoo.com:1976-07-01:US:F:none:amy helvick
stvsllvn26:sullivan:xctrackfrk35@yahoo.com:1987-04-06:US:M:none:R. A.
stvsov12:12sovstv::2000-09-13:US:M:99.196.234.244:Simon
stvspl:b6b4g3::1989-06-20:US:M::none
stvss:spike::1991-07-12:NO:F:none:stvss
stvstar:steven:stvstar@hotmail.com:1983-03-17:CA:M:none:Steven Chinchilla
stvstv:stvstvstv1212:stvivy99@yahoo.com:1987-09-07::M:118.101.233.123:Steven The Dragon
stvstv333:jellylove00::2003-07-24:US:M:208.59.150.172:NULL
stvsvette:sl1979:stvsvette@aol.com:1950-06-03:US:M:none:steve lang
stvswf1999:Beano521::2001-05-21::M:76.235.201.24:NULL
stvswf99:beano521::2003-11-10::F:76.235.216.97:NULL
stvswyfe:steve:skrz@comcast.net:1969-09-27:US:F:none:M I S S Y
stvtghost:046445361steven:zihengtan_9206@hotmail.com:1992-02-23:MY:M:219.95.27.146:Stvt
stvtghostphan:046445361steven:stvtghost@hotmail.com:1986-01-10:MY:M:none:tan zihan
stvtjuh:dubbel007:deesjuh_loves_@hotmail.com:1989-03-26:NL:F:none:Desiree Steneker
stvtng:enterprisee:stvtng@msn.com:1989-02-15:GB:M:none:John Curry
stvtreker1:bob4565::1995-01-30:US:M:none:stvtreker1
stvtrish:patricia11:patriciagreer1@comcast.net:1972-05-24:US:F:24.7.247.41:trish greer
stvtst:renz0kuken:illusion0101011@msn.com:1984-03-07:MY:M:219.94.63.111:Steven
stvtumbler330:katie101:lilly09876@yahoo.com:1992-04-24:US:F:none:Katie Selway
stvtw123:1234325a:stvtw227@yahoo.com:1987-07-22:VN:M:113.22.51.164:miu
stvt_spunr:rajaram2:juan666666666@hotmail.com:1989-11-29:MX:M:none:Juan Manuel Ochoa Maldonado
stvucxk:190163:stvucxk@yahoo.com:1989-12-30:CN:F:none:chen cherry
stvuk153:nhcuongnhc:nhc2k@hotmail.com:1982-03-15:GB:M:76.164.221.225:hc nhc2k@hotmail.com
stvuo12:s29205677:stvuo12@yahoo.com.tw:1991-01-13:TW:F:BattleDome Opponent Waiting:謝 曉
stvupid:drowssap:o2pinkbitz@hotmail.com:1987-05-20:AU:M:131.170.90.2:Stvupid Gvuy
stvupid1:drowssap:o2pinkbitz@hotmail.com:1969-05-20:AU:M:none:Stvupid Guy
stvupid3:drowssap:o2pinkbitz@hotmail.com:1987-05-20:AU:M:none:Curtis Lang
stvupidbob:drowssap:stvupid@retardsrule.com:1987-05-20:AU:M:none:StVupid Bob
stvupidbob2:drowssap:stvupid@ikillclowns.com:1987-05-20:AU:M:none:StVupid Bob
stvupidgrarrl:drowssap:stvupid@imaterrorist.com:1987-05-20:AQ:M:none:StVupid Grarrl
stvv01:pazzword12::1998-12-23:US:M:96.235.10.12:steven
stvv02:pazzword12::1998-12-23:US:M:69.171.169.134:NULL
stvv03:pazzword12::1998-12-23:US:M:96.235.12.89:Steven Lyons-Wade
stvv902:weaver:pokemonman15@hotmail.com:1985-10-15:CA:M:none:full name
stvvay:nemo1603:yuricps@hotmail.com:1989-07-01:BR:M:none:stv vay vay
stvvballgirl:viv1234:RZZureick@AOL.com:1988-07-24:US:F:152.163.100.138:Sammie
stvvfan:winnen::1992-05-22:BE:M:none:stvvfan
stvvfan977:882794:jorden_vranken@hotmail.com:1990-10-15:BE:M:none:jorden vranken
stvvhm:basketball22::1996-02-05:US:F:24.0.249.48:Susan
stvvnxmuffin:st3v3n:stevensauruus@aim.com:1993-09-06:US:M:75.214.138.184:steven.
stvvvv:qw222:pengzilin2368@sing.com:1986-10-17:CN:M:none:彭梓林 彭
stvv_gek:Lordy309::1998-02-03:BE:M:213.118.9.236:Bonneux Siem
stvwinslow:ravenwood1988::2004-07-04:US:M:71.127.134.138:evan
stvwndr:laugh89lin:stvwndr369@netscape.net:1989-07-02:US:M:none:stephen laughlin
stvwndr246:steven:stvwndr369@yahoo.com:1971-07-02:US:M:none:stephen laughlin
stvwndr369:steven::1994-02-04:US:M:Mail from vgn176:stvwndr369
stvwoo:smw61283:sithknight@yahoo.com:1983-06-12:US:M:none:Stephen Woo
stvyfish:pirate12:stevyfish0626@aol.com:1991-03-01:US:F:98.180.7.12:stvy
stvyoo9:something9:mylles_37@hotmail.com:1988-03-16:CA:F:none:stevie mylles
stvyq92:060592::1992-06-05:US:M:none:stvyq92
stvysgirl1:sunshine1:winterprinsess@sbcglobal.net:1987-09-03:US:F:none:Cinder P.
stvysgirl16:mewmew:stvysgirl@aol.com:1986-09-03:US:F:none:Cinder Purdom
stvy_adorr32712:stephens12:known_for_net@yahoo.com:1992-07-27:US:F:75.68.187.124:Carly
stvy_doido:gusta2003::2003-08-06:BR:M:201.22.191.185:NULL
stvz03:rozenmaiden01:neongenesisadrian@hotmail.com:1992-11-17:MX:M:189.229.50.132:Adrian
stvz_grl13:scout1329:scpnclc1@juno.com:1982-08-13:US:F:none:Candice Conover
stv_:3008335341:pipe_p22@hotmail.com:1984-01-09:CO:M:190.69.228.8:stv_p
stv_0:qwerty6::1993-10-02:CA:M:none:stv_0
stv_1:(ass)::1993-11-22:US:M:none:stv_1
:::::::
stv_10_:9876543210:high.school.musical12@gmail.com:1991-05-29:CL:F:none:stefania  traverso
stv_2011:snmbhs2011:honeybees_girl@live.com:1992-12-18:US:F:173.16.130.240:stevie
stv_3:StarCraftHalo3WarCra:stvricardoblackdemon@hotmail.com:1989-04-20:MX:M:none:Rogelio Solano
stv_813:mustang81:stv813@yahoo.com:1985-08-13:US:M:none:Steve Stasa
stv_alyssa06:rugrats2:stv_mcwilliamss@yahoo.com:1992-12-18:US:F:none:alyssa mcwilliams
stv_alyssa_07:rugrats22:babygurl_stays_07@yahoo.com:1992-12-18:US:F:none:stevie pabona
stv_bea36:2902061:stv_bea36@yahoo.com:1990-04-10:PH:F:none:Lanna Almonte
stv_bea63:2902061:stv_bea36@yahoo.com:1990-04-10:PH:F:none:Elizabeth Therese Almonte
stv_bob:puppers:pandee02@yahoo.com:1987-01-08:US:F:none:Steve Bob
stv_bubs:12345678900000sb:stv_bubs_donut_69@hotmail.com:1987-06-26:CA:M:none:Steven Bubs
stv_dan1994:Nelcook94::1994-05-03:MT:M:none:stv_dan1994
stv_davis:cream367:rae_rae_joy_joy@yahoo.com:1976-05-19:US:M:75.141.105.26:Steve
stv_droo:391767:stv_droopy@yahoo.com:1986-08-29:ID:F:125.163.37.33:stevi L
stv_hilliard:littlecat:stv_hilliard@yahoo.co.uk:1977-12-18:GB:M:none:steve hill
stv_ll:70dede:stv.ll@hotmail.com:1990-10-20:CL:M:201.223.102.179:steve
stv_ll_:70dede:naruto_shipuden48@hotmail.com:1993-10-20:CL:M:201.223.96.25:steve
stv_loreeniux_o7z:steveboy77:chidos_chidos6@hotmail.com:1993-06-21:GB2:M:200.95.151.150:kuno becker
stv_lybra:*evelien*:stv_lybra@hotmail.com:1984-09-28:NL:F:80.60.39.144:Stephanie Verkerk
stv_mltn:01746::1993-11-24:US:M:none:stv_mltn
stv_montanaro:arsenal::1993-05-24:MT:F:none:stv_montanaro
stv_montanaro120:arsenal::1993-05-24:MT:M:none:stv_montanaro120
stv_m_rocks:hannah123:ehinesmatasich@yahoo.om:1994-04-27:US:F:69.208.7.110:mackenzie
stv_nz:stev91:firesword_nightmare@hotmail.com:1991-09-11:ID:M:202.152.173.70:Stefian
stv_slb:orine45!:steevieselby@yahoo.com:1993-05-06:US:F:66.82.9.80:steevie
stv_ter:163725:terkokwei@hotmail.com:1988-01-01:SG:M:none:Steve Ter
stv_vollyball_player:vollyballluvr1::1994-04-27:US:F:none:stv_vollyball_player
stw:money800117:wendy800117@yahoo.com.tw:1991-01-17:TW:F:118.233.139.153:亭蕙 蕭
stw0121:stw0122::1997-11-29:HK:M:218.103.182.141:蘇子韋
stw07f:117money:wendy800117@yahoo.com.tw:1991-01-17:TW:F:118.233.139.153:stw
stw110622:sul7687:stw110622@yahoo.com.tw:1987-08-07:TW:F:203.75.232.169:NULL
stw1133:honeybees11::1998-06-20:CA:F:64.180.67.221:steffi
stw123:yoouda::1990-06-13:EN:M:NULL:NULL
stw1234:66sixsix::2000-03-03:US:M:76.206.46.96:NULL
stw19960502:0605022928::1996-05-02:HK:F:218.103.143.79:stw19960502
stw2004:notomolly09::2004-03-01:US:M:24.7.214.224:Tommy
stw23490:014030:steviewoods03@hotmail.com:1990-04-23:GB:M:86.141.43.181:Steve
stw50609:taylor50609::1997-9-16:US:F:97.89.10.73:sydney
stw5098:stw5096::2000-10-25:US:F:76.112.153.136:megan
stw515:baker3:sablesjc@comcast.net:1993-08-24:US:M:76.22.171.23:seth wesley
stw543:voodoo10::2003-05-04:US:M:72.193.217.246:seth
stw8097:frozone84:scotttwidle@hotmail.com:1990-06-07:NZ:M:60.234.185.10:scott
stw906:9062001::2001-03-21::M:24.176.30.136:NULL
stw913:2340et::1996-09-13:HK:F:14.198.71.91:NULL
stw923:1800re::2007-03-21::F:108.16.25.157:NULL
stwa123:1234554321::2001-03-26:US:M:71.159.152.47:Zachary
stwabeary:lourdes12:edinabina35@aol.com:1995-11-03:US:F:24.143.240.104:Edna
stwaberishotcek:iloveyou2144:vanessahudgens.hui@gmail.com:1995-08-21:MY:F:118.101.72.125:Vanessa
stwaberry239750987:ginger12::2006-07-07::F:69.143.246.215:NULL
stwaberryice:dolphin93:hlonardo93@gmail.com:1993-05-31::F:70.100.112.15:NULL
Stwaberrys:jessica24363665::1997-05-19:BR:F:189.60.165.241:NULL
stwaberry_2010:39735700::2001-07-17::F:77.69.195.30:NULL
stwaberry_ice:dolphin11:stwaberryice@yahoo.com:1993-05-31:US:F:70.100.112.15:Heather
stwabewwy:forrealzzz13:shanaynaybabe27@yahoo.com:1995-11-27:US:F:64.15.218.138:Shani Shoham
stwabewwys:qwertaz12:izyleai@gmail.com:1994-06-27:CN:F:114.84.169.239:Izzy
stwabewwy_girl:99552211:otherwisecuteandsingle@gmail.com:1996-01-13:US:F:75.101.9.252:Arianna
stwabewy_icekweem:azucena1224::1998-12-24:US:F:64.198.141.178:NULL
stwack:green098:brandonwong4@yahoo.com.sg:1995-06-13:SG:M:116.197.233.101:Brandon
stwacker:andrew22:AndrewSelamat@ymail.com:1927-01-05:MY:M:125.162.233.226:Andrew
stwack_giriel:diablo24:harith_haha@hotmail.com:1996-03-29:SG:M:220.255.7.233:harith
stwack_king:517970807:Night_killer@live.com:1992-04-04:MY:M:60.51.36.66:Stwack
STWACK_VIWAWA:kptanong11:tanweiseng_123@hotmail.com:1995-02-07::M:115.132.148.50:NULL
stwadzle:6444st27:stgames27@gmail.com:1996-09-01::M:24.144.194.125:NULL
stwaert:260398:digoprovetti@hotmail.com:1990-06-08:BR:M:189.100.68.159:Rodrigo
stwagie:2036122::1999-05-08:US:F:70.162.23.249:CJ
stwagj:football88::1996-11-29:US:M:98.30.67.200:derek
stwaker:sharingan11::2000-06-19:ID:M:118.136.92.22:stwaker
stwaker_8:sharingan11::2000-06-19:ID:M:114.59.105.75:stwaker
stwaku:apzpkqas11:hoshi.nana@gmail.com:1994-09-15:JP:F:173.51.122.172:Chilbia
stwallstich123:jimmy123:jimmystcroix@yahoo.com:1988-04-21:US:M:208.84.198.58:jimmy
StWalmart:qqqq00:runescape9000@yahoo.com:1994-01-01:US:M:174.24.173.146:NULL
stwamblebum:stwimblebee999::1999-04-18:GB:M:81.103.213.39:Bumhead
stwan0:24cuatrobrasos::1999-02-22:CR:M:201.205.20.186:stwan
stwang:sophia123::2000-10-26:CA:F:99.226.245.32:Sophia
stwang0105:monkeys0105:sharleen0105@hotmail.com:1990-01-05:CA:F:70.70.238.80:Sharleen
stwanley:ramen551::1999-11-28:US:M:72.223.100.89:pip
stwanton:dom1115:domlomibao@yahoo.com:1995-10-08:US:M:75.56.194.175:bobby
STWaohrvlede:wsxwxwxw18:zadkielag@gmail.com:1985-07-18:TW:M:203.75.232.161:NULL
stwar007:marielli12:hoswalito@hotmail.com:1988-03-17:CO:M:190.121.138.196:stwar007
stwar06:silver06::1998-01-31:CR:M:190.35.118.120:stwar
stwar180:31enero::1998-01-31:PA:M:190.35.118.120:stwar
stwar31:enero31::1998-01-31:PA:M:190.35.118.120:stwar
stwarb234:diva234::1999-11-08:GB:F:86.162.136.171:Matty
stwarbarry:javonna10::1998-02-18:US:F:71.64.141.12:javonna
stwarberiz:fl4m1ngo::1998-07-10:GB:F:86.174.159.112:Sumaiyah
stwarberrry:135698::1997-11-06:US:F:74.219.117.78:
stwarberry1:Yellowman12:amillard1@cox.net:1986-05-28:US:M:72.201.169.190:Zack
stwarberry90:pie2345::1998-02-13:US:F:205.188.116.143:Sharita
stwarberry_lipgloss3:hardeeharhar12:Justamonkey101@aol.com:1980-07-22:TO:F:96.244.224.17:Mariah carebear
stwarbewy:stwarbewy12::1997-12-02:GB:F:88.104.154.168:jenny
stward03_4:stward15::1998-06-15:CR:M:201.191.190.218:stward
stward1998:stward19981::1998-06-15:CR:M:201.191.187.180:stward
stward95:mariela95:stward-sasuke95@hotmail.com:1995-8-30:CR:M:201.200.114.246:stward
stward98:150698::1998-06-15:CR:M:201.191.191.112:Stward Guevara
stwardmenor:activate05:stward05@hotmail.com:1992-02-20:DO:M:190.166.30.198:stward
Stwardod:coqueta11:stwardhalo@hotmail.com:1997-11-28:CR:M:201.191.148.74:NULL
stwards11:tretre123::2004-02-28:DO:M:201.229.149.139:NULL
stwardt_p:4534549::1998-08-21:CO:M:190.24.163.135:CRASH
stward_sebastian:serrano08::1999-06-27:CO:F:201.244.255.151:sebas
stwarrberry12:nanapapa123::1999-07-16::F:67.191.157.132:NULL
stwars1:poptropica12345::2000-08-16:US:M:98.228.124.40:alex
stwars1820:pokemon15::1999-01-18:PE:M:201.240.21.70:stwars y jonathan
stwarsrs:stwarsrs21::2000-10-05:US:M:76.100.237.161:seth
stwarsrs2:stwarsrs21::2000-10-05:US:M:76.100.237.161:seth
stwars_1:POKEMON18::1999-01-18:PE:M:201.240.56.106:STWARS
stwars_2:pokemon14::1999-01-18:PE:M:190.234.140.42:stwars
stwars_6:pokemon15::1999-01-18:PE:M:201.240.21.70:stwars
stwars_7_7:pokemon12::1999-01-18:PE:M:200.121.214.69:stwars
stwars_8:pokemon12::1999-01-18:PE:M:190.232.160.20:nalo
