SUAZO17:SUAZ17::1998-06-22::M:76.233.101.125:NULL
Suazo19:Loveing14::2001-05-27::F:75.106.64.58:NULL
suazo1973:12360542k:javiera1998@latimail.com:1973-11-19:CL:M:none:claudio suazo
suazo26:alexia10:agh_0894@hotmail.com:1994-04-08:MX:M:189.153.35.243:alberto
suazo2669:violeta12:popis@hotmail.com:1991-10-10:MX:M:201.172.192.123:javiergutirres de la olvera
suazo2_6:suazo26:pepitojuares@hotmail.com:1990-10-16:HK:M:189.152.208.21:pepito juares
suazo3:ronaldo54::1999-8-1:HN:M:99.93.102.221:brayan
suazo32:suazo23::1997-12-19:HN:M:190.53.74.180:riardo jose rodas suazo
suazo3581:3581mon:moralesmorales.ramon@yahoo.com.mx:1985-01-03:MX:M:207.138.82.4:ramon morales morales
suazo851:851suazo:www.elecom@ig.com.br:1908-01-25:CA:M:189.78.9.167:bin laden burger
suazo9:honduras17:e_javier7@yahoo.com:1994-03-06:US:M:76.210.61.23:Javier
suazo99:getfree24:chrissuazo99@aol.com:1989-12-24:US:M:96.232.208.131:chris
suazoboo:booboo97::1997-03-31:HN:M:63.161.232.107:angel
suazofr080:stipanya::1991-12-12:PH:M:none:suazofr080
suazojavier:thegame1:thejsuazo@yahoo.com:1988-10-11:US:M:none:Javier Suazo
suazojose:7863893296:thejsuazo@yahoo.com:1988-06-24:US:M:none:Jose Suazo
suazokid9372:10luckyducky95::1995-04-28:US:F:75.70.176.221:suazokid9372
suazokv070:jesus::1992-10-19:CA:M:none:kevin suazo
suazoo:matisuazo1895:matisuazo@gmail.com:1980-05-07:CL:M:201.215.189.43:john
suazooo:210498:carregalsophia@yahoo.com.br:1994-04-21:BR:F:200.164.162.165:sophia
suazoraul:raulraul:raulsuazo315@hotmail.com:1990-02-21:HN:M:none:Raul Suazo
suazorayado:suazo26::2002-06-19:MX:M:189.154.77.130:NULL
suazosuazo:manuel11::2000-03-30:MX:M:201.172.188.248:pablo
suazosuazosuazo:manuel11::2000-03-30::M:201.172.188.248:NULL
suazosuazosuazo1:manuel11::2000-03-30:MX:M:201.172.188.248:pablo
suazosuazosuazosuazo:manuel12::2000-03-30:MX:M:201.172.188.248:pablo
suazosuazosuazo_6:manuel12::2000-03-30:MX:M:189.154.16.98:pablo
suazot:trakemsuat1453:suattekeli_p06@hotmail.com:1993-02-25:TR:M:94.123.140.95:suat
suazoz:socks::1992-08-18:US:F:none:suazoz
suazoz1:socks1::1992-08-18:US:F:none:suazoz1
suazo_10_a27:rafael10::1997-10-29:HN:M:190.4.37.232:rafael
suazo_12:chupete 12::2000-08-27:MX:M:189.238.40.121:mateo
suazo_123:pepito123:b.floresalcayaga@gmail.com:1990-01-01:CL:M:200.83.176.21:benjamin Flores
suazo_2000:zambrano_2000::2000-02-03:CL:M:190.164.189.20:ignacio
suazo_2001:sam2001::2001-9-2:CL:M:190.22.158.107:sergio
suazo_20_52:SUAZO12::2001-08-13:CL:M:69.26.186.4:NICOLAS
suazo_26:chupete16:xfabitox_26@hotmail.com:1992-11-11:CL:F:201.222.183.12:fabian martinez
suazo_26222:tacu10::2001-10-15:MX:M:201.172.140.77:NULL
suazo_26_7_7_7:agente86::1997-09-17:MX:M:189.156.187.187:Juan Pedro
suazo_9_14:gaygay09:christophercerda26@hotmail.com:1996-01-01:CL:M:190.21.126.193:christoper
suazo_chupete26:chupete26bendito::1996-11-25:MX:M:189.160.82.251:alvaro saul hernandez mora
suazo_cjupete13:chupete13golazoz::1996-11-25:MX:M:189.160.82.251:alvaro saul hernandez mora
suazo_happi:cosmos12:suazo_happi_desorden@hotmail.com:1994-06-01:CL:F:201.246.205.41:fabiola suazo
suazo_happi_2007:cosmos12:navarro_cosmos12_2007@hotmail.com:1989-06-01:CL:F:190.45.151.15:fabiola
suazo_linda_aa:suazo10::1999-11-14:CL:F:200.86.95.31:valentina suazo
suazo_suazo_7_7_7:gus@sug::1992-11-20:EN:M:NULL:NULL
suazo_suazo__aa:1adg::1995-12-29:EN:M:NULL:NULL
suazo_sua_45__36:suazo45::1999-01-01:MX:M:204.2.199.22:roberto
suazo_time:nonaino1:suazotime@hotmail.com:1986-02-28:ES:M:none:Carlos Suazo Lopez
suazri888:azri3212:salitazri@yahoo.com:1974-09-17:SG:M:202.156.13.4:azri
suazskye:rayzex34::1999-12-8:US:M:76.205.203.59:jeffrey
suazz1:112809h::1999-07-22:US:M:98.242.0.94:ricardo
suazz408:112809bh::1999-06-22::M:76.103.209.60:NULL
suazz559:112809h::1999-06-22:US:M:76.103.209.60:ricardo
sua_12:misia12:trouducul@yahoo.fr:1986-03-12:FR:F:none:juju rgs
sua_1204:12045406:ssming_88@hotmail.com:1988-12-04:MY:F:60.54.101.167:soo ming
sua_123:426083::2007-03-03::F:188.48.45.134:NULL
sua_36:fransua56:mlita_66_1995@hotmail.com:1995-10-15:ES:M:190.42.201.47:NULL
sua_45:88848010:caralhoentra@hotmail.com:1991-03-27:BR:M:201.12.173.8:carai
sua_75:sua1218:suajo75@yahoo.com:1996-12-18:PH:F:119.95.56.1:Su-A
sua_a25:lahechi25:lahechialepame@hotmail.com:1982-04-07:AR:F:200.126.160.246:alejandra
sua_ale:joshua320::2006-03-20:US:M:76.102.84.83:YoUnG SUa
sua_altezza:collezionista01:avatarlandia@email.it:1982-05-05:IT:F:213.156.55.139:Sua Altezza
sua_altezza1:collezionista2:avatarlandia@email.it:1982-05-05:IT:F:213.156.55.139:Sua Altezza
sua_as:supers6:sollotla@hotmail.com:1987-02-08:MX:F:none:Sua x
sua_avo456:barbie45::2000-06-12:BR:F:201.42.196.110:Gabriela
sua_bulldogs:catlover8802:jkarelg@yahoo.com:1988-10-01:US:F:63.215.132.245:Mattie Glitter
sua_cho:SuaCho96::1996-08-08:GB:F:84.69.133.51:Sua
sua_coisinha:micaela20::2001-01-03:BR:F:189.61.119.67:PAOLA
sua_cx_lotou_dre:0::gabriela11_1_1:F:1956-02-16:0:dre
sua_der_jav_edu1998:merenge98::1999-12-16:HN:M:190.53.58.239:pini
sua_doida:sou#peba:vecaiome@yahoo.com:1993-06-21:BR:F:200.149.60.20:Catarina Fernandes
sua_doida_2:isa tkm89:fcmfiorani@hotmail.com.br:1996-08-17:BR:M:200.159.122.114:maria clara
sua_fofinha:0147258369oo::2000-02-11:GW:F:201.78.56.77:Paola
sua_fr5ancis:031995:sua_francis@yahoo.com:1990-03-19:PH:M:203.87.192.198:Francis
sua_frosh:angry112:tlanton@saintursula.org:1990-10-04:US:F:198.203.81.19:Taylor Lanton
sua_gatinha:gata12:gabigomes8@gmail.com:1993-11-12:BR:F:200.97.191.9:gabriela gomes viera
sua_gil_sternenuhr:9asgar6:suageli@googlemail.com:1909-09-29:DE:F:84.144.253.50:EXeines
sua_hora_chegou:arrombado26:nobredemoraismarcelo@yahoo.com.br:1991-12-26:BR:M:201.74.94.133:marcelo
sua_loja:viviane11:ramonnitrox@hotmail.com:1989-12-12:BR:M:201.29.250.110:ramon
sua_luci:suarez258::1997-06-21:AR:F:190.51.177.146:Lucia
sua_mae:050690:sergiogalvao@gmail.com:1990-06-05:BR:F:none:killik killik
sua_mae_de_4:CLAUDIO45::1997-04-24:BR:M:187.41.11.239:Claudio junio
sua_mae_pelada:suama:alexmonf@uol.com.br:1989-04-13:BR:M:none:alex monfredini
sua_mae_ta_dando:neopets999::2008-08-03:CC:M:200.232.161.26:Sua_Mae_ta_dando
sua_magestade_rj:87668218:lilitys2_@hotmail.com:1990-10-17:BR:F:189.25.188.48:XENA A GUERREIRA
sua_mala_sem_ausa:dudufefe12::2002-09-17:BR:M:189.58.69.181:eduardo
sua_melee:63842328::1999-02-04::F:66.41.235.33:NULL
sua_melhor_amiga:369258::1999-02-03:BR:F:189.103.203.1:Gabriela Souza Lima
sua_milo:2681999::1999-08-26:VN:F:222.253.92.166:Helen
sua_morte:11001100:brunoohh11@hotmail.com:1989-08-25:ST:M:189.35.189.82:i have no name
sua_na:132456::2000-06-21::F:66.41.235.33:NULL
sua_otaria:idiota13:palitinho@hotmail.com:1927-09-07:LB:M:201.66.25.117:Voce Eh Der
sua_pan:147852369:hongch@hotmail.com:1909-12-31:TN:F:220.255.7.237:chia
sua_portuguesa:devonte:melly_p17@hotmail.com:1991-03-12:CA:F:none:mel noworries
sua_samoan:starbrights&*(:kitty786@hotmail.com:1990-01-26:NZ:F:none:Afrikah Solia Makisi
sua_so:605485:orsion7@hotmail.com:1990-01-19:ES:M:none:borja rivera
sua_sogra:36811539:lucci.gabriel@gmail.com:1961-02-05:BR:F:189.55.135.193:claudia lucci
sua_sponte:nhanley07:demonicsushi@gmail.com:1988-12-02:US:M:67.170.47.173:Nate
sua_sua:FishSTICKS28:azurebleu@mac.com:1975-12-16:US:F:184.32.191.3:Lexia
sua_ta_ura:001010:saila_mf@hotmail.com:1988-09-01:ES:F:85.85.1.78:yaiza
sua_teamo:adidas100::1998-02-20:MX:M:189.226.216.192:lalo
sua_tia1:gustavo40:gustavo_ungarato@hotmail.com:1994-01-30:BR:M:201.53.16.62:NULL
sua_ve:128415:sergiosua-ve@hotmail.com:1988-06-22:CO:M:201.233.184.21:Sergio Suárez
sua_vo:angelot321::1997-07-24:US:M:200.219.102.108:angelo felipe testa
sua_xin_yee_96:cutepig38::1996-01-15:MY:F:60.53.24.100:sua xin yee
sua_yoon_222:^sua^:sua_yoon_222@hanmail.net:1992-06-28:KR:F:none:Su A Yoon
sua__83:100483:dolphinblue_69@hotmail.com:1983-04-10:ES:F:none:sua hurona luna
sub000:roblox12::2000-07-02:US:M:68.41.168.188:NULL
sub00000:sub0099::2001-01-13:US:F:97.83.164.187:NULL
sub0000_57:jon cena12:nacho_cacique_@hotmail.com:1990-09-22:CL:M:190.82.17.255:nacho
sub000310:000310::2000-03-10::F:208.120.117.79:NULL
sub00rosso:jin00joker:shot_star_trumpet@yahoo.co.jp:1995-10-09:JP:F:218.217.133.29:sakura00addiction
sub010005:qazqwe1500:justin_greatest@yahoo.com:1992-01-10:US:M:75.37.128.50:Its Non Of Ya Beezwax
SUB012:SCRPING12::2001-09-13::M:68.52.237.13:NULL
sub0123:jacob123::1997-12-29:GB:M:77.96.26.169:Jacob
sub0311:tom0311::2005-04-05::M:216.186.193.56:NULL
sub03319205:master23:sub3319205@aim.com:1992-03-31:US:F:24.218.181.52:Hong
sub0844:321654987:geauxbb1@cox.net:1996-08-06::M:98.181.46.139:NULL
sub0996:m0rtalk0mbat:subzero0996@gmail.com:1993-11-05:GB:M:81.132.142.66:steven
sub0cay:iacobu55:subocay@gmail.com:1975-10-15:ES:M:85.137.53.119:jacobo
sub0zero0xxx:subzero94:sub.zero.xxx@hotmail.com:1994-03-10:CA:M:75.80.122.187:peter mark
Sub0_Z:lucario12:arcticgenerationx@yahoo.com:1991-11-20:US:M:165.254.92.28:NULL
sub100:milkshake12::2002-02-24:CA:F:174.112.161.219:NULL
sub100k:10aMJ13::1998-04-15:MX:M:189.193.233.175:sub100k
sub1010:10101993:zabinaho1010@hotmail.com:1993-06-29:HK:F:218.102.81.87:Zabina Ho
sub10twomile:track0405:runnerotc@aol.com:1988-05-23:US:M:24.239.59.37:matt kroetch
sub10_sub10:palmeiras10::1999-02-27:BR:M:200.102.13.231:luan
sub111:velat123::1999-12-01:CA:M:67.68.196.98:John
sub112000:2000sub11::1996-06-08:BR:F:200.19.200.4:NULL
sub117:julien321:sub17@aol.com:1992-08-24:US:M:75.37.106.65:JJ
sub119:cherry119:jennifer_fabulous118@hotmail.com:1990-02-28:CA:F:76.68.117.126:Sabrina
sub11vegueto:123654car:carlosmedina123@hotmail.com:1993-11-06:VE:M:200.8.207.147:Carlos
sub1234567:danielle::1993-11-02:US:M:71.167.46.184:David
sub1234567890:benten10::2005-04-08:GB:M:92.23.179.7:NULL
sub12345678910:star123:sparkle.kitty@hotmail.com:1988-06-15:VG:F:142.167.122.132:leoa
sub13:plumseeds11:submarine3@hotmail.com:1986-02-28:US:M:64.195.2.114:sal
sub1342:stealcar12::2000-12-09:GB:M:81.141.1.20:liam
sub13zero:sz7895123:davidred13@hotmail.com:1990-07-22:BR:M:201.58.123.243:David
sub16723:turtle12::1996-01-26:US:F:206.251.10.175:Marco Polo
sub167234:turtle1234::1996-01-26:US:F:206.251.10.175:Bill
sub171999:Pikkle98::1999-03-17:AU:F:211.28.143.236:Bec
sub1777:emma123456789::2000-04-12::F:97.81.161.124:NULL
sub184:60keatsrd:susanalison114@yahoo.com:1991-01-14:US:F:66.71.32.174:Susan
sub199701:bne2gether4ever::1997-09-01:US:F:67.77.48.10:southern
sub1999:grace123::1999-01-23:US:F:68.19.254.23:Grace
sub1zero09:mandog90::2000-03-07:US:M:99.30.98.228:devin
sub200:xavier20::2002-06-22:US:M:99.126.232.36:NULL
sub20daxurupita:juninho14:juninho_12kaaa@hotmail.com:1995-01-06:BR:M:189.31.229.111:juninho
sub20likestoplay:2845dead:angelfdeath15@aol.com:1987-10-02:GB:F:81.151.181.85:alemica
sub20_pordosol:perguntapramaisa02:lo.gatinho@hotmail.com:1993-08-20:BR:M:201.68.197.142:Dani e Lely
sub21:celsi7:sub21yu@yahoo.co.uk:1970-01-07::M:109.93.119.141:Goran Smiljanic
sub211:mikalsub12:seaugustus9@aol.com:1997-06-19:US:F:69.171.160.187:NULL
sub21xx:kitten454:alexmorgan49263@gmail.com:1987-07-14:US:M:74.167.143.211:sub-zero1
sub2212:sabrina11::2004-11-16::F:75.18.174.130:NULL
sub2223:asde12::1999-11-27:US:F:66.74.86.9:sunny
sub225:fatguy123::2000-12-26::M:24.47.210.106:NULL
sub269:clifford11::2000-05-15:GB:M:86.6.169.123:jack
sub2gurl3:jeremy21:sub2gurl3@aol.com:1991-08-21:US:F:174.50.32.58:Crystal Broome
sub300095:crystalization00:sub_300095@hotmail.com:1990-07-30:CA:F:99.243.226.70:subhanya
sub313:brey646::2000-09-23:US:F:66.227.148.188:aubrey
sub3210:polite21:www.lolha@yahoo.com:1996-08-12:US:F:24.155.34.200:katie
sub32101:polite210:ksmith3210@gmail.com:1955-03-07:US:F:24.155.34.200:kathy
sub3319205:master23:sub3319205@yahoo.com:1992-03-31:US:F:24.147.41.18:Hong
sub39:bibi44:prolix@verizon.net:1989-07-17:US:F:71.245.178.221:Celeste
sub3xurupita:157171:giovany_fatal@hotmail.com:1994-11-25:BR:M:200.171.234.179:Giovany
sub4000__79:sammy33::1999-10-16:NZ:F:203.211.125.81:samantha
sub4398:oluap99::1999-04-13:US:M:69.144.171.138:paulo
sub439872:oluap999:ytypo123@gmail.com:1994-04-13:US:M:69.144.171.138:Paul
sub4561:chiquis12::2001-06-29:US:F:72.86.73.82:NULL
sub4ru:shinichi:vilekaboom72388@yahoo.com:1988-02-29:US:F:130.212.150.206:S u b a r u
sub555_5:futebol05::2000-01-25:BR:M:187.25.178.137:michael jordan
sub586:valentine6::2000-12-08:US:M:69.118.136.12:sub586
sub594:alexmorris88:dudest3r_991@hotmail.co.uk:1990-03-10:GB:M:91.109.59.193:Alex
sub6409:justin123:jkykyky@gmail.com:1995-06-14:US:M:207.88.215.12:jesse
sub67896:subrocks45:sabrina.rivera37@yahoo.com:1997-02-02:US:M:50.13.92.95:NULL
sub77:subhan77::1999-04-14:US:M:75.36.241.186:Subhan Khan
sub7727:112389:cjsub69@yahoo.com:1989-12-26:US:M:70.180.200.186:whitley
sub7777777:pokemon77::1999-04-14:US:M:75.36.241.186:subhan
sub7800:haazin55::2002-09-12:US:F:173.73.18.14:Subyna
sub786:suhayb12::1998-04-03::M:116.71.177.122:NULL
sub7ank:1qaz2wsx:sublittle_tank91@yahoo.co.uk:1991-01-11:GB:F:94.192.79.93:Sub
sub7boy:scaleo77:beto977@gmail.com:1977-02-03:PT:M:85.138.170.240:Carlos santos
sub7ek:deathlol11:subtek.wow@gmail.com:1989-08-28:AU:M:124.185.39.91:Chris
sub7hi:123456s:s.subeg@yahoo.com:1990-03-11:US:M:69.225.17.233:subs
sub7imina7:abcdefghij:sub7imina7@aol.com:1987-04-28:US:F:64.154.162.99:Molly Lush
sub7sara420:punkin420:sub7sara@hotmail.com:1990-04-20:US:F:69.66.248.85:Sara
sub7zerox:hazmatt20:planetmenifeeusa@aol.com:1986-11-18:US:M:75.111.63.178:Matthew
sub7_westy:westy1:sub7@tasmail.com:1981-04-06:HK:F:none:guyg uyuy
sub8:surbhi2111::1993-11-21:NZ:F:none:sub8
sub800:eomi2:pankaj.k@hotmail.co.uk:1988-09-18:GB:M:none:Ankush Kumar
sub8000:o1t2a3::2000-07-11:BR:M:189.54.247.231:Otavio Rafael Cunha e Silva
sub800000000000:asshole::1993-10-17:GB:M:none:sub800000000000
sub8228:neodeath:sub8228@hotmail.com:1985-07-28:US:M:none:rog tro
sub8238:neodeath:sub8238@yahoo.com:1985-07-28:US:M:none:Roger Trottier
sub829:subster:subster0@hotmail.com:1987-07-03:AU:M:none:Mikey Anderson
sub8555:ar1t23::2000-07-11:BR:M:189.54.242.192:Otavio Rafael Cunha e Silva
sub87:82825:leopecu_machu@yahoo.com.ar:1987-07-29:AR:M:none:Juanjo Cabello
sub8908:33010470::2004-05-04:BR:M:187.2.90.126:NULL
sub898:bobjob:rjbzz@aol.com:1990-01-01:US:M:none:Sub
sub8rinaa:esther123::1995-09-18:US:F:76.93.41.234:sabrina
sub8sub:102938:sebas-pokemon@live.com:1990-01-01:US:M:174.18.171.4:Sub
sub8_2003:095571:sub8_2003@hotmail.com:1981-09-29:MY:M:Acceptance:foo lee
sub901:s469123::2001-03-01::M:75.26.254.23:NULL
sub901_98:angel12::2001-03-01:US:M:75.26.254.23:angel
sub903:23655076:angel_tsoi927@hotmail.com:1990-09-27:HK:F:221.127.9.138:angel
sub905:xander12::1997-09-05:US:M:75.58.85.32:sebastian
sub917:917srb:comeonsabrina@comcast.net:1988-05-17:US:F:68.81.56.230:Mia
sub92:ozzy15:yazdaanjuma@msn.com:1990-07-24:US:M:75.72.26.194:none
sub931134780062763:del35::1994-03-07:US:M:none:sub931134780062763
sub94:eal13:papermario33186@yahoo.com:1989-02-01:US:M:none:Esteban Laborde
sub98765:c784512:atomiccyrax@ymail.com:1988-10-25:US:M:71.226.227.3:adam
sub987654321:danielle11:posessedchild92@aol.com:1992-04-09:US:M:71.167.46.83:
sub9880:hello11:bannanaphone777@yahoo.com:1994-02-14:US:M:70.176.233.155:aaron
sub99:owlshaven:emsanangel_12@hotmail.com:1986-11-29:GB2:F:none:emily catchpole
sub990:11214521:apples288@msn.com:1986-01-15:US:F:none:Katie Xie
sub9999:mcdonald::1992-09-26:US:M:72.70.186.219:sub9999
suba:furzaline):veroni.hu@web.de:1991-03-31:DE:F:93.192.164.171:Lucia Holler
:::::::
suba0505:garish19:suba05@hotmail.com:1992-02-03:US:F:142.204.125.162:Suba
suba07_jathis02:indianmovie72:cuteangel_suba-7.7.7@hotmail.com:1995-07-07:CA:M:69.158.1.85:NULL
suba0897:suba97::1997-12-09:GB:F:82.13.153.50:suba
suba1:subasuba:subakaran@gmail.com:1971-08-18:CA:M:none:Suba Naganathan
suba10:chithu18:subaanki5@yahoo.com:1988-12-05:CA:F:99.238.128.206:Subaanki
suba1011:sivamany11:suba11@hotmail.co.uk:1993-02-10:GB:F:78.145.72.235:suba
suba1091:pueba10:privateproperty1091@hotmail.com:1991-06-10:MY:F:60.48.83.50:SUBA
suba10_aa:pie5678::2000-12-11:US:M:72.193.119.188:bob
suba11:scouty11:majictrix21@yahoo.com:1994-01-21:US:F:68.170.179.95:suba11
suba1107:11071107:suba1107@yahoo.com.tw:1981-11-07:TW:M:none:藍色 夏威夷
suba111:sivamany11::1999-02-10:GB:F:78.149.47.116:suba
suba1112:fsu30:suba1111@yahoo.com:1975-11-28:US:M:none:suba johnson
suba12:staer12::2004-01-24:CA:F:99.226.186.153:suba
suba123321:stonecold2684:subabatistuta@gmail.com:1993-03-22:CL:M:none:benjamín subiabre
suba1291:pangilinan12::2002-12-2:CA:F:99.245.146.31:sam
suba174:ruroni:denise90s@hotmail.com:1981-01-21:CA:F:none:DENISESUBA
suba18:nickjonas16::1997-04-24:US:F:67.177.67.251:shelby
suba1994:20avril:just_me_suba@hotmail.com:1993-04-05:CA:F:none:Suba Lankan
suba1997:subang1997:gsuba97@hotmail.fr:1990-12-09:GB:F:82.231.199.190:suba
suba2:subanki1::1999-02-10:GB:F:78.150.38.47:Suba2
suba202:suba1982:subajini@hotmail.com:1982-04-22:CA:F:none:suba Thanikasalam
suba2094:2094suba::1994-04-20:CA:F:none:suba2094
suba2113:Gorgia:michaelsjuve@yahoo.co.uk:1990-05-21:AU:M:none:michael sjuve
suba23456:012340::2002-05-18:BR:M:201.1.97.195:suba
suba24:NICKJONAS16::1997-04-24:US:F:67.177.67.251:SHELBY
suba28:luv28_14ever:suba-28@hotmail.com:1991-08-28:CA:F:99.247.108.5:Suba
suba29:gk7067::2005-12-11::M:175.145.37.203:NULL
suba2912:rojaskca:subany_white@hotmail.com:1980-03-03:MY:F:none:suba &suba
suba2blue:sparky2:www.suba2blue@yahoo.com:1992-12-09:US:F:none:suba baskaran
suba2blue13:sparky13:suba2blue@yahoo.com:1994-12-01:US:F:68.217.45.105:sparkylad13
suba321:zero123:sub.zubzub@gmail.com:1986-05-02:BR:M:none:Nelson Wilhelms
suba35:bavan42::2000-04-05:CA:F:67.68.50.22:NULL
suba38:suba1982:subajini@hotmail.com:1982-04-22:CA:F:none:suba thanikasalam
suba44:lipdil44::2004-04-26:CA:F:74.210.98.44:suba
suba4455:coll4::1995-12-04:MY:F:210.195.0.127:suba4455
suba47:ryoma258::1998-08-23:US:M:69.145.90.252:subaru
Suba4me:gadmire45me:victoriacm01@msn.com:1990-03-29:US:F:69.255.234.141:NULL
suba555:colin2002::2002-01-20::M:84.193.67.129:NULL
suba65:123hello::1997-10-12:CA:F:99.238.75.249:Suba
suba72925:rad911:sky72925@hotmail.com:1983-09-25:CN:M:Item:杰倫 陳
suba73:sally:sal_angel2@hotmail.com:1991-01-07:GB:F:none:sal philpott
suba79:loser69:xsuba79x@yahoo.com:1979-02-03:MY:F:219.95.253.241:Subashini
suba7u:thormx:dextreme_01@hotmail.com:1992-03-29:GB:M:none:Declan Meers
suba8:starzz:warmwabreeze2@aol.com:1989-04-22:US:F:none:Savanna Flory
suba91:westlife9:subaasinisubramaniam@hotmail.com:1991-10-20:SG:F:none:subaa subra
suba97:sng1997:gsuba-wat@hotmail.fr:1981-12-09:GB:F:78.149.170.41:suba nanthini
suba99:100699::1999-10-06:US:F:69.142.222.185:suba99
suba999:mugilla11:suba11@hotmail.co.uk:1993-02-11:GB2:F:82.36.122.194:suba
subaaaaaaaaaaaaa:14785:victoriacm01@msn.com:1990-03-29:US:F:none:Victoria cosio-marron
subaaguggl:Alaskaitalia:taman_sam@yahoo.de:1988-11-02:DE:F:none:Orlando Bloom
subaanki96:queen101:subaanki.sri@hotmail.com:1996-12-05:CA:F:99.238.40.77:subaanki96
subaa_linha:951122:alicinha_agm@hotmail.com:1994-11-22:BR:F:189.62.248.72:suba linhaa
subaba:crummy::1993-06-11:CA:M:none:subaba
subaba101:zoe101:victoria-arruda@hotmail.com:1980-02-24:BR:F:187.37.67.162:victoria
subababa:michaelalex11::1999-05-16:NZ:F:203.160.126.181:AlexMichaela
subababy:bumbum55::2001-12-21:US:M:200.62.106.229:NULL
subabadboi:9972298:subabadboi@yahoo.com:1989-09-27:US:M:none:suba lo
subabalol:subaba101:j.f.v.98@hotmail.com:1997-07-07::F:68.84.251.55:NULL
subabe1566:mikes::1991-09-23:US:F:none:subabe1566
subabe44:becky:rleet18@hotmail.com:1991-06-24:US:F:none:B T
subablue:mingo.com::1987-09-06:BR:F:none:palimino punch
subabooba:heyboy92:trulycharmedthepowerof3@cox.net:1992-11-26:US:M:72.219.205.230:Josh
subabor:4313683::1999-02-15:PE:M:190.222.96.162:Diego
subaboru_4839:detective1:saran_ja@hotmail.com:1993-03-17:TH:F:none:Saranchitr Bijaisoradat
subabub64938:LOSER::1994-04-12:US:F:none:subabub64938
subabuba:gmp1234:jeska-jeh@hotmail.com:1992-01-19:BR:F:189.35.27.195:bibi_s2s2_fofinha
subabub_15:kelsey12::1993-07-14:CA:F:none:Kelsey Anderson
subaby:su72321::1999-12-11:TW:M:203.75.232.168:蘇瓞
subaby77:foxxy77:lollipop_11@hotmail.com:1992-05-25:CA:F:99.249.173.135:aitana
subaby8497:numbers125:subaby84@yahoo.com:1984-09-20:US:F:none:Charissa Moncer
subabyangel:thiago:subabyangel@hotmail.com:1988-08-04:BR:F:189.110.238.195:Suelen Bianciotto
SuBabyy:emilio13:sdeje13@aol.com:1990-12-28:US:F:71.192.164.199:NULL
subacc:456789:ongpohchuan@hotmail.com:1975-01-01:HK:F:none:mary jane
subacc4axuasoxange:michelle000:beachdudet@yahoo.com:1991-11-15:US:F:71.176.192.70:Christa
subacca:kaelin:subacca@hotmail.com:1979-04-03:US:F:none:S A
subaccount110011:lemon11:gothic.banana@yahoo.com:1993-03-11:US:F:24.46.108.94:NULL
subaccount777:jjvball09:xx_jessica_23@yahoo.com:1990-10-19:US:F:74.139.89.227:Alexa
subaccount_3:kimmie3000::1998-05-26:BR:F:189.121.225.113:Nome
subachao:0903749965:minhnhut_2727@yahoo.com:1992-12-13:VN:M:203.162.3.147:Nhut
subachtin:princess13::1998-03-13:US:F:97.82.146.192:tiffany
subaci:coolio::1992-03-24:US:F:none:subaci
subacid:swopot:postmaster@donutsarespiffy.iwarp.com:1990-06-30:US:F:71.202.172.56:daisy
subaciusbalza:8228235:daniela_csb@hotmail.com:1986-11-21:VE:F:none:daniela subacius
subacka:32der32:doggiepup@yahoo.com:1983-11-05:US:M:75.49.72.131:bob
suback_u:kaboto45:kjandayan@yahoo.com:1988-09-20:PH:M:none:frana jandayan
subaco:gangrel_:clandabesta@bol.com.br:1987-12-09:BR:M:none:raphael ribeiro
subacool222:aliona222::1994-04-20:CA:F:none:subacool222
subacor:4313683::1999-02-15:PE:M:190.222.101.103:Diego
subacosuleide:renata13:renatarodrigues.1996@hotmail.com:1996-07-01:BR:F:201.86.154.78:subacosuleide
subacountk:clover1112:stacie.davidson@hotmail.com:1981-01-19:CA:F:216.185.69.97:kilovot
subaco_4:subaco23:andre18.89@hotmail.com:1989-08-31:BR:M:201.1.191.166:André
subaco_veio:123456s:engenharia@construtoragallo.com.br:1984-04-04:BR:F:189.55.70.156:tais
subacquea:27102000::2000-10-27::M:79.38.213.106:NULL
subacua:26151685:daniels_j5@hotmail.com:1995-06-05:VE:M:190.207.147.64:daniel
subacuatico:AGUAwater11:maracuatico@hotmail.es:1990-05-01:MX:M:189.163.203.148:Jorge
subacuatico2:alex.24::1999-03-30:CO:M:186.97.75.20:alejandro
subacuba1234:coco1234::2001-03-12:US:F:71.204.52.172:NULL
subacube:jfy23t:orange-noodles@hotmail.com:1988-06-24:AQ:M:78.48.120.214:suba
subacueoo:mareblu70:stefanopesci@tiscali.it:1970-12-25:IT:F:none:stefano pesciani
subaculionilda:peido@:leucotrim@hotmail.com:1969-07-30:BR:F:none:su bacu
subacultcha:scrapper21::2002-03-01::M:99.175.83.34:NULL
subacz:peter::1993-01-27:US:M:none:subacz
subad23456:elmisterio234:amber15@hotmail.con:1996-05-24:PA:F:166.237.208.8:NULL
subadar:mcqueen car24::2003-09-27:CA:M:70.24.123.159:kevin
subadar_435:geronimo 3456:foreverlove@hotmail.com:1980-06-01:CA:F:70.24.123.159:christina
subadd:3698741:kth5@verizon.net:1975-05-20:US:M:none:Addison king
subadd23:jk!haha43::1997-04-16:US:F:76.97.155.7:bridget
subadeez:kelsey1985:subadeez3@gmail.com:1985-01-13:US:F:64.12.116.8:kelsey
subadeez2:   mandy:xx_mandy04_xx@yahoo.com:1985-05-06:US:F:none:Mandy Roy
subadendai:giggare123:anna.helminen@kolumbus.fi:1994-03-21:FI:F:83.245.242.38:Ann
subadgungy:HARRY AIDAN::1994-02-26:NZ:M:none:subadgungy
subadi:liger65:dcken93@yahoo.com.sg:1991-06-24:SG:M:none:erfan subadi
subadiver:code199::2001-06-23:US:M:68.49.124.152:cade
subadiver13:darrian13::1997-05-25:US:F:24.11.106.129:Darrian
subadivingdonkey:donkey:angelindaclouds@hotmail.com:1990-11-06:GB3:F:none:laura lou
subado:ihateusa2:jojo_master2002@yahoo.com:1979-06-17:IQ:M:69.230.208.182:Uday
subadobado:pasta23::1999-11-11::M:76.28.101.84:NULL
subadooba:libaba:allaboutavril@aol.com:1985-12-09:US:F:none:Reverse It
subadra:athreya64:essveeraj@yahoo.co.in:1988-06-10:IN:F:none:suba raj
subadra23:subadra:muffydink1993@aol.com:1980-09-25:US:F:none:subadra arun
subadra_9_9:hiralall26::2001-10-21:US:F:208.120.248.27:lila
subadrita_100:subadrita10:lola_mirabai@live.com.mx:1995-11-26:MX:F:189.141.57.232:*Subadrita*
subadu:::90041:1984-09-22:bocoth:0:Alec
subadub650:bling:kbeck_29@hotmail.com:1991-04-23:US:F:none:casper green
subadub9009:dubasub99::1995-08-06:US:F:98.14.193.76:subadub9009
subadub99:dubasub99:COCOAFREAK95@AOL.COM:1995-08-06:US:F:96.224.32.170:k
subaduba:psychopanda121:bderoo@bellatlantic.net:1987-07-04:US:M:none:Brendan DeRoo
subaduba1234:alexiscute123::1999-11-30::F:68.201.97.217:NULL
subadubie:c3po!::1994-01-23:US:F:none:subadubie
subadubie_12:hotguys14:subadubie_12@verizon.net:1994-01-23:US:F:71.112.66.176:sadie
subadubie__46:ruby1::1994-01-23:US:F:none:subadubie__46
subaer:888881:shtr8_so9bn2re2_1ssyr@yahoo.co.jp:1991-12-01:JP:F:220.17.238.169:さﾔ 渋谷
subaeroz0r:mikki1:gabes@whoever.com:1988-06-26:US:M:76.103.227.209:ryan arcaina
subafab:garfield::1994-05-07:GB:M:none:subafab
subafu1234:skate1:jo_sylvain@hotmail.com:1987-10-08:BS:M:none:jo jo
subag:darkstyle:gabus_@hotmail.com:1986-11-23:AR:M:none:fernando  marchis
subagal1430:suba14:rachel_oceanblue@hotmail.com:1989-08-14:MY:F:124.13.186.53:suba
subagandy:toby2002:dfa71@yahoo.com:1977-10-09:US:M:72.72.78.127:Dan
subagirl:theodore:rachel_oceanblue@hotmail.com:1989-08-14:MY:F:60.48.170.152:suba shini
subagirls1:flash123::1998-02-22:US:F:72.193.107.53:Rachael
subagz:persia12:su-bagz@hotmail.com:1995-02-18:NZ:F:125.239.100.174:soraya
subah:assass:subah_4@hotmail.com:1992-01-09:IN:F:none:subahlakshmi chandra
subah00:badboy00::2000-1-25:US:M:75.41.74.115:Subah
subah125:monqualine123::2002-07-29:US:M:207.172.202.132:NULL
subah8108:subah67::2002-06-26:US:M:76.17.188.252:subah
subahannallah:s9047973c:auth0rity_zer0@hotmail.com:1980-12-30:SG:M:neofriend:Taufiq Ahmad azami
subaharan:subah75::2002-11-24:GB:M:86.164.137.192:NULL
subahara_queen:subahara11::1995-12-25:GE:F:69.254.113.80:kat
subahbaby:sub41:subah_92@hotmail.com:1992-03-08:SG:F:165.21.155.110:subah subah
subahk:369369::1999-11-09:US:M:67.160.184.118:NULL
subahkid:subah123::2002-06-26::M:76.17.188.252:NULL
subahkid123:subah12::1999-06-26:US:M:76.17.188.252:Isaiah
subahkkid:king78::2002-06-26:US:M:76.17.188.252:subahkid
subahlakshmi:kkkkkkkk10:subah_4@hotmail.com:1992-01-09:IN:F:none:subahlakshmi chandra
subahmaster123:jahman12:obama@live.nl:1908-08-16:ZA:F:82.95.40.233:obama
subahmed:092392:subah92@verizon.net:1992-09-23:US:F:96.232.146.139:subah
subahreenah221:thisisgay1:dancechick14987@yahoo.com:1982-09-19:US:F:none:Sabrina URmom
subahrox100:dell123:shahana@netspeed.com.au:1987-09-27:AU:F:210.10.142.37:lilly
subahrox123123:pop123:kamal@netspeed.com.au:1987-09-27:AU:F:none:subah kamal
subah_08:9s1u4b8a:subah_92@hotmail.com:1992-03-08:SG:F:220.255.7.103:subah
subah_e:FOXROX12::1999-02-16:US:F:155.247.166.32:subah
subah_e_4:foxrox12::1999-02-16:US:F:24.130.190.50:subah
subah_pretty_queen_:722711::2005-01-01:MY:F:none:Subah Kupusamy
subah_rocks:cutie01::1999-09-16:US:F:69.231.168.48:subah
subah_sabur:cow1cow::1998-01-15:GB:F:90.193.155.6:subah_sabur
subah_star:skybloom8::1999-02-02:AU:F:none:subah_star
subah_wolokolie:787898::2000-01-25:US:M:41.191.104.4:Eugene
subaia:alinah01::2001-02-17:DE:F:87.78.160.215:Alina
subaichan:outphaze00:truhysteria@yahoo.com:1990-09-08:US:F:72.71.213.47:Erin
subaida:habeebulla12::2001-08-29:IN:M:77.31.98.14:NULL
subaida15:47x311b:rc.hinze@arcor.de:1989-03-20:DE:F:none:julia hinze
Subaiki01:banki24:antoniavaldovinos@comcast.net:1997-03-07::M:24.130.96.224:NULL
subaili0307:900713:mohdsubaili@yahoo.com:1990-07-13:MY:M:none:mohd subaili mat sekri
subaimprez:subaru::1993-03-03:GB:M:none:subaimprez
SUBAIN:5456642::2005-02-06::M:116.71.92.216:NULL
subaina:samra111:samsub111@gmail.com:1996-10-09:PK:F:119.153.211.245:NULL
subaina1:samsamra111:subainakhalid@yahoo.com:1996-10-5:PK:F:119.153.150.202:sam
subaiqa:subaiqa12:babysabrina45@yahoo.com:1980-02-25:US:F:162.83.158.147:subaiqa
subaiqa101:subaiqa123:hanicool@msn.com:1993-01-25:US:F:141.155.142.71:subaiqa
subair:chichi007:suby_s007@yahoo.com:1990-08-08:NU:M:71.56.33.94:suby
subairvin:naruto012:clarken_o12@yahoo.com:1991-08-12::M:124.97.12.186:NULL
subairx:070990:subairx@aol.com:1990-09-07:GB:M:none:subair xxx
subaise:252525::1998-08-25:VE:M:190.75.35.64:fran
subaita101:obmobm222::2000-02-11:US:F:76.220.9.1:Subaita
subaita123:safwan1234::2001-04-13:US:F:208.120.142.190:Subita
subaitha:6226453:subaitharasmin@yahoo.com:1983-04-13:MY:F:none:ni na
subaitharasmin:130483:subaitharasmin@yahoo.com:1983-04-13:MY:F:none:subaitha rasmin
SUBAIYAL:DONKEY34::1999-10-10:PK:M:206.220.40.50:NULL
subaiz:252525::1998-08-25:VE:M:190.75.35.64:francisco
subajakure:qwertyuiop12:zion_luis_eduardo@hotmail.com:1993-09-28:VE:M:200.93.55.121:luis
subajan:superjunior08::2003-01-06::M:119.160.145.26:NULL
subajapa:pulgomasu04:subj1@prodigy.net.mx:1967-01-23:MX:F:189.151.6.205:janne patricia
subajawabii01:andrew78:crazypills456789@yahoo.com:1993-03-26:US:F:24.174.117.154:Rebecca
subajuatico123:m95356:pabloelreysupremo@hottmail.com:1908-06-14:VE:M:190.78.211.237:pablo lugo
subajulian:subaSOLAR11:subaneopets@hotmail.com:1988-03-21:CO:M:200.106.196.179:juian guillermo
subaka:shima11:suba@inet.net.nz:1955-08-02:NZ:M:153.111.60.15:Mike
subaka1:olifant12::1994-04-03:BE:F:81.165.2.157:rt
subakai:may614:subaki614@yahoo.com:1989-06-14:US:M:71.229.42.247:subakai
subakashmir43:picture::1990-09-12:US:F:none:none
subaka_gaara:silver1:black_rose_divine@yahoo.com:1992-01-19:US:M:none:Suna no Gaara
subaka_no_aya:nejihyuga909:ramurray@windstream.net:1995-04-03:US:F:75.91.24.66:Miranda
subakcandy:dmstj88::1996-08-08:KR:F:125.240.29.34:이은서
subakera:subakera14::2000-07-28:BR:M:200.223.216.107:Beicom
subakev:estelle1991:blade78990@hotmail.com:1991-10-15:FX:M:none:kevin subasi
subakhu:myst666:phatach@gmail.com:1986-08-28:HR:F:89.172.12.180:Neven Fatuta
subaki:ruka0204:max_10192001@yahoo.com.tw:1986-02-04:TW:F:218.164.85.87:Ruka
subaki101:3kc0xn7ba76:shylo101@live.com:1990-08-18:US:M:72.235.11.5:isaiah
subaki1313:goins:rilukebo@msn.com:1989-11-10:US:F:none:Keis
Subaki6110:Pokemon12::1997-11-25:DE:F:217.228.67.194:NULL
subaki86:kaylee:kayleeklein@hotmail.com:1991-01-30:US:F:none:Chaotic Angel
Subaki91:Manga42:esomers772@yahoo.com:1997-07-06:US:F:75.117.11.89:NULL
Subakia:Ombre123:nanaya.fr@hotmail.fr:1989-02-26:FR:F:81.50.164.241:NULL
subakian:kianpogi29::2001-07-29::M:118.5.183.157:NULL
subakiblue:karin64::1998-08-07:MX:F:189.146.50.24:beatriz
subakiller:apollon13:black_moon808@hotmail.fr:1992-02-26:FR:F:90.23.39.219:
subakim:subakim10:lalazinhaptu@hotmail.com:1909-02-18:BR:F:189.12.2.225:Larissa
subaki_inuzuka:aisis10::1999-07-31:US:F:67.162.212.108:aisis
subakna1192:hero92:cbradley66@netzero.com:1992-11-20:US:M:none:ryan c
subakna5:hellusion22:www.subakna5@gmail.com:1989-05-15:US:M:68.189.142.181:zachary
subakna5773:lillers5773:deariene@yahoo.com:1994-12-19:US:M:67.185.183.250:ethan
subako:134679:raulcortez123@hotmail.com:1983-12-01:BR:M:none:raul cortez
subakov:njnjn7:subakovs@teamnet.ws:1993-06-10:GB:F:none:jovana subakov
subakov_3_3_3:njnj3:subakov@teamnet.ws:1993-06-10:GB:F:none:joca subakov
subakshya:subi92::1996-05-25:IN:F:122.164.7.12:subakshya
subakshya2314:subakshya96:subakshyasampath@yahoo.com:1996-05-25:IN:F:122.174.68.144:subakshya
subakshya_96:boribo23:subakshyasampath@yahoo.com:1996-05-25:IN:F:122.174.76.145:subakshya
subaku:chibi:subaku@excite.com:1987-12-05:US:F:Battledome Challenge:Kayla Young
subakugaara:kingipotiki12::1996-05-08:NZ:M:222.153.108.154:Jeramy
subakuhinamaylinn4:Gaara1::1994-04-12:US:F:none:subakuhinamaylinn4
subakukyuu:c00lio:funni_munki@hotmail.com:1993-05-06:AU:F:none:Gaara Subaku
subakun:tsunami:bluebomber_13@hotmail.com:1985-03-11:CA:M:none:Haru Glory
subakunogaara:gaara7:subakunogaaraluver@gmail.com:1991-06-04:US:F:none:jeana fowler
subakunogaara666:dumb555:deadlypentagram@yahoo.com:1988-12-14:US:F:75.38.13.83:Rachel
subakunogaaraofsand:michalelover17:Gaara_Worshiper@yahoo.com:1993-09-14:US:F:71.222.1.148:bored
subakunokitsune:chance11:Kankurou@rock.com:1993-04-21:US:F:75.243.89.18:Kelly
subakunorei:andrew7:babymonkey0891@yahoo.com:1991-08-08:US:F:71.61.173.49:liz wingertsahn
subakunoreia:notnow!:keyrochan@hotmail.com:1990-07-12:US:F:209.120.189.107:Reia Subaku
subakunorin:Fredward95::1997-09-21:JP:F:68.43.97.42:Yuki
subakunosamara:Gaarakun13:xX_Black_x_Rose_Xx@hotmail.com:1992-02-11:US:F:72.69.131.239:Samara
subakuno_gaara:naruto13:subakuno.gaara15@gmail.com:1990-02-28:CL:M:200.126.120.165:Subaku No Gaara
subakuryu:222niptor:lcstratus@yahoo.com:1992-04-09:US:M:70.138.152.121:LC Freespirit
subakuxzoan:93826648x:zoan_cheng@hotmail.com:1988-04-07:SG:F:218.186.13.2:zoan subaku
subaku_bara:hakumei81:fft_teta_hyral@yahoo.com:1981-01-04:US:F:70.225.170.153:angel
subaku_de_gaara:pokemon123:moxie_foxie123@yahoo.com:1992-06-18:US:F:71.187.90.237:Temari
subaku_gaara:di050199::1999-01-05:BR:M:200.139.130.13:edinho placedes
subaku_kakashi:meuip22:lucasdasilva@hotmail.com:1937-01-25:BR:M:201.22.174.29:lucas da silva
subaku_kun:Kagome93:kissedbykakashi@yahoo.com:1992-10-21:US:F:68.98.126.183:amy
subaku_no_claudia:Francis02:clauclaubelzil@hotmail.com:1994-11-10:CA:F:74.210.131.89:Claudia
subaku_no_gaara:kouga2:hheights24787@aol.com:1992-02-28:US:F:none:Tarryn Fish
subaku_no_gaara600:punchme56:kuroice@hailmail.net:1992-10-29:US:F:none:narelia saren
subaku_no_gaara666:Gaara6:midnight_flame_wolf@yahoo.com:1993-10-31:US:F:none:Subaku No Gaara
subaku_no_gaara_:marie93:hippogryphsrule@sbcglobal.net:1991-07-09:US:F:none:Subaku No Owl
subaku_no_gaara_11:luciamm11:minjazlu@hotmail.com:1992-12-11:PE:F:190.222.121.83:Lucia
subaku_no_haku:jenna3:subaku_no_haku@verizon.net:1993-08-07:US:F:71.114.26.6:Tigress
subaku_no_kaga:amp360:rubypate1@yahoo.com:1995-11-05:US:F:67.142.165.20:Shiki
subaku_no_martin:clara ignez11::1998-03-05:BR:M:201.27.47.165:martin
subaku_no_mitsuki:0.0gaaraxmatsuki0.0l:manga-gurl@hotmail.co.uk:1995-10-24:GB:F:86.166.194.59:danielle
subaku_no_rai:kagome1::1993-12-15:US:F:none:subaku_no_rai
subaku_no_sarah:komi77:flying_fox_girl@hotmail.com:1994-06-18:CA:F:99.253.47.76:sarahchan
subaku_no_seiguri:GaaraOnii18:uchiha_magume@hotmail.com:1992-11-13:US:F:24.24.254.88:Seiguri
subaku_no_temari:meiling27::1996-01-13:US:F:72.178.196.249:Cindy
subaku_of_the_desert:ilscmta321321:art_eater@hotmail.com:1992-10-25:US:M:70.53.103.99:Demmi Nyx
subaku_uchiha:gaaraxsasuke93:kariuchiha@q.com:1993-09-15:US:F:65.28.110.250:Raven & Kari
subakyu:4176890:rocky_vaboy@yahoo.com.ph:1994-06-27:PH:M:222.127.228.5:jess
subakyunogaara:prisoner17:therines@comcast.net:1993-02-06:US:M:68.55.15.144:Michael Rine
subakyu_75:4176890:jess_rocky@yahoo.com:1984-06-27:PH:M:98.212.156.160:jess
subal82:nokia3100:subal_10@hotmail.com:1985-05-14:GB:M:Can I be your NeoFriend?:Subal
subala:natasa:eriol2002@hotmail.com:1987-02-19:HK:M:none:YAN YAN
subala61:niagara11::2004-08-06:DE:F:212.71.129.199:NULL
subalahun:richie43::1998-05-25:US:M:96.237.241.29:richie
subalaie:qweasd123::2000-7-19:BR:M:187.43.108.40:bernardo
subalakshmi25100:nila*saba25:sexygyal121@hotmail.com:1990-01-01:CA:F:99.254.204.111:Suba
subalakshmi_aa:darshini123::2002-06-28:SG:F:220.255.7.102:subalakshmi
subalarina:colocha7:theliteuseek@hotmail.com:1987-04-10:US:F:none:cyndi castillo
subalashiko:queenwawa13:katelazza@hotmail.com:1992-07-18:AU:F:121.44.216.213:Katie
subale:123QWE::1999-06-02:BR:M:201.27.31.15:ALEXANDRE
subalectumi1994:191994::1994-01-19:SG:F:none:subalectumi1994
subalfellowship:friendshipcounts:kalindi180@hotmail.com:1991-05-14:GB:M:none:Subal
subalia:frieda::1993-03-03:NL:M:Battledome Challenge:subalia
subalibra:meena:subathira82@hotmail.com:1982-10-04:MY:F:115.164.46.56:suba thira
subalica:weeble253945:alextra_electra@hotmail.com:1990-05-07:ET:F:96.23.31.220:Alexx
