subato107:10234:gamecubeguys@kol.com:1990-12-05:US:M:none:tim sharpe
subatom:polite12:okimtom@gmail.com:1993-09-20:CA:F:99.229.83.237:Lady Suba
subatomal:27131006583548:lil_azn_link@hotmail.com:1990-01-01:CA:M:none:Hershey Cookies N Cream
subatomic:can333:emailaddressds@aol.com:1987-01-11:US:M:none:Why do you even want my name?!
subatomic555:intoniaechos1:shockingscience@hotmail.co.uk:1988-01-26:US:M:none:s s
subatomic6:hello111::1993-10-15:CA:M:24.86.112.106:Aaron
subatomica:roleplay:phs_punkmonkey@yahoo.com:1986-12-08:US:F:none:AngelMcCallum
subatomicautumn:peach:liverlover4545@aol.com:1990-04-07:US:F:72.73.221.225:Megan Edwards
subatomiccentipede:mrbean:subatomiccentipede@hotmail.com:1990-05-06:NZ:M:none:Rhys Edlin
subatomicdeathkitten:woot!:malvestutoa@elmhurst.edu:1987-01-03:US:F:none:Abby Sapp
subatomicham:Disco Skunk (Audio.)::Disco Skunk (Audio.):Disco Skunk (Audio.):Disco Skunk (Audio.):Disco Skunk (Audio.):Disco Skunk (Audio.)
:::::::
subatomicjo:echizen12:jocodam@gmail.com:1929-10-10:US:F:76.213.233.173:jo
subatomiclady:jeannie:subhavok1227@aol.com:1986-07-27:US:F:none:sub Atomic
SubatomicNinja:snowpatrolrun94:annmarie.karis@gmail.com:1994-11-23:US:F:72.70.214.225:NULL
subatomico:polo0000::2000-03-03:PE:M:190.233.7.17:NULL
subatomicpartical:squeak::1990-01-09:GB2:F:none:none
subatomicparticle483:nuetron101::1993-05-26:US:F:none:subatomicparticle483
subatomicparticles10:biology10::1999-01-01:US:F:173.77.159.134:NULL
subatomicyouth:mr.hove::1986-11-29:US:M:none:SubAtomic Youth
SubAtomicZero:ihatethismonitor123::2000-04-13:PH:M:112.198.64.47:NULL
subatomic_destroyer:95694:subatomic_destroyer@yahoo.com:1990-10-27:US:M:69.108.12.29:MarcosContreras
subatomic_slayer:qwerty12:lafeaal@yahoo.com:1996-05-30:US:M:69.244.232.159:robot
subato_1:gettherefa1:trunksch@hotmail.com:1992-11-06:AR:F:none:christian carrizo
subato_cba:thestrals1:subato_cba@hotmail.com:1992-11-06:AR:M:190.225.24.103:christian carrizo
subatperman123:chubo123::2004-07-06:MX:M:189.180.236.12:Aaron alejandro
subatra86:770911dil:subatra_86@yahoo.com:1986-12-10:MY:F:118.100.247.140:Subatra Devi
subatrastrawberry:1subatra_raja2::1997-03-20:SG:F:165.21.155.12:subatra
subatsa:sakura1:gomis_103@hotmail.com:1990-11-27:MX:M:none:manuel reyes
subattra:lexmark2:suba_laser@hotmail.com:1990-11-02:MY:F:none:sweet suba
subatuba1:chigger8:sunther_70@hotmail.com:1965-03-26:CA:M:none:suba tuba
subauricular:923146:andrelamy@live.ca:1995-08-06:CA:M:74.14.208.53:Matt
subaur_91:fantasy:r4morin@tampabay.aol.com:1992-04-14:US:F:none:Rose Readmen
subauto:Magnum42:xecellion@yahoo.com:1992-01-10:US:M:24.99.175.24:Newo
subavi123:baviena123::1996-08-05:CA:F:99.238.128.206:Subaanki
subaway:poopoo!!::1994-04-21:AU:M:none:subaway
SubAway1:julien12:julienlockhorn@web.de:1993-10-26:DE:M:91.42.228.120:NULL
Subawe:Mr27&Mrs24:scobawewaba@hotmail.com:1983-04-27:BN:M:118.103.254.41:Subawe
subawing:19840821:subawing_subaru@yahoo.com.hk:1984-08-21:HK:F:Mail from subawing:karen chan
subawrx:bat1chode1:viruzguy@gmail.com:1969-08-07:US:M:65.73.154.206:Roy
subawyisrad:1nichols:fruityleah@yahoo.com:1990-03-18:US:F:none:Mary  Jane
subaxak:ballet11:saruki913@hotmail.com:1993-09-13:ES:F:87.220.113.132:sara
subaxinha03:subaxinha33::1995-05-03:BR:F:200.181.246.130:suelen
subaxl:ant4795::1995-07-04:AU:M:202.89.171.191:Anthony
subay:2353535::1988-03-19:SG:M:none:Subash Rai
subay07:guanguan07:she12_91@yahoo.com:1991-12-19:PH:F:203.87.178.23:sheila
subayai:andyto1:subayai@msn.com:1991-04-19:MX:F:none:Andres Rodriguez
subayangel:thiago:subabyangel@hotmail.com:1988-08-04:BR:F:none:Suelen Bianciotto
subayaz:zelal1212::1998-11-11:US:F:86.179.200.165:NULL
subaydah:poojasutharsun32::1999-05-03:LK:F:99.244.185.155:pooja
subayda_101:broookview12:star-101-rules@hotmail.com:1995-08-27:CA:F:99.228.181.42:subayda
subaye:qwertyasd42:willis.rooney@hotmail.com:1989-03-03:GB:M:81.107.106.179:Qwerty
subaz121212:juilia12:prima_ballerina_21@hotmail.com:1989-03-03:CA:F:75.157.8.198:subaz
subaza9001:26051985:vicf4.timem@yahoo.com:1980-01-01:VN:M:123.23.216.153:hieu
Subazforce:05c4r1:subazforce@gmail.com:1991-11-14:US:M:71.172.115.139:Os
subazure:lemmein12:FrostTiercel@aim.com:1994-12-25:US:F:64.131.225.32:Kayla
suba_1997:11012008:gsuba97@hotmail.co.uk:1990-01-01:GB:F:81.98.194.216:suba
suba_2912:suba2912:suba2912@yahoo.com.sg:1980-12-29:MY:F:121.120.40.163:Suba
suba_357:357357:noneternal_83@yahoo.com:1983-07-04:US:M:75.13.166.226:Michael
suba_asian:l12151992:lovezl1215@vip.qq.com:1992-12-15:US:F:71.198.22.144:Li
suba_basuka:824673915::1999-09-08:VE:M:201.248.252.107:sebastian
suba_hinojosa_cambra:cambra12:tita96792@yahoo.com:1990-07-01:US:F:76.95.232.93:Susan
suba_linda:suflorzinha2008:anderson.cara.legal@hotmail.com:1990-09-29:BR:F:201.95.128.153:Suellen
suba_steve:borat27:nicktad@sbcglobal.net:1909-12-16:KZ:M:75.38.247.227:borat
suba_subs:jemina11::1997-08-06:FI:M:213.243.169.69:jemina
subba1011:rachel10::2002-10-11::F:99.38.91.37:NULL
subba101102:rachel10::2002-10-11::F:74.233.105.202:NULL
subba2:5.0mountmerc::2008-02-06:US:M:65.25.154.119:NULL
subbabe:302523:brianna.sawyer@rocketmail.com:1990-03-04:US:F:174.19.196.210:brianna
subbaculcha:ladyBug99:emma_davison@hotmail.com:1974-08-12:GB:F:173.32.160.144:Emma
subbacultcha:kcg82092:closeupcameras@hotmail.com:1992-08-20:MO:F:75.178.9.194:multifoiled
subbah12:123824s:richgurlsummer@yahoo.com:1991-01-28:US:F:71.185.148.230:subbah
subballer::::::76.64.75.218:NULL
subbalteatus:lrllrlrr22:panaeolus.subbalteatus@gmail.com:1990-04-04:TK:M:69.127.123.217:Matt
subbami26:starbucks10::1998-01-22:CA:F:99.236.231.1:r-girl
subban:halak41:toto.ca@live.fr:1986-08-25:CA:M:96.21.4.147:Pk
subban76:carol95:carohaidy_maggy@hotmail.com:1995-10-05:CA:F:207.134.188.1:NULL
subbapet:fisch6396::1996-03-06:DE:F:91.41.68.88:Bianca
subbas:suh2009:suhtorres@yahoo.com.br:1993-07-04:FM:F:189.71.115.35:Suhsux
Subbase:w4rf4re:subbase@live.co.uk:1996-02-12:GB:M:94.1.110.200:John MacTavish
subbasubba:EPIC2008::2001-02-22:US:F:68.45.107.225:HANNAH
subbavo:superduper12:bavodavo@gmail.com:1997-12-11:BE:M:178.118.135.161:bavo
subbawabbawingwong:thomas11:laughing_cheetah@hotmail.co.uk:1996-01-07:GB:F:92.13.107.86:zainab
subbaXD13:979685912313::1999-03-24:US:F:99.182.99.106:NULL
subba_bunny:pemad95:angelina_may@web.de:1995-01-25:DE:F:84.169.207.23:Angelina
subba_mama:1veronica3:rudolf.gruber@am-laser.at:1995-11-12:AT:F:80.120.139.114:veronica
subbblime:apples17:elephant_candy00@hotmail.com:1990-11-17:US:F:66.8.128.57:amelia
subbbotij:163527498:paulosubbotin@hotmail.com:1994-08-16:BR:M:187.37.145.98:Paulo
subbbzerooo:macaco123:suubzeero@gmail.com:1990-01-01:IQ:F:189.15.122.198:zero
Subbb_ZER0:subbbzer00:dabarbwire@verizion.net:1996-05-02:US:M:68.58.4.248:NULL
subbcoee:gaymale11jb:subbcoee1990@live.com:1990-02-07:US:M:67.159.36.18:Joshua Bracken
Subbe133:ooppoo123:lunizer20082008@hotmail.de:1996-04-29:DE:M:84.46.10.192:NULL
subbe512:7894556::1999-09-10:US:F:96.19.148.25:brooke
subbeast:shadow11::1998-07-12:US:M:72.131.73.179:mark
subbelbubbel:vanessa12::2003-04-13:ET:M:86.33.135.37:cj
subbeldubbel:tdthna00::2000-01-03:DE:F:77.179.234.104:Luise
subbella:pogo2332332pogo::1996-11-23:AT:F:173.65.247.150:Penny
subbelubb:chatinka2406:kari.kristiansen@gmail.com:1973-05-05:NO:F:88.89.108.162:Kari Kristiansen
subbelubb24:isabel24::1998-06-24:NO:F:85.165.121.7:Isabell
subben7:fathead98::2000-01-12:US:M:67.249.41.246:NULL
subben9:fathead40:gamesnfun2006@yahoo.com:1998-01-01:US:M:67.249.41.246:NULL
subbench:mic5353:subbench@ntlworld.com:1967-03-26:GB:M:80.6.200.10:malcolm
subberbabe2:cecil009:vickysmith0@hotmail.com:1993-10-25:GB:F:92.232.88.32:vicky
subbers123:cat123:Subbers@hotmail.com:1993-03-26:CA:F:68.149.39.179:Suban
subberstar:002wessel::1998-07-19:GB:F:86.162.157.176:chloe
subbert:search45::1999-11-21:GB7:F:72.201.234.63:kayla
subberzz:andrija92:subiksha_canada@hotmail.com:1996-02-25:CA:M:99.234.7.169:dfgfd
subbey54:fubby321::2004-09-17::M:68.105.220.13:NULL
subbey897:popcorn654::2002-12-23:US:F:76.92.222.193:erica
subbi:2881990:friedhofsstein@arcor.de:1990-08-28:DE:F:178.1.230.208:Gabi Kirsch
subbi1:popcorn12:subbie1@live.co.uk:1990-01-01:GB:M:217.44.203.147:subbi
subbi93:h01755508860:enqeeeL_x3@web.de:1993-03-06:DE:F:62.224.149.228:Jessi
Subbia:subbia94:subbiapolo@yahoo.co.uk:1994-04-06:GB:F:86.173.42.63:Subbia
Subbia94:lol123:gingerpolo@msn.com:1994-4-6:GB:F:86.173.151.190:Subbia
subbie:seance13:tiffaninja@yahoo.com:1985-05-19:US:F:216.246.75.230:NULL
subbie1964:tourney:tsubler@woh.rr.com:1964-06-26:US:M:75.185.196.171:TomSubler
subbie3:leg0head0::2000-06-21::M:220.255.7.165:NULL
subbie90:cutedolphin90:mandy_lai21@hotmail.com:1990-05-31:MY:F:118.101.110.58:MandyLai
subbieduddie:gazywazy69::1998-10-12:US:M:99.14.175.137:tate
subbiekittie:MJ01012008:fluffysubtara@live.com:1990-09-14:CA:F:74.83.94.86:tara
subbiekitty:MJ01012008:fluffysubtara@live.com:1990-09-14:US:F:74.83.94.86:Tara
subbiemcsubsub:A55a551n:tbjhelsing@gmail.com:1993-04-13:GB:M:90.198.201.216:NULL
subbiewhatwhat:noora34:faatjuh13@hotmail.com:1992-08-01:NL:F:82.168.131.231:Faatjj
subbiewhatwhat_:annbonar34:faatjuh13@hotmail.com:1992-08-01:NL:F:77.160.38.112:Faatjj
subbie_3_3_3:3l3phant:funkyhonkytonk@gmail.com:1968-07-22:GB:F:94.0.228.26:Sub Ville
subbie_4:shoban12345678::1996-06-06:SG:F:166.121.36.12:subana
subbie_vamp:1cainst588:alteredstateofmind@gmail.com:1974-11-15:US:F:24.32.238.153:Julie Rodgers
subbie_xero:counter10:zerox_et@hotmail.com:1990-04-18:AU:M:58.161.149.91:Iann
subbind:lynnmacpherson29:emo_kidmusic@hotmail.com:1992-12-16:CA:M:69.159.70.88:NULL
subbinki::::::187.56.226.54:NULL
Subbir657:dumgum99:subbir.miah@live.com:1995-10-06:CA:M:99.232.156.34:NULL
subbirba:rolindinha12::1997-10-21:BR:F:200.138.79.140:roberta
subbirmiah:subbir657:Shakil_miah@hotmail.com:1994-01-01:CA:M:99.231.185.178:Subbir
subbiva:16trivial84:subbiva@yahoo.com:1984-03-16:HR:F:89.201.133.88:Ivana Subotic
subbix:birthday78:subx12@googlemail.com:1992-02-05:GB:M:86.128.88.140:Nathan
subbi_:Subway12:subway_x3@yahoo.de:1994-04-06:DE:F:84.61.69.203:Ninti
subblebubble:subblebubble11:robyns-rokin@hotmail.co.uk:1997-04-16::F:92.16.204.132:NULL
subbles:ricardo:tru_03_angel@hotmail.com:1985-09-11:US:F:24.99.213.143:Sheena Paige
subbles43:flower43::1999-09-14:US:F:68.38.236.252:Emma
subblgess:20021091:natalie73284@yahoo.com.hk:1984-06-14:SR:F:218.250.174.49:subblgess
subblim3:cheeserpoint12:itsalexxa@yahoo.com:1991-12-11:US:F:99.34.136.53:NULL
subbmerged:gaymale11:subbcoee@gmail.com:1990-02-07:US:M:74.78.245.172:Joshua Bracken
subbo666:1596panda:musicadj_666@hotmail.com:1995-06-06:MX:M:189.159.162.173:Marcos
subbor1996:1029384756::1996-07-17:CA:M:24.70.95.205:subbor
subbosama:mendokuse!:goodiejoy@hotmail.com:1991-02-28:AU:F:none:Jay Jay
subbot:jason:subbotski@yahoo.com:1987-08-15:US:M:65.89.111.219:Jason Jennings
subbota:Fre4k1ng:subbota@yahoo.com:1981-11-11:CA:M:216.221.36.83:Logan Cipher
subbotheday:Justice11::2000-05-14:GB2:M:195.188.220.193:Marley
subbotnik:sleasy24:verreist@gmx.net:1973-02-04:DE:F:77.12.230.93:subbotnik
subbotski:jason:subbotski@yahoo.com:1987-08-15:US:M:38.96.220.210:Jason Jennings
subboy:lizza4::1994-04-04:US:M:none:none
subboy3:barak:bk4@walla.co.il:1985-10-03:IL:M:none:barak b
subboy620:yassin04::2004-06-08::M:66.176.226.23:NULL
subboy620_166:yassin04::2008-06-05::M:66.176.226.23:NULL
SUBBOY620_324:YASSIN04::2008-04-06::M:66.176.226.23:NULL
subboy620_597:yassin04::1997-11-04::M:75.74.238.74:NULL
subboy620_671:yassin04::2006-11-04::M:75.74.238.74:NULL
SUBBOY620_685:YASSIN04::2008-05-06::M:66.176.226.23:NULL
subboy620_773:yassin04::1997-10-11::M:208.62.1.179:NULL
subboy621:yassin04::2005-05-29::M:66.176.226.23:NULL
subboy621_266:yassin04::2005-05-08::M:66.176.226.23:NULL
subboy6969:22100459:bassblondie@hotmail.com:1984-10-22:NZ:M:none:carl johnston
subboy7443:killerdrummer4::1994-04-21:US:M:none:subboy7443
subboy_306:surfing12:subboy306@hotmail.com:1972-07-18:NZ:M:203.167.131.92:Scottie
subboy_93:111893:hagan.cameron@yahoo.com:1993-11-18:US:M:75.110.128.199:NULL
subboy_936:yassin04::2004-11-05::M:66.176.226.23:NULL
subbpopno1:poppsyt:paulascrenci@bigpond.com:1956-06-12:AT:F:none:Paula Screnci
subbra:august13:subbra10@hotmail.com:1992-08-13:MY:M:60.50.47.89:Subbra
subbra2005:bigheads::1992-08-13:SG:M:none:subbra2005
subbrat1:keith2::2001-03-18:US:M:207.118.254.40:subbrat1
subbrat115:12941:xxxfactor@netscape.com:1987-08-31:US:F:none:ina parrent
subbrena:Sylvia@23::2005-03-17:US:F:75.183.157.11:NULL
SubBridget:cheaze69:a.v.bridget@gmail.com:1992-08-25:AU:F:125.168.41.65:NULL
subbrin31:tammyy31:hmsstudent@yahoo.com:1990-03-27:US:F:76.179.148.168:jessica
subbrina:eusine::1990-04-03:US:F:Mail from theneopetsteam:none
subbrina1:water12:subbrina1@yahoo.com:1992-04-12:US:F:none:Subbrina
subbro2000:123pakistani::1975-09-05:US:M:none:alikhan
subbroly:lol1991:Walter.hummel@gmx.de:1991-10-03:DE:M:84.146.59.191:Walter
subbruno:147369:bruno_sacra97@hotmail.com:1990-01-01:BR:M:201.48.86.4:bruno
subbs:smackers::2005-01-01:US:F::Ashley Carter
subbsi:wescth1995::1995-12-03:DE:F:91.47.95.217:Jessica
subbsie:LUKES:jazzy_jacky@hotmail.com:1991-04-14:AU:M:none:Luke Stubbs
subbster:joshdog101::1998-10-21::M:203.171.74.191:NULL
subbsubb:181999::1999-11-18:BW:F:41.208.163.204:subiksha
subbsy:6ana6conda::1999-07-21::F:99.69.58.80:NULL
subbtaramaster:pokemonmanatee11::2001-08-27::M:70.45.173.80:NULL
subbtera:sweetruba08::2001-11-01:AE:F:195.229.237.37:Ruba
subbterra:muskies13::2006-01-01::F:69.130.236.146:NULL
subbthursday:sed80128:subbthursdayrx@aol.com:1988-09-04:US:F:none:shannon donnelly
subbthursdayrx:sed80128:subbthursdayrx@aol.com:1988-09-04:US:F:none:Shannon Donnelly
subbttera:Bakugan32::1998-09-11:US:F:98.219.114.222:Nicole
subbu:bambukaisla12:subbu@netti.fi:1988-05-07:FI:F:212.149.255.185:Bubba
subbu123:subhash6268:kalidindi_subhash@yahoo.co.in:1993-09-05:IN:M:203.199.213.67:subhash
subbu123_2_2_2:sammy7678:homkat@sbcglobal.net:1994-08-21:US:M:76.236.29.73:mike
subbu8910:123456789::2001-08-24::F:202.67.110.211:NULL
subbuan23_10:Leanne23:sallcott@msn.com:1986-02-16:GB:F:92.238.82.174:sue
subbuan23_9:Leanne23:sallcott@labourready.com:1986-02-16:GB:F:94.169.1.108:sue
subbubbub:bubbub:monkeystuff_92@hotmail.com:1989-10-06:CA:M:none:Isaac Minon
subbubby:microfish90:firesubwoofy@gmail.com:1987-05-24:AU:M:220.233.21.125:brad
subbudad:subbu123::2003-3-1:US:M:71.62.171.218:viswa
subbuddy:planet123::2003-11-28::M:24.99.122.138:NULL
subbuddyfish:planet123::2003-11-28::M:24.99.122.138:NULL
subbue:57.bayram::1997-05-04::M:88.239.40.122:NULL
subbue57:123456789::2005-05-05::M:88.239.40.122:NULL
subbue58:123456789::1998-04-04::M:88.239.40.122:NULL
subbue_532:123456789::2005-04-05::M:88.239.40.122:NULL
subbuh1:rehma1:rehma29@hotmail.com:1989-03-01:AU:F:none:lolly cloud
subbuilder:nick21:bnickerson@carolina.rr.com:1959-05-21:US:M:70.119.230.20:NickAtNite
subbukutti:vidhya1:subri2k@gmail.com:1980-04-18:SG:M:137.132.250.10:subramani gramani
subbun:sana22::2004-03-26:VG:F:216.151.187.101:gh
subbupara:babygirl24:vyckram@gmail.com:1986-02-25:IN:M:220.227.162.153:subbu
subbur04:SCI PRO::1993-09-17:US:M:none:subbur04
subbur1:aulinn12:subbur1@hotmail.com:1995-01-21:IS:F:157.157.118.209:Snds Lilja
subbura:nekkukukka93::1993-12-17:FI:F:none:subbura
subburb:gasbubble45::1998-10-13:US:M:66.55.227.41:Ethan
subburbanhomegurl:loozer1:subburbanhomegurl@yahoo.com:1992-07-20:US:F:none:Toni Lynell
subbus:subby94:georgiabulldawglover101@yahoo.com:1994-05-29:US:F:12.226.250.174:-savannah
subbus05:rests::1994-04-23:US:0:none:subbus05
subbushi:people326::1998-07-10:US:F:76.236.233.26:joesafine
subbuskcet2006:rvijay84:subbusnmv2003@gmail.com:1984-10-07:IN:M:117.197.194.248:Subramanian
subbusurya:90_subbu::1998-08-27:SG:M:165.21.154.113:surya
subbuttcrappoocrapro:rockycutedog00:dominic-michels@hotmail.com:1952-02-19:CA:M:24.68.154.154:bob
subbuttstealer:peaches12::1997-04-17:US:F:74.182.210.25:may
subbu_123:hotmail123:neopetsfeatures@gmail.com:1992-07-02:IN:M:59.162.93.111:sidhant
subbu_2:baalajie1:laxmanpichappan@hotmail.com:1990-05-12:NL:F:none:subbu pichappan
subbu_8_8:sudhikutty3:umakutty_abc@yahoo.co.in:1989-12-12:IN:F:none:uma hariharan
subbu_subbu:pokemon11:subbusouth@gmail.com:1982-04-25:US:M:71.142.202.88:subbu
subbu_subbu_9:anuj d::1987-09-28:EN:F:NULL:NULL
subbu__96:ruby9:renuamitsharma@rediffmail.com:1993-06-27:IN:M:none:amit sharma
subbwoofer:skatingdreams456:cookie_crumbies@hotmail.com:1991-06-09:FR:F:none:Lauren Parker
subby01:sabrina09::2001-07-28:US:F:98.154.229.73:sabrina
subby02:bulls66:joshrachel@netzero.net:1979-01-01:US:M:71.120.147.251:Josh
subby023:subsub23::2001-03-23:US:F:68.224.231.61:Subway
subby03:andrew2:crzy4guys03@yahoo.com:1984-12-15:US:F:none:diane essenpreis
subby10:buddy10::1997-02-20:US:F:99.8.159.93:sabrina
subby1000:green369::2002-05-03::M:90.218.75.247:NULL
subby10000:green369::2006-03-04::M:90.218.75.247:NULL
subby1001:iwantadog16:bluesoccerball4@yahoo.com:1988-07-31:US:F:none:sabrina swenson
subby10200:softball:submissive_slave_of_agony@hotmail.com:1988-02-13:US:F:none:nikki keefer
subby108:moocow::1991-05-25:CA:F:none:subby108
subby11:5848214:littlemokitty@optonline.net:1992-05-05:US:M:Mail from i_luv_harry_potter77:none
subby111:green369::1997-11-07::M:90.218.75.247:NULL
subby112:ricky112:subby114@yahoo.com:1995-01-01:US:M:75.18.207.32:Eric
subby12:nubby12:Mikezachmet@aol.com:1993-03-26:US:M:205.188.117.74:wubby12
subby123:qazwsx:koolkel_hot1@hotmail.com:1980-06-04:CA:F:none:Kelli DeYoung
subby123123:iwantadog16:bluesoccerball4@yahoo.com:1988-07-31:US:F:none:sabrina swenson
subby1234:tysa1997::1996-07-03:US:F:68.117.113.129:Sabrina
subby12345:tysa1997:sabrina_houston@hotmail.com:1995-07-03:US:F:68.117.113.129:Sabrina
subby14567:buddy10::1998-02-20:US:M:98.207.126.184:sabrina
subby15:trouble:studentrieder9th@hotmail.com:1989-04-08:US:F:none:Janette Rieder
subby159:thewhale::1990-01-10:US:M:none:none
subby16:dreamer16::1999-07-16:US:F:69.154.162.66:Sabrina
subby165:lionking:browneyed_princess7@hotmail.com:1987-01-02:CA:F:none:Browneyed Princess
subby167:joejonasluver98::1998-12-31:US:F:71.189.120.201:Mia
subby178:upyours:satansmaster14@aol.com:1962-05-13:US:M:none:bob sterling
subby1819:12abc12:sammy_roegiest10@hotmail.com:1995-08-05:CA:F:65.92.103.245:sabrina
subby187:1q2w3e4r:berwin9@yahoo.com:1980-02-14:PH:F:222.127.232.193:Erwin
subby1_571:groudon99::2001-09-19::F:67.173.149.105:NULL
subby2001:mission15:subby16@hotmail.com:1985-02-24:CA:F:198.166.22.127:Jashu 
subby2010:spicey19:subby2010@hotmail.com:1985-12-19:US:F:none:Savannah Graham
subby2010556:spice19:subby2010@hotmail.com:1982-12-19:US:F:none:Savannah Graham
subby215:andy0830:babygurl_215@hotmail.com:1987-06-27:CA:F:209.41.153.243:sabrina
subby216:502297:lilbina@sbcglobal.net:1989-07-20:GB:F:none:Sabrina Mejia
subby22:pickle22:kyborn09@aol.com:1994-02-15:US:F:64.12.117.203:marina
subby2296:sissy:kimber1522@springcom.com:1984-06-22:US:F:none:taylor shaver
subby23:haha23:j2333su@gmail.com:1979-01-04:US:M:69.118.132.83:NULL
subby2311:wanna fight me:bigbad_al221@hotmail.com:1992-01-10:US:M:none:Al G.G
subby234:winnie:suegrl55@aol.com:1987-01-01:US:F:none:subby gil
subby280:table:barbara.blanchard@chalton.co.uk:1991-10-01:GB:F:none:serena byrom
subby285:wdvhu2:desouza@xtra.co.nz:1986-04-10:NZ:F:none:ADRIANA deSouza
subby28abc2:tai_kai::1994-03-28:AU:M:none:subby28abc2
subby3:31483148::1998-06-15:US:F:74.37.173.207:shelby
subby3000:walkman:subharn@hotmail.com:1979-11-04:GB:M:none:SubharnKhalid
subby33:shimmer33:subby_33@hotmail.com:1992-06-25:US:M:none:Nate Sobczak
subby3495:sabrina1::1992-03-04:US:F:none:?????????????????????? ???????????????????
subby369:green369::2001-03-22:VA:M:90.218.75.247:subby
subby38401:supersubby91:subby2010@hotmail.com:1983-12-19:US:F:none:Savannah Graham
subby410:buddy10:ernestozesati@sbcglobal.net:1995-02-20:US:M:69.109.244.113:sabrina
subby415:m0rgasm:morganms415@sbcglobal.net:1987-04-15:US:F:69.151.102.216:Morgan Smith
subby4193:green369::2000-08-05::M:90.218.75.247:NULL
subby443_4:gertie66:emily_cooper2@yahoo.co.uk:1927-08-02:GB:F:86.140.144.99:anthony
subby460:fack96:snowfalcon1725@sbcglobal.net:1990-06-13:US:F:none:Anthony Recine
subby491:babyblueeyes!:subbybubbers@yahoo.com:1988-02-18:US:F:none:Go Lupe
subby5:5bobbi5::2002-12-01:US:F:68.114.249.85:Bobbi
subby511:4899354::1994-04-06:CA:0:none:subby511
subby56:disney2155::2001-09-01:CA:M:142.162.43.181:sunshine
subby567:subby0:billyemedina@yahoo.com:1990-11-29:US:M:none:billy medina
subby601:puppylove601:sydney-swartz@hotmail.com:1998-06-02:US:F:75.82.110.73:NULL
subby63:suckloser::1991-10-14:CA:F:Battledome Challenge:subby63
subby66:flowerpower00:nicole.palsie@yahoo.com:1994-03-27:US:F:24.175.12.208:Sabrina Ayala
subby67:friendly65:samkaissi@aol.com:1993-05-13:US:F:207.200.116.6:sabrina
subby72:sg37367:AnglServices@aol.com:1972-07-11:US:F:64.12.116.13:Subrina
subby77:1us2us3:af01@hotmail.com:1977-08-02:AU:F:none:Adrian Foster
subby83matt:sarah1978:donkey_bollock@ntlworld.com:1983-10-28:GB:M:none:Matt Dawson
subby85:neone:sabrina_ginnasio@hotmail.com:1990-06-28:US:F:none:sabrina ginnasio
subby88:subz88land:myspacesubby@yahoo.com:1991-11-12:US:M:75.59.179.17:Sebastian
subby89:kjs4033::1989-10-15:US:F:none:Subby Sinor
subby8x7:telephone8x7:shely_bubbles@hotmail.com:1987-03-07:CA:M:none:tim wong
subby90:grandma90::1998-06-16:US:M:66.32.130.124:Anthony
subby911:sabrina::1993-08-10:US:F:none:subby911
subby916:916subby::1995-11-01:US:F:76.170.13.5:sabrina
subby92:dingsda92:peace-95@hotmail.de:1992-05-08:DE:F:80.141.242.159:Lara
subby926:dingsda92:peace-95@hotmail.de:1988-05-08:DE:M:91.59.219.76:shilo55
subby93:dararox2:saranya411@yahoo.com:1993-04-12:US:F:none:Saranya Sub
subby98:221106s:autizhawt98@yahoo.com:1989-04-12:US:F:71.61.221.177:Autumn
subby98765:sweety93:huiyang@5hotmail.com:1974-06-22:US:M:71.109.76.6:autumn
subbybaby10_0:subomibalo21::2001-04-21:NG:F:41.203.81.158:NULL
subbybiboi:hentai2:demonknight0666@hotmail.com:1984-08-01:US:M:none:AGNPH AGNPH
subbybubbers:wagamoo::1991-02-18:US:F:none:subbybubbers
subbybubbles:falloutboy12:mckayla_kenzi@hotmail.com:1993-05-21:US:F:67.168.206.177:Gimi
subbybubby:amzrocks90:amzrocks@hotmail.com:1990-08-03:US:F:121.219.151.25:Anna
subbycat:sarah08::1997-02-26:US:F:66.137.181.162:sarah
subbychan:seichan:subbychan@yahoo.com:1987-03-12:US:M:74.138.101.22:Subaru Sumeragi
subbyd:856123:bootylicious_benji@hotmail.co.uk:1991-12-22:GB:M:81.108.216.218:Ben
subbydaisy:regulations1:carolinesublett@students.montgomeryacademy.org:1989-08-02:US:F:none:caroline sublett
subbydoo:qwer1234:hugustu@hotmail.com:1990-5-27:BR:M:187.39.42.21:Hugo
subbydyke:Hi_me:subbyd@telus.net:1992-12-22:CA:M:none:Sebastian Dykstra
subbyey:hehethekiss1::1995-03-04:US:M:none:subbyey
subbyforever:sameer:subhaninlahore@hotmail.com:1991-01-13:GB:M:none:subhan mirza
subbyhaze:angel59:bluefirechik@yahoo.com:1988-01-21:US:F:66.195.47.170:Kristin Grove
subbyizztheshizz:tomas07:stark_sabrina@yahoo.com:1992-11-10:US:F:70.190.40.176:Sabrina.
subbyizztheshizzz:tomas22:stark_sabrina@yahoo.com:1992-11-10:US:F:70.190.40.176:Sabrina.
subbykins:sakikoka:sexylilotaku@hotmail.com:1983-03-21:CA:F:Mail from kakrath:Teri Racine
subbylein:teeny14:subby-chan@web.de:1990-02-28:DE:0:none:subby x
subbyliveca:hamster12:subby@live.ca:1993-10-14::F:24.71.136.101:NULL
subbymaddie:12doglog:doggynothome@yahoo.com:1908-02-13:US:F:75.81.108.230:Madeline
subbyman299:sickmate::2005-01-01:AU:M:none:Jan Riegel
subbymanthey:subbie:adrolinger@optus.net:1987-01-05:AU:F:none:Georgie Manthey
subbynd_3:subs101:Subs_Roxx@yahoo.com:1993-04-03:US:F:75.54.64.88:Sabrina
subbypuppyjay:goopersv21:tobybathory@gmail.com:1987-09-24:US:M:98.151.191.203:Jay
subbyrox:sheba73::1996-05-11:NZ:F:222.155.27.97:Leah
subbyrules:raffisasub12:twilightrosetwo@hotmail.co.uk:1994-06-03:GB:F:90.214.239.203:Sakura
subbys:inters!::1993-10-09:AU:F:none:subbys
subbys3:poppys22::1999-02-21::F:67.182.143.110:NULL
subbysabrina:100197:ryan.harvey@yahoo.com:1931-01-10:MY:F:58.26.41.162:sabeina
subbyson:whopper123::1997-08-21:US:F:67.38.244.2:Emily
subbysoody:temboy34::2000-11-02:GB2:M:81.96.175.32:finlay
subbysub:gemmy:sti_wrx_boy@hotmail.com:1988-07-26:NZ:M:none:cory fowler
subbysubsub:sparky::1977-02-18:US:F:Mail from iwaslegolasssgirl1st:Shelby Drake
subbyt:peep2004:littlepushcakes@earthlink.net:1968-11-14:US:F:75.207.227.226:Tammy Mills
subbytail:121894chrbri:brittanyburrito@yahoo.com:1994-12-18:US:F:76.187.20.38:Kristina
SubbyTub:hope11::1999-01-25:AU:F:122.108.245.22:NULL
subbywrx:krislw86:subbyimprezwrx@yahoo.com:1986-08-04:US:M:none:Kris Walters
subbywubby:sabrina25::1998-01-01:US:F:89.238.153.21:sabrina
subbyx:adler85:memolememolina@libero.it:1986-03-22:ES:F:none:t t
subbyyyyyyyyyy:ricke:serena1s@hotmail.com:1990-03-01:CA:F:none:serena stanisavljevic
subby_:SubwaySally11:Sara.K96@web.de:1994-04-06:US:F:84.61.71.78:Sara
subby_10:buddy11::1998-02-20:US:F:99.8.71.6:Sabrina
subby_11:stitch23::1996-11-20:AR:M:201.252.90.124:Manuel
subby_11_5:bbbbboy11:mrb_128@yahoo.com:1990-06-23:US:M:66.190.194.135:taj
subby_12:buddy12:sabrinazesati@ymail.net:1995-02-20:US:F:99.8.71.25:sabrina
subby_13:sebastian13:subby68@hotmail.com:1995-05-31:US:M:208.120.175.71:sebastian
subby_14:Cuyno14:hawaiian_flowers28@yahoo.com:1994-03-11:US:F:76.113.145.97:sabrina
subby_2880:nelson!::1998-10-19:GB:M:none:subby_2880
subby_310:ryan10::1998-11-04:CA:F:99.245.138.46:Subby
subby_310310:kyle911::1998-11-04:CA:F:173.33.146.184:Suborna
subby_83:catlover43:samkaissi@aol.com:1991-05-13:US:F:207.200.116.73:sabrina kaissi
subby_a1:subby11::1998-12-31:CA:F:96.55.217.41:sabrina
subby_iv:zaqwsx12::1997-02-18:NZ:M:125.239.45.220:rayne
subby_me:inkworld94:subby_magic@yahoo.com:1994-01-03:CA:F:99.225.168.8:subbadra
subby_sub:surfing11::1998-04-27:AU:F:60.229.141.85:alberto
subby_wubby:saba25::2002-11-25:GB:F:90.222.72.68:NULL
subby__38:holdon67:samkaissi@aol.com:1991-05-13:US:F:207.200.116.138:sabrina
subbzer0:tara16:aratyelraf16@hotmail.com:1988-11-18:US:F:none:T F
subbzeroo931:doggy:ryley@yhaoo.com:1963-07-28:MX:M:Warning from The Neopets Team:jonna ryley
subbzero_8:helljont3!:zanderh87@yahoo.com:1991-03-20:US:M:none:mitchel havens
subbzerro:shawn:shawntino@msn.com:1991-02-10:US:M:none:shawn vizzi
subbzzero:sargewar92:subbzero999@yahoo.es:1992-07-30:CL:M:79.152.52.167:Chris Redfield
subb_1937944:stormy::1992-02-21:GB:F:none:subb_1937944
subb_girl:vanille:punkette182_69@hotmail.com:1987-01-26:US:F:none:Genevi
subb_n:Imperial23:tehtxr@gmail.com:1988-02-10:US:M:none:Noah Sacks
subb_zzero:cindydog:el_luke_eh@hotmail.com:1982-12-07:CA:M:71.7.151.178:Luke Carepnter
subc0r3:nooooo:pigl3tt2004@yahoo.com:1983-03-08:RO:M:none:Iancu Razvan
subc21:danny21:chocolate_teek_bella21@hotmail.com:1993-10-06:AU:F:80.12.192.157:NULL
subc546:789123::1992-08-31:US:M:none:subc546
SubCaden:pokemon250:troubledsoul6767@aim.com:1902-04-03:US:M:24.154.243.145:NULL
subcalof_falsa:suca31:Sucafoll_93@hotmail.com:1993-02-13:MX:M:189.163.43.91:Marco Antonio
subcam:linkinpark00::1998-04-04:CO:M:190.255.87.167:subcam
subcampeon:pokemon12::2000-05-24:VE:M:200.82.219.213:sebastian
subcaos:secreta81:subcaos69@hotmail.com:1981-02-09:PT:M:none:sergio madeira
SubCare:totalwar23:vhuu1988@yahoo.com:1980-01-01:US:M:69.1.16.4:NULL
subcarlos:26744546::1998-03-17:VE:M:190.200.33.193:carlos
subcarlos14:sakura123:subcarlos1994@gmail.com:1988-12-09:SV:M:190.53.126.68:carlos miguel soriano rivera
subcarmen:ilovebee:manman121121@hotmail.com:1972-01-02:US:F:none:sub carmen
subcarrot:haverford14:philxf@yahoo.com:1993-10-22:US:M:76.117.120.231:PHil
subcast:darkri24:darkcakeforchrist@yahoo.com:1997-05-27:US:M:184.40.3.235:chris
subcat:naruto01::2000-06-10:BR:M:189.73.80.92:antonio jose ascari
subcat001:tomcat001:subcat@tiscali.co.uk:1978-10-22:GB:M:none:James Wilson
subcats:snoopy69:subcat@web.de:1979-04-12:DE:F:92.229.20.42:Danielle
subcats1:daniela2:subcat@web.de:1979-04-12:DE:F:none:Daniela Rechmann
subcatt:515692:melilhottie69@yahoo.com:1991-06-20:US:M:none:Taylor Henderson
subceiling:frick:zebra@savelovo.net:1988-03-01:GB:F:none:Alba Sturt
subcelectial:monkey123:tangleridge95@yahoo.com:1987-01-01:US:M:173.51.88.106:subcelectial
subcero:codetigre:subcero2003@yahoo.es:1989-01-15:CL:M:none:Sergio Humberto Carrasco Alvarado
subcero123:233435:alvarinc@hotmail.com:1951-02-17:PE:M:190.42.218.119:jesus
subcero14:Scrappy14:Flyhigh@clearwire.net:1993-07-10:US:M:75.92.121.121:Tyler
Subcero19:26114240:jose_grate1995@hotmail.com:1995-06-19:VE:M:190.199.140.231:NULL
subcero20:ronald32:ronald_1996@hotmail.com:1990-09-15:VE:M:190.142.164.66:luis
subcero208:dragon124::2002-07-11:MX:M:189.224.32.52:NULL
subcero29:dorian29::2001-07-29:CL:M:190.110.128.73:dorian
subcero31111992:internetcafe::1992-07-31:MX:M:Battledome Challenge:subcero31111992
subcero_14:millonarios14:yeison1904@hotmail.com:1994-10-07:CO:M:190.26.34.251:yeison hernando
subcero_144:millonarios14:yeison1904@hotmail.com:1994-10-07:CO:M:190.26.141.210:yeison hernado
subcero_bkn:548654:tigre_salvaje_2004@hotmail.com:1989-09-09:CL:M:none:Ryu Amakusa
subchai:subbie83:animus_repletus_eyes@yahoo.com:1983-08-07:US:F:24.6.69.107:NULL
subchaos:topcat:bone_thugz03@hotmail.com:1991-01-13:GB:M:none:thanh nung
Subchaos13:lodog13icube2005:lodog13@hotmail.com:1992-01-01:HK:M:218.102.81.184:Subchaos
subchapistrikis:bitterconquista9::1993-05-04:MX:M:none:subchapistrikis
subcharge:E2IHATEB:alicesuttle@hotmail.co.uk:1990-03-02:GB:F:81.98.171.250:Adobe Photoshop
subcharlotte:m53zahne:pillarstatic@alltel.net:1992-01-13:US:M:none:sam s
subcheek:poogra50::1997-09-14:US:M:24.154.143.86:gabe
subchelle:jmj123::1981-11-23:US:F:none:chelle his
subchess:s9214764i:stinemisery@hotmail.com:1989-04-17:SG:F:none:Summer Gal
subchic133:mikey::1991-05-13:US:F:none:subchic133
subchick09:chrissy:lilbabygyrl91@aol.com:1986-06-22:US:F:none:Paris Jackson
subchick11:busss:subster11@hotmail.com:1963-08-18:US:F:none:caroline  sublett
subchicken:1125506:subchicken@hotmail.com:1901-11-09:AF:M:none:Ian  McQuade
subchicky:527712483:subchicky@2die4.com:1984-06-15:CA:F:none:J G
subchief:namika12:r0xorz_b0xorz@hotmail.com:1990-03-11:FI:M:89.27.23.219:Arthur
subchile12:231250:rupex.007@gmail.com:1987-12-16:CL:M:200.86.23.107:albo26
subchinoko:bayview:chino1379@hotmail.com:1986-12-12:CA:M:Trade Closed:School Rocks!
subchiro:1596321::1998-11-28:VE:M:190.200.90.161:jose
subchix:ghetto88:clubcutie81@yahoomail.com:1988-12-20:US:F:69.39.105.114:Kari
subchow12:blubber12:luke.allstarboy@gmail.com:1991-08-11:US:F:66.74.9.130:bob
subciaro:tresspass:godfather12342002@yahoo.com:1980-10-04:US:M:none:timmithy leighton
subciccio:12358132ciccio:evillight@libero.it:1988-04-18:IT:M:87.10.113.182:Francesco Mantaci
subcideist:zombiesx1:cobraanthum@yahoo.com:1992-04-23:US:M:none:Matt Bechtel
subcidial:011288:jonyknoxvile@hotmail.com:1988-12-01:MX:M:none:jonathan  flores
subciro:paulasss660:chaparrito667@hotmail.com:1976-10-04:EC:M:190.152.30.40:Diego
subcity:sheep::1992-06-22:IE:F:none:subcity
subcity090:turd090:khalida147@yahoo.com:1988-04-17:US:M:none:toluer oper
subcity09076:turd090:khalida147@yahoo.com:1988-04-17:US:M:none:toluer oper
subcityrecords:fender:subcityrecords@aol.com:1983-10-28:US:M:none:Ray Joslyn
subcj:silver15:dommie_dommie@hotmail.com:1991-02-25:NL:F:none:ilona klever
subcj12:samantha::1992-12-26:US:M:none:subcj12
subclas:daniel1994:o_d_hermida@live.com:1994-08-01:CO:M:190.29.177.168:NULL
subclassunleash:SPIR023:subclass_unleash@msn.com:1992-06-10:BR:M:none:Marcos S.
subclavia:waibchen06:subclavia_v@yahoo.de:1985-09-30:DE:M:91.89.37.239:vena subclavia
subclavian:shru01thi:shru.mathews@gmail.com:1989-10-01:GB:F:112.135.86.227:Shruthi
subcloudzero:mortal1:erick.alan@uol.com.br:1993-07-15:BR:M:none:Erick Alan da Silva
subclub:riding::1994-03-18:CA:F:none:subclub
subclub1:gaby123:gabrielpower8@hotmail.com:1987-04-26:AR:M:190.49.179.18:gaby
subclub_1:gaby123:gabrielpower8@hotmail.com:1990-03-26:AR:M:190.49.142.100:gabriel
subco66_j44:tammylee90:kel103906@aol.com:1985-04-10:US:F:76.23.76.30:sabrina
subcoe:katiethek11:SubbCoee@Gmail.Com:1990-02-07:US:M:74.71.209.53:Joshua
subcom:ms1234:jerry9807@hotmail.com:1981-01-01:SG:M:220.255.7.219:jojo
subcomandant:subcom::1992-12-19:CL:M:none:subcomandant
subcomandante:agustin1991:agustinrockz@gmail.com:1991-09-30:AR:M:190.30.41.195:Subcomandante
subcomandante1928:agamennone1928:vocidalsottosuolo@hotmail.it:1986-07-09:IT:M:85.18.201.165:Gabriele
subcomandante84:marcos84:herve.weber.phil@wanadoo.fr:1989-10-18:FR:M:none:Yugo Dzavez
subcomandantebfp:megatron2nd:subcomandantebfp@yahoo.com:1978-09-16:US:M:98.149.115.228:jimmy yanez
subcomandantefritz:neopets9007:jfk__007@hotmail.com:1979-12-19:US:M:none:J K
subcomandantelantos:shell:idagskinersolen@yahoo.se:1980-10-31:SE:M:none:Mattias L
subcomandante_brito:26109:kamabreu_2005@hotmail.com:1992-10-26:MX:M:none:RAFAEL BRITO
subcomandnte_m:pearpony257:joker_penguin69@yahoo.com:1986-05-06:US:M:none:Abe Lucero
subcombo702:16534::1994-02-12:US:M:none:subcombo702
subcommander2004:terminator:uniracer24@yahoo.com:1980-07-22:NZ:M:Mail from babygirl12122:Edward Scown-Bates
subcommander_tpol:connerke3:flynneke@yahoo.com:1984-02-06:BE:F:81.82.91.140:tpol V
subcon:foosa569:milayakuska@yahoo.com:1994-11-13:US:F:71.197.174.28:Lynette
subconces:Tiodio12:subconges@hotmail.it:1993-05-21:IT:F:87.19.161.84:francesca Miano
subconciencia:cuycuycuy123:Ckremithaa.-@hotmail.com:1990-01-10:JM:F:201.239.231.137:Oreo Ckremita
subconcious:GiGerjin00:Villainous-anime@hotmail.com:1992-04-28:GB:M:86.15.132.254:Alexander
SubconciousBeats:Coolio123:purplekushweed420@live.com:1992-09-08:US:M:71.133.217.22:NULL
subconciousdesire:charisma1:lemonunderscorepocky@gmail.com:1988-11-26:JP:F:none:Cassity -blank-
subconciousilussion:Z1M0X2N9:warped113094@aol.com:1994-11-30:US:M:76.110.250.143:Erik Thoner
subconciousness:applebees24:iamcider@yahoo.com:1990-08-13:US:F:75.69.89.138:Pepperoni
subconcious_mind:iluvboys!:lilwichyone@sbcglobal.net:1992-12-09:US:F:none:Lisa blah
subconcle:asshole:subconcle@activedayton.com:1984-01-05:US:M::Sub Concle
SUBCONILL:d1stort1on:thedevsubconsciousillusion@gmail.com:1993-3-24:US:M:99.229.66.18:Devon
subconsciente:34hola:i.l.u.s.i.o.n.a.m.e@hotmail.com:1994-03-30:AR:F:201.235.211.188:i have no name
subconscious:changes:st8ovmind@yahoo.com:1987-09-10:US:M:none:nino nino
subconscious009:78379353:mmatteson@wi.rr.com:1987-12-27:US:F:none:Meghan Matteson
subconsciousdomain:yermum123:hyper-chan@hotmail.com:1992-05-06:US:F:98.247.235.119:Shayla
subconsciousillusion:meredith!:meredith.fickel@pflugervilleisd.net:1991-04-17:US:F:71.145.178.248:umm duh
subconsciousmess:narnia:softbutchstranger@yahoo.com:1985-04-10:US:F:none:Saphos Les bos
subconsciousmind:cococo238:minsukang@hotmail.com:1995-08-09:CA:F:173.181.12.92:Michelle
subconsciousness:enchanting22:sara-vdb@hotmail.com:1990-10-09:BE:F:84.195.200.235:Sara Van den berg
subconsciousxxwish:bloodlust18:shades_of_midnight_@hotmail.com:1990-07-25:US:M:75.14.14.160:Erik
subconscious_domain:yermum123:hyper-chan@hotmail.com:1992-05-06:US:F:98.247.235.119:Shayla
subconscious_fruit:tempest2:hayley.simpson4@education.nsw.gov.au:1992-06-09:AU:F:none:Hayley Simpson
subconsious:murphy2006:false.pretense--@hotmail.co.uk:1992-05-10:GB:M:92.0.142.250:Stacehh
subconsiouswhispers:sunnyboy1:subconsiouswhispers@hotmail.com:1987-11-13:US:F:none:Sokoya Khaliizi
subconsious_tomato:ts98ui:dpark@ucsc.edu:1988-11-13:US:M:67.180.160.24:Daniel
subconta:758496:alanzinhu93@hotmail.com:1993-11-18:BR:M:189.104.4.60:Alan
subconta_joao9009:003653:contatokogs@hotmail.com:1988-01-01:BR:M:none:joao 9009
subcontinent:93079193:katunafishh@aim.com:1993-09-01:PH:F:76.31.120.47:Starlie
subcontinental:bluefish12:bluefish0222@hotmail.com:1991-02-22:US:F:71.34.104.121:Kiana
subcontious:monique08:skater_goth04@yahoo.com:1991-04-18:US:F:none:danielle mcguire
subcontrabass:314isPi:deity_of_bubble_wrap@yahoo.com:1990-01-08:US:M:71.116.64.166:Meepish Erglschnauzer the Perpetually Maniacal
subcontractors:alohomora26:dirtngrass826@yahoo.com:1991-06-10:US:F:99.145.22.69:Lala
subcool10:thedeath1000:subcool10@hotmail.com:1989-06-11:NL:M:none:Subcool Subcool
subcool15:thedeath1000:subcool15@hotmail.com:1989-07-02:NL:M:none:Subcool Subcool
subcool222:alionatran22::1994-04-20:CA:F:none:subcool222
subcool27:sexslave:subcool27@aol.com:1976-10-27:US:M:none:eric adams
subcoral86:1234321:donkey_d0g@hotmail.com:1992-01-08:CA:M:none:larry beach
subcore:gundor12::1998-06-04:GB:M:81.99.203.32:louis
subcouncil:cabana:ilikejsalot@yahoo.com:1992-01-08:US:F:none:Kelsey Dawn Bella and Misah
subcouncil1_a71:zena123::1993-01-21:US:F:68.201.18.13:subcouncil1_a71
subcouncil5:bingo:sti_bunny@yahoo.com:1991-08-17:CA:F:Mail from fairy95329:Richyll M
subcouncilmailer:getit!:chucci253@nocharge.com:1988-01-01:US:M:none:Sub Counciler
