suddy32:kingsuddy12::1997-04-10:GB:M:82.47.138.83:suddy
suddy359:bobbie::1992-04-08:SE:F:none:suddy359
suddy39:wavwav:fash123452000@yahoo.com.tw:1982-03-03:TW:F:none:佳珊 余
suddy392:asdqweert12:rsutcliffe@thames-high.school.nz:1994-03-14:NZ:M:121.72.43.76:Ryan
suddy51:SUDSY::1993-06-12:PH:F:none:suddy51
suddy515:siddy710::1998-05-15:US:F:70.230.145.42:Suddy
suddy65:lolololo99::1999-04-08::F:71.21.6.242:NULL
suddy86:souadsuddy:suddy6_9@yahoo.com:1988-07-07:AU:F:none:suddy nasr
suddy92:ennuyeux12::2000-07-06:NZ:F:202.180.89.179:sophie
suddy99:MICHAELKARGUS99::1999-11-02::M:68.223.37.126:NULL
suddyandwetcat:the cat is clean::1992-07-08:AL:M:none:suddyandwetcat
suddybath423:suddz::1991-12-25:US:F:none:suddybath423
suddybuddy25:katie1998:kirkwood_katie@yahoo.com:1996-02-26:CA:F:99.239.131.186:Katie
suddydog:nekhi22::1998-04-21:US:M:67.215.38.5:Monte
suddydog31895:kelsey31895:kanderson@cox.net:1978-03-18:US:F:none:none of your bussiness none of your bussiness
suddydude:chicano:texano_martinez@yahoo.com:1991-04-14:US:0:none:Raul Martinez
suddyesoid:kookoo::1993-07-27:US:F:none:suddyesoid
suddygirl333:suddy103:shlowey_doey@hotmail.com:1992-07-20:AU:F:none:Sophie McFarland
suddylee:246246::2000-09-28:US:F:67.134.133.210:sunny
suddylilsis:summersudystorm00::2000-10-03:US:F:97.126.121.23:NULL
suddylovelollipops:wuntunboi12:sidneylin95@gmail.com:1995-06-09:US:F:71.146.154.131:Suddy
suddymoon:maydolphin:sunmaymoon@yahoo.com:1990-05-21:US:F:none:Mi  Ta
suddyn_rouse:q1w2e3::1998-12-23:NZ:M:210.54.56.253:suddyn
suddyomouf:watusaka27:mz_theory@yahoo.com:1989-08-31:US:F:72.253.243.141:Giovann
suddysbluechika:2001023552:dadyzlilcowgirl2@aol.com:1989-10-06:US:F:none:¤¤¤¤¤ §§§¥æ¿
suddywuddy:purple!:sidneyrotchin@hotmail.com:1992-07-29:CA:F:none:sidney rotchin
suddy_1_1_1:14700:fgpho@yahoo.com.hk:1989-12-24:HK:F:none:樂為 何
suddy_buddy998:polarbear1234:sammy.spud@hotmail.com:1992-06-11:CA:F:24.69.210.155:Samantha
suddy_gummi:920202::1992-02-02:SE:F:none:none
suddz101:pa55word:suddzjr@yahoo.com:1991-06-30:US:M:12.201.91.253:brady
suddz22:vanfanel22:sam1234see@yahoo.co.uk:1995-08-31:GB:M:81.105.22.239:sam
suddz33:vanfanel33:sam1234see@yahoo.co.uk:1995-08-31:GB:M:81.105.13.182:sam
suddza:rooroo11::1999-09-15:GB:F:92.25.195.83:roo
suddze:ouchz:ouchz3@wmconnect.com:1991-03-11:GB:F:none:kay hoe
Suddzi:daisymae22:mullylizbethbomar@yahoo.com:1996-10-24:US:F:71.30.152.125:Molly
suddzie101:leecy@:sidsudz@yahoo.com:1993-06-20:US:F:none:sydney nonya
suddzmania:pa55word:Suddzmania101@yahoo.com:1991-06-30:US:M:12.226.123.29:Brady
suddzy:tweety95:trina.bug@hotmail.com:1984-07-30:US:F:216.111.195.18:Lilly best
suddzy111:strider22::1993-08-18:US:F:76.25.191.100:suddzy111
suddzzy:45hidden:happymoomoodance@yahoo.com:1989-05-31:US:F:76.92.127.56:megan
suddz_soap_bubbles33:lenx1:conpol@yahoo.com:1993-03-25:CA:F:none:teagan poling
suddz_soap_bubbles67:lenx1:conpol@yahoo.com:1993-03-25:CA:F:none:teagan poling
suddz_wuzzle:happyjoe1:starstruck_tabby@yahoo.com:1991-07-31:US:F:none:Wuzzle
sudd_paul:pdspds34:kaylornsudd@hotmail.com:1995-07-15:US:M:76.177.196.67:paul
sude:sude2005::1994-02-21:AT:F:none:sude
sude01:sude12345::2001-04-17:DE:F:109.84.154.61:sude
sude02:hana12:iris.vienola@edu.hel.fi:1989-01-12:TO:F:82.181.39.57:Hana
sude1011:gosupermodel10:cicek_kiz44@hotmail.com:1995-08-11:BE:F:81.164.137.228:ceren
sude12:1beyza1::2000-03-12:TR:F:77.249.27.69:laura
sude123:duru12::2000-10-10:NL:F:145.53.192.142:sude
sude1234:ertyerty12::2000-06-02:US:F:75.36.164.2:rachel
sude123412345:princesssbaby95:kys_princesss@hotmail.com:1995-04-11:DE:F:88.68.248.211:sude
sude12345:sude123456::2001-08-19:TR:F:77.248.65.23:kubra
sude1243:1243gunaydin::2005-01-16::F:76.116.95.79:NULL
sude145:derekg11::1995-12-14:US:F:76.108.30.140:sude
sude15:15basketball::1997-08-18:DE:F:85.178.222.11:Sude
sude1bff1meryem:berire123::1999-08-19:NL:F:80.57.91.242:NULL
sude2001:3666537::2001-05-16::F:95.14.146.162:NULL
sude2006:selena1997::2006-02-04:GB7:F:94.209.174.89:dd
sude201:sdud356::1992-12-29:US:M:none:sude201
sude2011:semiz2006::2006-02-22:US:F:71.175.68.21:NULL
sude21:12gunaydin::2005-01-16::F:76.116.95.79:NULL
sude265:12345th:darkmagician15@hotmail.com:1984-02-27:US:M:none:sam  johnson
sude334:dolphins::1992-10-13:US:F:none:none
sude345:sude765::2001-04-03:US:F:99.44.133.123:sudenaz
sude39_376:sude2002::2000-04-04::F:78.185.54.4:NULL
sude43:34gunaydin::2006-05-03::F:76.116.95.79:NULL
sude44:sage12:jeremy@graphicsworldwide.org:1993-03-02:US:M:66.32.222.49:Jeremy
sude454545:yaren888::2000-06-24:TR:F:212.123.158.222:yaren
sude5:jakes15::1993-08-28:US:M:none:sude5
sude50:sude123::2002-01-11:NL:F:84.87.151.3:sude
sude50806:sude5080608::2000-11-07:TW:M:61.228.131.149:汪博智
sude55:sudenoadom55::2000-02-16:TR:F:83.85.233.42:sude
sude60602:leo1314520::1993-11-08:TW:F:none:sude60602
sude606182:seanmary05928::1994-10-16:TW:F:220.139.84.12:謝佩容
sude60806:sude6080608::1996-11-04:TW:M:220.139.86.231:汪凱祥
sude63:36gunaydin::2006-04-05::F:76.116.95.79:NULL
sude666666:berk55::2003-03-20:TR:F:82.82.166.128:sude
sude6868:ayiran68::1998-02-22:NL:F:209.107.209.95:NULL
sude686868:ayiran686868::1999-02-22:TR:F:82.170.59.46:sude686868
sude70:332158::1992-12-14:IL:M:none:sude70
sude765:sude345::2001-04-03:US:F:65.9.179.77:Sudenaz
sude789:sude345::2001-04-03:US:F:65.2.18.33:sudenaz
sude95:susiicherrypiink95:kys_princess@hotmail.de:1995-04-11:DE:F:88.68.227.156:sude
sude98_2:gavaz19981998::1998-08-02:TR:F:88.238.254.13:sude
sude99:cenk99::1998-04-30:DE:M:93.223.127.65:Derdudilo
sudean:$ud32n::1997-11-25:JM:F:72.27.65.117:sudean
sudeana:34songs::1999-04-03:JM:F:208.131.186.2:sudeana
sudeanangel:$ud32n::1997-11-25::F:72.27.192.24:NULL
sudean_14:beautiful14:masterguide_kell@yahoo.com:1982-08-27:JM:F:72.27.68.152:sudean
sudear:sade12::1998-12-19:ZR:F:85.156.49.181:hilla
sudearman:jill14:sudearman@aol.com:1958-03-09:GB:F:90.195.101.13:Sue Dearman
sudebbie19:860319de:su.debie19@gmail.com:1997-03-19:TW:F:111.184.24.187:NULL
sudebuse:mommydaddy33::2002-10-30::F:98.113.41.218:NULL
sudebuse__11:MOMDAD43::2002-10-30:US:F:98.113.41.218:SUDE
sudeca:0773besT:ulldott@nktv.no:1988-07-27:NO:M:none:B R
sudecan:sude123::2000-10-04:TR:F:217.131.190.200:sude
sudecat:teddysbones01::2001-01-31:US:F:204.188.138.7:NULL
sudecats09:teddysbones08::2002-02-02:US:F:75.97.140.178:NULL
sudecats6789:cats0987::2002-02-01:US:F:75.97.140.178:NULL
sudecki:scummy:valhalla@frogshit.com:1983-10-07:AU:F:none:Tania Windstone
sudeckoer:200292:sudeck_ame@hotmail.com:1992-02-20:MX:M:none:alejandro ledesma ovando
sudecn:sude123::2000-10-04:TR:F:217.131.178.166:sude
sudeconti:130183:valedosolalimentos@gmail.com:1983-01-13:BR:F:189.73.172.129:Suélin
sudectivesarah:booger678:sarah_eleyet@yahoo.com:1993-04-30:US:F:24.210.153.69:Sarah
sudede:maccloud:motherof_allvampires@yahoo.com:1981-05-06:US:F:none:tamara wells
sudede33:maccloud:motherof_allvampires@yahoo.com:1981-05-06:US:F:none:tamara wells
sudedede:06052132::1997-05-17:BR:M:189.15.160.219:tutuchaxa
sudeden:southern:dprather@onecliq.net:1959-09-29:US:M:none:Dan Prather
sudedhead_45:shambles11:hattyjennings@yahoo.co.uk:1990-10-11:GB:F:86.16.230.220:hatty jennings
sudedi:samsun55:elif.dilek55@hotmail.de:1995-07-31:DE:F:93.198.176.181:elif
sudedi55:017621640665:samsun_style55@hotmail.de:1992-06-25:DE:F:93.198.173.202:sue
sudedilara:000111::1997-07-01:DE:F:85.178.203.97:ackcagöz
sudedoner:catslove90::2001-05-02::F:69.140.11.60:NULL
sudee376:89556541::1993-03-31:TW:F:none:sudee376
sudeek0:traffic:billykipersztok@yahoo.com:1989-08-02:US:M:none:SudeekKuchibhotla
sudeelle:sa80bicu:fluffypuppies18@yahoo.com:1991-05-14:US:F:68.75.58.196:Ellen
sudeen:hello22:tnimasang@yahoo.com:1972-10-22:HK:M:219.77.93.194:sudeen
sudeen1:ndad1223:sharlahdeen@yahoo.com:1968-04-24:US:F:24.143.200.5:sharlah
sudeen109:belfour::1994-02-03:CA:M:none:sudeen109
sudeep1029:d1002npk:sudeep_shubhi@yahoo.co.in:1994-08-30:IN:M:122.161.187.213:sudeep
sudeep123987:sujatha@*:sudeepp_maxi@yahoo.com:1993-12-19:IN:M:none:sudeep puvvada
sudeep135:superegg94:sudeep94@gmail.com:1994-06-29:SG:M:165.21.155.71:Sudeep
sudeep153:GADHA:silversand_1990@yahoo.com:1982-10-16:FR:M:none:SUDEEP  SHARMA
sudeep2525:20062006:brian.mark.lee@gmail.com:1993-03-30:IN:M:none:sudeep david
sudeep26:harisai16::2001-12-20::M:71.85.196.91:NULL
sudeep26_521:harisai16::2001-12-20::M:71.85.196.91:NULL
sudeep32122:BENS210:ki_of_me_5678@yahoo.co.uk:1993-05-02:GB:M:172.202.74.76:sudeep
sudeep395:mypapa:silversand_1990@yahoo.com:1980-10-16:FR:M:none:sudeep sharma
sudeep397:rohitsudeep1990:goldensand_1985@yahoo.co.in:1984-10-16:FR:M:none:sudeep sharma
sudeep45:sudeep:rohityatin@hotmail.com:1976-10-16:FR:M:Acceptance:sudeep  sharma
sudeep802:168avoloncove:dw2cool@hotmail.com:1983-05-01:US:M:none:Msudeep MS
sudeep920301:1933willbyroad:dw2cool@hotmail.com:1905-01-12:US:F:none:MSudeep MS
sudeepdhegde:12sudeeprocks12:sudeep.d.hegde23@gmail.com:1996-08-11:IN:M:164.100.80.70:Sudeep
sudeepgalgali:suds35:SUDS_COOL_DUDE@Yahoo.co.in:1993-11-12:IN:M:59.96.61.85:sudeep
sudeeph:junoon:sudeeph@yahoo.com:1978-03-03:IN:M:none:Sudeep H
sudeepimus:lcosvre1:toodeepsudeep@yahoo.com:1983-09-13:US:M:none:Sudeep Goyal
sudeepkc:sriram:sudeep.kc@rediffmail.com:1987-04-09:IN:M:none:sudeep kc
sudeeprox:tek50n:sudeepgupta93@gmail.com:1993-08-07:IN:M:122.177.182.225:sudeep
sudeeps:361996:vsudeepti@hotmail.com:1990-06-03:US:F:173.3.126.86:Emily
sudeepsheep:musicman17:ilove2actx3@yahoo.com:1992-11-17:US:F:none:AAAA BBBB
sudeepta123:sas71995::1995-07-19:US:F:none:sudeepta123
sudeepti:DaDeeps::1992-11-17:US:F:none:none
sudeepti3:sudeepti::1992-11-29:US:F:none:sudeepti3
sudeep_123:sudeep@:sudeepp_maxi@yahoo.com:1993-12-19:IN:M:none:sudeep puvvada
sudeep_123_123:hey125:sudeepp_maxi@yahoo.com:1993-12-19:IN:M:117.195.162.18:sudeep puvvada
sudeep_18:harisai18::2001-12-20::M:71.85.196.91:NULL
SUDEEP_406:harisai16::2001-12-20::M:71.85.196.91:NULL
sudeep_90_:cookie123:shivanibhardwaj@aol.com:1990-05-22:US:M:76.216.39.70:Sudeep
sudeep_anu:143anusha:sudeepp_inu@yahoo.com:1993-12-19:IN:M:117.195.163.201:sudeep
sudeep_b:computer9::1989-12-02:US:M:75.50.176.149:sudeep
sudeep_bb:89089:ramamutyala@hotmail.com:1993-05-31:IN:M:75.15.190.157:Sudeep Mutyala
sudeep_bhps:superegg::1994-06-29:IN:M:none:none
sudeep_gupta:sudeep007gupta:sudeep.gupta257@gmail.com:1997-07-25:IN:M:117.196.179.73:NULL
sudeep_inu:143anusha:sudeepp_inu@yahoo.com:1993-12-19:IN:M:117.195.164.53:sudeep
SUDEEP__3:SUDEEP12345:suuudip@gmail.com:1995-11-29:IN:M:115.241.133.222:NULL
sudees::::::69.157.7.126:NULL
sudeeshbabu:Trinity666:sudeeshbabu@rediffmail.com:1981-10-18:IN:M:202.91.73.12:Sudeesh
sudeesttada:fedeciampa90:maguii.-@hotmail.es:1993-04-19:AR:F:201.212.148.137:Magali
sudeeth:878787:sudeeth6@rediffmail.com:1980-08-07:IN:M:none:sudeeth kumar
sudefedisle5:xd2000::1998-04-27:US:M:216.255.39.110:nathan
sudegia:741852:ygor.mendonca@bol.com.br:1990-03-03:US:M:none:Ygor Bragan
sudeginta_siela:waida:just_black1989@yahoo.com:1989-03-18:LT:F:none:Luka karamele
sudegirly:wert13::1997-09-28:EH:F:87.187.81.111:iujoku
sudeha:loveajw16:karatecutie92@yahoo.com:1992-02-06:US:F:71.164.34.172:Sudeha
sudehao:19991026::1999-10-26:CN:F:114.244.65.139:NULL
sudei240:jacks:smoke128@aol.com:1991-01-28:US:M:none:Jacob  Baldini
sudeiki:5987221:bigboy5016@yahoo.com:1985-04-27:US:M:none:Samuel Draper
sudeilona:kreeft1969::2002-09-19:NL:F:83.84.65.119:Ilona
sudeisramcginn23:selcuk123::2001-01-04::F:69.250.38.156:NULL
sudeith100:32222222222222222222::2000-02-01:US:M:75.168.19.199:lo
sudejix:diego123:alejandro_diegito@hotmail.com:1997-01-01:ES:M:2.136.11.5:NULL
sudek1:crystal21:suladecker@columbus.rr.com:1989-06-24:US:F:65.24.128.80:sula
sudek13:klee1:dkrt@woodbridge.com:1957-06-12:CA:M:none:David Thomson
sudek45:natenate:darkoak@earthlink.net:1991-10-19:US:M:none:nathaniel sudek
sudek99:924245:dsudek9@hotmail.com:1987-07-01:US:M:none:Dylan Sudek
sudeka:100560:suelempassos@hotmail.com:1987-01-21:BR:F:201.47.44.26:Suelem Machado dos Passos
sudekds:924245:dsudek9@hotmail.com:1986-07-01:US:M:none:Dylan  Sudek
sudeker:amigos20:pe_rola_200@hotmail.com:1992-08-14:PT:M:83.144.139.127:Luis Paulo
sudeki:canto_9:mini_beak@hotmail.com:1993-06-08:AU:M:none:t p
sudeki009:094158:travismeggs@netscape.com:1985-07-26:US:M:none:travisraymeggs
sudeki04:Sudeki40::1992-11-04:FR:F:none:Audrey Ducrocq
sudeki101:heracross::1990-11-24:US:M:none:Dick Mitch
sudeki11:blb4life:modifiziert@yahoo.com:1982-05-21:US:F:none:Julie Skubis
sudeki112:05011992:kryllick@hotmail.com:1982-01-01:AU:M:none:Joe Bloggs
sudeki12:angelic:maffia_baas12@hotmail.com:1992-03-19:NL:0:none:marty jongejan
sudeki120:Sudeki21::1992-11-04:FR:F:none:Audrey Ducrocq
sudeki123:Sudeki66::1998-05-07:AU:M:124.188.86.8:Tanveer
Sudeki123_122:Phillips12::1997-06-21::F:121.210.34.32:NULL
sudeki14:900816:amal_zulkifli@hotmail.com:1990-08-16:MY:F:218.111.190.214:amal
sudeki142:plop5::1992-12-18:AU:M:none:sudeki142
sudeki16:9217250:hue123@sbcglobal.net:1991-02-13:US:M:69.108.235.168:neoalias
sudeki18:lucraft:geoffreychong08@hotmail.com:1986-04-21:AU:M:none:no name
sudeki191x:gofuzzy21:alexis_32001@yahoo.com:1991-03-30:US:M:none:Sudeki191x
sudeki1992:ailish:vinn@simonds.melb.catholic.edu.au:1978-10-10:BE:F:none:FKSAE FE
sudeki2004:lucraft:geoffreychong08@hotmail.com:1986-04-21:AU:M:none:MahadoTeh
sudeki2006:ayen123:darylcasuga@yahoo.com:1987-06-02:US:M:none:Daryl Casuga
sudeki202:95802317:kallyyslhk@yahoo.com.hk:1917-10-29:HK:F:none:Yau Siu Ling
sudeki212:jory212:illusens_glade_10@msn.com:1988-10-24:US:F:none:Ursa Allred
sudeki236:austar:sdon3295@bigpond.net.au:1989-10-10:AU:M:none:Jack Johnson
sudeki245:dxxpkane:hanthin_92@hotmail.com:1981-03-30:MY:M:item:Chai han thin
sudeki250:guineapig1::1993-08-30:AU:F:none:sudeki250
sudeki283:ferguson::1991-07-16:NZ:M:Mail from theneopetsteam:sudeki283
sudeki3:bluefire::1990-07-19:US:F:Mail from theneopetsteam:Mishel Brown
sudeki31:RIRIOKU31:sudeki31@hotmail.com:1991-05-21:US:M:189.169.187.223:NULL
sudeki374:haleyb::1994-02-04:US:F:none:sudeki374
sudeki3860:hacker:sins_lost_soul@hotmail.com:1988-06-04:JP:F:none:Tia wolf
sudeki4:sudeki10::1998-06-01::M:67.168.80.203:NULL
sudeki420:pasword1:marijuanapaper@yahoo.com:1987-01-30:US:M:none:jeremy davis
sudeki44:ailish44:Sudeki4444@yahoo.com:1990-06-13:US:F:64.12.116.209:sarah
sudeki4445:CHARMED::1993-07-25:MY:F:Flash Challenge Accepted!:sudeki4445
sudeki4445297:charmed::1993-07-25:MY:F:Mail from multiplayer_setup:sudeki4445297
sudeki4ever:17425::1992-12-31:CA:M:Offer Withdrawn:Cedrik
sudeki597:oscar1192:wood943@hotmail.com:1992-01-04:CA:M:none:nick vandorsselaer
sudeki63:nicolasdragon::1993-10-20:US:F:none:sudeki63
sudeki666:555644:kamikazesatan@aol.com:1989-01-01:US:M:75.176.150.240:Jiang Wei
sudeki70:sonicx:lynnchestnut@cox.net:1990-07-11:DZ:M:none:boobybooby
sudeki7044:poptarts:finalfantasy_squall04@yahoo.com:1987-04-20:US:M:none:jhvjhb jogfojo
sudeki8:hotrod99:badbat82@hotmail.com:1976-11-14:GB:M:86.14.105.20:john
sudeki800:giga718::1996-01-24:AF:F:206.45.172.31:sudeki800
sudeki808:jordan01:robertjrsampson@yahoo.com:1978-11-19:US:M:98.196.160.35:Robert
sudeki822:KITTYCAT3::1994-02-09:CA:F:none:sudeki822
sudeki8976:sudeki:cuichio321@sbcglobal.net:1988-12-05:US:M:none:a- hole
sudeki9:fortuitious:ayumee@lycos.com:1984-12-14:AU:F:none:ayumi kawasaki
sudeki911:Sudeki16:hung580@gmail.com:1995-01-13:US:M:69.108.235.168:916
sudeki95:kristah.::1991-12-30:US:F:none:sudeki95
sudeki99:ultra:mac_is_cool@hotmail.com:1985-09-17:CA:M:acceptance:sudeki eon
sudeki99999:ultra:mac_is_cool@hotmail.com:1985-09-17:CA:M:none:sudeki izongod
Sudekia:zylia12::1998-09-22:DE:F:91.62.157.154:NULL
sudekiailish:cat123:spincycle@shaw.ca:1970-01-01:CA:F:none:michy vedder
sudekiangel2:munch112343:sailormars_7@hotmail.com:1990-07-21:CA:F:154.5.1.57:Anika
sudekichampion:bonding4:mlbonding@hotmail.com:1989-09-21:US:M:none:ben Ledbetter
sudekidane:popuufd007:glenpoppe_rsca@hotmail.com:1986-06-04:BE:M:81.247.60.196:Glen
sudekie:terranigma20:firewitch88@web.de:1988-05-23:DE:F:84.175.70.136:tina
sudekiesgarrouth:qaz55y:ZDPDane@myway.com:1992-02-22:US:M:71.59.142.75:Zakh
sudekigirl:Girl1:smallvilledeli@hotmail.com:1992-11-12:US:F:none:delilah becker
sudekiman:sudeki:krazykracker728@aol.com:1988-07-28:US:M:none:Devin Wernke
sudekiman728:sudeki28:krazykracker7288@aol.com:1988-07-28:US:F:none:Devin Wernke
sudekinanako:81053049:soriimori@hotmail.com:1974-06-25:TW:F:122.116.69.2:nanako
sudekinaoko:bakka04:loca_2004@hotmail.com:1986-09-04:US:F:74.38.222.87:Naoko Sudeki
sudekio:hejahmed11:majs55@gmail.com:1985-01-11:SE:M:83.250.161.34:Secret
sudekiprincess236:hannah236:lovehearts12@gmail.com:1994-06-15:US:F:71.178.121.102:Donnaly
sudekir:appleseed10:sudekir@peoplepc.com:1980-08-19:US:F:4.153.84.111:sudekir
sudekis:sakura:angel_beauty11_93@hotmail.com:1991-03-01:CA:F:none:cindy le
sudekisama:katherine:sudekisama@yahoo.com:1990-04-15:JP:F:Mail from danny123317:Sudeki sama
sudekiwolf:dara03:ruohonjuuri@luukku.com:1985-04-10:FI:M:none:Fjälle Trööberstrong
sudekixo:erwin20:erwin_link@gmx.net:1987-02-03:AT:M:81.3.242.130:erwin
sudeki_01:kung fu chaos:infernoe_boi@hotmail.com:1977-08-22:AU:F:none:Brandon Vannasy
sudeki_130:sudeki::1991-06-27:US:M:none:sudeki_130
sudeki_14:daniel56::1996-03-02:DE:M:80.139.235.119:Sergej
sudeki_145:grandma::1991-06-27:US:M:none:sudeki_145
sudeki_150:15050::1991-06-27:US:M:none:sudeki_150
sudeki_5:sudeki95::1999-12-06:MX:M:189.179.110.209:axel
sudeki_6_6_6:pallero18:sussu.2002@luukku.com:1989-07-07:FI:F:88.192.85.51:Susanna
sudeki_alexine:phantasystaronline:patrick_kozo2@yahoo.de:1989-01-01:AT:M:none:Patrick k
sudeki_da_ne:kagura:candy_koda_kumi@hotmail.com:1987-02-14:CA:F:none:Sudeki da Ne
sudeki_da_ne666:skater:blackhavoc666@hotmail.com:1991-09-12:CA:F:none:Lexus Spridgeon
sudeki_fox_demon:ferret1:kitsune_luver@yahoo.com:1987-04-13:US:F:none:Arykotsu Kumi
sudeki_gurl:snnoopy4:sudeki_gurl@yahoo.ca:1985-01-03:CA:F:none:Earth girl!
sudeki_jedi:moneymoney:smileaway@optusnet.com:1990-07-03:AU:M:none:Matt Fraser
sudeki_lala:snoopy2:sudeki_gurl@yahoo.ca:1985-09-09:CA:F:none:ucookie cakeu
sudeki_mage:froogle08:umbrialuna@hotmail.com:1961-01-01:AU:F:112.213.164.240:Sudeki
sudeki_meme:shrek1:ronnie45214@yahoo.com:1984-02-03:CA:F:none:shrek soont
sudeki_princess:roscos2005:cindydi2@hotmail.com:1994-10-14:CA:F:173.178.111.159:Sudeki
sudeki_rocks:rocks:ragnarok4kool@yahoo.com.sg:1980-06-04:SG:F:none:im not gona reveal this ^_^
sudeki_sesshy:pants!:sudeki_wenner@hotmail.com:1993-01-09:CA:M:none:Aaron dontneedtoknow
sudeki_smile:MEMEME1:conmikecat@yahoo.ca:1985-02-03:CA:F:none:shrek1 meme
sudeki_star:life1990:andrea.diaz-poff@hotmail.com:1990-09-07:NZ:F:203.97.216.114:Andrea DiazPoff
sudeki_street:mireya17:andrew_spider81@hotmail.com:1989-12-21:MX:M:189.239.3.137:andrew philip
sudeki_warriors:Gaidon4:angelav@microsoft.com:1985-02-13:US:M:none:Michael Viesse
sudeki_witchblade:ll345yi..:sillychild001@hotmail.com:1990-07-26:AU:M:220.253.169.104:Stephen
sudeki_XD:roscos2005:cindydi3@hotmail.com:1994-10-14:CA:F:96.21.52.115:sudeki
sudeki_xiaoyu:ferret1:sudekifoxferrety@yahoo.com:1986-04-13:US:F:none:Leslie Corbett
sudeki_xx_:nynaf777:nynafmen@hotmail.com:1988-12-22:MX:F:189.216.126.136:estefania mena
sudeki__1207:shrek1:conmikecat@yahoo.ca:1985-02-04:CA:F:none:lalala mooo
sudeku:Inuyasha66:cool.narutofreak@gmail.com:1993-01-01:US:M:66.169.215.193:Cory
sudekumrdj:sudekum04:sudekumrdj@aol.com:1982-09-25:US:F:24.247.68.194:dani
sudeky:asd369:crisburbuja19@hotmail.com:1991-02-15:FR:F:200.79.237.119:Miharu Amakase
sudek_123:senha123:victor.brino@hotmail.com:1983-12-31:BR:M:201.75.195.89:bob
sudel:727579::1997-02-06:US:F:none:sudel
sudel13:1826043:Tamara-Kugler5108@web.de:1994-09-13:DE:F:217.237.148.103:Sophie
sudela23:sparky345::1998-12-25:US:F:71.163.162.74:delasumi
sudelati:mofetiti1993:fernypintor@hotmail.com:1993-10-23:ES:M:85.49.68.224:Fernando
sudelis:g6nc56rh:pmwalker5@bigpond.com:1988-09-22:AU:M:138.130.227.43:Corey Walker
sudeliukas123:lakas123:alanas20@one.lt:1988-01-02:LT:M:78.63.83.25:alanas
sudell581:macgyver988:saraudell@yahoo.com:1989-09-29:US:F:69.245.122.10:sara
sudella22:savannah17::2001-11-13:US:F:72.222.169.217:savannah
Sudelly:lft1998::1998-10-06:BR:F:189.6.157.86:NULL
sudelmo12:jesusito12:lalita1212@hotmail.com:1988-02-02:CO:F:186.82.241.124:NULL
sudemir:741852963sude::2008-06-17:TR:M:88.224.191.90:ciciş
sudemiter:sudsud12:sudemit@hotmail.com:1960-03-30:US:M:97.106.21.129:Sude Meterri
sudemla:corrupcion12:eldemoniodedios@hotmail.com:1988-11-18:CL:M:200.120.172.24:Felipe
sudemm:blooq92:sudemm26@gmail.com:1995-05-27:US:M:75.53.168.189:jose
suden123:739877::1998-03-27:US:M:71.62.102.64:suden
suden1234:739877::1998-03-27:US:M:71.62.102.64:suden
sudena3:jessica12@::1996-06-01:DE:F:87.187.226.143:jessica
sudenas_1:enes23::1997-12-31:DE:M:93.192.63.77:enes
sudenaz1:esra1234s5::2000-07-02:TR:F:77.248.64.197:suners
sudenaz123:ASKIM68::2007-04-26:VN:F:77.249.80.58:sude
sudenaz4:loverboy123::2005-05-25:NL:F:84.24.62.183:Sudenaz
sudenaz55:sude55::1998-02-25:DE:F:188.100.83.57:elif
sudena_23:!JE!SS!68:charleen-reni@web.de:1996-06-01:DE:F:178.0.51.177:Jessica
Sudendeath136:Great136:jaka_dragon_11@yahoo.com:1996-03-30:ID:M:118.96.44.207:NULL
sudendeaths:sgc1995:salvadorgramer@ymail.com:1995-07-31:MX:M:200.53.245.106:Salvador
sudengama:13fevereiro:taniagama1@hotmail.com:1897-02-13:PT:F:188.81.132.232:NULL
sudeni:neopets62::1998-02-24:MX:F:189.169.169.227:sudeni
Sudenkar:ikaris77:karbaldin@shaw.ca:1971-03-31:CA:M:24.108.80.33:NULL
sudenkr:magpie30:areed106@gmail.com:1989-01-06:US:F:130.160.149.122:A
sudenly_stefi:71095suzi::1995-10-07:AU:F:121.221.181.110:stef
sudenmarja:number23:neonn@netti.fi:1993-05-25:FI:F:212.146.46.130:Tea
sudennly:3ebm72cde:lisbock@freenet.de:1996-08-20:DE:F:79.216.108.36:aaakkk
sudenpentu:!bunny77!:kakeaxel@hotmail.com:1992-12-10:FI:F:88.115.98.238:susi
sudenpoikanen:susi123::2003-02-07:FI:F:88.113.227.42:Aliina
sudenrush:123likeabird:loveshowjumping@gmail.com:1981-04-01:US:F:70.181.103.75:Deminica
sudensisko_:susi5552640::1996-11-09:FI:F:91.153.210.73:Susi
sudensonta:konnichiwa12:riivaaja1@gmail.com:1990-10-18:FI:M:80.222.25.166:Apina
sudenstatic:blUE24:ladypassionwarrior@yahoo.com:1976-08-24:US:F:24.245.78.98:Roxianna Rosette Seerunova
sudent:student510::1999-07-09:TW:F:61.224.53.42:maggie
sudenur02:halenur02:eyup14@hotmail.de:1995-5-25:DE:F:94.219.197.197:süeda
sudenur61:616161::2001-10-05:TR:F:87.211.168.198:sude
sudenurkaral:sude111111::2003-11-24::F:85.108.174.239:NULL
Suden_Delirium:20silver:cutedogslovel@yahoo.com:1994-11-20:US:F:71.237.227.168:Melissa
suden_flash:20silver:cutedogslovel@yahoo.com:1994-11-27:US:F:80.12.97.156:melissa
suden_thunder:20silver:cutedogslovel@yahoo.com:1994-11-20:US:F:71.237.227.168:melissa
sudepoe:bloemen22::2001-04-28:NL:F:84.26.196.105:Su
sudepti:sushma27:udeep.shah@yahoo.com:1969-10-27:AE:F:195.229.237.37:sushma
sudepu:11cookie22:sureyaguney@hotmail.com:1995-05-20:NL:F:94.212.219.72:Süreya
suder44:kokojo44:suder@hotmail.co.uk:1994-04-13:GB:M:222.166.181.199:NULL
suderd:lopp12::1996-04-19:NZ:M:121.73.47.98:ody
suderdog:superdog13:dredmond1124@yahoo.com:1990-11-24:US:M:69.136.142.48:agent z
suderikam:12215333::1998-08-16:EG:M:189.72.81.176:Marcos
suderluder:pedro42::1999-07-23:PE:M:200.110.33.10:pedro
suderman232:rafy232::2000-12-07:US:M:71.193.131.254:NULL
sudermz:cheese1122334455::1999-11-02:GB:M:86.7.230.217:NULL
suders27:Jordyn27::2005-03-29:US:F:64.12.116.195:Kate
sudersh94:dershan94:suvasanth@gmail.com:1994-11-28:IN:M:203.109.108.101:sudershan
suderski:6770533::2004-01-07:US:F:99.151.122.186:liliana
sudes10:december99::1999-12-22::F:71.63.69.129:NULL
sudes31:sudes71:edu_d31@hotmail.com:1990-8-27:CL:M:187.132.45.136:Eduardo
sudesa1984:august57:lincsaw@yahoo.com:1984-10-31:US:M:64.169.11.66:linc
sudesabiga78:esma12::2009-07-11:NL:F:86.94.124.29:sude1
sudeselcuk:isramcginn23::2001-11-15::F:69.143.48.247:NULL
sudesenayilmaz:ladygaga123::1999-04-21:TR:F:88.230.16.96:NULL
sudesezen:dila123::2001-06-15::F:85.101.232.169:NULL
sudesezen2001:dila2001::2001-06-15::F:85.101.232.169:NULL
sudesh103:williams16::2000-11-15:US:M:65.34.227.141:sudesh
sudesh21:batman21::1997-11-13:SG:M:119.234.1.17:sudesh
sudesh26:johncena26:sudesh_13@hotmail.com:1991-11-13:SG:M:119.234.1.17:sudesh
sudesh44:supzero44::1997-07-31:CA:M:99.228.122.112:sudesh
sudesh711:edward::1993-07-11:US:F:65.9.143.17:Lynette
sudesh85:sudesh84::1999-02-18:CA:M:99.225.12.110:sudesh
sudesh9:lynette93:lsesodia@yahoo.com:1993-07-11:US:F:65.9.143.17:Susie
sudeshbudram:sudesh123:gtwickenezz@aol.com:1994-12-11:US:M:205.188.116.13:sudesh
sudeshf:sudk123:xana@msn.com:1908-01-01:GB:M:82.31.139.173:sined
sudeshna_1:loreto09:sudeshna_seal@hotmail.com:1967-03-04:IN:F:122.162.42.151:sudeshna
sudeshna_das:cooldude37:das.prithvi@gmail.com:1947-08-15:US:M:24.15.129.148:Prithvi
sudeshna__81:11crussian:sudeshna_see29@yahoo.co.in:1984-03-30:IN:F:59.95.129.129:sudeshna
sudeshpawar:R0monav1:shpawar@gmail.com:1977-07-15:US:M:70.178.89.61:NULL
sudesh_subra:045087935:sudeshsubra@gmail.com:1997-05-29:MY:M:118.100.162.223:NULL
sudesh__62:66000::1989-11-11:EN:M:NULL:NULL
Sudesma:Sudesma2010::2002-11-13::F:98.122.161.31:NULL
sudeso:shooter1596::1996-11-15:NL:F:86.95.170.70:suus
sudeso12:shooter1596::1996-11-15:NL:F:86.95.170.70:suusie
sudestadamil:vientos1000:lyardetz@yahoo.com:1995-06-13:AR:F:190.189.44.37:NULL
sudesteytajn:301295:maxchip@live.com:1979-09-01:BR:M:201.83.47.69:NULL
sudeste_hp:drelado10::1997-05-04:BR:M:189.83.169.3:matheus
sudet97:121994::1997-11-08:US:F:69.249.16.94:Emily
sudetan7:monster11:keyblademaster77@aol.com:1990-07-27:US:M:99.180.198.226:PM
sudets:tiikerit12:ella.suikkanen@edusaimaa.fi:1986-02-05:AE:F:91.153.168.225:elina
sudevi123:sudev123::1998-08-22:AU:F:124.171.211.168:ananda
sudevil:demon00:hans6105@sina.com:1992-11-08:CN:F:116.232.162.21:冷夏
sudevito:32716280::1997-02-05:BR:F:201.14.240.9:Suélen
sudevmadhav:pingpong20::1998-05-20:IN:M:117.192.122.26:madhav
sudeyaia:Blue123:anniescott9@hotmail.com:1992-05-10:US:F:24.220.205.216:NULL
Sude_1998_Turkish:Elayne12::1998-11-06::F:88.246.224.61:NULL
sude_1999:sude12::1999-04-21:TR:F:109.128.140.209:sude
sude_2000:epsilon2ad2::2000-09-10:DE:F:88.77.111.248:Elisabeth
sude_2000_:epsilon2ad2::2000-09-10:DE:F:91.41.156.203:nini
sude_2002:::2002-03-22:TR:F:88.232.71.54:NULL
sude_nur:00eda00:blomsude@hotmail.com:1994-01-22:TR:F:88.235.135.149:sude
sude_rachel:ertyerty23::2000-06-02:US:F:76.202.194.8:sude
sude_tura:sude123::2000-03-03:NL:F:77.249.175.128:sude
sude_yazgan:seyma2010::2000-6-2:US:F:76.126.241.187:Sude
sude_ylmz:493493::2005-05-04::F:88.235.216.120:NULL
sudfek8i:arnon1997:arnonkamara@hotmail.com:1994-11-12:BR:M:187.41.58.45:Arnon Câmara
sudfudge:cheerio12:ilikefoodandstuff@msn.com:1990-12-29:CA:F:99.237.52.180:Spring
sudg2009:kool5009::2002-03-03:GB:M:77.103.124.237:alex
sudgeapainting:1112565::1996-11-13:US:F:72.66.230.29:mariela
sudgebean:sju680980:sju_281190@yahoo.co.uk:1990-11-28:GB:F:88.109.36.212:Sarah
sudger:chelsea21:dan-barnett@hotmail.co.uk:1987-12-22:GB:F:86.16.135.87:NULL
sudgereliken:rotty01::1998-03-16:GB:F:194.176.105.38:Elizabeth
sudgey:essjay12:sarah-jayne_4@hotmail.co.uk:1993-05-10:GB:F:78.144.147.95:sarah-jayne
sudgirl:amor25:amalencar@hotmail.com:1980-01-19:BR:F:189.31.6.183:Andréa
sudha103:acdKJh64:kamadas213@hotmail.com:1994-03-10:SG:F:117.198.155.7:Sudha
sudha12:niharika12::1997-12-01::F:122.164.55.220:NULL
sudha1234:amalendhuajay123:amalendhu@hotmail.com:1995-09-28:AE:F:86.96.226.93:amalendhu ajay
sudha1subha:sub12sud:balusp@lycos.com:1959-06-09:LU:M:88.207.245.249:balu
sudha2:sudha98::1998-06-14:US:F:207.172.52.12:SUDHA
sudha20:rahul11:sudvin@hotmail.com:1988-07-20:SG:F:218.186.8.10:Sudha
sudha2010:pegasus10::1998-11-11:IN:M:122.172.161.197:NULL
sudha76:060609:SUDHA@ARMSTRONG91.COM:1976-11-12:SG:F:220.255.7.169:SUDHA
sudha90:bumbum90:suddharaani@gmail.com:1990-01-22:IN:F:117.211.83.10:Sudha
sudhaaa:lilly06:skatersterling@comcast.net:1996-08-05:US:M:168.103.225.42:sterling
sudhaadhinamilagi:1986sudha:sudha.adhinam@gmail.com:1986-07-01:IN:F:117.206.112.209:sudha
sudhaamohann:babloo::1981-07-14:EN:F:NULL:NULL
sudhabosco:sudha71:smritibosco95@gmail.com:1971-09-23:IN:F:122.172.166.149:NULL
sudhachandru07:chandrababu123:sudhach.dba@gmail.com:1993-01-01:US:F:75.49.4.52:sudha
sudhachinni2k:bujjipraks80:sudha.chinni@gmail.com:1980-10-28:US:F:192.85.50.1:sudha
sudhaha:yellow11:petlurisudha@yahoo.com:1991-07-24:US:F:129.32.169.64:Sudha
sudhajaw:yuvi121281:sudvin@hotmail.com:1988-07-20:SG:F:137.132.3.6:Sudha
sudhakarthikeyan:friends94:shakthivel96@yahoo.co.in:1971-05-20:IN:F:219.64.144.146:sudha
sudhakar_santosh:san2020::1998-01-10:US:M:98.214.103.160:santosh
sudhamma:0107430:strawberrymarigold@ymail.com:1982-09-14:ES:F:58.173.66.235:Alarica
sudhan:hariharanram2114:suda2001@gmail.com:1996-04-03:US:F:68.46.175.166:NULL
sudhansh:enidblyton12::2001-06-09:IN:M:125.16.34.66:NULL
sudhansh1:enidblyton12::2001-06-09:IN:M:125.16.34.66:NULL
sudhanshuksinha:ssinha12:sinha79@indiatimes.com:1979-08-04:GB:M:90.194.227.133:Sudhanshu
sudhanshu_4:monkey123456789::2002-01-09:OM:M:117.192.205.244:sudhanshu
sudhanshu_7_7:PASSWORD00::1999-01-17:IN:M:117.96.0.180:SUDHANSHU
sudhanshu_sonu:naughtiyal11::1999-03-02:US:M:122.162.127.26:JAKE
sudhansh_taneru:google7777::2001-06-09:IN:M:125.16.34.66:NULL
sudhanva:sudhanva123::2005-01-01::M:99.28.189.55:NULL
sudhanvask:08242483580:sujaysudhanva@gmail.com:1995-06-29:IN:M:59.92.250.52:sudhanva
sudhara:boyzone88::1996-11-19:KW:M:91.140.194.14:sudhara
sudharaj:raj143:sudha_ippili77@yahoo.com:1977-08-15:US:F:66.41.1.195:sudha
sudharrsana:saibaba@08:v4slakram@yahoo.co.in:1995-11-08:IN:F:59.92.113.184:sudharrsana
sudharsan_m:sudharsan12::1998-11-16:AU:M:121.215.187.59:sudharsan
sudharsan__aa:sudhar10::1998-11-16:AU:M:139.168.217.131:sudharsan
sudharshan123:cricket12::1998-08-13:AU:M:122.105.25.198:Sudharshan
sudharshanss:98408562589:srinivasan.sudharshan@gmail.com:1991-05-06:IN:M:117.254.131.120:rockyss
sudharsun:ak1109::1996-10-31:IN:M:59.92.10.37:sudharsun
sudharsun_ajithesh:14071965:sudharsunkrishna@gmail.com:1996-10-31::M:59.92.56.224:NULL
Sudhas:sudha28:amruthaamu28@gmail.com:1983-09-28::F:94.129.171.196:NULL
sudhathirthakar:july1982:sudhathirthakar@ymail.com:1982-01-16:IN:F:122.167.12.69:sudhah
sudhatri:babypink07:pinkysudhatri@gmail.com:1993-05-02:IN:F:59.92.142.165:sudhatri
sudha_j777:neopet777::1997-07-22:BD:F:202.56.7.80:sudha
sudha_kanhai_66:kanhai66::2002-12-12:NL:F:213.93.40.153:sudha
sudha_spidywoman:intoddwetrust:sudha_nanda@hotmail.com:1990-11-23:CA:F:64.180.73.204:sudhananda
sudha_sudha_3:ajajaj::1990-10-05:EN:M:NULL:NULL
sudheer506:pumba123::1999-04-06:US:F:75.30.78.83:sarah
sudheer89:TRAINS89::2000-05-01:US:M:68.62.101.177:Akash
sudheernehru:rangaiah14:sudheer.arigela@gmail.com:1984-11-14:IN:M:117.199.242.97:NULL
sudheeshna:bijjala123456789:mistikalewa@gmail.com:1909-12-01:VI:M:220.255.7.249:sudheeshna
sudhehdhdhd:ffffff55:ddd@id.com:1974-08-28:GW:M:189.182.204.91:rhjbrhbvahd
sudhelys:05272000::2000-05-27::F:98.70.78.59:NULL
sudhelys123:05272000::2000-08-27::F:98.70.78.59:NULL
sudhendra:natali97:agatha11233@hotmail.com:1992-01-01:ES:F:85.137.150.225:NULL
sudher:basketball77:jacksoncharles96@hotmail.com:1996-06-04:AU:M:220.253.156.42:jacko
sudheshna4:cutie96:www.sunoln@yahoo.com:1996-04-04:ID:F:111.94.16.80:Sudheshna
sudheshna_miryala:omnipotent21:sudheshna_miryala@yahoo.com:1990-07-27:US:F:66.75.245.36:Sudheshna Miryala
sudhey4216:angu216::2001-11-25::F:74.128.164.248:NULL
sudhi69:love123::1998-05-16:US:F:71.117.215.169:sai
sudhia:fawkes69:sinkazsu@mailbox.hu:1990-04-03:HU:F:84.1.202.194:Suzi
sudhiksha_k:sunflower123:sudhiksha98450@yahoo.co.in:1991-09-04:IN:F:59.92.195.134:lulu
sudhir12:sudhir34:timsinasudhir@gmail.com:1987-05-09:US:M:209.191.209.32:sudhir
sudhir3:12123456::1999-10-31:BM:M:87.211.18.222:SUDHIR
sudhiranand:sunthrsan02:surfer_sudhir_anand@yahoo.com:1990-02-02:SG:M:63.116.244.100:sudhir
sudhiranand23:sunthrsan02:sdr.anand@gmail.com:1990-02-02:SG:M:220.255.7.213:Sudhir
sudhirking:hahaha2::1993-07-15:US:M:74.111.207.8:sudhirking
sudhirking3:mophia27:sudhirking2@gmail.com:1993-07-15:US:M:74.111.207.8:Sudhir
sudhirracca:jaanemann99::2003-04-03:GI:M:115.117.6.55:NULL
sudhir_1:(sudhir14)::1998-12-20:NL:M:77.165.239.94:sudhir
:::::::
sudhir_5_5_5:love::1990-05-19:EN:M:NULL:NULL
sudhir_sai:saisudhir15:saisud2@gmail.com:1994-06-28:IN:M:124.123.172.45:sudhir
sudhoff604:cavs12::2001-02-22:US:F:98.28.34.221:NULL
sudholtz:eans10::2000-09-09:US:M:209.173.167.93:NULL
sudhriti:kikiniki12::2002-09-08:IN:F:59.93.181.201:Sudhriti
sudhsdiu:asdfgh12:matuo@hotmait.com:1989-08-21:UY:M:190.64.23.100:fabricio
sudhsijdhudshf:hkops186::1997-01-26:BR:M:201.74.246.92:corrreesddsd
sudhskdhasd:syngates12:theonewhoedits@yahoo.com:1988-02-23:US:F:65.60.177.123:NULL
sudhu5063:apple123::2000-09-14:SG:F:218.186.10.236:shana
sudhu57:flowers45::2000-09-14:SG:F:218.186.8.240:sudharshana
sudhu5768:sudhu68::2000-09-14:SG:F:220.255.7.171:sudharshana
sudhuhf:MARIA25::2001-01-20:CO:M:190.240.108.47:JERSON
sudhurose:rosesudhu57::2000-08-14:SG:F:220.255.0.55:shana
sudhu_1:sudhanshurocks42::2002-01-09:OM:M:85.154.102.50:sudhanshu
sudhzzzz:katsux97:cockeyedsudha@gmail.com:1997-08-27:IN:F:117.211.88.180:NULL
sudh_1:sudh12::2002-01-09:OM:M:82.178.38.20:sudhanshu
sudh_12:42roll::2002-01-09:OM:M:82.178.37.103:sudhanshu
sudi099:18524361:jhonatan8@yahoo.com:1990-01-05:US:M:125.162.75.233:fdghsdfsa
sudi12:mitzi12::2000-01-24:US:F:216.186.215.3:jillian
sudi123:sedonia123:good2slapbox@yahoo.com:1990-05-21:US:F:98.113.126.241:sedonia
sudi12345:beaniebaby1816::2000-01-24:US:F:24.214.49.209:jillian
sudi12345_6:mitzie10::2000-1-24:US:F:216.186.215.3:jillian
sudi1998:sj1998::1998-07-27:US:F:66.227.68.234:sudahn
sudi2828:meral22:sudedilakara@hotmail.com:1990-10-12:TR:F:88.254.40.152:NULL
sudi28_106:sudi28::1999-08-11:US:F:88.226.99.227:NULL
sudi28_110:sudi28::1999-09-12:US:F:85.106.169.244:NULL
sudi569:nono890::2000-04-03::F:98.213.194.250:NULL
sudi5858:eslamok58::1997-12-17:TR:F:86.83.113.230:esma
sudi97:suvarsha97::1997-10-23:US:F:67.191.163.188:suvarsha
sudia88:asdfgg44:jhonatan7@yahoo.com:1990-03-07:US:M:125.162.75.233:hsfsdsdffdfds
sudiaku478:naruto478:sudiaku@hotmail.com:1992-12-06:US:M:68.239.28.189:Sudiaku
sudiamante:susu4ever1:susu_diamante1@hotmail.com:1989-08-11:BR:F:187.90.227.101:Suelen Fanuch Diamante
sudianateng:SUDI1810ANA:sudiana_teng4@hotmail.com:1991-10-18:SG:F:112.199.240.39:Sudiana
sudiandshwetha:animals12:sudikochi@yahoo.com:1993-05-29:US:F:96.255.227.116:swathi
sudianishipoo:camper961:julie-bennett@live.ca:1996-09-07:CA:F:99.250.45.190:Julie
sudianna2002:redwall11::2002-04-28:US:F:68.119.207.110:xx S U D i E ;;
sudianto077:18524361:mortal_killerz@hotmail.com:1990-08-07:US:M:110.137.75.32:sudianto
