suet1993:y3311919:stephanie93@doramail.com:1993-01-05:HK:F:112.118.231.36:Stephanie
suet199310623966556:90224666::1993-10-26:HK:F:none:suet199310623966556
suet19952004:c1126::1995-11-26:HK:F:219.77.193.191:suet19952004
suet1996:19960311:hiusuet_96@yahoocom.hk:1991-03-11:HK:F:none:蕭 曉雪
suet1997:Blackson1997:SUET1997504@YAHOO.COM.HK:1997-08-09:HK:F:61.18.170.224:suet1997
suet1997504:199789:suet1997@yahoo.com:1972-08-09:CN:F:none:Suet Suet
suet2:12a389:lingirl1991@yahoo.com.hk:1991-01-20:HK:F:none:suet suet
suet2004:26092450::1992-10-25:HK:F:none:suet2004
suet2006:21782558:shirley_li_2005@hotmail.com:1990-07-14:US:F:59.149.4.56:張 家怡
suet2085:suetlee:boy20ag@gmail.com:1985-05-08:MY:F:none:suet lee
suet215_94:199421529:christyshit_215@hotmail.com:1994-02-15:CN:F:218.102.117.232:suet
suet252:26404852:suetha2003@yahoo.com.hk:1990-11-30:HK:F:none:chan suet ki
suet281998:24706787:suet281998@yahool.com.hk:1988-08-02:HK:F:113.254.94.212:Lee Ho   Suet
suet28999:6011329323651733::1997-11-27:HK:F:219.73.117.121:tracy
suet2tw:07231027:suet2tw@yahoo.com.tw:1986-07-23:TW:F:none:晶薇 王
suet303:736707:baobeisuet@yahoo.com.hk:1986-11-09:CN:F:none:SUET suet
suet312:97886780:momo19961122@hotmail.com:1993-11-22:HK:F:123.203.136.208:Mo Suet Yi
suet321113:tony321:stephain321113@yahoo.com.hk:1992-01-12:HK:F:none:雪兒 林
suet380:sm5201314::1992-05-30:HK:F:none:suet380
suet429:y88a89:syhui2005@yahoo.com.hk:1991-02-22:HK:M:none:lam  Suet
suet456:963852::2007-02-24:CN:F:61.244.104.23:siu suet
suet504:608400::2002-02-23:AN:F:61.18.170.231:Knight
suet520:96214789:happyb55699@yahoo.com.hk:1990-03-26:HK:F:221.127.156.140:銖戊 穿
suet520520:ho256342855:hosuetmui1992@yahoo.com.hk:1992-05-18:HK:F:218.255.174.226:雪妹
suet521:0114152024:cherry1992521@yahoo.com.hk:1992-05-21:HK:F:none:ng kib
suet530:96214789:suet1919@yahoo.com.hk:1994-12-04:CN:F:221.126.138.108:kdv
suet56:93101:michellechun2004@yahoo.com.hk:1992-10-01:HK:F:none:Chun mei  suet
suet5972:59721314520::1997-10-06:HK:F:203.218.56.44:NULL
suet61:angelaho61:angelaho61@hotmail.com:1990-06-01:HK:F:none:阿雪 何
suet65:jasper1:susan_thornham@hotmail.co.uk:1965-08-26:GB:F:none:susan thornham
suet6527123:qazwsx12::1999-12-10:HK:F:113.255.139.64:lee wing suet
suet699:93101::1993-10-01:HK:F:none:suet699
suet709:ainetys::1992-07-09:HK:F:none:Yim Suet Tung
suet7171:domokun:suet@ssgc.net:1984-10-04:GB:F:none:Sue Thomlinson
suet721:721719:whitesuetsuet@yahoo.com.hk:1983-07-21:HK:F:none:Sharon Hui
suet723:940723:suet_723@yahoo.com.hk:1994-07-23:HK:F:203.218.78.210:suet
suet79:xueling98:xueling79@hotmail.com:1979-07-26:SG:F:202.156.13.7:Serene Lee
suet810:d293968:silcocks_man@hotmail.com:1989-08-10:CN:F:none:to suet suet
suet811:94241977:suet_sue@yahoo.com.hk:1962-08-11:HK:F:none:suet suet
suet82:20011982:suet82@lycos.com:1982-01-20:MY:F:none:brenda wong
suet888:27823190:qzasd888@yahoo.com.hk:1988-01-01:HK:M:219.77.235.10:名 姓爪
suet9087:ss292532:shishi9087@hotmail.com:1990-08-07:CN:F:59.149.57.67:suet suet
suet911664:suettung:yicksuet@yahoo.com.hk:1991-03-10:HK:M:none:yicksuet tang
suet921:12312345:tycy4d05@hotamil.com:1977-01-29:CN:F:none:cheng   ghhgbh
suet927:9271314:aypk1713@yahoo.com.hk:1989-08-19:HK:M:123.203.155.53:你老母
suet931012:No.L19931012:363789941@qq.com:1993-10-12:CN:F:119.246.62.44:雪梨
suet93616:2tu791j1:shirley93616@yahoo.com.hk:1987-06-06:HK:F:none:yee cheung
suet963741:40299390:karen963741@hotmail.com:1994-05-23:HK:F:123.202.105.28:Leung ka fun
suet999:7679379:suet999@yahoo.com.hk:1986-01-21:HK:F:none:yy ww
sueta:080993:Sakuno10@yahoo.com:1993-04-15:US:F:74.134.152.49:Gigi
sueta1002:bugio1::1994-02-10:BR:M:none:sueta1002
sueta3a:19960311::1996-03-11:HK:F:210.245.194.228:雪
Suetaa:suetonio96589:suetoniocrisostomo@hotmail.com:1991-5-13:BR:M:187.68.134.90:Suetonio
suetaaa:suetonio96589:sueta_cv@hotmail.com:1991-05-13:BR:M:189.93.133.25:Suetonio
suetabernor:longmoor1:sueht2910@aol.com:1986-10-29:GB:F:none:Sue Tabernor
suetabo:suesue:suetabo@yahoo.com.hk:1986-01-22:HK:F:none:sue sue
suetabulous:269938:swastidw@msn.com:1985-02-18:US:F:218.186.14.74:Swasti
suetaiwan:w2597606:suesuesue88@yahoo.com.tw:1974-07-17:TW:M:59.104.184.124:蘇太文
suetaked:karenmicorazon24:alfontanas@hotmail.com:1994-12-19:CO:M:190.68.36.13:alfonso antanas
suetam:nosepoke5045:angel094@hotmail.com:1987-03-13:GB:F:90.208.158.245:SueT
suetam009:0010sonic0010:buliufas@hotmail.com:1982-04-28:BR:M:189.4.79.139:suet
suetam12:meioquilo12:sogames@yahoo.com.br:1984-06-30:BR:M:200.97.142.145:Alberto
suetam122:nane2:rafael_lnovais@hotmail.com:1992-04-14:BR:F:none:Mateus albuquerque
suetam123:32225877::2007-01-01:BR:M:200.146.127.234:gaara1996
suetam12345:matheus12:matheussuetam@hotmail.com:1995-04-23:BR:M:201.53.44.158:suetam
suetam12_6:123m123rd::1999-09-15:BR:M:201.43.95.79:matheus
suetam13:meioquilo12:sogames1994@yahoo.com.br:1984-06-29:BR:M:200.97.142.145:astolfo
suetam1309:kelly56:mateus.souz@hotmail.com:1990-09-13:BR:M:200.101.119.165:Mateus Souza
suetam14:010102:jefff173@hotmail.com:1991-12-01:BR:F:none:Jefferson Nascimento
suetam153:zxc153:mateus_isthebest@hotmail.com:1994-09-22:BR:M:189.13.132.100:Mateus Costa dos Santos
suetam17:mmttuu1294:mateus.uttem@bol.com.br:1988-08-15:BR:M:none:mateus  uttemberghe
suetam170:mateus12::1997-06-30:BR:M:187.78.126.66:NULL
suetam19:suetamskt12:mateus.uttem@bol.com.br:1989-08-15:BR:M:201.13.184.196:Mateus
suetam1994:meioquilo13:sogames1994@yahoo.com.br:1994-06-30:BR:M:200.97.247.162:Mateus
suetam1996:92561004m:mateus_abreu5@hotmail.com:1987-11-16:BR:M:200.96.223.77:NULL
suetam1999:mlnctscf44::1999-11-26:BR:M:187.114.108.110:NULL
suetam2:pedro22::1999-01-25:BR:M:187.13.52.254:Mateus
suetam20:amarelo23::2001-04-07:BR:M:189.27.36.3:matheus
suetam2000:554488:matfilho@msn.com:1990-09-05:BR:M:201.47.29.119:matheus
suetam2000_1_1:MAT288::2000-08-17:BR:M:189.110.73.229:MATHEUS RODRIGUES PEREIRA
suetam2009:123kkk::1998-04-25:BR:M:189.54.44.11:mateus
suetam22:alegrete22:hernandezmateus@gmail.com:1995-08-16:BR:M:201.14.95.106:Mateus Hernandez
suetam321:321suetam:malepu@uol.com.br:1975-10-19:BR:M:201.54.27.34:mateus
suetam69:123457:mateus_amorim96@hotmail.com:1996-01-09:BR:M:187.90.217.227:suetam
suetam7:mateus77::1998-01-16:BR:M:189.12.138.207:NULL
suetam81:shoker45:mateus.portugal@hotmail.com:1996-05-10:BR:M:189.60.122.63:mateus
suetam87:coelho95::1998-07-01:BR:M:189.81.114.189:mateus
suetam9:101092:mateuscorreia_123@hotmail.com:1992-10-10:BR:F:NULL:MATEUS SAMPAIO CORREIA
suetam999:m1a4t7::2002-01-03:BR:M:189.78.127.61:Mateus
suetamarietseig:11061997:elianagiesteira@hotmail.com:1909-01-01:BR:M:201.19.216.229:zico empelezado
suetamateus:xanoca20::2000-04-01:BR:M:201.9.67.35:Mateus Macedo
suetamateus20:01022000:mateusmacedinho@hotmail.com:1994-04-01:BR:M:201.9.53.167:NULL
suetamav:palmeiras01::1998-03-12:BR:M:189.18.175.136:mateus
suetamd22:d75e86de633f:tohpraul@yahoo.com.br:1993-10-10:BR:M:189.17.52.5:Matyheus castro
suetamdg:82465553:mateus_g_duarte@hotmail.com:1985-04-03:BR:M:201.9.228.97:nulu
suetamfofinho12_b55:125560:suetam_arkamum@hotmail.com:1989-10-25:BR:M:201.8.253.157:paulo
suetamjicadu:147896325:cadu_natal@hotmail.com:1991-01-01:BR:M:187.89.236.33:SuetamjiCadu
suetamjiko:sednem1995:felip.ep.sa@hotmail.com:1995-06-13:BR:M:187.89.236.33:Matheus Siqueira Mendes
suetamoderieugif:futebolmax123::1999-08-02:BR:M:187.24.135.209:NULL
suetampax88:spunkman11:waco61636@yahoo.com:1990-05-22:US:M:76.16.209.235:Susan
suetamrc1:sportingdp!!:mateus_dexter@hotmail.com:1977-07-07:BR:M:none:Mateus Capello
suetamsenun:mateus12::1998-04-20:BR:M:177.19.103.203:NULL
suetamseog:mateusgoes77:elianagiesteira@click21.com.br:1909-01-01:TK:M:187.14.128.174:matthardy
Suetamshin:nemtente190692:suetamshin@hotmail.com:1992-06-19:BR:M:201.48.156.33:Matheus Chagas Moreira
suetam_1:97465213:alguem1401@bol.com.br:1990-07-10:BR:M:189.83.45.90:Mateus
suetam_1997:mateus123::1997-05-16:BR:M:189.7.93.25:mateus
suetam_7_7:252256::1998-01-11:BR:M:201.34.31.36:mateus maia
suetam_99:godofwar99:suetam99@yahoo.com:1994-03-06:BR:M:201.48.105.242:mateus
suetam_xe:88456456:bandeira_mateus@hotmail.com:1986-02-13:EG:M:189.97.192.111:mateus
suetan1988:shinratensei12:siewliantan1988@hotmail.com:1988-10-06:SG:F:220.255.1.92:Sue
suetapper:Tapper72::1999-07-26:CA:M:70.29.47.84:lexi
suetarrab:333358::1998-01-17:US:F:71.119.65.49:sulaf
suetarrab17:pepsi17::1998-01-17:US:F:71.119.65.49:sulaf
suetastic:KAMILAH01::1999-04-18:CA:F:64.59.144.24:Caitlin
suetava:19970919::1997-09-19:HK:F:202.64.105.196:NULL
suetaylor123:john13::2000-09-22:US:M:99.194.203.159:NULL
suetbao:280295::1995-02-28:HK:F:1.64.44.241:NULL
SUETBB:98187649::1998-06-10:HK:F:58.176.59.4:NULL
suetbgirl:y5835834::1997-01-23:HK:F:14.198.8.185:雪b女
suetb_b:123617::1996-06-17:HK:F:112.120.134.107:NULL
suetcandy:90116016kam::2000-01-01:HK:F:116.48.201.25:suetcandy
suetchee:0162510685::1999-08-15:MY:F:60.50.91.97:suet chee
suetcheeks75:mommy2005:queenbeeotch08@yahoo.com:1989-11-16:US:F:76.111.140.243:Sheila
Suetching:220244:suetching2000@yahoo.com.hk:1990-12-12:HK:F:203.218.173.123:NULL
suetching627:ching100:rozenmadensuetching@yahoo.com.hk:1989-06-27:HK:F:61.92.7.61:stephanie
suetchingloveching:970301:mysweetheart0301@yahoo.com.hk:1997-3-1:KR:F:61.18.170.176:陳念恩
suetchingmabel:(21)::1995-11-10:HK:F:218.188.39.39:ng suet ching
:::::::
suetchiwa:eras96::1996-05-14:NL:F:87.211.221.80:NULL
suetchiwone:eras96::1996-05-14:NL:F:188.221.170.176:NULL
suetcindy:y4116133:suetcindy@yahoo.com.hk:1994-10-20:HK:F:119.237.172.225:suetcindy
suete10:suete11::1999-02-11::M:NULL:NULL
suete123:7889966::2002-03-19:US:F:71.80.177.217:NULL
suetee_87_87:870521:vivian_sue87@hotmail.com:1987-05-21:MY:F:115.132.84.211:suetee
suetekh:lil412:extreme511@aol.com:1985-01-02:US:M:24.44.168.169:Jeff
suetepie:bigboy88::1999-09-19::F:75.174.143.127:NULL
suetercillo_98:suetersio98:terearlette@hotmail.com:1989-02-15:MX:F:189.177.245.56:terearlette
sueterdeflotsam:flomei24:derernoe@oi.com:1993-05-01:CU:M:201.9.14.254:vitor
sueters:tekenjongen12:koens@hetnet.nl:1990-01-01:NL:M:77.169.51.152:koen
sueter_13:keli45::2004-08-23:GF:F:189.191.133.17:sakura
sueter_azul:3223642:angelica_0809@hotmail.com:1995-02-08:VE:F:201.211.14.247:Angelica
suete_secret:mary23::2000-05-23:BR:F:201.17.154.205:mary
suetfongsun:alo1ye4:liliansunye@gmail.com:1989-04-07:HK:F:116.48.136.56:NULL
suetgladys:wong1234:wongst_714@hotmail.com:1995-07-14:HK:F:113.254.86.5:suetsuet
suetham009:321654987:matheus-ul@hotmail.com:1994-07-20:BR:M:201.29.207.172:matheus martins gama
suetham123:matheuslucas12345678::1997-06-10:BR:M:189.10.53.61:Matheus Lucas
suetham15:132147:matheus_ibev@hotmail.com:1994-07-11:US:M:187.14.248.235:matheus
suetham16:132147:matheus_ibev@hotmail.com:1994-07-11:BR:M:200.157.30.100:matheus
suetham39:kire123456789:anderson.c.v@hotmail.com:1994-09-14:BR:M:189.71.128.125:Anderson
suethamcf:nirvana98::1998-3-3:BR:M:201.74.148.62:Matheus
suethamsurf:200596::1996-05-20:BR:M:201.19.31.243:matheus
suetham_1234:7532147:eu_sou_jedi@hotmail.com:1980-05-27:BR:M:189.59.87.118:Matheus lucas alves lopes
suetham_357:2wsxxsw2::2000-06-12:BR:M:187.6.103.19:matheus
Suetham_Ansom:mataw233:matheus_mosna@hotmail.com:1993-11-13:BR:M:187.2.50.31:Matheus Mosna
suetham_arirrefe:agosto28:matheus.ferreira.tassi@hotmail.com:1992-04-07:BR:M:189.25.133.62:Thyaggo Andrade Oliveira
suetham_oterrab:kinkinho01::2000-04-05:BR:M:189.106.92.216:Matheus
suetham__aa:supertreinador12:shinjipaul@hotmail.com:1990-04-16:BR:M:201.62.164.134:Matheus
suethao101:suemckenzieythao11::2001-11-04:US:F:65.30.50.245:aliyah
suethao123:calmiddle12::1997-03-22:US:M:70.133.78.164:sue
Suethebee:haikal12::2006-05-20:SG:M:49.245.155.70:NULL
suethegooner_25:kathleen1928:susanapril25@hotmail.com:1953-04-25:GB:F:94.5.13.9:susan howard
suethegreat:ilovepeter1838_:lollie_pop_madness@hotmail.com:1995-01-02:AU:F:121.216.240.175:Suee
suethehendragon:eliph723:eliphelisha@aol.com:1995-07-23:US:F:98.112.91.229:eliphelisha
suethem11:sueit11:trenhryan@yahoo.com:1990-06-29:US:M:75.26.157.106:ryan
suetheman:narutoman45:sulay00@yahoo.com:1994-07-21:US:M:75.32.5.77:NULL
suethemonkey:jovi24:aquabali@hotmail.com:1983-01-29:US:F:70.224.52.105:Julia
suethemoo:maddy10::1998-10-24::F:99.60.73.159:NULL
suethemoo10:maddy11::1998-10-24::F:99.60.73.159:NULL
suethemuch:redace1508:Suethemuch@gmail.com:1991-11-27:DE:F:85.1.105.90:Sue
suethepoo:qantas:swilliams12@optusnet.com.au:1967-07-12:AU:F:none:Sue  Williams
suetheprincess:puppies::1992-06-23:US:F:141.153.112.11:suetheprincess
suetheseahorse:under_the_sea:panda_princess2003@yahoo.com:1989-04-22:US:F:none:Frankie hannah
suetheshoe:hum12mer:srock3@sympatico.ca:1983-07-01:CA:F:70.26.182.108:susan  rock
suetheshoyrulover:123456123456::1991-06-14:GB:F:none:suetheshoyrulover
suetheslimyworm:sampearce::1993-05-08:AU:M:none:suetheslimyworm
suethesquirrel:060104:susan.weaver@wpafb.af.mil:1962-10-09:US:F:none:Sue Weaver
suethesun:Banik1:slunickozuzi@seznam.cz:1992-01-11:CZ:F:none:Zuzana Salvetová
suetheverybest500:12540:faray203@aol.com:1980-12-01:US:F:none:sue lee
suethewarrior:april30:SueTheWarrior@aol.com:1957-11-02:US:F:65.24.168.158:Susan
suethewho:snoopy01:hacruz2k@yahoo.com:1960-07-21:US:F:65.3.161.93:susan
suethe_spiders:cb6221994:canyousay_hahahahaha@yahoo.com:1994-06-22:US:F:107.3.18.42:NULL
suethi:thisue14::1996-05-08:BR:F:189.65.65.230:suellen
suethiamor2022:thiago2220:suethiamor@yahoo.com.br:1986-05-20:BR:F:none:suhelen sombra
suethk:kang2408:ssueue2002@hotmail.com:1991-04-24:CA:F:none:강 수훈
suethomas:FFBBII:sue_thomas3579@yahoo.com:1985-05-16:US:F:none:Sue Thomas
suethomas344:chicken::1992-07-30:GB:F:none:KirstyEmmo
suethomas4jackhudson:trustno1:suethomas4jackhudson@gmail.com:1987-08-18:GB:F:none:SueThomasFan
suethomas849:amhjth1993::1993-10-07:US:F:none:suethomas849
suethomasfbeye1217:bubble7:holmkri@yahoo.com:1988-12-29:US:F:none:Kristen
suethomasfbi:35223522::1998-06-16:CA:F:96.30.135.56:NULL
suethomasfbi1:dimitrius:kirsty7@tiscali.co.uk:1978-07-14:GB:F:79.66.3.212:Mandy Emerson
suethomasfbi509:thefbi:jupiterkat12@aol.com:1990-11-29:JP:F:none:Sue Thomas
suethomasf_b_eye:ilove*jac%k:kirsty7@tiscali.co.uk:1991-02-27:GB:F:none:carole wilson
suethomasf_b_i_34:mischa:palerunt@go.com:1989-04-21:US:F:none:deanne bray
suethomas_levi:odie12:suefan_levi@hotmail.com:1989-02-24:CA:F:216.121.209.51:Suze
suethomaz:kitty00:sue.thomaz@yahoo.com.br:1988-01-11:BR:F:189.13.2.108:Sue Thomaz
suethomps:10kaegirls::2000-09-13:BS:F:65.75.83.71:NULL
suethompson:hannah56::2000-07-01::F:70.144.22.85:NULL
suethoon_91:apple181:lynettelee29@hotmail.com:1991-09-29:SG:F:165.21.154.68:lynette lee
suetibby:16tibby:schensches@hotmail.com:1961-02-20:AU:F:121.45.66.250:sue
suetie12345551:ilovemom22::2000-08-01::F:63.160.44.77:NULL
suetie92:970211::1997-10-01:HK:M:218.102.232.124:B_Bit_sir
suetie_xx:galli82:s12759@unicum.de:1982-09-28:DE:F:none:Susan Hantke
suetie__xx:galli82:s12759@unicum.de:1982-09-28:DE:F:none:susan hantke
suetiff:friends4life11::1997-11-05:JM:F:72.27.12.11:SueTiff
suetiffy:bffl23:TiffySuperPopstar@hotmail.com:1993-11-11:JM:F:208.138.38.64:Sueytiff
suetiggers:1306kent:pwpw63@yahoo.com:1940-09-30:US:F:68.54.175.5:patricia
suetiki:378809:suetiki3@hotmail.com:1962-07-29:US:F:67.63.99.195:Sue
suetiller:delilah:leslie_l1234@netzero.com:1984-02-22:US:F:none:leslie tiller
suetiller226:suelynnn:leslie_l1234@yahoo.com:1984-02-22:US:F:none:leslie tiller
suetim302:timsue302:suebonnici@aol.com:1961-02-19:GB:F:195.93.21.101:sue tim
suetimmayyan:mandalove234::1992-01-01:HK:F:none:suetimmayyan
suetina:adivinha04::1998-05-04:BR:F:189.110.21.113:NULL
sueting0326:tingting0326:happyting0326@yahoo.com.tw:1997-03-26:TW:F:123.195.20.170:~笨兔~
suetinker:tinkertaylor:suelaffar@msn.com:1962-07-01:GB:F:none:sue laffar
suetin_5:19871004::2000-03-13:HK:F:71.139.9.237:agnes
suetislee:ranjit:suetislee@yahoo.com:1983-07-20:MY:F:none:suet yee lee
suetitsworth:trainswest2::1993-09-03:US:M:none:suetitsworth
suetixx:223443:alex.db_222@hotmail.com:1992-08-29:AR:M:none:Alejandro Blanco
sueti_12_50:5205021::2006-07-01:CO:F:190.67.123.167:sueti 12 50
suetja:plopbi86:suz0692@hotmail.com:1992-06-16:NL:F:none:Suzanne Vissers
suetjah:supahdupah:crazy_beesje@hotmail.com:1991-05-23:US:F:none:sue franki
suetjai:941009csy:onlyshirley1009@hotmail.com:1994-10-09:MV:F:58.152.219.244:suet
suetjaiii:997398:lingjaiii.a_a@msn.com:1993-06-19:CN:F:124.244.221.58:suetjaiii
suetje1998:10kusjes:suederon@wanadoo.com:1988-04-09:NL:F:none:Sue de Ron
suetjelly:suetjelly123:suet1995@yahoo.com.hk:1982-10-27:HK:F:none:穎雪 鄭
suetjes:ikbenhoi11::1999-09-30:NL:F:84.28.169.99:NULL
suetjing:927116750:xue129@hotmail.com:1989-02-24:SG:F:none:LuaSuetJing
suetjuh1:paarden02::1998-01-19:NL:F:82.173.114.95:suejuh
suetjuh15:0618797052:sweety_sue6@hotmail.com:1989-07-06:NL:F:none:sue lacroes
suetkam267:226677:michelle_262622667@yahoo.com.hk:1990-12-08:HK:F:none:kei suet
suetkawaii:*8suet:suet_125@hotmail.com:1992-09-26:SG:F:none:suet suet
suetkay123:hellokitty12::1998-06-14:MY:F:60.53.90.93:chan
suetkee_88:131488:suetkee882000@yahoo.com.tw:1988-11-11:MY:F:115.132.84.18:Kiki Tan
suetkeiwu:313614:suetkeiwu@yahoo.com.hk:1989-11-14:HK:F:61.18.170.195:Shirley Wu
suetkeng:sheen:suetkeng@hotmail.com:1980-05-16:MY:F:none:Lee Sally
suetkiu:y4817778:cyo-011085@smallcampus.net:1986-05-17:TW:F:203.185.21.109:Suki Chan
suetkuromi:020792:suet_kuromi@yahoo.com.hk:1992-07-02:HK:F:none:曉雪 周
suetkwan:23872162:csk_suet@hotmail.com:1990-05-27:HK:F:221.127.41.205:玲
suetkwant:0369854:suetkwant@yahoo.com.hk:1995-07-06:HK:F:58.176.2.68:suetkwant
suetkwant2:0369854:suetkwant4@yahoo.com.hk:1993-07-06:HK:F:124.244.233.129:Anndy Tang
suetkwan_wong:jjaarriittaa:jarita_613@yahoo.com.hk:1990-06-13:HK:F:none:Wong Suet Kwan
SUETLAMB:920615:suetyiu_chan@yahoo.com.hk:1992-06-17:HK:F:175.159.43.175:NULL
suetlan:timenet::1992-09-19:MY:F:none:suetlan
suetlee123:cooleila123::2000-08-03:NZ:F:222.152.172.73:Eila
suetlee20:suetlee:boy20ag@gmail.com:1985-05-07:MY:F:none:sherly lee
suetleey:110386::1986-03-11:EN:F:NULL:NULL
suetleung:133133:suetleung117@yahoo.com:1986-06-24:HK:F:none:sdfs sd
suetley29:lilychang12345::1998-03-29:MY:F:124.82.60.84:chang
suetli01:19830101:sltan@mg-sc.com:1983-01-01:MY:F:218.111.16.89:suetli
suetli1014:101489:rachel_ssl_5@msn.com:1989-10-14:MY:F:218.111.28.129:Suet  Li
suetlian:11091945:carolchan0419@hotmail.com:1980-11-09:CA:F:174.112.39.254:Anna
suetlilanglz:lawrence33:suetlilanglz@cox.net:1986-10-23:US:F:none:Anglz
suetlily1995:303133::1993-02-14:HK:F:none:suetlily1995
suetlin:haizhaiz:suet_lin90@hotmail.com:1987-12-21:SG:F:none:Tay Suetlin
suetlin612:612612:rachel369258147@hotmail.com:1983-01-01:HK:F:221.124.244.15:lin leung
suetling:susannalee:mashilemon@aol.com:1987-08-29:US:F:none:SuetLing Lee
suetlingkam:yamada93:suetling_kam@hotmail.com:1994-12-29:SG:F:220.255.2.137:yuki
suetlingtam:16011993::1993-01-16:HK:F:219.79.133.118:Suetling
suetlingyeung_a999:97land:sherryeung@ymail.com:1987-11-29:FI:F:203.186.61.219:cute ling
suetling_1205:19891205:snow_winds1205@yahoo.com.hk:1989-12-05:HK:F:none:林 雪靈
suetling_123:Kar0802en::1996-12-24:HK:F:118.141.252.219:NULL
suetling_89:abcde:suetling_89@yahoo.com.hk:1986-08-09:HK:F:none:abc abc
suetling_girl:Kar0802en::1997-12-24:HK:F:119.247.139.11:NULL
suetlinl:271514:suetlinl@yahoo.com.hk:1990-03-13:HK:F:none:Lee  Suet Lin
suetlit:19880510::1991-05-10:HK:F:none:suetlit
suetlongko:longlong10::1998-10-10:HK:F:116.49.50.186:Suet Long
suetlongwo:520520:andyalan33@yahoo.com.hk:1988-07-26:HK:M:203.218.1.118:SuetLongWo
suetlove:19980118::1998-01-18:HK:F:58.153.105.19:蘇健如
suetlsc:snowpearl12:oi_mei2005@hotmail.com:1917-06-12:CN:F:219.77.31.10:Amy
suetly:li8706:suet_li87@hotmail.com:1987-08-03:MY:F:none:Cass -
suetman:cheung:manda1991326@yahoo.com.hk:1991-03-26:HK:F:Mail from theneopetsteam:張 雪敏
suetman0211:920211::1992-02-11:HK:F:none:suetman0211
suetman0v0:1994721::1995-11-02:HK:F:112.119.117.243:NULL
suetman1026:y556363::1995-10-26:HK:F:123.203.182.200:suetman1026
suetman123:941003:amyyip1994@hotmail.com:1994-10-03:HK:F:222.166.160.206:SUETMAN
suetman19:y556363a:jessica10261995@yahoo.com.hk:1995-10-26:CN:F:123.203.182.200:Tsoi Suet Man
suetman2:suet1010:suetmanng2@yahoo.com.hk:1990-10-10:HK:F:61.239.244.214:NG SUET MAN
suetman39:suetman::1994-04-05:HK:F:none:suetman39
suetman444:tsang444::1994-04-04:HK:F:none:suetman444
suetman733:51289776:lwvsuet@hotmail.com:1993-12-24:HK:F:123.203.27.115:CNS
suetman999:6401472:bobomuidi@yahoo.com.hk:1988-09-27:CN:F:219.78.46.137:天宮囡囡 鄧
suetmanha:981078:suetmanha2005@yahoo.com.hk:1992-01-01:HK:F:none:suet man ha
suetmanha620:981078:suetmanha2006@yahoo.com.hk:1992-05-08:CN:F:none:suetman ha
suetmanng2:322623:suetmanng2@yahoo.com.hk:1990-10-10:HK:F:61.239.244.214:藍 ＊雪子＊
suetman_fish:b21163:manyuen625@yahoo.com.hk:1988-06-25:HK:F:none:EVA YUEN
suetmei1121:ryanmei88:suetmei_88@yahoo.com:1988-11-21:MY:F:60.51.84.211:suetmei
suetmei1610:suetmei:lk_suetmei@hotmail.com:1986-10-16:MY:F:Item:Suet Mei
suetmei717:kinki717:suetmei_717@yahoo.com:1985-07-17:MY:F:210.19.75.3:liew suet mei
suetmei_717:kinki717:suetmei_717@yahoo.com:1991-01-01:MY:F:115.133.203.181:Stacey
suetmei_90:suetmei90:suetmei90@gmail.com:1990-07-30:MY:F:60.50.60.31:Suet Mei
suetmimicocojiji18:247455895:lam_wan3658@yahoo.com.hk:1987-10-27:HK:F:none:wan suet lam
suetming323:323323:suetming323@hotmail.com:1988-03-23:HK:F:none:Suet Ming Judy Wah
suetming34: 34998:jennywah88@yahoo.com.hk:1991-03-23:HK:F:none:Wah Suet Ming
suetmin_1691:MINYI123:evangelinetan@lycos.com:1989-07-16:SG:F:none:evangeline
suetmo:1a1314:mosuet@yahoo.com.hk:1993-06-28:HK:F:113.254.160.223:mo in fong
suetmon:y3859337:suetyin9883@yahoo.com.hk:1986-11-29:HK:F:none:jades pak
suetms:910612:suet_11@hotmail.com:1991-06-12:MY:F:none:Suet Ms
suetmui:laumui:cpagesm@yahoo.co.uk:1967-07-27:GB:F:90.219.172.26:Catherine Page
suetmui28:ho256342855:hosuetmui1992@yahoo.com.hk:1992-05-18:HK:F:none:何 雪梅
suetmunlee_2004:30091993:yikmun@hotmail.com:1990-09-30:MY:F:Item:suetmun lee
suetmunlee_3000:30091993::1993-09-30:MY:F:none:suetmunlee_3000
suetmuunnn:62748591:suetmun.hearts@hotmail.com:1993-10-14:MY:F:60.50.60.126:suetmuunnn
suetna:sa5257:meikuen330@gmail.com:1994-03-30:CN:F:119.246.169.108:SuetNa
suetne3:87muacks:xiaomeimei-94@hotmail.com:1994-06-03:MY:F:218.111.189.23:SuEtnEe
suetnei28_4:753951456852:suetmei@yahoo.com.hk:1927-12-31:IS:M:221.127.60.222:abc
suetnga:cml0336:suetman258@yahoo.com.hk:1992-03-09:HK:F:none:man lam chan
suetning:(mumanddad):suetning@gmail.com:1987-03-12:MY:F:none:suet ning
:::::::
suetninglam:bluebird020436:eric.fw.yang@pccw.com:1985-08-24:HK:F:none:suetning lam
suetnogwong:24537201:wongsuetnog@yahoo.com.hk:1988-12-29:HK:F:124.244.113.80:suetnog wong
sueto123:habbodi01:cleneli@bol.com.br:1993-07-26:BR:F:189.18.253.116:Luciane
sueto1felix:8989859:.vanderson@hotmayo.com:1995-03-08:IT:M:189.83.143.103:vaderson
suetociesis:imcttm:meepthe@msn.com:1990-10-30:CA:M:none:Asparagus
suetodd:socool12::2001-09-26::F:209.181.104.110:NULL
suetol21:sarah21:hoylemuir@yahoo.com:1908-03-18:US:F:72.28.38.41:pablo
suetom:mom1dad2::2001-09-07:US:F:68.117.100.182:lauren
suetomina:soulcalibur2:badluckfriday13@yahoo.com:1992-03-01:US:F:none:Lauren Eberling
suetomsue:suetom123:suetom_2@hotmail.com:1963-11-24:CA:F:24.138.154.120:susan
sueton:susu11:mariaaugusta_mota@hotmail.com:1990-03-24:JP:F:189.70.204.215:gabriela
sueton12:1coltsfan::1993-03-19:US:F:none:sueton12
suetone:divers1 1:sutone6@gmail.com:1940-06-08:US:F:72.240.237.231:Nana
suetong:cheung94::1993-07-19:HK:F:none:suetong
suetonious:mangosun:asta8216@mail.usyd.edu.au:1985-11-25:AU:F:none:A S
suetonius:susanou09:guarini_girl28@yahoo.com:1987-04-16:US:F:66.115.88.15:Susna
suetoo:Fantastic26::2002-01-26:US:F:24.62.210.110:Victoria
suetooth:Hamster#11:tanzelt@aol.com:1991-01-11:US:F:71.233.131.74:Cory Hunter
suetopia:oliver79:susan_b4u@hotmail.com:1979-06-15:AU:F:58.105.136.101:susan
suetor:lamigra7452:butequal@gmx.com:1978-11-20:CA:M:200.238.83.49:Salvador Miguelez
suetorch_a18:smarty11:kevin_sk_8te@hotmail.com:1970-01-01:CA:F:208.101.92.143:Sue
suetoria215:torir215::1993-09-16:US:F:none:suetoria215
suetorous:bob143:behbigerlxo@aol.com:1990-08-05:US:F:none:sue schalk
suetorres:st1234::2003-01-31::F:75.83.165.168:NULL
suetownsend:bambam12:kammytownsend@yahoo.com:1988-06-24:US:F:207.160.232.73:NULL
Suetoyou:B4utri2gA:rlmel@verizon.net:1959-02-21:US:F:127.0.0.1:NULL
suetpeng:Escherina2:stellawye@hotmail.com:1981-10-27:SG:F:220.255.0.55:Suet Peng
suetpikyeah:yan92930:suetpik_yeah@yahoo.com.hk:1991-01-20:HK:F:112.119.145.121:Lee Amy
suetpooh62:216958:suetpooh62@yahoo.com.hk:1991-06-02:HK:F:none:雪 人
suetqq:**hung**::1993-06-28:HK:F:none:suetqq
suetra:nyctea001bu:tearjem@yahoo.com:1992-04-21:US:F:70.6.1.3:**Sydney**
suetrader:13year:SUETRADER@BELLSOUTH.NET:1992-12-15:US:F:65.0.215.113:amber
suetrella_2:sst0091:suetrella@yahoo.com:1978-05-26:IS:F:71.239.110.90:sue
suetrinder:02032000:thienepc@gmail.com:1987-06-05:BR:F:none:Sue Trinder
suetruly:susan:gregbrown@sympatico.ca:1984-05-08:CA:F:none:sue brown
suetrying3:2thecat1:suetrying3@comcast.net:1962-02-28:US:F:24.130.16.193:susan estrada
suetsen213:totosai::1991-08-01:US:M:none:suetsen213
suetshaa:*gloria*:soyasi@hotmail.com:1990-07-16:MX:F:none:GLORIA  IBARRA
suetshan0921:98705179::2001-01-01:HK:F:203.218.71.50:To Suet Shan
suetshe::::1990-09-05:crackereater12:64:．. ``×薯
suetshian:610418:gansuetshian@hotmail.com:1987-03-18:MY:F:none:Elsa Gan
suetsin2005:beautiful:estherchong118@hotmail.com:1991-01-27:MY:F:none:lim sin
Suetsin3462:97673462:sam3462@hotmail.com:1992-01-27:MY:F:113.210.228.18:NULL
suetsisi:312326:jerjer_lam@yahoo.com.hk:1978-03-12:HK:F:219.77.223.77:suetsisi
suetskedk:suetake08:kawamoto.kazuko@opal.palala.or.jp:1994-03-18:JP:M:118.17.135.86:木之下マルス
suetsu:rafa01:rafa_sueitt@hotmail.com:1989-08-28:BR:F:none:Rafaela Sueitt
suetsuet:cc0901v06909::1993-07-24:HK:F:210.0.214.163:suetsuet
suetsuet00:12312300:sugar_yau@yahoo.com.hk:1987-09-29:HK:F:none:chin suet yau
suetsuet007:12070303:suetsue_t007@yahoo.com.hk:1995-12-7:HK:F:113.252.34.158:雷千雪
suetsuet0116:61011525:suet_suet_@hotmail.com:1990-01-16:HK:F:218.190.229.227:wong man suet
suetsuet0726:267710:yansuet2003@yahoo.com.hk:1989-07-26:ES:F:none:michelle ho
suetsuet0813:19931014:suetsuet813@yahoo.com.hk:1993-08-13:HK:F:61.93.46.49:suet
suetsuet09:5920999::1998-08-20:CN:F:123.202.122.197:Fan   Tuz   Suet
suetsuet1018:puiman:suet1018@yahoo.com.hk:1987-10-18:GB:F:none:vicki tse
suetsuet1110:suetsuet::1992-11-10:HK:F:none:suetsuet1110
suetsuet123:abcd123::1999-08-09:CN:F:119.247.48.227:〝戀幫之幻
suetsuet1314:4CCELIA::1986-02-02:HK:F:none:笨呆↗雪 陳
suetsuet135:g48j49:suetchingcheng@yahoo.com.hk:1994-01-19:HK:F:203.218.154.236:waiwai
suetsuet168:92779277::1992-07-07:HK:F:none:suetsuet168
suetsuet1990:19901210:leesuetcute1990@yahoo.com.hk:1990-12-10:HK:F:123.202.24.148:suetsuet
suetsuet1999:999116::1999-01-16:HK:F:42.98.209.154:NULL
suetsuet2000:ting11()::1994-03-01:HK:F:none:suetsuet2000
:::::::
suetsuet20031018:puiman:suet1018@yahoo.com.hk:1987-10-18:GB:F:none:vicki tse
suetsuet2005:23522516::1995-08-08:HK:F:219.79.114.27:suetsuet2005
suetsuet2009:24166882::1993-08-29:HK:F:218.250.222.158:suetsuet2009
suetsuet246:a1b234567::1992-05-05:HK:F:none:suetsuet246
suetsuet28:ll1127:suet28@hotmail.com:1990-11-27:HK:F:221.126.101.124:ling
suetsuet336:798433::1992-11-25:CN:F:none:suetsuet336
suetsuet339:798433:wingcoco1996@yahoo.com.hk:1987-11-25:CN:F:none:詠雪 梁
suetsuet4:f43q54::1993-12-13:HK:F:none:suetsuet4
suetsuet413:27582934::1993-07-24:HK:F:none:suetsuet413
suetsuet413413:qwert12345:suet413@yahoo.com.hk:1990-06-01:HK:F:none:suetsuet lee
suetsuet5106:26583566::1998-06-13:CN:F:61.18.170.34:chansuetsuet
suetsuet627:1160425:suetsuet627@yahoo.com.hk:1989-06-27:HK:F:none:suetsuet tang
suetsuet717:717titiana:titiana98@yahoo.com.hk:1988-07-17:HK:F:218.190.178.9:Hei Suet Wong
suetsuet718:2396237::1992-09-26:HK:F:none:suetsuet718
suetsuet7717:m1970n::1998-07-17:CN:F:218.190.177.148:Wong Hei Suet
suetsuet813:19931014:y3555680@yahoo.com.hk:1993-08-13:HK:F:210.6.167.243:雪
suetsuet9087:ss292532:loveloveshirley@hotmail.com:1990-08-07:HK:F:none:mok suet ying
suetsuet96:24211877:hangsuetwong@yahoo.com.hk:1992-08-31:HK:F:none:hang  suet wong
suetsuet98:1998555:suet98@gmail.com:1985-01-06:HK:F:203.223.203.250:lam tsz suet
suetsuet99:1992825::1992-08-25:HK:F:none:suetsuet99
suetsuetava:19970919:zoe_cysuet@hotmail.com:1979-09-19:HK:F:202.64.105.196:NULL
suetsuetbb:csycsycsy123:shirley_chan_suetying@hotmail.com:1994-04-05:HK:F:219.77.22.43:suetsuet
suetsuetbbg:970301::1997-03-01:HK:F:125.59.74.166:NULL
suetsuetcoco18:24436797::1992-11-11:HK:F:none:wan suet lam
suetsuetiris1995:122695:suetsuetiris@yahoo.com.hk:1988-12-26:HK:F:none:iris yuen
suetsuetkwok:1231123111suetsuetch:suetsuetfamily@hotmail.com:1990-11-23:JP:F:none:chan yat suet
suetsuetpak:27173617:suetsuetpak@yahoo.com.hk:1994-03-14:HK:M:124.244.201.88:suetsuetpak
suetsuetpak02:27173617:suetsuetpak@yahoo.com.hk:1981-03-01:JO:M:item:hung bear
suetsuetsuet0804:26885564:twins0804@yahoo.com.hk:1993-08-04:CN:F:221.127.143.162:Tam hin suet
suetsuetsuetsuet:26400710:yingsuet_so@hotmail.com:1979-12-16:HK:F:none:Suet So
suetsuetwong:835229::1991-04-17:HK:F:none:none
suetsuetxd:1c082a11:lillian-1997@hotmail.com:1989-07-20:HK:F:219.79.239.85:NULL
suetsuet_1:886886::2000-11-25:HK:F:222.166.160.210:suet
suetsuet_199516:zoiezoie_95:zoieho16@hotmail.com:1934-11-28:HK:F:none:suetying ho
suetsuet_3311:q33g47:suet_ying1997@hotmail.com:1986-11-02:HK:F:116.49.200.115:雪雪
suetsuet_5_5:54985498::2000-01-05:US:F:69.228.84.196:michelle
suetsuet_7_7:suki0726::1998-07-26:CN:F:61.92.213.113:雪雪
suetsuet_9:y6452491::1998-06-26:CN:F:218.102.125.220:林雪文
suetsuet_hi:q33g47:suet_ying1997@hotmail.com:1986-11-02:HK:F:112.118.248.220:suet suet
suetsuet_xd:19940618:suetyee_love@yahoo.com.hk:1994-06-18:HK:F:123.203.106.229:pang
suetsugu:mmm700:suetsugumj@gmail.com:1985-04-10:BR:F:201.21.118.249:Tiamat
suetsukata:12251990:Lokizl@hotmail.com:1990-12-25:SG:M:165.21.155.72:Suetsukata
suetsuki:2356374:suki4848@yahoo.com.hk:1992-01-28:HK:F:218.255.92.132:SUKI
suetsum:23822333:suetsumn@yahoo.com.hk:1989-12-29:HK:F:none:ng suet sum
suetsum1996:98120256::1992-10-13:HK:F:none:xx xx
suetsum1997:y1519139::1990-10-13:HK:F:none:xx xx
suetsumn:23822333:suetsumn@yahoo.hk.com:1989-12-29:HK:F:none:ng suet sum
suetsumuhana:S33kFind:mousey813@hotmail.com:1987-07-15:US:F:140.247.238.225:Nancy
suetsumw:1989628sum:suetsumw@yahoo.com.hk:1989-06-28:HK:F:none:suetsum wong
suetsy:30624700:csy_2@hotmail.com:1987-06-07:HK:F:none:C SY
suets_emceelolls:rats09:oldspiceman0.8@gmail.com:1987-12-01:US:M:72.160.7.14:ben
suett:260592:kwphun@tm.net.my:1990-04-01:MY:F:none:Joe Phun
suett980_4_0:heart980::2001-08-10:US:F:173.16.105.53:NULL
suetta:031899::1999-3-18:US:F:99.9.124.65:kayla
suettakayla:031899::1999-03-18::F:99.9.124.65:NULL
suettalim:love@hina::1993-12-30:FR:F:none:suettalim
suettan:michelle81:suettan81@yahoo.com:1981-11-04:MY:F:none:Michelle Tan
suetterlin:Nicole123:katrin_fischer1@yahoo.de:1987-12-21:DE:F:89.48.2.75:Katrin
suetterlinalain:fussball11::1992-10-25:CH:M:178.83.34.182:suetterlinalain
suetterlinalain1:fussball11:suetterlinalain@yahoo.de:1992-10-25:CH:M:178.83.34.182:Alain NA
suetterlinalain2:fussball11:suetterlinalain@yahoo.de:1992-10-25:CH:M:178.83.34.182:Alain NA
suetterlinalain3:fussball11:suetterlinalain@yahoo.de:1992-10-25:CH:M:178.83.34.182:NA
suetthechomel:suet89:loudnproud4@hotmail.com:1989-10-09:MY:F:60.49.71.107:Sharon
suettheng_98:0165051921:oilblam_98@hotmail.com:1972-06-05::F:115.134.133.82:NULL
suettie:suettie45::1998-07-24:NL:F:217.122.219.113:Sue Mae
suettielove:suemae12::1998-07-24:NL:F:94.215.188.16:Sue Mae
suettie_pie156:monkey2:divastar156@yahoo.com:1984-07-09:US:F:none:Sarah
suetting0312:19940312:suetting0312@yahoo.com.hk:1991-03-11:HK:F:219.79.146.26:suet ting chung
suetting913:24311246::1993-09-13:HK:F:218.252.241.123:suetting913
suetting94913:24311246:suet_ting913@yahoo.com.hk:1990-09-13:HK:F:222.166.181.118:疆屍
suetting_913:24311246::1993-09-13:HK:F:none:suetting_913
suetting_93:280393st:ysuetting@gmail.com:1993-03-28:SG:F:220.255.4.136:suet ting
suettsuilam:bluebird020433:princess.melanie@gmail.com:1987-08-25:HK:F:none:suettsui lam
suettung:23234991:suettung2003@yahoo.com.hk:1980-12-01:HK:F:none:Ng suettung
suettwins:26433398:sharentam@hotmail.com:1990-07-19:HK:F:none:suet long tam
suetty:132132:teng_teng@mystupidschool.com:1987-09-11:MY:F:60.50.243.184:suet teng
suettywei:tsw300996:suetwei_tiong96@hotmail.com:1996-09-30:MY:F:118.101.58.174:Suetwei
suetu98:guitarhero98:salvetibia.tibia@hotmail.com:1990-07-27:BR:M:186.220.222.170:NULL
suetuique:Fico@@:rafaelariedel@hotmail.com:1906-08-22:BR:M:none:Julio Cisco
suetumuhana:genji07:gnarakxdtsunef_bluejapan@hotmail.co.jp:1980-11-05:JP:F:124.18.23.185:藤花貴美
sueturatik_14:2720603::2000-01-03:PH:M:112.201.2.201:Rolly
suetus1:tornada00:hep_pa_hul_lu_94@hotmail.com:1994-10-18:FI:F:78.27.65.108:susanna
suetus94:tornada94:hep_pa_hul_lu_94@hotmail.com:1994-10-18:FI:F:78.27.65.108:Susanna
suetusetyu:pattor:maryyfn@yahoo.com.hk:1990-12-31:HK:F:none:yu yu
suetuskaninny1one:nordia01:mybrwneyedgrl61@yahoo.com:1961-01-05:US:F:184.163.86.199:Sue
suetuss101:meganbartaby21::1997-03-03:GB:F:86.157.244.55:megan
suetv123:ihateu22:semonhr@comcast.net:1982-02-01:US:F:99.180.73.179:sue
suetwa:19970812sw::1997-08-12:HK:F:221.126.247.19:NULL
suetwa125:sally5:tamsuetwa@yahoo.com.hk:1991-12-05:HK:F:218.254.21.40:suetwa tam
suetwai03:ng1820210305:tszfung2@yahoo.com.hk:1994-03-05:HK:M:219.78.28.74:tszfung
suetwaing:1820212002:tszfung2@yahoo.com.hk:1990-09-27:HK:F:219.77.136.121:淮淮
suetwawa:820160:cathysuetwa18@yahoo.com.hk:1991-08-31:HK:F:none:li suetwa
suetwa_:haheho:suetwa_@hotmail.com:1991-09-13:SG:F:none:wong suetwa
suetwa_zi:sally05:tamsuetwa@yahoo.com.hk:1993-12-05:HK:F:218.254.22.56:ddd
suetwing:199433:victoria_cheung13@yahoo.com:1901-03-03:HK:M:none:Sandy Lee
suetwing06:820910::1992-09-10:HK:F:124.244.168.25:suetwing06
suetwing122:90810281:suetwing125@hotmail.com:1988-12-05:HK:F:none:張 穎欣
suetwing123:91725638:suetwing_lee@yahoo.com.hk:1985-12-31:FR:F:58.177.135.143:╭〤淚的契約__×
suetwing125:23220751:suetwing_lee@yahoo.com.hk:1985-12-31:HK:F:none:lee suet wing
suetwing945:27171815:suetwing_lee@yahoo.com.hk:1984-08-06:US:F:none:彩雲 鄭
suetwinglee:199433:sandylee0303@netvigator.com:1901-03-03:GB:F:none:Sandy Lee
suetwinglun01:ng12012:suetwinglun@yahoo.com.hk:1970-01-12:CN:F:61.18.170.154:kitty
suetwing_serene:199511:suetwingserene@yahoo.com.hk:1987-11-10:US:F:none:suet  Wing
suetwinter:lover87:snowie336@mymelody.com:1987-11-03:SG:F:218.186.13.3:suet
suetwo1969:Honey123:sue.steve.young@xtra.co.nz:1969-07-14:NZ:F:122.57.110.172:Susan Thorne
suetwong:95889588::1993-09-01:HK:F:210.6.157.55:suetwong
suetwque:pn2f10t2:melinagsa@ig.com.br:1987-02-10:BR:M:189.46.60.200:Matheus Aquilini
suetx2:mosmart33:suet_x2@hotmail.com:1989-03-03:HK:F:219.77.91.62:sandy
suetxd:729suetsuet:sabrinasc2006@hotmail.com:1995-07-29:HK:F:119.247.145.205:suetxd
suetxdd:1996951:suet96519@yahoo.com.hk:1996-05-19:HK:F:113.254.165.211:SUET
suety:tyler:suevans77@hotmail.com:1960-05-09:CA:M:none:Terry Evans
suety1234:cetycat8910::1997-09-09::F:66.241.190.116:NULL
suety556:hijodeputa:francisco_jesus87@hotmail.com:1986-10-18:ES:M:none:fran godoy
suetyan:fionasick:pc19991085@schoolteam.net:1987-12-18:HK:F:Can I be your NeoFriend?:Suet Yan Kwan
suetyan60:287msy81:suetyanmsy@yahoo.com.hk:1985-08-04:HK:F:none:suet suet
suetyan91:9632525:peiwuan@hotmail.com:1995-04-11:MY:F:118.100.168.82:PeiWuan
suetyanlove:147369001a:newsuetyiucheung@hotmail.com:1988-06-22:HK:F:61.18.170.166:suet yiu
suetycelyn:daniels1:suzanne-roberts@tiscali.co.uk:1970-10-20:GB:F:none:Suzanne Roberts
suetyee:ksy0789:kamsuetyee@yahoo.com.hk:1966-02-17:CN:F:none:kam suet
suetyee1027:60263349::1992-10-27:HK:F:none:suetyee1027
suetyee1228:97135246:zoehin@hotmail.com:1988-12-28:CN:F:123.202.177.230:lo suet yee
suetyee1234:asdf78:suetyee0211@hotmail.com:1993-02-06:MY:F:60.54.39.225:Jay
suetyee2000:51123248::1994-02-14:HK:F:119.237.251.109:suetyee2000
suetyee22:880502:dolphinsyng@yahoo.com:1988-05-02:MY:F:60.51.162.130:Suet yEE
suetyee222:luvluv:suetyee@edsamail.com.sg:1986-02-22:SG:F:none:Wong Suet Yee
suetyee673:234033::1993-10-26:CN:F:none:suetyee673
suetyee777:123456789::1997-07-12::F:60.48.58.26:NULL
suetyee88:88299::1993-04-17:HK:F:Mail from contest_judge:suetyee88
