sugaplum04:marisa:misssamuelk@yahoo.com:1991-01-03:US:F:none:Marisa Huerta
sugaplum055:chririvera1:grivera29@netzero.net:1988-07-07:US:F:216.220.216.158:tatiana
sugaplum10:sinead10::1997-12-30:GB:F:78.151.57.69:Sinead
sugaplum1004:krnyuhja:xocuteazngurlxo@aol.com:1985-09-08:US:F:none:Mina Chung
sugaplum10380:jennywill::1993-06-03:US:F:none:sugaplum10380
sugaplum104:puppies:sugaplum104@yahoo.com:1985-02-19:US:F:none:Kiri Blah
sugaplum104_2:tanea10::1997-12-31:US:F:69.249.35.25:TaNea
sugaplum105:jequesta34:angieangelajohnson@yahoo.com:1992-03-11:US:F:none:angie johnson
sugaplum106:logan:deerkill5@aol.com:1990-01-16:US:F:none:suga plum
sugaplum107:relaxe107:justval86@hotmail.com:1986-10-14:JP:F:none:val david
sugaplum1097:razina97:girlsrulefrombloo@msn.com:1985-02-22:GB:F:79.74.201.143:razina
sugaplum1105:denise:maryanna4@verison.net:1989-08-19:US:F:Mail from deedee12189:Alexa Manner
sugaplum111:h4bb0::1993-11-17:NZ:F:none:sophie haynes
sugaplum1111:1eminemfan3:moshi96@hotmail.com:1990-08-28:CA:F:66.183.157.58:portugal
sugaplum11377:babyangel::1993-10-05:US:F:none:sugaplum11377
sugaplum118:JOEYCOSSINGTON:nicole1394@hotmail.com:1989-10-13:GB:F:none:Emma  Lousie
sugaplum12:ashley12:Sweetashunnie132@yahoo.com:1989-08-29:US:F:64.12.116.143:Ashley
sugaplum1217:coconegg::1993-12-17:US:F:none:sugaplum1217
sugaplum1221:378683:shelbyhigdon22@yahoo.com:1994-02-24:US:F:173.16.58.212:Shelby
sugaplum1223:honey15::1997-12-23:GB:F:92.11.249.157:Georgia
sugaplum1225:RENE0114:ms.Ingram01@yahoo.com:1979-12-25:US:F:74.131.60.43:KAUAI
sugaplum123:meggie123:sugaplum123@hotmail.co.uk:1991-10-17:GB:F:none:meg ozgie
sugaplum1234:jhalani12::2001-03-23:US:F:98.28.139.206:Jhalani
sugaplum123456789:@sh123::1999-02-17:GB:F:94.192.52.106:tasneem
sugaplum1234567890:@sh123::1999-02-17::F:92.11.151.87:NULL
sugaplum12358:gemma::1993-09-12:GB:F:none:sugaplum12358
sugaplum1293:suger:swimchick09101@hotmail.com:1987-09-20:US:F:none:Leah staewberries
sugaplum1294:12peachpetals:sugarplum127694@aol.com:1988-06-07:GB:F:none:Ashleigh Watson
sugaplum13:purple13:trinibabes14@yahoo.com:1995-04-18:US:F:24.185.100.59:Dena
sugaplum1316:sugaplum::1993-01-29:US:F:none:none
sugaplum133141:bananas133::1993-11-22:GB:F:none:sugaplum133141
sugaplum1376:meagan:dafrogieprinces01@msn.com:1990-02-11:US:F:none:Meagan Dube
sugaplum14165:sugasweet:superkoolcaz2003@yahoo.com:1982-10-28:GB3:F:none:C h
sugaplum1444:nakomi:sugaplum4192@aol.com:1991-04-01:US:F:none:nikki harris
sugaplum1489:musicalharp:flanell_combustion@hotmail.com:1989-12-01:AU:F:none:Amy Jacobs
sugaplum14abc:butterbean:ozarkheaven@cox-internet.com:1990-08-20:US:F:none:Sadie Clark
sugaplum14_4:milly:sugaplum14_4@hotmail.com:1990-04-12:GB:F:none:Leanne Blog
sugaplum158:shmo123::1994-05-07:GB:F:none:sugaplum158
sugaplum159:gurlie:nicecurves_slipperywenwet@hotmail.com:1989-11-16:NZ:F:none:jena broadbent
sugaplum16:netball10::1998-01-24:NZ:F:118.90.46.216:Aurora
sugaplum1600:alyssa07::2001-4-20:US:F:68.209.38.12:alyssa
sugaplum161:roxxi::1993-09-01:GB:F:none:sugaplum161
sugaplum17:hotstuff17:Mizt100@hotmail.com:1990-09-05:GB:F:195.93.21.65:Carmen
sugaplum18:foley18::1996-02-03:MT:F:58.7.142.182:rianna
sugaplum185:kasey:prettygurlkase92@yahoo.com:1992-01-10:US:F:none:kasey jones
sugaplum190:hotgurl::1991-07-26:US:F:none:sugaplum190
sugaplum1904:r1nkhal5:sexkitten1904@hotmail.com:1987-04-19:GB:F:none:Stacey Door
sugaplum191:diamondz:strawberry055886@aol.com:1989-12-12:GB:F:none:DEE TEE
sugaplum19111:plums::1991-09-19:US:F:none:none
sugaplum194:ruby123:nitronath123@hotmail.com:1990-02-26:GB:F:86.136.247.113:Emilee
sugaplum1991:SugaPlum12:smudgie91@hotmail.com:1991-02-02:AU:F:88.233.243.108:NULL
Sugaplum1997:mommy1997::1997-12-31:US:F:174.60.188.157:NULL
sugaplum1999:cruz147:babygirlbijou1@aol.com:1992-06-28:US:F:66.229.114.108:Karla
sugaplum1_6:sugar1:123ssuuggaarr1@earthlink.net:1978-06-07:US:F:none:natalie smith
sugaplum2:tas_17::1999-02-17:GB:F:92.9.68.148:tasneem
sugaplum2004:sweet:quirk.h@tesco.net:1990-10-06::F:none:Hannah Quirk
sugaplum2005faerie:popstar:brittanybella@yahoo.com:1982-05-05:US:F:none:Britanny Bella
sugaplum2006:midge1:alex_mcintyre05@msn.com:1988-05-22:GB:F:none:suga plum
sugaplum202:shyray::1992-06-08:US:F:none:sugaplum202
SugaPlum22:guyana22:persisg@hotmail.com:1991-09-23:CA:F:206.75.101.251:NULL
sugaplum2209:maemae:blonde_chica22@hotmail.com:1991-03-22:US:F:none:Dana Riley
sugaplum224:happy411::1992-04-11:US:F:none:sugaplum224
sugaplum22442:happy411:sugaplum4113@aol.com:1990-04-11:US:F:none:Nicole  Rudisill
sugaplum2249:happy411:sugaplum4113@aol.com:1984-04-11:US:F:none:Nicole Rudisill
sugaplum2266:buny+wabit:mariam_ezzat2662@yahoo.com:1982-01-21:GB:F:212.139.41.83:sugaplum
sugaplum22g:blossom567::1993-11-30:US:F:none:ibaadah amin
sugaplum23:kowalski23:kiahbree@cox.net:1993-11-27:US:F:24.251.138.2:Kiah
sugaplum236:m0n3yp00l::1996-09-22:GB:F:92.10.121.158:devon
sugaplum243_suga:tunnicliffegem::1993-09-12:GB:F:none:sugaplum243_suga
sugaplum250:davina::1994-05-11:US:F:none:sugaplum250
sugaplum252:arielle::1992-08-19:US:F:none:sugaplum252
sugaplum253:JACOKEE3:lilmama253@aol.com:1985-02-14:US:F:none:KEESHA DOUGLAS
sugaplum26:maggied1994:mdufault@cox.net:1994-06-18:US:F:68.9.75.149:maggie
sugaplum2622:852456:mariamezzat@hotmail.com:1987-01-21:AF:F:none:rachel stevens
sugaplum2662:753951852456:mariam_ezzat2662@yahoo.com:1982-01-21:GB:F:neofriend:suga plum
sugaplum270:success:me_shannon@hotmail.com:1989-10-25:BA:F:none:Suga Suga
sugaplum2707:penny:sweetlaughs511@hotmail.com:1985-05-11:US:F:none:Davina Chambers
sugaplum292:lovers:sweet_n_luveable4ever@yahoo.com:1985-11-10:US:F:acceptance:Nicole Farber
SUGAPLUM3:AVILES123::1998-01-03::F:97.115.174.9:NULL
sugaplum305:junkmail!:cneidhardt@shelford.vic.edu.au:1991-10-28:AU:F:none:sugaplum faerie
sugaplum306:kissez:sugakissez_306@hotmail.com:1989-04-26:GB:F:none:cristina cole
sugaplum311:rubydoo::1991-09-30:US:F:152.163.101.7:sugaplum311
sugaplum3116:rubydoo::1991-09-30:US:F:none:sugaplum3116
sugaplum318:aaron:ssnipertom@aol.com:1989-03-18:US:F:Acceptance:sabrina sartin
sugaplum31889:aaron:ssniperrom@aol.com:1989-03-18:US:F:Can I be your NeoFriend?:sabrina sartin
sugaplum323:jhalani20:princessnaenae97@yahoo.com:1988-03-23:US:F:72.49.185.144:Jhalani
sugaplum3232:tybabych::1992-04-17:CA:F:none:sugaplum3232
sugaplum330:opensaysme:mas_loca_4nsync@yahoo.com:1986-07-29:US:F:none:Lashanna Allen
sugaplum33064:lilrico1:sugaplum33064@yahoo.com:1991-08-30:US:F:none:brittany devlugt
sugaplum331:worried:pink_panther_331@hotmail.com:1990-10-29:CA:F:none:kate mcnul
sugaplum333:shaneb:rawknroll_sweetie@hotmail.com:1984-02-01:US:F:none:melanie warren
sugaplum334:artist10:littlegolickjr@hotmail.com:1978-05-21:FR:F:none:Chanel Gallager
sugaplum3448:takeachillpillman:sweetpea3448@aol.com:1987-01-08:US:F:none:Marissa  Cupp
sugaplum348:queen_bee:angieangelajohnson@yahoo.com:1991-03-11:US:F:97.89.180.206:Angela Johnson
sugaplum35:laura13:laura_is_a_devilangel@hotmail.co.uk:1993-02-02:GB:F:none:emma parka
sugaplum389:flowers!:duck_shoes7@hotmail.com:1992-04-01:CA:F:none:megan neufeld
sugaplum4:mizz04:x_lauren-bee_x@hotmail.co.uk:1994-04-22:GB:F:92.16.208.185:Lauren
sugaplum4268:beezy:bz329@aol.com:1990-05-13:US:F:none:Breanne Harchuck
sugaplum444:123456789:aliceclark8776@hotmail.com:1980-01-21:AU:F:Mail from andy999315:Alice Clark
sugaplum447:wolliw1:godschild4948@yahoo.com:1992-08-04:US:F:66.142.128.34:willow f
sugaplum456123:hillo159::1992-06-09:CA:F:none:Kellie Martin
sugaplum462:Baker89:mscherryluv8988@peoplepc.com:1989-01-11:US:F:none:Denis Watkin
sugaplum4738:ceo111::1992-11-05:US:F:none:sugaplum4738
sugaplum4lyfe:bug1772:bug1772@aol.com:1993-12-05:US:F:199.201.190.5:gabbie
sugaplum4u2luv250:davina::1994-05-11:US:F:none:sugaplum4u2luv250
sugaplum500:1love:glittergem_5@hotmail.com:1992-10-02:AU:F:none:gemma whiting
sugaplum515:jcismine:kdellaquila@hotmail.com:1986-12-08:US:F:none:kt d
sugaplum54:micheal14::2000-07-11:US:F:208.114.64.184:Madiesn
sugaplum558:puppie123::2000-07-12:US:F:209.107.209.94:nicole
sugaplum567:kangaroo:kevsherkelsty@aol.com:1992-06-30:US:F:none:Kelsey Brake
sugaplum581:teddy:naomib_581@hotmail.com:1991-03-12:GB2:F:none:suga plum581
sugaplum591925:dance94::1994-03-10:GB:F:none:sugaplum591925
sugaplum6512:gemma::1993-09-12:GB:F:none:sugaplum6512
sugaplum661:luvesucks:sweethang0783@yahoo.com:1992-03-03:US:F:none:morgan huggins
sugaplum6928:cruser:sugasugaplum69@yahoo.com:1989-09-12:US:F:none:JaKi L.
sugaplum696977:pumpkin:xxqt4eva7763xx@aol.com:1990-09-09:US:F:none:Kirsten Wilson
sugaplum705:plummer7:sundiva705@yahoo.com:1988-05-12:US:F:none:gabby brown
sugaplum7077:lijari*:lin_rip1117@yahoo.com:1993-11-17:US:F:184.96.207.233:sugaplum7077
sugaplum710:sugar:lilmuffin92@aol.com:1991-06-02:US:F:none:heather diaz
sugaplum712:sugar_plum::1992-09-25:GB:F:none:sugaplum712
sugaplum716:00000000:femaleballa716@cs.com:1988-07-16:US:F:none:Shalane Jessica
sugaplum722:ngocduyen92:crazynpink722@cs.com:1992-07-22:US:F:none:Vanessa Nguyen
sugaplum726:norrae1:mmjb7@hotmail.com:1987-02-23:US:F:none:Melissa Morgan
sugaplum74:teddy:sugaplum74@yahoo.com:1982-11-03:US:F:75.144.249.54:Julz
sugaplum768:great:sugaplumsugaplumbigsexy@yahoo.com:1992-03-11:US:F:none:angela johnson
sugaplum77:babe77:littlegir12@msn.com:1993-12-10:US:F:71.114.87.128:Nicole
sugaplum7861:neopets11:peekypebbles@hotmail.co.uk:1991-10-13:GB:F:86.134.198.38:Sarah
sugaplum8:libby:sherwood87@westnet.com.au:1991-05-31:AU:F:none:Abby Wakefield
sugaplum82:bZQUEEN::1992-05-13:US:F:none:sugaplum82
sugaplum83:bobface:sugaplumdance@yahoo.co.uk:1990-10-12:GB:F:none:Lucy  Binfield
sugaplum8908:ilovejohn:candymonster89@msn.com:1989-10-08:US:F:none:Lauren Smith
sugaplum89103:aggaoo:stevenshaun.gore@virgin.net:1989-10-02:GB:F:none:Kara Gore
sugaplum900:lleyland:sugarplum5050@aol.com:1990-12-21:GB:F:none:leila smith
sugaplum903:sharon1::1993-06-28:FX:F:83.197.91.198:sugaplum903
sugaplum91:animal11:hottie2shoesgal@hotmail.com:1991-10-25:US:F:71.230.169.27:Amy
sugaplum92:carmel::1992-12-25:US:F:none:sugaplum92
sugaplum926:talipop11:sugaplum926@yahoo.com:1985-09-26:US:F:71.194.110.169:Renee Franklin
sugaplum94:August:misskaanakaana@aol.com:1990-08-01:US:F:none:Sara Iqbal
sugaplum940:jennifer:sugaplum940@aol.com:1979-10-01:US:F:none:lily white
sugaplum96:devilzbabe:chantelbray5@hotmail.com:1991-04-25:GB:F:none:chantel bray
sugaplum965:ginger:kimgjordan@aol.com:1987-11-04:GB:F:none:kim jordan
sugaplum988:dishita12::2001-03-24:US:F:69.120.110.49:NULL
sugaplum99:tonilee99::1999-04-05:GB:F:82.3.164.36:toni
sugapluma:murphy:murphybirn@aol.com:1990-09-27:AU:F:none:Murphy Birn
sugaplumana:bluchik1:suga_plum_ana@hotmail.com:1992-04-28:AU:F:none:ana jiang
sugaplumbabe:babytoys:stefy_lim@hotmail.com:1988-04-09:NZ:F:none:Rose Lim
sugaplumbabe500:mememe:katie_28_kitty@hotmail.com:1986-02-28:GB:F:Item:katie hayes
sugaplumbabe808:christmas:peterr@kisser.com:1990-08-13:GN:F:none:Imogen Retz
sugaplumbabe818:christmas:peterr@kisser.net.au:1990-08-13:AR:F:none:Imogen Retz
sugaplumbabe888:sugar:spk018@epals.com:1990-08-13:CN:F:none:Imogen Retz
sugaplumbabehh:jibberjab00:dizzytoast@hotmail.co.uk:1993-09-05:GB:F:195.93.21.10:Chloe
sugaplumbabi6669:ilovebrent:eminemsbestgirl1@yahoo.com:1990-02-05:US:F:none:cassandra glover
sugaplumbaby12:purple98:BttrfngrGrl23@aim.com:1992-05-19:US:F:76.98.180.99:natalie
sugaplumbananaqueen:spbfq:funkymonkeybecky@hotmail.com:1991-09-12:GB2:F:none:becky waller
Sugaplumbanshee:12345!:sugaplumbanshee@gmail.com:1950-02-22:US:F:70.44.227.97:NULL
sugaplumbarbie13:sunshine13::1997-06-13:AU:F:121.91.114.33:stephiii
sugaplumbhun:jellybeans12::1996-03-21:GB:F:86.162.197.78:Rebecca
sugaplumbkayla:rupert90:kayla_kayla@hotmail.co.uk:1989-06-17:GB:F:81.129.9.97:Kayla
sugaplumb_69:supergirl:dianamia93@aol.com:1987-07-13:US:F:none:diana
sugaplumcake:michael1:prettybammachick_fof@hotmail.com:1990-09-07:US:F:none:Sagen Graves
sugaplumchick:popstar:lovablecutechick@yahoo.com.au:1990-12-25:US:F:none:Jasmine York
sugaplumchickette:bella::1992-08-13:AU:F:none:Imogen Retz
sugaplumchik:sophie:nellzybellzy@aol.com:1979-12-27:GB:F:Can I be your NeoFriend?:sophie hansom
sugaplumcutie:dusty:sssoccachick@netscape.com:1991-06-15:US:F:none:jennifer tttttt
sugaplumcutie18:5382453:katie_johnsen_375@hotmail.com:1991-10-18:CA:F:none:katie johnsen
sugaplumdame23:sugaplums55:davida@merseymail.com:1977-01-05:GB:F:none:abigail davidson
sugaplumdreamz:frodo12:earendil51@hotmail.com:1986-07-19:CA:F:68.148.235.208:Staci Sloan
sugaplumer:yodog123:marty_mon@yahoo.com:1990-01-13:US:F:74.212.246.210:ghhsffg
sugaplumfaer1e:get128fern679:sugaplumfaerie69@hotmail.com:1989-01-12:NZ:F:none:Shannon Lucas
sugaplumfaerie08:macaulay:flower_power27@hotmail.com:1988-11-14:GB:F:none:Sophie Brown
sugaplumfaerie169:SAPPER:jon_and_lesley@hotmail.com:1990-10-09:AU:F:none:leah hook
sugaplumfaerie34:woogie:artala24@aol.com:1989-08-24:US:F:none:A Thiede
sugaplumfaerie69:get128fern679:flamingtopazdaisy@hotmail.com:1989-01-12:NZ:F:none:me meagain
sugaplumfaerie7:sally:aphra7@hotmail.com:1989-06-15:GB:F:none:sugaplum faerie
sugaplumfaerie88182:orlando:pari_behpour@hotmail.com:1988-06-30:GB:F:none:pari behpour
sugaplumfaerie95:rox_my_sox::1992-10-14:CA:F:none:sugaplumfaerie95
sugaplumfaeriee:tibby2525:tibbtabb@hotmail.co.uk:1996-01-25:GB:F:81.158.21.103:
sugaplumfaerie_11:iloveme1::1993-03-11:US:F:none:sugaplumfaerie_11
sugaplumfaery311:niaz1994:bysluvme2@aim.com:1980-06-29:US:F:none:sarah kluft
sugaplumfaery636:animal:sugaplumfaery@hotmail.co.uk:1990-12-08:GB:F:none:Lottie Locks
sugaplumfair:numnum:laura_squad@hotmail.com:1991-06-09:CA:F:none:Laura D
sugaplumfairae:NIPPY:sugaplum_fairy1@hotmail.com:1985-05-09:DJ:F:none:Happy Bumble bee
sugaplumfaire:clockwork::1990-02-02:US:F:none:Caitlin Meyer
sugaplumfairee:cas4per:the_3_chickateers@hotmail.com:1992-04-30:CA:F:none:Shannon hunabun
sugaplumfaireezx:packardbell11:boomtish@hotmail.co.uk:1990-04-15:GB:F:88.105.67.163:Sellie
sugaplumfairey:chloe:devilgirl3701@aol.com:1988-02-18:US:F:none:cathy bergeron
sugaplumfaire_2:extreme04:elevation2004_3@hotmail.com:1992-01-01:GB:F:none:Charlie Livings
sugaplumfairi:chunka:chantal_575@hotmail.com:1988-05-26:AU:F:none:Candice Cox
sugaplumfairie:tia11:vicymania7@hotmail.com:1961-12-03:GB:F:none:sugar plum
sugaplumfairie13:dougie1:victoriathickett@aol.com:1983-12-13:GB:F:none:ViCkixXx
sugaplumfairie14:buttlick:tiger702@msn.com:1987-07-02:US:F:Mail from afi_lost_soul13:Amanda Wescoat
sugaplumfairie7:wildchild:nuttytart_7@hotmail.com:1990-01-06:GB:F:none:regena falangie
sugaplumfairie97:sohotandsexy::1990-12-10:US:F:none:sugaplumfairie97
sugaplumfairie999:Whaleshark:daytimediva101@aol.com:1988-07-07:GB:F:none:Sophie Hemmings
sugaplumfairieberrie:nutcracker:hippitebopiteboo@yahoo.com:1989-07-16:US:F:none:Safia Jama
sugaplumfairy:cheeky:paul.yelland@virgin.net:1988-02-15:GB:F:Item:Hayley Yelland
sugaplumfairy01:alexalexalex11:jsimkin@xtra.co.nz:1992-06-21:NZ:F:125.239.79.236:Alex
sugaplumfairy07:yurmom!:gluegal07@hotmail.com:1989-05-30:US:F:none:Amber Kolesar
sugaplumfairy10:lovely10:SuperSid2012@aol.com:1992-02-03:US:F:64.12.116.70:Brittany
sugaplumfairy115:sugarplum:sugarplumfarie88@cs.com:1988-08-04:US:F:none:Eden Smith
sugaplumfairy122:sugaplum:chloeherbert@aol.com:1989-10-24:GB:F:none:Chloe Herbert
sugaplumfairy123abc:tobyrocks:funkeyfairey@msn.com:1983-12-02:AU:F:none:Denne James
sugaplumfairy143:beigelalr:candyprincess31@aol.com:1901-02-10:GU:F:none:GabrielleLollipop
sugaplumfairy1512:peaches:sugaplumfairy90@aol.com:1990-12-15:GB:F:none:nicola dewhurst
sugaplumfairy193:sugar:sunflowergem@hotmail.com:1990-05-31:NZ:F:none:kaila pullen
sugaplumfairy200:lolliepop::1993-11-19:GB:F:none:sugaplumfairy200
sugaplumfairy21:eeyore:mel.farrington@blueyonder.co.uk:1987-03-24:GB:F:none:Melanie Farrington
sugaplumfairy220:ziggii:r_calver@redmaids.bristol.sch.uk:1992-03-03:GB:F:none:bex gold
sugaplumfairy2212:2212iluvu:sugar_plum_bubble_gum90@hotmail.com:1992-12-22:GB:F:86.13.226.232:sophie martin
sugaplumfairy24:LauraKatie:laura_jeffrey_@hotmail.com:1989-07-21:GB3:F:none:Laura Jeffrey
sugaplumfairy259:ilovealex:sugaplumfairy182@hotmail.com:1989-07-02:GB:F:none:fiona scuffins
sugaplumfairy29:panman93:mac_ur_day@hotmail.com:1990-10-29:AU:F:none:Chloe M
sugaplumfairy3000:chocolate:sugaplumfairy3000@hotmail.com:1990-07-15:GB:F:none:Rachel Ellison
sugaplumfairy33:sugaplumfairy::1986-11-15:US:F:none:Ufo Ataderie
sugaplumfairy4:numnum:laura_squad@hotmail.com:1991-06-25:CA:F:none:laura L
sugaplumfairy46:pointpiper:little_miss_sc@hotmail.com:1987-07-05:US:F:none:Sarah Constable
sugaplumfairy514:525600:classickeller@yahoo.com:1997-05-14:US:F:75.140.246.213:Maxi
sugaplumfairy555:sophia:heather.maunders@atcbiotech.com:1991-12-07:GB:F:none:your worst nightmare
sugaplumfairy5752:hardyboy11:jenniferbudd2@msn.com:1992-05-17:GB:F:86.128.16.43:Jennifer Budd
sugaplumfairy66:codytrue:sammygurl109@yahoo.com:1990-07-28:US:F:none:samantha sweeden
sugaplumfairy69:159753hide:sweetheart092062@yahoo.com:1985-05-03:US:F:none:Hailey Foley
sugaplumfairy90:my daddy:sugaplumfairy90@aol.com:1990-12-15:GB:F:none:nicola dewhurst
sugaplumfairy91:ACTIVEAC_69:yoyoko0@yahoo.com:1986-01-10:US:M:none:mamasboii
sugaplumfairy911:cassie:itsallme111@hotmail.com:1988-04-04:GB:F:none:cassie lewis
sugaplumfairy92:manutd:skyfry1@aol.com:1991-02-18:GB:F:none:Gemma Bootylicious
sugaplumfairy937:lorla4doughty:lozzie_4_tom_wilson_2004@msn.com:1991-11-09:GB:0:none:Lorna Hooper
sugaplumfairyabc1234:denne:sugaplumfairyabc123@hotmail.com:1985-12-02:AU:F:none:Denne James
sugaplumfairynumber1:suga!:meme118@hotmail.co.uk:1992-09-03:GB:F:none:stacy sneddershin
sugaplumfairyprinces:kathryn:anne361@hotmail.com:1950-04-29:US:F:none:kathryn wood
sugaplumfairypwince:melmorte22:milly-ere@hotmail.com:1990-10-25:DE:F:91.33.223.162:mel
sugaplumfairyrachy:jasminewalker:sunflower_411@hotmail.com:1988-11-04:GB:F:none:Rachel Dolan
sugaplumfairytoes:taggyl0ve:p1nkypr1ncess_69@hotmail.com:1991-05-25:GB:F:none:caramal slices
sugaplumfairyz:kayles92:kayle-aussie@hotmail.com:1992-08-27:GB:F:88.105.226.150:kayleigh
sugaplumfairy_3_3_3:rainbow234::1994-05-01:GB:F:81.1.71.249:Smile
sugaplumfairy_4:hansol1:hotstuff_forever275@hotmail.com:1990-02-21:AU:F:none:bob  bobson
sugaplumfairy_92:1babygurl0:a.sanders92@hotmail.com:1989-12-31:US:F:125.237.176.25:NULL
sugaplumfaree:hello98:06jf7106@launceston-college.cornwall.sch.uk:1991-07-14:GB:F:88.106.217.77:natasha
sugaplumfarie12:sorry:lillenjohnson@earthlink.net:1972-12-12:US:F:none:samanthajohnson
sugaplumfariiz:shopping12:tashrocks25@hotmail.com:1994-07-27:GB:F:86.139.176.27:sophientash
sugaplumfary:nutcracker:dncr567@comcast.net:1991-03-09:US:F:none:jen rawding
sugaplumfary22:ilovemymum:fairydust22@fsmail.net:1980-05-14:GB:F:none:susy q
sugaplumfeery:get128fern679:badmonkey____nobananas@hotmail.com:1989-01-12:NZ:F:none:not telling
sugaplumgurl2202:plums::1992-08-06:US:F:none:sugaplumgurl2202
sugaplumgurli10:beanz::1994-02-15:US:F:Mail from theneopetsteam:sugaplumgurli10
sugaplumhoneybun:whateva:najordan@xtra.co.nz:1985-01-27:NZ:F:none:Suga Plum
sugaplumhuni:hunibun!:gsdore@hotmail.co.uk:1992-06-17:GB:F:none:Rachel  Dore
sugaplumhunibun123:xmessyx:sugaplumhunibun123@hotmail.com:1989-02-20:GB:F:none:Poo  Face
sugaplumj07:france:whitedolphin89@peoplepc.com:1988-01-07:US:F:none:itzme
sugaplumjan2900:leezachloe5j::1993-06-19:GB:F:none:sugaplumjan2900
sugaplumkiss:sweetkisses::1993-01-10:GB:F:none:sugaplumkiss
sugaplumlolliepops:tupwas1994:pippy_long_stockings244@hotmail.com:1993-05-14:AU:F:none:Pip Riches
sugaplummaria:17october::1994-10-17:GB:F:80.3.190.230:maria
sugaplummfairy:fairies:sk8terboy95945@aol.com:1990-10-31:US:0:none:Darcy Tucker
sugaplummm:pillsberrydoughboy12:sportsmonkey265@comcast.net:1996-05-17:PR:F:68.82.60.60:jackie
sugaplummy585o:passwordpencils58:cocolatte4550@yahoo.com:1992-11-22:US:F:74.182.154.224:Brenna
sugaplummz:coolcat78::1998-09-09:GB:F:80.12.97.39:NULL
sugaplumm_:o0o0o0o:annielelele@hotmail.com:1989-02-20:CA:F:64.231.68.101:Annie
sugaplumm_tre:tre_taylor:easybreezy_cg@yahoo.com:1991-11-12:US:F:none:tay Keats
sugaplumm_tre_ace0:111291:easybreezy_cg@yahoo.com:1991-06-10:US:F:none:hjy sdf
sugaplumneo333:sugaplumfairy3:sugaplumfairy3@hotmail.com:1986-11-15:GB:F:none:Ufo Ataderie
sugaplump:diana1:pink_devil4@hotmail.com:1992-07-13:GB:F:none:jade jade
sugaplump13:nicole13::2007-12-31:ZA:F:122.57.60.68:nicole
sugaplumpfairy:blackass01:michaellaswilliams@msn.com:1994-05-05:NZ:F:222.153.19.43:Kayla
sugaplumpinkysmum:poop:s_o_phie@hotmail.com:1990-08-19:US:F:none:marrianna luxen
sugaplumplum:alexlaura12:sugaplumplum@hotmail.co.uk:1990-01-06:GB:F:87.102.15.162:Laura
sugaplumprincesfairy:james22:stanes999@hotmail.co.uk:1991-09-22:GB:F:172.159.211.107:emma
sugaplumprincess:corey:i_is_2_cute_4_u@hotmail.com:1989-07-25:NZ:F:none:cassie dreaver
sugaplumprincess116:sugarplum116::1993-11-09:NZ:F:none:lexy rxsx
sugaplumprincess2004:thatsright!::1992-03-28:GB:F:none:sugaplumprincess2004
sugaplumprincess3636:princess1387:candycane@hotmail.co.uk:1991-05-13:GB:F:84.252.223.54:Danielle
sugaplumprincess550:selkirkinn::1991-06-30:CA:F:none:sugaplumprincess550
sugaplumprincesses:lululu::1993-09-16:US:F:Trade Closed:sugaplumprincesses
sugaplumprincesses29:buddiez:suga_plum_princesses@hotmail.com:1991-02-15:AU:F:none:katgeo zevenbeare
sugaplumprincessx:sugaplum::1993-06-04:GB:F:none:sugaplumprincessx
sugaplumps:loveiskind:annaraye@comcast.net:1991-07-27:US:F:none:paris jordan
sugaplumpuppy:booboo03::1997-05-02:GB:F:89.242.155.174:elizabeth amy
sugaplumpuppygurl:taylorz1:drobinson@satx.rr.com:1992-08-27:US:F:none:KaKa jOHNSON
sugaplumpwincess:donuts:ssivakumar@rogers.com:1990-07-27:CA:F:99.247.100.108:Prav Siva
sugaplumqt22:torbor34::1992-08-02:US:F:none:sugaplumqt22
sugaplumqt23:iluvkellen:sugaplumqt23@yahoo.com:1990-05-13:US:F:none:kylee ellingsen
sugaplumreddy:reddy::1991-11-22:BS:F:none:sugaplumreddy
sugaplumrose19:peppamint23:angelbabya93@aol.com:1992-02-11:US:F:24.225.206.219:Amy Mark
sugaplums:rose88:desiree_elbaz666@yahoo.com:1987-07-30:CA:F:Item:desiree elbaz
sugaplums1:haras1:sjs32693@yahoo.com:1950-03-26:US:F:none:None of Ya business
sugaplumsparkle:glitter:yasminperryeverett454@o2.co.uk:1991-02-20:GB:F:none:yasmin perry
sugaplumsweetiepie22:dawweangel::1992-12-20:NZ:F:none:sugaplumsweetiepie22
sugaplumsweety18:tinkerbell18:suga_plum_fairy18@hotmail.com:1988-07-08:GB:F:none:Kimmi Jones
sugaplums_07:teddy06:babiegyrl1011@yahoo.com:1984-10-11:US:F:68.248.80.65:Precious1
sugaplumtink:sweetsuga11::2003-07-23::F:67.166.235.131:NULL
sugaplumtree:family4eva:manpreetklair@hotmail.co.uk:1992-01-14:GB:F:none:Manpreet  Klair
sugaplumwes:penguins922::1996-07-04:US:F:76.219.122.214:ande
sugaplumwesoj:elizabeth10::2001-04-05:US:F:76.219.122.214:taylor
sugaplumwierdo:donkey:sugaplumwierdo@hotmail.co.uk:1992-05-13:GB:F:none:judy royle
sugaplumx:sugaplum123:xjessgillx95@hotmail.co.uk:1995-04-01:GB:F:80.235.134.232:Jessica
sugaplumxox120:carebears:kimba6263@aol.com:1991-03-12:US:F:none:Ashley Fields
sugaplumxxx:islam786::2000-01-01::F:78.144.28.154:NULL
sugaplumz25:love25:sugaplumz2586@hotmail.com:1986-10-25:US:F:71.243.83.55:maria perez
sugaplumz2sweet:yummyyum:sugaplumz2sweet@aol.com:1988-08-08:US:F:none:Randyl Critser
sugaplumz8:danielle is mini::1992-05-12:US:F:none:sugaplumz8
sugaplumz8_2007:danielle2007:jwatts@msad43.org:1992-05-12:US:F:216.195.176.189:Jen W
sugaplumzo69:liverpool69:zoe_rules_44@hotmail.com:1992-09-05:GB:F:none:zoe hiller
sugaplum_02:brochris:modelbabe2001@hotmail.com:1989-10-02:CA:F:none:michelle  mudge
sugaplum_07:kathy2007:lil-kathy@hotmail.com:1994-04-08:GB:F:83.100.202.233:katherine
sugaplum_1:olivia13:oliviaconnor@hotmail.com:1994-03-07:VI:F:12.174.238.131:Olivia
sugaplum_101:poky123::2002-03-15:US:F:70.238.127.225:Alexis
sugaplum_105:ailya::1990-05-08:US:F:Mail from multiplayer_setup:none
sugaplum_12:12petals:sugarplum-12@hotmail.co.uk:1988-06-07:GB:F:none:Ashleigh Watson
sugaplum_1294:MESSY+PUP:sugarplum127694@aol.com:1988-06-07:GB:F:none:aShLeIgH wAtSoN
sugaplum_14:marcus12:crazylady4321@hotmail.com:1992-06-12::F:86.145.10.214:NULL
sugaplum_1995:403643:jattikang_11@hotmail.com:1992-03-18:CA:F:74.113.122.55:Surman Kang
sugaplum_2:fairy:sugaplum_2@hotmail.com:1991-07-10:GB:F:none:sugaplum_2
sugaplum_200294:neave::1994-02-20:GB:F:none:sugaplum_200294
sugaplum_202:briap:fatlady@aol.co.uk:1989-08-09:GB:F:none:lyndzey may
sugaplum_2208:juppie:sugaplum_30@hotmail.com:1989-10-22:CA:F:none:judith gomez
sugaplum_23:081489:crisel_d@hotmail.com:1989-08-14:CA:F:76.64.34.105:crisel
sugaplum_24:sugaplum123:crazyfrog_71@hotmail.com:1992-12-01:NZ:F:210.86.45.210:Moana
sugaplum_2419:l4l12:brightmary@bellsouth.net:1985-10-08:US:F:Mail from lilmisswthang_0440:Laci Dutchmen
sugaplum_26:John9059519998:x.o.x.HBoufounos.x.o.x@hotmail.com:1991-01-07:CA:F:99.239.132.50:Haley
sugaplum_3:maxine01:sugaplum_3@hotmail.com:1990-10-07:GB:F:86.149.80.24:Maxine Hibbert
sugaplum_430:kamal430::1994-10-14:CA:F:99.228.100.182:sugaplum_430
sugaplum_77:joeygina:sugaplum71@hotmail.com:1987-01-17:CA:F:Item:suga spice
sugaplum_86:eza1234:ka133099@bigpond.net.au:1986-07-22:AU:F:58.168.122.63:Erin
sugaplum_95:charmed1:sugaplum_95@hotmail.co.uk:1992-02-21:GB:F:none:chantelle horsley
sugaplum_babe:babyblue::1993-04-19:AU:F:none:sugaplum_babe
sugaplum_babe188:(halloween!):dom_da_sxc_boi@hotmail.com:1983-08-02:AU:F:none:sugaplum babe
:::::::
sugaplum_bubblegum39:justinadam::1991-08-15:AU:F:none:none
sugaplum_cherry:cherry:elliemichael1307@hotmail.com:1984-08-04:GB:F:none:jess buckley
sugaplum_daisy:candy:sylvia.b@bigpond.com:1990-12-09:AU:F:121.222.226.118:Kat Bates
sugaplum_faerie:hermione:little_miss_princessa@hotmail.com:1989-01-05:AU:F:none:Amy Parka
sugaplum_faerie8:macaulay:flower_power27@hotmail.com:1988-11-13:GB:F:none:Sophie Brown
sugaplum_fairie__:naughty:on_cloud9_wif_myles@hotmail.com:1989-09-02:NZ:F:none:Kelly Shere
sugaplum_fairy:sblsc55::1996-08-01:GB:F:82.38.233.200:Sophie
sugaplum_fairy1083:sugar1:archn001@sgfl.org.uk:1993-03-23:GB2:F:none:tasha archer
sugaplum_fairy2397:rainbowmagic2397:sugar-06@hotmail.co.uk:1991-08-09:GB:F:86.13.167.98:Rachel
sugaplum_fairy66:iamspecial:sugaplum_fairy66@hotmail.com:1990-02-24:AU:F:none:Natasha B
sugaplum_fairyxx:napoli:ihatestinkyfeet@hotmail.com:1982-03-30:GB:F:none:laura loo
sugaplum_fairy_girl:chicken:glitty_girl@hotmail.com:1989-06-07:GB:F:none:cathy lizzie
sugaplum_farie:mememe:lingygirl40@hotmail.com:1983-10-14:GB:F:Can I be your NeoFriend?:sian ling
sugaplum_hunibun:bugsy_malone:princessnellie@btinternet.com:1992-05-16:IE:F:none:ciara mc k
sugaplum_jordy:blossum::1992-08-15:AU:F:none:sugaplum_jordy
sugaplum_kissez:cadie1989:fairyprincess_775@hotmail.com:1989-08-01:GB:F:none:sarah shorrock
sugaplum_princess69:dutchess1:sugaplum_princess@hotmail.co.uk:1991-11-01:GB:F:none:sarah squires
sugaplum_sunshine:jesse3:sugaplum_sunshine@hotmail.com:1987-04-01:AU:F:none:SuNsHiNe ~`~Hi Ya~`~
sugaplum_sweetie02:ilovenick:emygirl10@aol.com:1991-08-12:US:F:none:Emy Y.
sugaplum_xx:yupyup83:yass_xox@hotmail.com:1993-09-03:AU:F:58.168.65.41:yass manshu
sugapluumbneo:ashlee90:kayla_kayla@hotmail.co.uk:1989-06-17:GB:F:88.111.156.165:Michaela
sugapo011:bmw9261992:brebre2011@hotmail.com:1992-09-26:US:F:none:Whittney Williams
sugapoison16:iloveu:sugaryurs4eva@hotmail.com:1990-06-04:US:F:109.169.72.120:Becci
sugaponn:0303taeko:sugasyun@khaki.plala.or.jp:1956-04-10:JP:F:none:妙子 菅原
sugapony:grass::1993-03-15:US:F:66.115.194.64:sugapony
sugapoo98:ilovenick:allie.pemberton@imagemark.net:1987-01-10:US:F:none:Amanda Pemberton
sugapoof11:hottie11:ceb2hot4u@yahoo.com:1990-06-19:US:F:75.68.155.59:Corrie
sugapooh24:neopet26:zhanedixon11@yahoo.com:1990-06-05:US:F:71.56.126.235:Cymone
sugapooo:8ua45ieri4ik:hippo_pooo@hotmail.com:1963-10-29:GB:F:Mail from pinkfaeriepoo:ali stupid
sugapoopsy:shelley::1992-01-09:US:F:none:sugapoopsy
sugapop00:maxine25::2000-03-16:US:F:72.173.9.199:NULL
sugapop0484:liltt:djclueless987@aol.com:1983-11-12:US:F:none:Tamara  Harris
sugapop1:lovey19::1999-01-05:US:F:12.174.172.252:ariana
sugapop100:rose99:senzafille@netscape.net:1988-02-19:CA:F:69.165.138.44:#@&♥--->doRkEttE
sugapop11:soccer22:erin22@live.net:1993-01-07:US:F:67.72.98.46:Erin
sugapop111:72094:xoxlinds72094@aol.com:1969-07-20:US:F:none:lindsay hampton
sugapop115:miamor115:playgrrl4lyfe47@aol.com:1989-04-07:US:F:none:chelsea pool
sugapop12:110756:cheer_2pop@sbcglobal.net:1993-04-02:US:F:none:tory davis
sugapop125:jan2592:infamousmissizzy@gmail.com:1992-01-25:US:F:71.104.21.250:Izzy
sugapop15:lovering:devils_lil_angel19_8@hotmail.com:1989-03-05:AU:F:none:louise dunster
sugapop1515:hhiniker:pitbull269@hotmail.com:1990-03-18:US:F:none:Amber Wilson
sugapop2004:canada:icedsbabygirl@hotmail.com:1978-01-01:US:F:Mail from theneopetsteam:suga pop
sugapop22:soccer22:erin22@live.net:1992-01-07:US:F:67.72.98.45:Erin
sugapop3:pumpkin::1990-03-19:AU:F:none:ursiew
sugapop303:667141731:sugababy98760@netscape.net:1988-08-13:BV:F:none:carly
sugapop33:poppy:loopylou_moo@hotmail.com:1990-08-23:NZ:F:none:Linda Woodham
sugapop37:bumface:m_thorbecke@hotmail.com:1989-07-30:AU:F:none:Maddy T
sugapop4054:sugapop7998:tahneeanna@msn.com:1988-04-23:AU:F:124.171.229.88:Tahnee Simpson
sugapop4u:iloveboys::1991-09-28:US:F:none:sugapop4u
Sugapop51:pegues96:sugapop51@gmail.com:1996-10-19::F:75.166.22.232:NULL
sugapop589:sugar::1994-03-15:GR:F:none:sugapop589
sugapop660:chocolate1:moo_cow23585@hotmail.com:1987-11-20:AU:F:211.30.200.212:Em Suga
sugapop6969:cutie1:meretweet12@hotmail.com:1986-10-10:US:F:none:Meredith Yarbrough
sugapop704:lovely_704:chickwit_style@yahoo.com:1990-02-15:US:F:none:Ashiley Tyson
sugapop7737:sugerpop7737:www.jbuell@4x4.com:1992-04-23:US:F:none:Lynsay Buell
sugapop78:xavier:alaya47@yahoo.com:1987-03-14:US:F:none:Jessi Moir
sugapop80991:5671385:lil_blue8099@hotmail.com:1989-04-21:US:F:none:Samantha Blue
sugapop83:lofton41:sugapop83@yahoo.com:1986-08-02::M:71.87.176.185:NULL
sugapop996:sully123:caitlin.cutie13@hiptop.com.au:1995-07-31:AU:F:121.209.242.51:Caitlin
sugapopada:locdoc:loc589@charter.net:1943-03-22:CX:F:none:IM asizzle
sugapopbaby:okinawa888:lil_hotmama_8@lycos.com:1989-08-17:JP:F:none:tiffany stevenson
sugapopelectriic_x:poppyzena007:jessica.trim@hotmail.com:1993-11-10:GB:F:212.139.252.68:Jessiica
sugapopgumdrop:iloveyou94:Maleenakaybby@aol.com:1994-09-20:US:F:74.141.213.200:Maleena
sugapopjussi:sofaeater:i_fuka_monkeys_unkle@hotmail.com:1990-11-13:AU:F:none:jussi rice
sugapopmama:bobbydean:johnsmiddlechild@msn.com:1987-08-07:US:F:none:Sarah Powell
sugapops:cuddles11:chi.gi.ri@hotmail.com:1994-04-01:AU:F:121.222.115.227:Grace
sugapops123:lollies123:punky123monkey@hotmail.com:1992-07-09:AU:F:none:Brogan McCauley
sugapops36985:be*g$inn@e():yankeegirl34112@netscape.net:1989-08-28:US:M:none:sean
:::::::
sugapopsohot:baby!::1992-10-21:US:F:none:sugapopsohot
sugapopsweetie:duckie::2005-01-01:US:F:none:jessika Martinez
sugapopweezybaby123:happyholidays98:leesey98@yahoo.com:1985-06-25:US:F:74.243.231.244:NULL
sugapopxox:mpish:xxsugapopxx@hotmail.com:1980-04-08:US:F:none:Ashley Baldwin
sugapopxx:werty7:angeloutoftraining_xx@hotmail.com:1990-10-12:AU:F:none:Melise
sugapopz:roxsox12::1997-04-23:NZ:F:202.174.163.70:AliAli
sugapopz747:alicia123:bootayful_s3x_kitt3n@hotmail.com:1990-08-14:AU:F:none:alicia valentine
sugapop_17:TOMATOES11:viva_las_vega21@hotmail.com:1988-08-18:GB:F:81.103.166.182:Kate
sugapop_2004:sugar:nancyricci@hotmail.com:1990-04-29:US:F:none:Tinker Bell
sugapop_2005:elizabeth:michelle_e_allen@hotmail.com:1987-10-24:AU:F:none:Suga Pop
sugapop_89:ziggy1:me_so_bad@hotmail.com:1991-05-17:CA:F:none:Izzy Gone
sugapop_999:123456789123456789c:chargrove@gmx.com:1995-04-25:US:F:68.203.15.7:chloe
sugapop_candy93:1727314159::1993-03-01:SG:F:none:sugapop_candy93
sugapop_kaye18:carleykaye18:blizzard_72992@hotmail.com:1991-02-23:US:F:none:carley blubber
sugapop_x:louise93:katiecarbin@hotmail.com:1993-04-08:GB:F:62.30.232.70:katie
sugapop_xd:shobee12::1995-08-03:GB:F:86.138.49.223:shona
sugapot:DiLaN:mizmeghna@aol.com:1972-10-16:US:F:none:meghan prasdanda
sugapot83:amstel12:micler83@gmail.com:1983-08-12:NZ:F:219.88.175.152:Michelle Ellehcim
sugapot94077:lillypad:sugapot94077@hotmail.com:1990-12-03:GB:F:none:jade  sugapot
sugapretty:guess who rox::1991-08-18:AU:F:none:sugapretty
sugapril:april13:april_ryan@hotmail.com:1987-06-20:GB:F:none:april ryan
sugaprincess:springbreak:crazy4cappuccino@hotmail.com:1991-10-08:CA:F:none:AllisonFarrell
sugaprincess015:cranmars::1992-01-10:US:F:none:sugaprincess015
sugaprincess1:11Blessed::2004-08-09::F:72.203.151.214:NULL
sugaprincess1011:ilovejr:sexylilangel236@aol.com:1983-08-10:US:F:none:Michele Rosenberg
sugaprincess104:cubanoonee1:sweetsally8@hotmail.com:1992-04-12:CA:F:none:sally Hammoud
sugaprincess114:maxie7::1993-11-11:US:F:none:sugaprincess114
sugaprincess120:SugaP:sugaprincess129@aol.com:1988-05-14:US:F:none:Janee Tyler
sugaprincess1200:stupid::1992-08-12:US:F:none:sugaprincess1200
sugaprincess1208:$weet@ngel::1993-09-12:BS:F:none:sugaprincess1208
sugaprincess15:blonde:john@the-gillmans.freeserve.co.uk:1990-05-16:GB:F:none:Rosalind Gillman
sugaprincess1987:120887:rap4499@hotmail.com:1987-08-12:GB:F:none:rebecca pritchrad
sugaprincess1993:chips1::1993-09-23:GB2:F:none:sugaprincess1993
sugaprincess204:hihihi:lizzieshuter@hotmail.com:1984-08-20:US:F:none:hannah baily
sugaprincess23:coocoohead::1993-09-10:CA:F:none:sugaprincess23
sugaprincess243:machere@:tinkerbell_punkin@hotmail.com:1979-10-16:AU:F:none:hot stuff
sugaprincess28:cutiepie:georgina_822@hotmail.com:1989-09-15:GB:F:none:georgina stone
sugaprincess3243:chickennoodlesoup:mai_taurus29@hotmail.com:1983-04-03:CA:F:none:maha iqbal
sugaprincess382:hiphop::1992-01-26:US:F:none:sugaprincess382
sugaprincess487:parishilton:sugaprincess487@aol.com:1986-04-05:US:F:Mail from theneopetsteam:Kelly Baca
sugaprincess4eva:7seven7:n_pudney@yahoo.co.nz:1992-10-01:US:F:none:Nicola Pudney
sugaprincess5394:mj12345::1994-05-03:US:F:none:sugaprincess5394
sugaprincess561:alanna:funky_monkey_forever@hotmail.com:1991-08-09:AU:F:none:hayley keehn
sugaprincess630:rainbow281::1994-02-23:BS:F:none:sugaprincess630
sugaprincess64:RAINBO46::1998-02-18:US:F:24.27.186.191:Kenya
sugaprincess66:brandon::1993-03-25:AE:F:none:sugaprincess66
sugaprincess7:iluvcody:carebear6272003@yahoo.com:1988-06-27:US:F:none:Arielle Davidson
sugaprincess763632:1234567890WHEE:ph33rxm3@yahoo.com:1983-01-10:US:F:Mail from gymkrazy:SUGER PRINCESS
sugaprincess92:duchess::1991-01-03:GB:F:none:sugaprincess92
sugaprincessabi:gemini21:angel_abi_6628@hotmail.co.uk:1991-05-21:GB:F:none:A M
sugaprincesse:lilvivyrox:vivylikescake@hotmail.com:1987-01-10:CA:F:none:VivY ♥
sugaprincessxoxo:netball123:jelly_tomato@hotmail.com:1991-12-23:AU:F:none:suga princess
sugaprincess_4eva:7seven7:n_pudney@yahoo.co.nz:1988-10-01:NZ:F:none:Nicola Pudney
sugaprincess_kd:archit!@#:lizzy_sugarnspice@hotmail.com:1992-10-26:AT:F:none:kd dk
sugaprncss:mememe1:princessmanda2@msn.com:1992-10-08:US:F:none:Amanda Singh
sugapuddin:felicia:x0x0sexybabex0x0@aol.com:1987-05-09:DE:F:none:why do u want to kno?
sugapuddin011:babygirl15:sugapuddin011@yahoo.com:1992-11-16:US:F:67.216.129.216:Renee
sugapuddin31:malcolm::1992-11-16:US:F:none:sugapuddin31
sugapudn:ivajean1:sugapud@yahoo.com:1969-08-02:US:F:66.233.37.208:Victoria Bell
sugapuff:inform:sugapuffs@hotmail.com:1991-02-02:US:F:none:Emily Shire
sugapuff1:sweetsunny::1992-07-27:AU:F:none:sugapuff1
sugapuff12:icecream12:rhftokoroa@hotmail.com:1990-12-12:NZ:F:125.236.157.49:Rachel
sugapuff15:snoopy123abc:cherryblossom.101@hotmail.com:1992-02-20:AU:F:121.222.18.122:narelle
sugapuff157:luck1:defreitasfamily4@aol.com:1991-06-18:GB:F:none:Amy Defreitas
sugapuff180:sugas:krazycutie7@aol.com:1989-03-29:US:F:Mail from contest_judge:Dene Konkle
sugapuff1991:912609::1991-09-26:US:F:none:sugapuff1991
sugapuff208:jessegirl::1994-03-17:US:F:none:sugapuff208
sugapuff23:cvbnm12::2001-10-05:US:F:68.175.24.175:NULL
sugapuff29:tiger1249:C.T.FULLER@xtra.co.nz:1990-05-06:NZ:F:125.238.202.76:Samantha
sugapuff392:pasta83::1992-02-26:GB:F:none:none
sugapuff422:VIKINGS::1992-06-30:US:F:none:sugapuff422
sugapuff4eva:sugapuff22::1997-08-07:GB:F:195.93.21.97:bronte
sugapuff529:bubblegum::1994-05-01:GB:F:none:sugapuff529
sugapuff6402156:6402156::1992-07-05:US:F:none:sugapuff6402156
sugapuff66:johnishot!:jdworldindustriesboardsrock@yahoo.com:1986-01-20:US:F:69.67.230.158:joeli durham
sugapuff7:Sweet::1993-02-13:US:F:none:sugapuff7
sugapuff856:pizzaisgood:joybnb@adelphia.net:1990-06-07:US:F:none:Makenzie Romero
sugapuff925:woody10:camara@hotmail.com:1991-05-01:GB:F:none:camara paul
sugapuffarino:megan_k:sexc_biatchpink@hotmail.com:1992-05-11:AU:F:none:megan kors
sugapuffbaby:nedntara:kinky_angel_jd@hotmail.com:1990-07-05:GB:F:none:sarah doornob
sugapuffball:kissykissy!:hopedopeclaydon@aol.com:1989-10-20:GB:F:172.143.51.157:The Pink Teletubby No One Knows About
sugapuffboo:mvlt12::2001-12-16:CA:F:24.70.95.205:Janetta
sugapuffchic:omega13:gillian_keats@hotmail.com:1991-02-12:CA:F:142.162.236.186:Gillian Keats
sugapuffe:sexylep!:shortstuff9385@gmail.com:1985-09-03:US:F:none:Samantha Hostetler
sugapufff15:snoopy123abc:cherryblossum.101@hotmail.com:1992-02-20:AU:F:124.185.128.44:narelle
sugapuffsandcandy:********::1993-02-02:NZ:F:none:sugapuffsandcandy
sugapuffy:LILAC!::1994-04-28:GB:F:none:sugapuffy
sugapuffz:mamdad:sean05@hotmail.co.uk:1992-04-20:GB:M:none:sean smith
sugapuff_:9puppn0p::2002-02-26:IE:F:89.100.66.102:NULL
sugapuff_101:limewire159951*::1993-10-14:CA:F:none:mona nashman
sugapuff_13:janine13:bubblybubbly@hotmail.co.uk:1996-03-30:GB:F:90.216.134.77:Lauren
sugapuff_18_a61:rakizta18:azalea_baylon@yahoo.com:1993-03-30:PH:F:222.127.232.197:Azalea
sugapuff_21:sandra21:catherine_carter1992@loopymail.com:1992-05-05:GB:F:90.218.116.54:catherine
sugapuff_25:milly!23:naughty_fing@hotmail.com:1989-07-25:NZ:F:202.150.114.107:cassie
sugapulmpie:lelow::1993-02-13:GB:F:Mail from theneopetsteam:sugapulmpie
sugapumagic:Bam25::1993-08-12:GB:F:none:sugapumagic
sugapumpkin:sweetcheeks:juicyjess_68@hotmail.com:1987-05-18:GB:F:69.195.136.106:jess lucas
sugapumpkyn008:soccer13:flsoccerbabe08@aol.com:1990-07-20:US:F:none:rachellauren
sugapumps:suyani13:beauty_queen_725@yahoo.com:1996-08-30:NZ:F:118.93.144.80:NULL
sugapunk150:horseg2:chiasrus@adelphia.net:1991-03-30:BT:F:none:Ummm...  I forget
sugapunk469:steph123:drummerdudette@hotmail.co.uk:1992-05-20:GB:F:none:stephanie nicholls
sugapunk89:122790:loveablepurplekitten2000@yahoo.com:1990-04-16:US:F:none:Sw33tLemon
sugapuntin:*sugadoll:sweetpuntin@yahoo.com:1987-07-11:US:F:none:Brittany Stephens
sugapup:carlababe::1989-11-13:AU:F:121.209.123.107:none
sugapup247:queen:smart_blonde76@hotmail.com:1983-03-10:GB2:F:Mail from barney_luva69:Ria Lopez
