sugar13730:starfly13::2000-02-19::F:75.97.52.251:NULL
sugar1380us:nightmare11:joselopez1172@yahoo.co.uk:1980-01-13:US:F:96.248.159.60:veronica
sugar1389:asswiper98:roxie0246@aol.com:1994-05-23:US:F:67.163.17.8:katie
sugar13abe:lollies99::1999-08-26:AU:F:220.253.176.108:zoe
sugar13bear13:halee13:pcsugarbear94@yahoo.com:1994-08-05:US:F:98.199.89.172:Priscilla
sugar13magnolia:elise1313:chloebaby1189@gmail.com:1989-11-15:US:F:24.129.93.7:Heather
sugar13_103:cruncymonkey10::2000-11-05::F:98.244.227.39:NULL
sugar13_2010:timmie22:sugar13_2010@yahoo.ca:1996-01-01:CA:F:159.33.10.92:Sugar
Sugar13_65:twilight13::1998-12-29::F:68.209.55.86:NULL
sugar13_a30:dramaqueen13:www.hayesan@gmail.com:1995-05-21:US:F:71.206.53.207:Amyia
Sugar13_funny_bunny:easterbunny13:ondrea324@yahoo.com:1998-01-24:US:F:166.205.140.172:NULL
sugar1401:purple17::1999-02-14:US:M:75.53.126.103:Eric
sugar1411:tholoc:littleprince1411@yahoo.com:1991-11-14:VN:M:113.22.219.134:little prince
sugar1412:wwe1214:crystal1407@hotmail.com:1991-12-29:US:F:69.92.97.139:crystal
sugar1414:kec41498::1998-06-25:US:F:75.185.8.164:victoria
sugar1415161718:987$$$:jordanowilliams@tyahoo.com:1995-1-2:US:F:70.240.220.16:jillyan
sugar141802:babygal:starsign_bernie@msn.com:1989-01-17:GB:F:86.18.195.133:bernie millett
Sugar1419:shit2all3::1998-07-13::F:173.183.51.169:NULL
sugar14193:feel11::1999-02-28:GB6:F:203.173.13.210:sophie james
sugar1437:hopexox143::1997-10-31:CA:F:99.229.253.13:Hope
sugar14444:lovehim14:tcaffie@yahoo.com:1994-06-15:US:F:69.68.230.83:tamesha
sugar1454:5306379::1998-01-30::F:76.177.76.156:NULL
sugar1456:1245tray::1996-04-14:BA:F:12.219.149.45:mika
sugar145678:jade1234::2000-08-18::F:67.188.226.216:NULL
sugar14586:4542020::1998-07-22::F:74.74.195.145:NULL
sugar1459:sunny::1981-05-28:US:F:98.230.29.14:Marissa
sugar145_8_8:apples145::1999-07-23:US:F:71.102.254.165:Yailin
sugar1469:::2002-08-22:US:F:98.23.23.103:NULL
sugar14723:emmaa123::1997-04-17:US:F:81.52.130.158:Emma
sugar1472341:blue10::2000-07-22::F:69.176.44.181:NULL
sugar14723_1:blue10::2000-07-22:US:F:69.176.44.181:Taylor
sugar148:babydoll14:smallbondi@hotmail.com:1993-09-15:AU:F:124.158.16.194:samantha
sugar14818:shopping14:iladreamer@yahoo.it:1992-04-23:IT:F:62.94.172.119:Il@ri@
sugar1489:hottie$12::2001-03-30:US:F:71.1.102.195:NULL
sugar1495:auby14::1999-02-25:US:F:75.174.66.240:aubrialle
sugar14andspice12:everythingnice1:bigbadvivi@yahoo.com:1987-07-11:US:F:75.61.134.172:reggie trish
sugar14baby:desiree13:desiree.powe@Gmail.com:1994-09-04:US:F:97.85.131.127:Desiree
sugar14_101:kec41498::1998-04-14:US:F:75.185.8.164:lauren
sugar14_19:abbhy678::1998-09-19:IN:F:219.91.189.76:aishwarya
Sugar15:thailand15::2001-05-30:GB:F:195.229.241.176:NULL
sugar1502:jessie994:kass15f@hotmail.com:1994-02-15:AU:F:124.176.77.166:kass
sugar1514:squiggy11:spiderhelene@hotmail.com:1993-10-22:US:F:208.81.157.234:Helene
sugar1515:::2001-05-15:US:F:99.181.59.37:NULL
sugar151515:diggers15::1997-12-15:US:F:72.188.34.50:Alex
sugar15170:sephora11:adf2848@louisiana.edu:1988-07-30:US:F:98.183.83.210:ashley
sugar1525:::2001-05-14:US:F:99.181.59.37:NULL
sugar153:foot36::2000-07-07:GB:M:195.93.21.2:Isaac
sugar1530:littleguy1530::2001-11-30:US:F:66.31.117.184:noah
sugar1532:boomer1532::1999-02-06::F:67.8.202.178:NULL
sugar1543:zb1543:hzbrenner@gmail.com:1989-11-25:US:M:65.12.187.74:zac brenner
sugar1555:coffee555:abi_butterworth33@hotmail.co.uk:1989-06-28:GB:F:88.104.91.255:Jess
sugar159:12teetee::2001-09-04:US:F:76.198.225.10:Caroline
sugar1592:hamster12:gracepaine92@btinternet.com:1990-09-04:GB:F:193.113.57.167:grace
sugar159357:emilynathan75::2001-05-11:CA:F:70.71.202.153:Emily Smith
sugar15baby:desiree13:desiree_powe@yahoo.com:1994-09-04:US:F:71.86.152.222:NULL
sugar160:199500:shewa_maali@yahoo.com:1994-07-19:US:F:99.146.27.92:Shewa
sugar16102:socer577:suga16102@earthlink.net:1986-07-16:US:F:75.189.132.3:J B
sugar1612:sugar12::1998-03-10::F:166.217.68.112:NULL
sugar16129:sugar12::1998-03-10::F:166.217.68.112:NULL
sugar1616:chocolate1616::1999-12-27:CA:F:24.64.137.97:Kelsie
sugar16161:shafaq99::1999-09-16:AU:F:115.42.68.131:NULL
sugar1618:india16:blackfusion.india@gmail.com:1993-09-14:US:F:76.87.57.237:NULL
sugar161997:shel16:newmoonlover@hotmail.com:1997-6-16:CA:F:69.60.241.237:shelby
sugar161_1:sugar203::1999-08-24:US:F:71.139.37.70:Kerry
sugar162009:icecream16:www.sugar162009@live.com:1997-04-10:US:F:75.24.120.168:Muna Laid
sugar16334:blue14::1995-04-14:US:M:71.245.254.59:sugar16334
sugar163_115:toffi116::1997-09-13:US:F:24.13.98.207:Aga
sugar1646:16461646::1999-04-19::F:98.240.101.78:NULL
sugar1647:16461646::1999-04-19::F:98.240.101.78:NULL
sugar168:12112006::2006-12-11:US:M:67.188.133.38:NULL
sugar1681:sugarandspice1681:Sugar1681@hotmail.com:1992-04-09:CA:F:209.89.95.26:i have no name
sugar16_:**mittens16:lpr1994@aol.com:1994-09-23:US:F:174.42.239.153:Sugar
sugar16_8:cherry16::2000-05-16:US:F:69.92.198.200:Devin
Sugar17:Sugar101::2001-05-17:US:F:98.166.39.195:NULL
sugar1717:Angel13:rainbowbutterflies17@yahoo.com:1988-10-17:US:F:71.38.210.226:Brittany
sugar1727:lilrachael27:lilrachael27@aol.com:1992-04-16:US:F:24.98.56.17:Rachael
sugar1730:sugarbear123::2001-06-30::F:67.234.110.70:NULL
sugar1774:cmrsxxy33::1998-07-04::F:174.99.35.207:NULL
sugar17779:srh1208::1998-12-08::F:74.103.173.25:NULL
sugar1777918:srh1208::1998-12-8:US:F:74.103.173.25:sam
sugar1804:lovabal09:lovabalangel@rocketmail.com:1909-03-27:US:F:206.57.29.46:babe  lovabal
sugar1813:sugar14:taijha_harrison95@att.net:1994-12-12:US:F:72.146.126.186:sugar
sugar1819:pandasrock18::2001-03-02::F:24.251.34.149:NULL
sugar182182:56564321:jessie_ketch45@yahoo.com:1994-07-10:US:F:99.22.148.239:Jessica
sugar1887:butter12::1998-12-10:US:M:71.176.116.190:sean
sugar1890:keria200::2001-03-27::F:74.176.155.62:NULL
sugar18a:T7272B:wenqinlim@yahoo.com.sg:1993-03-18:SG:F:220.255.7.205:audrey
sugar18_9:buckingdom180::1995-03-02:GB:F:86.156.102.123:rebecca
sugar18__81:awesome18::1998-07-16:CA:F:74.14.109.85:Aseela
sugar190003:meanstreak812::2000-10-04:US:F:75.39.16.194:mckaelen
sugar1908:::2002-03-19:US:F:74.104.185.91:NULL
sugar1916:haha1234:sugar1916@verizon.net:1991-01-01:US:F:63.88.37.66:jess
sugar1928:bronco99::2000-07-26::F:69.123.63.199:NULL
sugar1929:happybirthday19::2000-01-07:US:F:24.168.96.6:lizbeth
sugar1932:kittens56::2001-02-15:US:F:76.4.115.252:kylie
sugar1950:koolcat22::1998-10-24:GB:F:78.33.99.220:charlotte
SUGAR1954:BOOBOO1712::2002-07-05::M:168.103.169.226:NULL
sugar1957:57chevey:jennifer_benedetto@yahoo.com:1984-04-20:US:F:173.188.14.34:Jenn
sugar1962252:puppylove101::1999-04-01::F:24.3.37.55:NULL
sugar1974:princess10::2000-01-17::F:72.205.253.8:NULL
sugar1976:kitty76::1997-12-10:US:F:68.80.98.130:taylor
sugar1977:yellow1977::2003-05-07:US:F:24.254.33.182:NULL
Sugar1978:zombie666:sunshine0022@gmx.de:1978-07-18:DE:F:93.197.231.27:Melanie
sugar198:hamster11::1997-08-10:US:F:24.192.69.236:amanda
sugar198100:loverboy99:sugarbear20048108@yahoo.com:1981-06-25:US:F:98.243.65.122:lillian
sugar198221:tal6988::2001-03-03::F:66.248.166.73:NULL
sugar198233:6049933:bentley1992@comporium.net:1982-03-03:US:F:67.197.139.107:Lulu
sugar1983:sugar228:littlefoot228@yahoo.com:1983-12-22:US:F:96.19.134.140:lisa caissie
sugar1987_176:pielover238::1998-11-16::F:69.126.27.23:NULL
sugar1989:lokilover19:juggalette_jiggles@yahoo.com:1989-06-19:US:F:65.160.73.206:Tonya
sugar199:haha0804::1999-8-4:US:F:98.83.20.64:Carli
sugar1990:134kelvin::2002-11-13:CA:F:207.216.104.181:NULL
Sugar1993_93:93ismyyear:stefaniandrade93@yahoo.com:1993-08-24::F:99.62.3.105:NULL
sugar1995_1995:honey1995::1995-03-11:IN:F:59.92.144.156:sugar1995_1995
sugar1995_pp:19970::1995-11-07:SZ:F:212.0.133.2:sugar1995_pp
sugar19972010:samsung97::1997-09-17:GB:F:89.240.128.120:sophie
sugar1997_12:199712::1997-04-14:US:F:71.21.13.53:Sugar
sugar1998_62:babygirl98::1998-01-16::F:166.82.215.196:NULL
sugar1999__aa:amy1999::1999-04-29:US:F:205.188.117.11:amy
Sugar19_175:sugar1998::1998-12-25::F:65.34.228.210:NULL
sugar19_98:abcdef12::1998-11-20:US:F:76.114.232.95:grayson
sugar19__51:kissed12:i_effing_luv_you@hotmail.com:1989-08-28:CA:F:24.109.91.15:sam
Sugar1Baby:peatsa98::1994-08-26:US:F:68.222.163.218:Anna
sugar1chy:dottie7887::1997-07-27::F:75.89.16.34:NULL
sugar1d7998:D17998:meandyou1003@yahoo.com:1993-07-09:US:F:65.5.239.79:Super Awesomeness Ninja That Can Do Anything!!!
sugar1girl:meppel14:joanne_tosca@hotmail.com:1996-02-27:NL:F:80.79.99.126:Joyce
SuGaR1o1o:raspberrynut1o1::1997-08-04:AU:F:99.9.232.101:Rebecca
SuGaR1o1o1:raspberrynut1o1::1997-8-4:AU:F:124.184.3.101:Rebecca
sugar1plum123:smoky12::1999-10-21:GB:F:149.254.49.36:Lauren
Sugar1q2w3e:dantingguo123988::2000-06-19:CA:F:70.27.47.2:NULL
Sugar1s:101498::1999-10-14::F:206.74.125.201:NULL
Sugar1st4:Shadow1st4::2000-04-01::F:208.73.252.207:NULL
sugar1_123:linda123::1997-04-28:GB:F:86.135.10.16:linda
sugar1_1234:linda123::1997-04-28:GB:F:86.135.10.16:linda
Sugar1_1997:animalover11::1997-11-24::F:70.58.32.186:NULL
sugar1_2:diamond11::1999-04-10:US:F:172.16.0.17:NULL
sugar1_2003:jal2003::2003-10-21::F:68.48.137.132:NULL
sugar1_2_2:robin12::1996-09-18:US:F:76.184.137.231:Robin
sugar1_538:jeryca12::1997-06-22::F:170.215.93.220:NULL
sugar1_702:229456::2002-07-15::M:216.40.83.185:NULL
sugar1_751:bougy45::2000-08-21::F:98.94.142.236:NULL
sugar1_77:dillon12:alexiskerin@ymail.com:1996-09-24::F:99.129.27.12:NULL
sugar1_782:sweet12::2001-01-23::F:98.202.147.80:NULL
sugar1_8:hoho12::1998-01-11:US:M:75.100.23.70:damion
sugar1_863:sugar18::2002-07-29::F:216.40.83.185:NULL
sugar1_9:jeryca12:aprilcsh@yahoo.com:1996-06-22:US:F:170.215.93.220:joy
sugar1_a43:neopet10::1998-11-03:US:F:72.14.74.13:Jordan
sugar1__10:sugar12:lshankles@charter.net:1989-09-06:US:F:97.82.154.190:Lindsey
sugar2000:6478229::2000-02-25:US:F:216.246.75.230:NULL
sugar200017:leigh200017::2000-05-24:AU:F:58.161.139.37:NULL
sugar20006:mejan34::2000-09-09:US:F:24.49.40.113:brianna
sugar20007:NQSVcdfz12::2001-11-20:US:F:50.35.248.45:Shannon
sugar200077:michigan24:katia__najjar@hotmail.com:1990-02-24:CA:F:76.69.50.193:katie
sugar200099:bugbug200099::2000-07-12:US:F:216.246.75.110:Sydney
sugar2000_1:sugar123::2000-02-09:US:F:216.165.237.171:Dani
sugar2000_154:blueberry10::2000-05-15::F:99.243.11.45:NULL
sugar2000_2_2:smokey07::2000-03-31:US:F:74.138.42.215:Rebekah
sugar2001geggie:il2ep1::2001-05-11::F:76.241.61.142:NULL
SUGAR2001_1:PETPETPARK99::2001-09-25::F:71.232.99.217:NULL
sugar2003:elizabeth03::1998-06-25:US:F:68.26.103.160:Elizabeth
sugar2003x:paris07::2003-03-29::F:24.161.60.50:NULL
sugar2003x9005:paris07::2003-03-29::F:24.161.60.50:NULL
sugar2003x900547:paris07::2003-03-29::F:68.172.210.98:NULL
sugar2004:ginger23::2000-05-19:US:F:67.238.198.109:Anekah
sugar2004329:LILY123:sugar2004329@yahoo.com:1986-05-18:US:F:173.52.27.179:Lillian Liang
sugar2005455:pepe455:sugar_sugar_929@hotmail.com:1991-06-03:CA:F:174.3.99.112:Gabrielle Matthias
sugar2008:bryan2866:sines_ashley@yahoo.com:1989-09-26:US:F:98.30.190.9:NULL
sugar20081999:purple09::1999-06-25:US:F:68.184.133.236:briana
sugar2008329:lily123:sugar2004329@yahoo.com:1980-05-18:US:F:71.246.98.19:Lillian
sugar2008ses:Johndeere08:nannon_08@yahoo.com:1989-12-11:US:F:67.221.209.218:shannon
sugar2009:madz12::1997-01-07:NZ:F:121.72.151.20:Madison
sugar2009102:anthony2001::2001-11-02:US:M:24.13.162.184:anthony
sugar200914:dancer88:Dancediva014@Gmail.com:1996-09-18:US:F:12.10.18.116:London
sugar2009_98:inkheart09::1998-05-14:US:F:99.38.143.226:Elizabeth
sugar2010123:sugar2010::2000-09-06:US:F:98.20.253.224:NULL
sugar2010_6:waltner12:miss.understood_libz2010@hotmail.com:1991-10-16:US:F:70.219.192.74:Libby
sugar2010__aa:mother12:cotos1@msn.com:1992-08-23:US:F:74.98.87.178:Ashley
sugar2015:blossom20:cowgirlcheerleader10@yahoo.com:1997-02-28:US:F:98.83.3.171:rachel
sugar2019:jewels2019::2001-03-13::F:98.186.187.17:NULL
sugar20222:hottie:jodystart@hotmail.com:1989-08-15:US:F:75.134.113.144:Jody Start
sugar2027:2kickflip2:emilyh471@gmail.com:1990-02-26:US:F:76.105.22.85:sugar
sugar204:simple:sunset_146@hotmail.com:1986-05-21:CA:F:99.224.218.76:Sarah
Sugar205:tupou07::2001-12-10:HK:F:66.75.202.57:NULL
sugar2076:katerini207::2004-05-11:GR:F:71.174.46.176:NULL
sugar20_09:fjborja09::1998-10-18::F:121.55.211.39:NULL
sugar20_88:sammybaby20:amandakwan@live.ca:1990-09-09:CA:F:64.180.160.110:christine
sugar21:zari21::2008-01-05:US:F:98.71.77.227:NULL
sugar211:3nbojdmm:blue3187@gmail.com:1987-03-18:US:F:72.209.134.69:Nora Sanchez
Sugar21111:rozen12::1998-05-15:FR:F:67.68.59.104:Sugar
sugar2112:123456789:mamapapa_211@yahoo.com:1914-08-23::F:112.206.144.226:NULL
sugar2114:hiphop678::2000-03-26::F:72.84.241.153:NULL
sugar212121_9_9_9:sugar21::1998-11-14:US:F:76.114.57.221:Natalie
sugar2121__aa:naty741::2000-07-28:CA:F:204.2.199.22:alexis
sugar21224:eci2001::2001-06-07::F:71.165.100.32:NULL
sugar212_121:ls039936:rdkopa@gmail.com:1996-05-02::F:70.65.67.66:NULL
sugar212_9:sweetheart214:egnippe@sbcglobal.net:1990-08-10:US:F:68.79.5.99:E
sugar2134:susiebug12::2000-10-01::F:173.27.196.243:NULL
sugar213_69:304654::1999-05-20::F:174.27.248.99:NULL
sugar2147:tadase21::2008-03-27:US:F:173.56.148.133:amu
sugar2172:fire23::1998-11-11::F:98.212.132.149:NULL
sugar21798:Jesus17::1998-02-17:US:F:97.116.102.103:sugar21798
sugar219:123lizzie::1995-06-17:CA:F:99.239.103.91:Dani
sugar21_:shasha3000::1998-03-11:US:F:173.81.125.54:Abby
sugar21_113:spice21::2001-09-19::F:76.117.133.170:NULL
sugar21_5:chloe2002::2001-01-01:US:F:69.251.186.199:
Sugar21_x:ajc123::1998-07-12:US:F:124.182.241.50:NULL
sugar22:lemon221::1999-01-01:CA:F:99.249.66.45:NULL
sugar22008:kat123:hittingwilson025@aol.com:1989-12-01:US:F:138.234.209.198:Kate
sugar2202:eem2202::2002-02-02:US:F:68.255.118.84:emme
sugar2203:mitchel2203:jennasassyteko@gmail.com:1990-05-15:US:F:68.230.142.22:amanda
sugar22062:chattel:bouc@lakefield.net:1962-02-20:US:F:64.246.253.222:Jane Bouc
sugar2211:flower11::1999-07-07:GB:M:82.2.13.196:Jamie
sugar221205:s12s12::1995-12-18:GB:M:94.195.22.82:sugar221205
sugar2215:star22::1998-03-18::F:72.24.232.52:NULL
sugar222777:scarlett22:babam222777@aim.com:1992-06-13:US:F:173.75.228.253:carly
sugar223:bluehouse23::2002-10-26:GB:F:86.130.130.43:NULL
sugar2231:hannah123::2001-11-07:US:F:66.191.170.250:NULL
sugar2235:4105278::1997-05-19:US:F:76.17.12.215:hanah
sugar224:bubbly67:shani1g@yahoo.com:1997-7-4:US:F:97.80.245.149:Diamond
sugar2245:india2000::2000-05-22:IN:F:117.195.130.31:NULL
sugar2248:cassie10::2000-09-05::F:98.220.18.49:NULL
sugar22498:angellove20::2001-01-16::F:75.97.103.255:NULL
sugar225:1qaz2wsx:rock.age100@gmail.com:1987-11-07:GB:F:220.255.7.209:MyName
sugar2250:sukkel11::1997-10-04:US:F:69.247.94.60:Kaylee
sugar22598:cjg1998::1998-02-25:US:F:70.44.1.148:Cami
sugar227:sugar277:briannaleigh61@yahoo.com:1994-07-25:US:F:74.234.144.25:brianna
sugar2285:Sugar10::1999-07-26:US:F:69.125.163.11:Jenny
sugar2289:sunny229::2000-11-8:US:F:184.91.120.128:taylor
sugar2297:katelynn10:Sugar2297@aol.com:1974-04-26:US:F:174.252.40.58:box
sugar22m:marli22::2000-08-22:US:F:98.221.155.164:marli
sugar22pup:083001::2001-08-30:US:F:70.108.143.220:Kaitlyn
sugar22_4:neopets22:jasminebybee10@yahoo.com:1995-09-11:US:F:66.244.5.20:jasmine
sugar23000:HARDCANDY24::2000-06-30:US:F:108.129.35.113:NULL
sugar2303:::2003-01-25:US:F:99.41.184.129:NULL
sugar2308:tater2332:tater2308@live.com:1990-06-25:US:F:76.110.61.184:amber
Sugar23109:peace123::1998-05-20::F:98.116.90.42:NULL
sugar23145:Neopet32!::2002-05-16:PH:M:122.144.103.196:NULL
sugar231_675:tiffin563::1998-04-02::F:173.22.221.38:NULL
sugar232004:socks23:devil_girl_2004@hotmail.com:1986-12-12:US:F:24.143.194.12:Mary McCoy
sugar2322:hannah55555::2003-10-17:CA:F:174.1.5.232:hannah
sugar232323:53985398::1998-10-21:US:F:216.161.176.100:Megan
sugar2325:230101:cookies_2325@yahoo.com.sg:1982-08-25:SG:F:58.185.204.156:Sugar
sugar2334678:mobest23::2001-08-12::F:70.18.146.207:NULL
sugar23386:mobest23::2001-08-12::F:72.82.81.54:NULL
SUGAR234238:52@MATI::1999-09-12:MX:M:189.175.46.199:NULL
sugar2345:pass2345::1998-10-22:US:F:68.162.19.78:Sapir
Sugar23456:sugarkaine12:kainedrake@hotmail.com:1991-05-30:CA:M:216.118.131.229:NULL
sugar23456789:gogogaga234::1998-09-27:US:F:71.229.100.56:marina
sugar2345_1:snoppy45:christiana.smythe@gmail.com:1997-01-24:US:F:98.249.1.228:NULL
sugar2345_90:alexis23::2000-04-25::F:216.252.30.132:NULL
sugar234678:mommy234678::2001-04-10:US:F:209.212.5.67:NULL
sugar234_4:mace21::2000-06-04:US:F:168.169.209.215:Lanasha
sugar2369:angel23:sugarchocolatebrandy@yahoo.com:1985-02-15:US:F:70.169.121.226:alexis
sugar237_5:Buttercup23::2000-01-05:US:F:76.186.108.242:kathy
sugar239:naturelover12:itsjustmetori1@yahoo.com:1991-09-06:US:F:68.204.181.142:Victoria
sugar23_248:eljay12::1999-12-13::F:69.124.167.112:NULL
sugar23_53:saddie22::2000-08-06::F:99.91.12.19:NULL
sugar23_6:7891022::1998-01-22:US:F:24.35.108.207:makayla
sugar2407:cutiepie2407::1998-07-24::F:86.145.254.48:NULL
sugar242:::1999-12-28:US:F:184.77.242.197:NULL
sugar2424:amanda24::1996-03-14:CA:F:98.108.200.37:Echo
sugar243:pakistan12::2001-01-29:EH:F:78.147.33.143:sugar234
sugar2441954:maiah33:mattiojoemo7@yahoo.com:1990-01-15:US:F:99.9.206.154:marie
sugar2442:tati123::1998-12-30::F:98.240.195.239:NULL
sugar2452:241georgewbush:katiedid0017@yahoo.com:1987-06-17:US:F:71.213.133.122:herman
sugar24681012:ollie1069:peanutbandit@comcast.net:1993-07-07:US:F:24.180.176.233:shawna
sugar2468307:headlessspidermankey::1993-04-16:US:F:98.238.144.246:Emily
sugar24689:island105::1998-03-27:US:F:211.120.232.228:miranda
sugar2491:omgomg:sugar_4_sami@hotmail.com:1987-03-14:US:F:142.162.16.248:samantha
sugar2496:50tinkerbell50:simonne_cutie@yahoo.com:1992-01-24:US:F:74.170.157.231:hotgirl108
sugar24sugar:noggin24::2004-07-09::F:70.171.22.214:NULL
sugar24x:enchanted24::1996-09-15:GB:F:81.129.23.110:Caroline
sugar2503:jenn299::2003-01-25:US:F:216.151.187.110:elizabeth
sugar2505:adriane12::1999-04-26::F:24.11.28.46:NULL
sugar2510:candylover2510::1997-04-25:CA:F:75.157.34.61:chelsea
sugar2512:pinky25::1997-12-25:MY:F:60.53.172.169:shahmina
sugar2515:xela10::1997-12-15:US:F:99.181.59.37:Alex
sugar252726:annette26::2002-05-02:US:F:69.242.224.115:NULL
sugar254:icecream254::2003-04-17:US:M:72.94.54.168:NULL
sugar2552:072100::2000-07-21:US:F:24.2.5.119:sarah
sugar255__76:12345z::1999-01-18:US:M:151.200.116.66:jarvis
sugar2567:072100::2000-07-21::F:24.2.5.119:NULL
sugar2586:thesweets2586::2001-05-19::F:180.191.20.236:NULL
sugar25865:sugar23::2001-05-19:PH:F:180.191.75.165:gwyneth camelon
sugar259:tiger259::1998-06-29:US:F:70.145.245.121:Caleigh
sugar25_5:yorker22::1999-11-24:US:F:75.32.139.199:ana
sugar25_9:sugar2345::2000-04-25::F:216.252.30.132:NULL
sugar25_90:sugar2345::2000-04-25::F:216.252.30.132:NULL
sugar260:honey31::1999-08-29:US:F:173.81.122.74:Jeri
sugar260_499:honey31::1999-08-29::F:173.81.122.74:NULL
sugar262:marshmellow262::1998-06-26:US:F:216.201.114.29:NULL
sugar26415:jungle26415::1997-11-16:US:F:68.230.82.195:Alex
sugar2654_2:kk_123::1997-06-28:CA:F:96.48.250.247:melissa
sugar267670:binanat123::2001-10-12:US:F:24.250.174.108:NULL
Sugar268:Mcelligott22::1999-08-26::M:71.139.193.186:NULL
sugar27:blacksand27::2000-12-15:AU:F:124.189.66.124:NULL
sugar27279:#1mom#1dad::2007-02-27:US:F:71.123.53.62:courtney
sugar276:whiterose276::1999-08-26:US:F:99.35.162.199:aimee
sugar28000:smiggle28::2000-10-28::F:122.58.228.46:NULL
sugar28090:mommy12::2000-10-22:CA:F:99.250.35.27:megan
sugar2821:brizhaypatrick28:hottie2821@gawab.com:1994-02-28::F:99.92.185.122:NULL
sugar283:e@w117::1996-01-17:US:F:68.215.11.195:Alexis
sugar283131:swishgirl10::1998-07-12:US:F:65.27.189.55:NULL
sugar28724:sugar21::1998-12-02:US:F:67.79.101.225:jackie
sugar2874:bentley44:manfa91@yahoo.com:1991-04-04:US:F:184.3.68.16:NULL
Sugar288:Blue2sky1:peacasino@hotmail.com:1989-11-15:CA:F:198.53.240.250:NULL
sugar288ley:carrots19::1999-03-19:GB:F:82.1.60.11:Rachel
sugar289:dog296:breathe2relax@msn.com:1986-01-27:US:F:71.38.175.109:emma
sugar2898:halcyon22::1998-02-14:US:F:74.245.0.189:cheese
sugar289_910:izzy289:izzygrace289@yahoo.com:1990-12-04::F:71.190.133.57:NULL
sugar28_2_2:178277::1998-12-18:US:F:99.171.92.141:kimberly
sugar290997:sugar999::1997-11-14:AU:F:119.11.82.185:Amy
sugar2929:friday13:erinml67@yahoo.com:1975-10-06:US:F:75.130.211.110:NULL
sugar295:poloplayerinca95:19pchamer76@verizon.net:1995-02-16:US:F:173.58.120.71:Mikkie
sugar2965:suger2965::1999-03-10:US:M:71.168.248.91:Yoshi
sugar2982:abcdef123::2002-03-26:US:F:173.60.100.44:NULL
sugar29934:cutiepie11::1997-03-07:US:F:207.255.43.137:Mckenzie
sugar2997:oatmeal12::1997-12-08:US:F:68.2.184.36:Riley
sugar2998:angelpie98:dsobocinski@comcast.net:1990-07-29:US:F:76.102.100.196:Theresa
sugar2999:506529::1999-07-11:CA:F:99.227.109.42:Amarjot
sugar29_betty:4003372::2000-05-31::F:99.16.51.47:NULL
sugar2angel:soccer415:lsbrand@aol.com:1988-04-15:US:F:72.67.7.243:Lisa  Brand
sugar2cane:tipe2005::1998-12-9:US:F:71.220.65.121:Susan
sugar2dumpling:fatty123::2004-11-04:MY:F:121.121.244.107:Xin
Sugar2Eat:hipeople18::2000-07-18::F:64.12.117.79:NULL
sugar2gunnar:munchkin123::2001-7-8:US:F:24.118.162.229:hallie
sugar2k:sugar2k5::2000-02-24::F:64.134.233.54:NULL
sugar2kstar:spongebob4414:spongebobzshorty@hotmail.com:1992-08-10:US:F:98.64.174.19:kasey  fleming
Sugar2Lipz:zoppy00::1997-12-24:US:F:90.211.22.100:NULL
sugar2qt4me:bonbon96::1996-06-28:US:F:76.26.52.118:sugar2qt4me
sugar2spice:nugget62:cute_rabbit6@hotmail.com:1992-01-12:CA:F:173.181.86.138:g
sugar2sugar2rune:139610204::1998-04-02:TH:F:125.25.100.234:Toei
sugar2sweethoney:jordan11:sugarperry@gmail.com:1991-01-16:US:F:69.138.43.47:alexis
sugar2you:Irisje113::1997-11-24:NL:F:86.88.4.9:Vernie
sugar2z2z:smokey4life2:livelovesoccer2z@games.com:1990-12-05:US:F:96.255.226.145:shelby
sugar2_123:popsta45:desa1@comcast.net:1996-02-04::F:68.63.59.227:NULL
sugar2_20:201920::1999-04-27::M:76.6.88.151:NULL
sugar2_5_5:cutie27::2000-02-05:US:F:96.225.135.220:Aja
sugar2__aa:stella13::1997-09-19:US:F:76.89.155.253:Shayne
sugar3001:nala46::1998-09-04:US:F:71.228.163.79:steffany
SUGAR30078:ALONNA241::2001-12-19::F:98.31.23.119:NULL
sugar3019:Percy19::1999-03-22:US:F:67.141.235.97:Kayla
sugar303:mystery10:sparklingstar105@yahoo.com:1990-12-26:DZ:F:24.131.32.8:Rachel
sugar303404:alisha121388:zachie121376@aim.com:1996-01-04:US:F:24.211.47.170:Alisha
sugar311:perxie911::1998-10-16:CX:F:70.6.48.144:perxie
sugar31107:conspiracy:sugar31107@hotmail.com:1988-02-08:CA:F:24.64.223.205:Dani St Denis
sugar3124:candie123::2000-05-06:US:F:71.195.207.26:NULL
sugar317:hannah123::2001-03-17:US:F:72.93.221.232:NULL
sugar317317:hannah123::2001-03-17:US:F:72.93.221.232:NULL
sugar317317317:hannah123::2001-03-17:US:M:72.93.221.232:Hannah
sugar3190:sugar123:jdx2nfamilee@yahoo.com:1997-03-19:US:F:97.84.174.62:NULL
sugar3199:joycelibbin3199:jlibbin@comcast.net:1988-03-01:US:F:71.233.29.248:Joyce
sugar32123:canufindwaldo32123:arieldookheran@yahoo.ca:1989-04-10:CA:F:99.245.121.55:Ariel
sugar3216:flojo3216::1998-12-31:US:F:8.14.104.157:shabba
sugar3217:finland321::2000-05-12:GB:F:2.125.194.2:NULL
sugar322:popcorn888::1999-11-29:US:F:70.144.67.142:Sarah
sugar32211:102995a:valleymace@yahoo.com:1995-10-29:US:M:12.234.9.91:NULL
sugar323123:ryan323123::2000-7-12:US:F:65.49.74.55:olivia
sugar323708:oli323::2001-07-12::F:68.189.90.174:NULL
sugar324:liverpool:sheila.magill@btinternet.com:1988-02-05::F:78.32.108.254:kayleigh Magill
sugar3246:CANDY01::2001-06-05:US:F:68.127.236.118:summer
sugar32545:yoshi78:lionvalcat@yahoo.com:1992-08-19:US:F:24.121.126.242:Valery Hortin
sugar3275:dexture338::2001-01-31:US:F:75.166.218.197:kieran
sugar328:sugar836::1998-10-22:US:F:68.162.19.78:sapir
sugar32981:jojo100:queenofcheer11@gmail.com:1988-06-04::F:166.187.243.46:NULL
sugar3321:thomas3321:rach_luv21@verizon.net:1990-09-20:US:F:141.114.164.95:Rachel Gordon
sugar3333:merub33::2008-09-16:US:F:96.246.13.151:NULL
sugar3339:popper234:beka.fahy@live.co.uk:1988-12-14:GB:F:86.3.216.250:Rebekah
sugar33445566:reddog33445566::1998-01-06:US:F:71.123.157.232:NULL
sugar338_1:Cooker Looker00::1996-03-27:US:F:205.188.117.201:Madie
sugar339:qwertyuiop:athena_k30@hotmail.com:1987-11-30:GB2:F:58.175.49.194:Bunny
sugar34:ginger23:mdcj1121@aol.com:1996-08-11:US:F:68.10.91.12:NULL
sugar3400:taylorderbes3400::2001-03-09::F:173.22.66.215:NULL
sugar3425:ki789:lionvalcat@yahoo.com:1992-08-19:US:F:24.121.95.64:Valery Hortin
sugar3426:stacymoo55::2001-01-04:US:F:71.87.67.114:macy
sugar3427:ju!c3::1995-04-08:TH:F:58.8.170.39:sugar3427
sugar343226:c94k94:mary27743423@hotmail.com:1993-02-03:HK:F:61.18.170.169:月兒♪小糖
sugar345:brownie45::1998-05-16:US:F:68.241.228.217:Layne
sugar3456:deepa11::2000-07-23:US:F:173.79.197.34:Deanna
sugar34567:penut67::1997-09-28:CA:F:75.158.132.135:nicole
sugar3459:deysy1996::1997-12-15:US:F:75.39.18.67:jackie
sugar345_51:snoppy345:christiana.smythe@gmail.com:1997-01-24::F:76.27.188.53:NULL
sugar346845:purple6::1995-02-10:NZ:F:122.58.139.51:sugar346845
sugar34mv:danielle34:williams34mv@aol.com:1994-8-24:US:M:75.121.248.38:Shane
sugar34_0:1996305:cherryinhk2001@yahoo.com.hk:1994-03-05:HK:F:116.48.55.205:ying
sugar3545:199500:shewa1maali@aol.com:1995-07-19:US:F:24.4.43.155:Sugar
sugar3567_1:birdycat27:tweety02904@aol.com:1971-8-8:US:F:74.103.227.157:kimberly
sugar3579:003699751::1999-08-16:US:F:99.73.212.149:NULL
Sugar35ii:songs101:crazydoglover982@yahoo.com:1990-11-06:US:F:68.127.242.170:NULL
sugar36058:raymond23:blueeyedprinceszaol@aol.com:1974-05-06:US:F:24.110.248.206:miriamcancel
sugar364:Zeus1120::1995-11-20:US:F:71.190.193.87:sugar364
sugar3690:sugarplum67::2000-09-09::F:24.26.159.96:NULL
sugar369neo:troop152::1992-04-15:US:M:75.42.20.179:none
sugar36_3:philadelphia11::1998-07-01:US:F:170.235.0.110:Channel
sugar37:smile37::2001-03-07:US:F:97.127.161.40:NULL
sugar3711:sweetstuff13:dogzrule87211@hotmail.com:1995-04-05:US:F:72.216.20.237:rachel
sugar372002:steelfloor890:sugar372002@yahoo.com:1964-04-10::F:75.121.237.242:NULL
sugar3723:lovermimi500:sugar54665266@yahoo.com.tw:1982-01-23:CA:F:61.224.70.188:張嵐昕
sugar37743:chance12::1999-02-11:US:F:96.4.127.20:julia
sugar379:CNQRcj35::1998-01-05:US:F:70.156.95.28:sophia
sugar3795763:megan60::2001-06-23:US:F:216.246.150.212:Ashley
sugar382:spice283::1997-06-06:US:F:70.246.232.114:kayla
sugar384:sugar12::1999-06-02::F:98.21.57.120:NULL
sugar3876309:sugarpup60::1999-11-25:US:F:24.136.254.190:Lauren
sugar39:FOLD45::2000-11-02:US:F:96.240.20.59:Sarah
sugar396:gracie50::1998-06-18:US:F:96.230.112.113:Candace
sugar3a333y:becky51:briana.duarte@yahoo.com:1989-02-26:US:F:76.91.72.69:becky
sugar3a33y:becky51:truemisfit@yahoo.com:1990-02-06:US:F:76.91.72.69:becky
sugar3bear:hottspices22:jeffnjenstover@aol.com:1996-12-22:US:F:67.142.130.13:NULL
sugar3bear07:cooper57::2003-08-25:US:F:99.149.17.64:NULL
sugar3dog:marshy524::1996-02-10:US:M:67.174.184.60:Carson
sugar3ug:chocolate1:sugar3ug@shaw.ca:1967-09-14:CA:F:24.71.223.152:tammy Vandalle
sugar3_3:sweet123::1999-04-03:GB:F:24.76.236.87:May
sugar400:flipper10::1999-11-04:US:F:81.52.249.115:grace
sugar4000:bc8008bc:l.veaugier@live.fr:1992-11-20:FR:M:86.201.129.44:Luc
sugar40017:cheese444:bray_pin@yahoo.com:1989-03-30:US:F:74.126.67.23:Braylee
sugar4011:ka1701::2000-11-14:CA:F:65.95.20.175:NULL
sugar4013:volcom15:clark107@verizon.net:1994-02-09:US:F:96.249.200.143:katie
sugar4031:shaylee22::2003-05-17::F:98.179.14.107:NULL
sugar4040:sophie55::2000-09-20:US:M:69.247.222.226:collin
sugar4089:vicki871::2002-02-08:GB:F:82.15.8.123:NULL
sugar41052:hannah11::1997-05-19:US:F:76.17.12.215:lexi
sugar4105278:41052789::1997-05-19:US:F:76.20.211.103:hannah
sugar4111:sugar1717:manda.collins85@yahoo.com:1990-07-17:US:F:24.155.46.223:Amanda
Sugar412:ilovedogs300::2003-11-24:US:F:174.52.177.108:NULL
sugar4123:uchenu89:uchenu2008@yahoo.com:1991-04-07:US:F:159.35.165.120:jo
sugar4142:jason27s:sugarsweet1016@yahoo.com:1982-10-16:US:F:96.24.229.83:Terah Stromatt
sugar41424:lovenick14:prettynadine@msn.com:1996-03-04:CA:F:174.117.159.252:Nadine
sugar417:sugar123::1997-06-19:US:F:76.110.83.126:rachel
sugar41713:lollypop17::1997-09-17:US:F:74.170.39.178:Madison
sugar419:neha419::2001-04-19:US:F:98.198.73.94:NULL
Sugar4191:howlett19:money-honey18@hotmail.com:1995-12-2:CA:F:173.210.187.39:Jacy
sugar42199:sugarrush66::1999-04-21:US:F:96.232.92.100:julia
sugar423:423mckenzie::2001-10-13:US:F:68.63.217.120:NULL
sugar4267:allicat12::1999-11-10::F:67.165.13.41:NULL
sugar427:06130:met2357@yahoo.com:1987-10-07:US:F:74.197.187.58:Megan Something
sugar42_123:greentea44::2002-12-17::F:68.185.69.189:NULL
sugar42_856:sweetpie125::2002-04-28::F:72.2.76.173:NULL
sugar43:ziggy43::2001-04-23:US:F:74.190.72.47:NULL
sugar4304:saidiedog08:alwaysdarnell@yahoo.com:1993-07-29:US:F:72.83.217.52:tajah
sugar4306:lolabunny08::1996-07-27:US:F:72.83.212.30:sugar
sugar4307__34:chili34::2000-04-03:US:F:68.9.201.119:Meghan
sugar43207:butter75::1997-07-16:US:F:164.83.240.83:courtney
sugar4321234:sugar12:soccer.rox.04@hotmail.com:1990-03-14:US:F:74.46.227.216:chrystal
sugar433:4338007:de-athi_sonlythebeginning@hotmail.com:1994-07-24:VC:F:69.73.201.242:Symich
sugar4355:hatelove43::1999-04-08:US:F:71.142.50.246:Fiona
sugar43656:crazy people436::2000-09-08:US:F:65.30.139.39:sarah
sugar44:::2003-03-07:US:F:99.227.32.64:NULL
Sugar4427:baer4427::2000-07-23::F:96.238.86.227:NULL
sugar442__aa:jensen42::1998-08-03:US:F:71.114.184.238:hayley
sugar44444:midnight12::1999-09-29::F:98.232.71.118:NULL
sugar445334:cutiepie445::1999-07-12:US:F:67.86.4.244:serina
sugar4455667788:naj99911::1999-07-17:ZR:F:74.176.63.161:summer
sugar445__2:supergirl01::1998-06-13:US:F:76.254.59.251:Carly
sugar4469:sophie44:billabong_babe4469@hotmail.com:1992-10-16:AU:F:211.30.196.13:Allie
sugar451234:sarap1234:hotmama012@aol.com:1993-10-06:US:F:163.153.15.21:sara
sugar4528:yumsugar10::2008-01-01::F:207.47.206.204:NULL
sugar453:sugar52715:laydee_sugar31@hotmail.co.uk:1993-08-10:GB:F:206.220.40.51:Sugar 
sugar45456:angel7sugar0:Alyshanv@aol.com:1993-09-23:US:F:68.217.159.46:alesha
sugar4563__aa:alw0824::1999-08-24:US:F:198.111.167.130:sugar
sugar456_8_8:lol0902::1999-09-02:CA:F:99.248.66.139:isabella
sugar457:Jordan152::1999-05-23:US:F:69.235.202.205:NULL
sugar457e:wintercre$$90:tanyagibbons49@yahoo.com:1995-04-02:US:F:68.49.8.147:Diamond
sugar457_7:sugars12:www.emmaball9@yahoo.com:1989-04-16:US:F:71.28.253.144:Emma
sugar4586:345345::1997-05-01:CA:F:67.164.210.136:sugar4586
sugar459:sugar90::2000-04-25::F:216.252.30.132:NULL
sugar4592:160990:crazy_kateuk@yahoo.co.uk:1990-09-16:US:F:195.188.224.210: katie
sugar4621:sugar41::1999-03-07:US:F:172.192.72.129:amanda
sugar463:killer456::2000-09-24:US:M:75.174.49.100:justin
sugar464:jai464::1997-10-24:US:F:76.118.104.205:jailene
sugar465798:quwerty465::2000-04-07:US:F:68.13.171.124:NULL
sugar4665:dddddd11:oakcrests@hotmail.com:1993-10-15:US:F:96.240.129.59:tesha
sugar468:elizabeth_9614:staabe@yahoo.com:1996-07-17:US:F:24.225.14.235:Emily
sugar469:123539s::1998-01-01::F:99.13.120.230:NULL
sugar4723:blue10::2000-07-22::F:69.176.44.181:NULL
sugar481_r:christian81:lop.rita@freenet.de:1981-04-13:DE:F:78.94.56.250:Rita Lopriore
Sugar4828:tequila44:reyna4828@yahoo.com:1990-01-02:US:F:75.40.208.168:Amelia
sugar487:sweet123321::1998-04-04::F:79.73.107.1:NULL
sugar4912:491272::2001-12-04:SG:F:220.255.7.137:Nabilah
sugar4917_6:ERIC56789::1999-04-17:US:F:66.229.33.0:MICHELLE
sugar492003:kiggle49::2003-04-09:US:F:24.192.152.157:Shannon
sugar494:cutie123:lindseysydney@rocketmail.com:1994-10-22:US:F:71.235.204.193:linda
sugar495:kitten16::1997-06-11:US:F:74.173.2.200:alicia
sugar4968:diamond49::2000-11-02::F:74.243.116.249:NULL
sugar498590:sugar7538:sugar498590@yahoo.com.tw:1994-01-26:TW:M:203.75.232.190:NULL
sugar4breakfast:im2awsome4u:whatgirl003@yahoo.com:1996-03-27:US:F:70.44.73.183:Rachel
sugar4ever333:rocky10::1997-06-22:US:F:68.203.191.57:Laura
sugar4ever4455:cherry:vio_dragon@yahoo.com:1991-08-26:US:F:67.136.57.21:BAMBev
sugar4ever_x:chloewr123::1999-03-25:GB:F:88.109.175.247:Chloe
sugar4frogs:wagster1220:reahka@yahoo.com:1891-12-20:US:F:108.204.215.201:stardust
sugar4honey:honey333::1998-09-09::F:71.102.23.170:NULL
sugar4k9:03192002:bcwarnick@hotmail.com:1997-03-19:US:F:67.172.236.167:NULL
sugar4me2:dillon11:kfissocute@gmail.com:1996-09-30:US:F:69.144.193.40:kristen
Sugar4me23:p12345678::2001-02-11::F:174.56.42.170:NULL
Sugar4me58:p12345678::2001-02-13::F:174.56.42.170:NULL
Sugar4me8:p12345678::2001-02-13::F:174.56.42.170:NULL
sugar4me911:miamor22:bhaas60@hotmail.com:1984-11-08:US:F:109.203.115.79:Becky Haas
sugar4me97_:mjszat11:cocoasoccer@gmail.com:1996-02-13:US:F:68.163.221.146:Maryjane
sugar4myhon3y:nathansanti89:blackened_eyes_@hotmail.com:1990-10-31:AU:F:122.106.37.181:Khya
sugar4p:Bree13::2002-11-09:US:F:75.65.140.251:Alexis
