sugarplum8943:father12::1999-04-14:US:F:24.175.175.106:Alexandra
sugarplum897:ac785992::1999-09-14:US:F:75.36.52.94:NULL
sugarplum89a:sugar54::1998-05-13:US:F:99.106.212.54:Karolina
sugarplum89_43:milkon12::2000-12-08::F:74.72.89.27:NULL
sugarplum8__aa:hunter90210::1999-11-11:US:F:65.4.121.101:hunter
sugarplum9000_10:sugarplum9000::1998-03-03::F:67.249.3.98:NULL
sugarplum90023:oliver12::2000-1-30:US:F:173.72.44.170:Melissa
sugarplum906:prettyprincess78::1996-10-06:GB:F:86.157.111.201:Abigail
sugarplum910:hawaii09::2001-10-31:US:F:98.150.202.47:NULL
SugarPlum910728:neena13::2001-12-13::F:24.136.213.138:NULL
sugarplum919767:bliss9898::2000-09-11::F:71.114.160.124:NULL
sugarplum91__49:shannon_carol:aishanuman_91@hotmail.com:1991-01-07:GB:F:82.43.235.213:aisha numan
sugarplum92014:ilovesalad11:balletfreak10@gmail.com:1996-11-21:US:F:76.200.180.35:NULL
sugarplum93:050010794:gogolding516@yahoo.com:1993-03-29:US:F:24.190.155.244:NULL
sugarplum9406:soccer5656::2001-10-02::F:75.67.126.17:NULL
sugarplum95:martin28:teraloowho@yahoo.com:1995-03-20:US:F:97.126.41.248:NULL
sugarplum958:sugarplum@21::2000-05-19:US:F:65.121.208.133:NULL
sugarplum95_0806:11lilyflower:kera-1995@hotmail.com:1995-08-06:CA:F:99.227.127.252:Jessica
sugarplum95_6:flower07:tracyontiveros@yahoo.com:1995-07-24:US:F:24.131.175.205:Tracy
sugarplum96:jason1996:jazziere10@live.co.uk:1996-01-03:GB:F:89.241.82.14:NULL
sugarplum9667:daddyslilgirl960167::1996-01-05:CA:F:142.165.160.68:paige
sugarplum96__41:allaboutme13:hayley.ox@live.co.uk:1993-11-29:GB:F:94.1.183.59:hayley
sugarplum980:reading300::1998-06-18:US:F:76.247.216.252:NULL
sugarplum987:scotti:tjenkins_99@yahoo.com:1968-04-18:US:F:208.196.162.2:T Jenkins
sugarplum987654321:starshah5678:foxynaagi@gmail.com:1989-01-01:US:F:71.190.90.164:princess nogi
sugarplum989:brianna123::1998-01-22::F:71.210.254.131:NULL
sugarplum98_98:1868868::1998-01-19::F:76.3.76.48:NULL
sugarplum99:DJNPhm45::1999-07-22:US:F:71.195.28.202:NULL
sugarplum999:261999::1999-02-06:US:F:71.112.18.112:Nichelle
sugarplum999101:fairy888:hermioniegranger@gmail.com:1994-01-31:US:F:66.56.8.189:whocares
sugarplumabby:flower67::2001-07-10:US:F:74.138.89.88:Abby
sugarplumangel:mojojojo123::1998-09-16:GB:F:78.146.51.161:NULL
SugarplumAngel5:DAVION555::2005-04-21:US:F:70.144.81.134:FAITH
sugarplumangeldust:pixiedust16:buddfairy@yahoo.com:1993-04-21:US:F:68.228.53.158:Jennie Lore
sugarplumapple__98:sugarapple69:sugarplum1993@live.com:1969-05-26:US:F:74.75.155.16:NULL
sugarplumb09:adam22::1999-08-12:US:F:68.206.25.85:victoria
sugarplumb101:sugar95:madison@pshields.com:1980-09-11:US:F:209.44.134.131:maddie
sugarplumb102:sugar95:madison@pshields.com:1995-09-11:US:F:209.44.134.131:Madison
sugarplumb1981:mckenzie1981:jamimoreno1@yahoo.com:1981-08-15:US:F:69.225.31.145:mckenzie
sugarplumb2:::2000-10-24:US:F:76.172.36.237:NULL
sugarplumb32:iwantalaptop77::1999-06-06:NZ:F:68.37.97.254:sarah
sugarplumb50:puppylover123::1999-09-11:US:F:76.184.226.129:NULL
sugarplumb55:sugarplumb12::1998-09-30:US:F:68.198.10.140:NULL
sugarplumb8_7:snowy10::1998-10-16:US:F:98.201.153.156:Bridey
sugarplumbabie101:bitch1:shelbytwirls001@yahoo.com:1992-08-20:US:F:75.69.224.186:Shelby imnottelling
sugarplumbaby4852:keshunna55:ravenyoung53@yahoo.com:1997-04-30:US:F:74.240.100.30:keshunna
sugarplumbaby801:loveydovecj801::2001-06-15:US:F:71.183.214.10:Claire
sugarplumbaby9420:pizza:heatherbeale84@yahoo.com:1994-09-20:US:F:69.143.40.47:none
sugarplumbabycakes:daddy87:kellyglenn06@yahoo.com:1984-11-21:US:F:98.207.85.115:Kelly
sugarplumbaby_x:alana14::1997-01-14:GB:F:86.17.135.201:Alana
sugarplumball08_0:170016::1999-04-26:US:F:173.243.250.77:NULL
sugarplumballet:mydream05:leapordstar@sbcglobal.net:1994-03-29:US:F:99.29.239.138:Bob
sugarplumbarbiedaisy:popipu446:shelbylynnsieracki@yahoo.com:1996-10-27:US:F:68.96.69.37:NULL
sugarplumbecky:angle12:bectoria19@hotmail.com:1994-07-19:GB:F:195.93.21.106:becky
sugarplumberries:311266:hotty_pants03@hotmail.com:1986-02-03:CA:F:96.49.243.103:Chrysta
sugarplumberry:mom112::2002-10-18:US:F:97.106.190.114:angel
sugarplumberry12345:BUBBLEgum890::1998-08-28:US:F:76.232.101.159:NULL
sugarplumberrycakes1:chickenwings27:missJessicaa@hotmail.co.uk:1993-08-27:GB:F:82.20.244.74:Jess
sugarplumbesu:sesshomaru88:sanzo_otaku88@hotmail.com:1988-06-24:US:F:75.171.149.65:Besu
sugarplumbfairy91:catanddog34::1998-07-31:NZ:F:118.92.126.206:NULL
sugarplumbfariy:sweetie 2000::2000-02-24:US:F:71.115.253.46:kabriah
sugarplumbfariy_4:sweetie 2000::2000-02-24:US:F:71.115.253.46:kabriah
sugarplumbgirl98:4604901c::1998-11-07:US:F:72.71.119.85:carrington
sugarplumblossom:ShNuAzErS97::1997-12-19:US:F:65.101.75.108:aurora
sugarplumblumaroo:kairstennitsch330:kbreveresoccergirl@yahoo.com:1985-03-11:US:F:107.10.20.206:Sugar
sugarplumboy124:starwars34::2000-05-09:US:M:76.29.232.47:NULL
sugarplumboy23:callofduty00::2000-05-09:US:M:24.236.88.110:NULL
sugarplumboy_0_1_9:starwars12::2000-05-09:US:M:76.29.232.47:NULL
sugarplumbpony:Coolcat1997::1997-02-12:GB:F:92.233.59.46:Beth
sugarplumbprincess:diamond16::2003-01-26:US:F:71.124.128.55:NULL
sugarplumbum7:ilovemonkeys77:heather-d-smith@hotmail.com:1991-03-10:CA:F:70.31.37.200:Heather
sugarplumbumchum1:joshua27::1999-03-24:GB:M:86.166.128.101:joshua
sugarplumbutt:puppy420::2001-05-02:US:F:69.86.243.193:NULL
sugarplumbwaa:noodlesmck:sweet_mooose@hotmail.com:1988-03-04:GB:F:82.12.108.11:briony thespy
sugarplumb_07:jejalu07:enchantressz_07@yahoo.com:1986-12-07:PH:M:210.14.47.28:jessie james lucillo
sugarplumb_15:gizmo07::1996-06-15:GB:F:86.129.16.191:Sophie
sugarplumb_17:cacococoa658::2001-06-21:US:F:69.141.200.63:NULL
sugarplumb_4:trayelove223::2003-06-28:GB:F:78.146.239.204:NULL
sugarplumb_69:silverbells69:pebbles_8122@yahoo.com:1981-10-07:US:F:71.21.48.170:Trina
sugarplumb_9:gholl28::1999-12-30:AU:F:58.167.215.230:Grace
sugarplumb_fairy:jessie87:jl.cochrane@hotmail.com:1987-04-17:CA:F:205.211.54.10:Jessica
sugarplumb__aa:harley09::1998-12-31:NZ:F:121.72.196.27:samantha
sugarplumcake00:cinderella00::2004-01-15::F:75.222.248.79:NULL
sugarplumcake82:t1997d::1997-03-03:US:F:98.223.184.0:T
sugarplumcake86:t1997d::1997-03-03:US:F:98.223.184.0:T
sugarplumcem:guineapig55::2000-03-16:US:F:71.138.129.167:Caroline
sugarplumcharpar:cclark11:charlotteireneclark@gmail.com:1991-02-05:US:F:68.218.144.112:Charlotte
sugarplumcheesecake:kittycat12::1999-03-05:GB:F:78.105.177.171:Wammy
sugarplumchick:chowder87:mmatertater@aol.com:1994-09-20:US:F:65.4.239.156:sugar plum
sugarplumchum:stuff23:hottiepinkheleana@live.com:1995-11-16:GB:F:94.10.251.173:Heleana-Amber
sugarplumcone:123456_789::1999-12-26:US:F:65.190.31.121:NULL
sugarplumcrush:plummer711::1998-07-11:US:F:75.90.146.134:Savannah
sugarplumcrystal:sugarplums12::1998-07-03:US:F:173.31.115.119:lillian
sugarplumctk:stargate09:gutterstarr@gmail.com:1984-01-11:US:F:70.197.109.41:Christine
sugarplumcupcake82:t1997d::1997-03-03:US:F:98.223.184.0:T
sugarplumcutie333:candycute912::1999-08-27:US:F:69.106.241.6:Jena
sugarplumcutiepie44:snow247:elizabethcivitello@sbcgloabal.net:1995-10-16::F:66.159.177.170:NULL
sugarplumcutie_56:love123::1998-09-21::F:64.131.155.86:NULL
sugarplumdaddy:peter77:sugarplum24@oh.rr.com:1976-01-06:US:F:98.27.221.34:Roberta
sugarplumdancer42:purpleplum14::1997-07-31:US:F:71.142.143.239:ELIZABETH
sugarplumdancer__14:macnificent56:rosie@myspace.com:1995-6-10:US:F:206.159.165.2:ashley
sugarplumdarlin:doone9856:xox_miss_rebel_xox@hotmail.com:1993-11-26:GB:F:82.27.83.120:heather
sugarplumdeemon14:fruity11:evildeemon14@yahoo.com:1993-07-03:US:F:76.90.160.165:sugarplumdeemon14
sugarplumdidums:ihateyourface69:i-ate-your-cookie@hotmail.com:1991-08-15:GB:F:81.98.246.196:Hannah
Sugarplumdrop:funnykat55::2000-04-03:US:F:75.97.128.136:NULL
sugarplumduchess101:sugarplums101::1996-04-06:US:F:68.207.149.99:Alanna
sugarplumdum:cowgirl12_::1997-04-15:GB:F:86.132.223.172:rosie
sugarplume:::2000-02-16:US:M:96.49.67.78:NULL
sugarplume123:sweetwater321::2000-05-09:US:F:12.73.33.134:peyton
Sugarplume5:moneybunny740::1999-11-10::F:173.173.66.237:NULL
sugarplumefairy:cookie12::1998-09-12:US:F:71.144.70.131:Lexie
sugarplumefairy207:lola45::2002-02-01::F:125.60.189.6:NULL
sugarplumer:138369:taylorwink@live.com:1994-03-08:US:F:71.1.111.140:taylor
sugarplumess008:chance123:claireclover@hotmail.com:1986-05-19:GB:F:86.130.140.8:claire
sugarplumfaerie:vpq54g::1997-03-17:NL:F:77.161.27.104:NULL
sugarplumfaerie012:cosi9yco11:sweetie_pai88@hotmail.com:1988-10-19:US:F:71.240.160.176:Anne
sugarplumfaerie141:madchocolate135:bex@arcati.com:1991-09-10:GB:F:86.155.170.195:sugarplum faerie
sugarplumfaerie202:cherryblossom65::1997-02-23:US:F:209.243.6.11:Sarah
sugarplumfaerie813:boo999:cduleba@aol.com:1992-04-29:US:F:216.165.23.163:NULL
sugarplumfaerie88:kmt55901:glittering_plastic_butterflies@yahoo.com:1987-06-20:US:F:68.115.84.246:Kristina
sugarplumfaeriefairy:clover39:galadrielfay@hotmail.co.uk:1990-02-16:GB:F:82.21.229.128:tamara
sugarplumfaerie_101:coco_cj:chelcie@wreford.me.uk:1992-09-28:GB:F:82.69.56.231:chelcie wreford
sugarplumfaerie_6:Sugar1986:acullen69@ymail.com:1988-11-15:US:F:66.222.30.51:Alice
sugarplumfaerii:asdf123:sugarplumfaeriix3@yahoo.com:1984-02-09:US:F:67.142.130.24:The Sugar Plum Faerii
sugarplumfaiire:capslock11:ddurrer@yahoo.com:1990-11-21:NZ:F:125.236.172.48:johanna
sugarplumfaiirii:DINGO14:daintydoll.victoria@googlemail.com:1994-09-13:GB:F:86.146.202.192:Victoria
SugarPlumFaires:khadija11:vanessasbeauty@gmail.com:1997-03-01:US:F:96.244.48.232:i have no name
sugarplumfairey87:hollys87:sugarplumfairey_87@hotmail.com:1987-08-06:GB:F:90.203.174.229:laura
sugarplumfairie09:tillman95:couturegirl1124@aol.com:1995-11-24:US:F:205.188.117.14:Taylor
SUGARPLUMFAIRIES22:alyssa22::2004-01-22::F:174.61.40.187:NULL
sugarplumfairie_91:phantom55:swtkjes@gmail.com:1973-05-07:US:F:76.27.86.48:pink panther
sugarplumfairiiee:lolapop12::1998-05-08:GB:F:94.5.176.250:Laurenrose
sugarplumfairy:vpq54g::1997-03-17:NL:F:77.161.27.104:NULL
sugarplumfairy002:lionsvolleyball02:aerogirl1222@yahoo.com:1996-11-02:US:F:66.41.145.200:marcella
sugarplumfairy037:93apple:china_doll7@hotmail.com:1992-02-06:NZ:F:122.57.159.130:Jenny
sugarplumfairy08:bubbles08:rachelhall8@msn.com:1992-08-31:GB:F:82.39.134.20:Rachel
sugarplumfairy09:iloveroman23:Jonaslover112394@gmail.com:1989-11-23:US:F:75.97.92.78:piggely
sugarplumfairy098767:puppy12luv::2000-09-21:US:F:71.226.209.8:gen
sugarplumfairy101:goofy24:sugarplum101@comcast.net:1995-11-10:US:F:98.247.16.72:Patience
sugarplumfairy101_1:nutcracker100:karla_rojas@rocketmail.com:1996-04-19::F:75.34.85.57:NULL
sugarplumfairy111:mikeyss11:mrkapotis@aol.com:1982-04-17:US:M:74.101.216.246:NULL
sugarplumfairy12:sugarplum888:mochafrappachocoholic@gmail.com:1994-01-31:US:F:69.180.28.117:NULL
sugarplumfairy121212:tabatha121212:evebower2000@hotmail.com:1994-12-12:GB:F:90.199.218.207:Eve
sugarplumfairy123__4:lalaland123:samthegolfer@hotmail.com:1988-04-04:NZ:F:125.238.13.18:jenny
sugarplumfairy1324:zigzag12::1997-05-19:US:F:71.112.40.244:Jordan
sugarplumfairy1508:molly1508:kirsty_1508@hotmail.com:1989-08-15:GB:F:62.30.120.149:Kirsty
sugarplumfairy175:hello:m_truong410@hotmail.com:1989-10-04:CA:F:69.172.108.235:none
sugarplumfairy1906:buffy_12:sugarplumfairy1906@hotmail.co.uk:1991-01-03:GB:F:90.208.159.95:Carli
sugarplumfairy1995:francesca95:funkyfran10@hotmail.co.uk:1995-06-29:GB:F:2.97.104.21:sugarplumfairy1995
sugarplumfairy1_7:sabineandgaby20::1996-06-27:GB:F:217.44.192.208:sabine
sugarplumfairy2:ilovejacob22::2000-01-26:AU:F:220.253.73.99:charli
SugarPlumFairy21:supeRssede88!:samantha_rea_2007@yahoo.com:1989-04-29:US:F:173.16.2.35:NULL
Sugarplumfairy2267:2b2e6a7c:bead_2267@hotmail.com:1997-2-6:BR:F:187.105.240.132:Beatriz
sugarplumfairy24_8:pitner05::1999-06-12:US:F:76.97.220.177:Lauren
sugarplumfairy268:scampy1990:tamaraajansen@hotmail.com:1990-11-29:GB:F:95.147.139.100:Tamara Jansen
sugarplumfairy286:bridget00:sgc1215@yahoo.com:1987-07-06:US:F:71.94.183.48:SamanthaCotton
sugarplumfairy2972:iloveoliver123::1997-02-13:GB:M:84.67.88.155:josh
sugarplumfairy30:pixiedust:kellimchew@gmail.com:1987-06-28:US:F:98.164.214.129:Kelli Chew
sugarplumfairy33:winter33::2000-05-05:US:F:24.2.75.146:susan
sugarplumfairy365_da:love2000::1999-10-22:US:F:24.99.48.10:NULL
SugarPlumFairy44:emokid93::2004-03-02:GB:F:194.80.66.254:NULL
sugarplumfairy518:quig1quig2:funkyangel92000@yahoo.co.uk:1980-01-12:GB:F:194.42.132.96:Jo
sugarplumfairy54:iloveyou143:broccoxo@aim.com:1993-04-10:US:F:71.183.42.47:Ashley
sugarplumfairy66:cft67ujm::1997-11-03:US:F:71.169.140.52:claire
sugarplumfairy7698:yellowsungirlygirl98::1999-03-28:US:F:68.5.90.1:Gabriella
sugarplumfairy789011:lilipie56::1999-12-08:GB:F:188.28.162.76:NULL
sugarplumfairy8:*ck1summer:suzn_shopaholic@hotmail.com:1993-03-30:CA:F:99.239.236.164:suzn gellar
sugarplumfairy909:bubbles1:sophiesalloway929@hotmail.com:1993-05-28:GB:F:92.25.244.179:Sophie Salloway
sugarplumfairy91:nellie1127:sugarplumfairy91@live.co.uk:1989-03-26:GB:F:79.77.89.1:Amy
sugarplumfairy98:bffhaterz11:lyndseepenn@gmail.com:1998-05-13:US:F:67.172.177.247:NULL
sugarplumfairye13:roses13:jandaginter@comcast.net:1998-08-07:US:F:98.193.148.19:NULL
sugarplumfairye6:roses::1998-08-07:US:F:98.193.148.19:sugarplumfairye6
sugarplumfairyellie:ellie09::2003-08-21:GB:F:90.221.137.171:ellie
sugarplumfairyfb:chocolate007:sugar_plum_fairy_loves_money@hotmail.com:1980-01-30:GB:F:213.105.219.100:Frankie
sugarplumfairylover:gARY123::1995-10-15:US:F:67.174.194.217:Lais
sugarplumfairymn13:amani60:sugarplumfairymn@yahoo.com.au:1991-3-5:AU:F:123.243.83.9:Monica
sugarplumfairypuff:hathathat22:max_power333@hotmail.com:1990-04-16:CA:F:24.57.104.174:grace
sugarplumfairyq:snowflake89:sugarplumfairy4_19@hotmail.com:1989-04-19:US:F:98.148.228.12:Lark
sugarplumfairyrox:calvary70:mnsc1970@yahoo.com:1995-07-14:US:F:68.206.26.208:sugarplumfairyrox
sugarplumfairyxox:Animal2008:eden-hollie@hotmail.co.uk:1995-01-01:GB:F:86.163.9.235:Courtney
sugarplumfairyyy:Nucks123::1999-03-11:CA:F:142.104.224.64:Brittany
sugarplumfairyyys:Nucks123:sugarplumfairyyy@hotmail.com:1995-03-11:CA:F:142.104.224.64:Betty
sugarplumfairy_10:charlie10::1998-03-19:CA:F:99.237.232.124:Cassandra
sugarplumfairy_135:1998309:Emily_da_girl@hotmail.com:1992-09-30:NZ:F:122.57.149.92:Emily
sugarplumfairy_18:sugarplum101:shawnahieber@yahoo.com:1988-02-24::F:68.102.84.46:NULL
sugarplumfairy_1_1_1:robyn*:naughty_as_fcuk_lol@hotmail.com:1990-08-21:GB:F:92.237.19.244:jayde morton
sugarplumfairy_6_6_6:claraflo09:naomi_richards@hotmail.co.uk:1988-03-08:GB:F:90.208.209.94:
sugarplumfairy_9:dini25april:coffie_dhinz@rocketmail.com:1995-04-25:ID:F:125.167.116.150:Dini
sugarplumfairy_a34:Natalie11:sugarplumfairy56@yahoo.co.uk:1988-09-24:GB:F:212.183.140.55:emely
sugarplumfairy_alice:alicepig10::1997-06-09:GB:F:78.86.98.16:Alice
sugarplumfairy_girl:puppy100::2000-09-21:US:F:71.226.214.112:G
sugarplumfairy__:xin07xiang26::1996-11-07:SG:F:220.255.7.231:Zing
sugarplumfairy__49:tuckers21:pjlady_1987@hotmail.co.uk:1987-07-22:GB:F:86.159.234.228:sophie
sugarplumfairy__72:chelsea21::1997-01-10:GB:F:194.176.105.49:amber
SugarPlumFantasies:arianna21:clara.damiano@gmail.com:1987-12-28:US:F:216.46.25.114:Clara
sugarplumfarie95:haha101:missyboerio@yahoo.com:1994-10-24:US:F:75.171.186.215:Missy
sugarplumfarie_3_3:peterpan88::2000-03-10:US:F:74.193.86.182:morial
sugarplumfariry:kieral12::1999-06-24:GB:F:86.180.213.95:sugarplum
sugarplumfariy:azore97::1997-04-28:US:F:98.163.221.244:ky
SugarPlumFariy50:sassygirl50::2000-04-20:US:F:75.22.110.25:NULL
sugarplumfearie:BUDDIE54258NIKKI5421:sugarplum87@live.co.uk:1987-11-05:GB:F:86.163.71.238:plum
sugarplumfeiry5:lemonade55:sugarplumfeiry@msn.com:1989-10-05:GB:F:78.151.34.67:Sara
sugarplumfemofairy:persey21:rawer_ii_am_crazii@hotmail.com:1992-08-20:US:F:72.223.81.92:Bob
sugarplumfly:hannah123::1998-09-01:AU:F:121.223.205.88:Hannah
sugarplumfoxy:wally100:rockingroxy@msn.com:1940-01-05:US:F:209.237.90.242:Roxy
sugarplumfrog:happyy12::1999-02-01:US:F:63.69.72.159:NULL
sugarplumfun:orocks16::1999-10-11:US:F:68.34.142.21:Olivia
sugarplumgirl:sp8nkyou1:tiffany.mccray@ymail.com:1983-07-21:US:F:67.183.194.174:NULL
sugarplumgirl01:alskdj852456::1999-05-05::F:72.86.116.63:NULL
sugarplumgirl02:alskdj5619002::1998-10-09:AU:F:71.246.131.186:kayla
sugarplumgirl09:alskdj5619013::1999-05-05::F:72.86.116.63:NULL
sugarplumgirl456:sunner123::1998-09-07:US:F:24.190.207.111:Nairobi
SugarPlumGirl54:sunner123::1998-09-07::F:24.186.70.90:NULL
sugarplumgirl555:0168888::2001-02-18:US:F:50.80.90.43:NULL
sugarplumgirly_558:rosebud2000::2000-02-24::F:71.192.122.153:NULL
sugarplumgirlz09:bestfriends09:silverstream16@shaw.ca:1991-01-31:CA:F:24.67.156.36:Mystery girls
sugarplumgumdrop2:a560105:hkidd@sc.rr.com:1993-04-05:US:F:98.121.203.125:Haille
sugarplumgurl101:gabbee11:blondie_1992@hotmail.com:1992-11-02:CA:F:70.78.224.205:NULL
sugarplumgypsy97:HopeSwiger97::1997-10-24:US:F:76.252.185.119:Hope
sugarplumhoneybun:botdf44:totoroahh@aol.com:1991-01-22:PL:M:174.102.145.11:Matsudacauseipwn
sugarplumhunnie4:trishia:moeman3535@aol.com:1990-09-23:US:F:none:Trishia Mudd
sugarplumhunniebun:laura1996:laurabelle_x@hotmail.com:1996-04-25:AU:F:210.9.9.235:NULL
sugarplumhunnybunch:alcohol::1993-05-24:GB:F:none:sugarplumhunnybunch
sugarplumhunybunch:Priie!:notollerance4failure@yahoo.com:1987-06-03:US:F:none:Ebony Richcough
sugarplumice:kitty68::2001-07-24::F:76.99.48.93:NULL
sugarplumie:bunnysux:rapziyen@hotmail.com:1990-09-02:SG:F:none:sugar plumie
sugarplumiko:friend::1993-12-29:US:F:none:sugarplumiko
sugarpluminc:melissa321:sweetberries.s@gmail.com:1991-09-10:US:F:none:SugarPlum Hart
sugarpluminlove:x3x3pinkmarshmellows:candygirl_lolie_sugar_pop@hotmail.com:1992-07-28:MY:F:175.138.162.255:Julianna
sugarplumintaiwan:lucky100:jdeneef20@gmail.com:1910-12-31::F:222.68.248.33:NULL
sugarplumiok:friend:sugarplumiko@yahoo.com:1988-12-29:US:F:Acceptance:Haley iko
sugarplumisabelle:barbie13:chubby_princess@hotmail.com:1989-05-13:SG:F:220.245.178.141:isabelle arriola
sugarplumisgood:sugarplum12::1999-01-31::F:66.56.32.41:NULL
sugarplumish3:lips13:unicornhorn205@hotmail.com:1983-04-10:GB:F:79.78.130.58:Sugarplum
sugarplumismybaby:sugarplum:the3bajars@charter.net:1982-06-09:US:F:none:Angeline Bajar
sugarplumjax:bubbles65::2003-09-08:US:F:204.9.251.44:NULL
sugarplumjess:chefjess45:sugarplumjess45@aol.com:1993-09-15:GB:F:195.93.21.39:jess
sugarplumjessieturne:jessie turner:jessieturnerboo@hotmail.co.uk:1905-06-20:GB:F:none:jessie turner
sugarplumjordan:ocbitch:busted_jordan@hotmail.com:1989-10-24:GB:F:none:jordan bone
sugarplumk:pickle14:bmw323iml@msn.com:1993-12-16:US:F:96.241.234.30:Ducky
sugarplumkaitlyn:girlpower::1993-09-17:CA:F:none:none
sugarplumkate:alfred13:darkmagic713@aol.com:1987-12-29:US:F:69.117.19.20:Katie VanDusen
sugarplumkatie:splash::1992-02-22:JP:F:Battledome Challenge:sugarplumkatie
sugarplumkees:73093k:katz93@comcast.net:1993-07-30:US:F:71.224.52.100:Kaitlin
sugarplumkekkey10:sugarplum::1991-08-14:US:F:none:sugarplumkekkey10
sugarplumkekky:LOVABLE::1991-02-04:US:F:Challenge Accepted:sugarplumkekky
sugarplumkekky10:SUGARPLUM::1991-08-14:US:F:Battledome Challenge:sugarplumkekky10
sugarplumkid:sugarstar360::1996-11-27:NL:F:83.84.183.147:Alexandra
sugarplumkim5:supermom430:kgreichert@msn.com:1974-06-21:US:F:none:Kim Reichert
sugarplumkin:hetalia44:pumyumyumpkin@yahoo.com:1989-04-05:US:F:96.237.133.21:Helen
sugarplumkiss1616:sugarplum:sugarplum_1616@hotmail.com:1990-08-22:AU:F:Mail from sweet_sugar_babe16:courtney wilder
sugarplumkiss17_9:120192:flavred_bleach05@yahoo.com:1992-12-01:US:F:69.112.70.186:Alyssa
sugarplumkisses:Charlie11:chaz_99_@hotmail.com:1990-07-11:GB:F:90.199.7.207:Charlotte
sugarplumkitty:teddy11:bearearth@hotmail.com:1989-06-11:GB:F:none:<b>Sugarplumgal</b>
SugarPlumKitty5:peper101:sugarplumkitty4433@gmail.com:1997-05-30:US:F:24.18.53.16:NULL
sugarplumkittykat:sydney23:supersydney.b@hotmail.com:1992-12-25:CA:F:none:sandra kuntucky
sugarplumkl:madonna5:kristybock25@yahoo.com:1985-08-31:US:F:68.41.119.118:kristy bock
sugarplumklg:iamsosexy::1992-08-23:US:F:none:sugarplumklg
sugarplumlane:ging142:jamielynnharlow@hotmail.com:1990-05-10:US:F:96.15.199.237:Lynn Jamie
sugarplumlaura:peterbunny!:lil_angel54@msn.com:1991-02-10:GB:F:none:laura binns
sugarplumlauraa:jubby!:lil_angel54@msn.com:1992-02-10:GB:F:none:laura binns
sugarplumlemoncake:0995909:sammymountain@msn.com:1992-05-05:GB:F:84.70.102.36:Sam
sugarplumlexie1aol:lexielou1:sugarplumlexie1@aol.com:1992-07-24:US:M:none:james koscinski
sugarplumlg:jasper100:gibbonslo@wellington-girls.school.nz:1991-06-21:NZ:F:121.73.77.170:Lou
sugarplumlilburrr:sugar_plum:sugar_plum_fairy_90@hotmail.com:1992-08-09::F:none:becky burr
sugarplumlivi:jasmine:lovelylivvi@hotmail.com:1991-06-16:GB:F:none:Livi H
Sugarplumlizzy:gamble12::2001-08-20:US:F:70.189.236.251:Liz
sugarplumlma:159753:sugarplumlma@aol.com:1990-09-18:US:F:none:Lisa  Allard
sugarplumlola:tiggerlily:xsophiemasonx@msn.com:1991-06-21:GB:F:none:sophie mmm
sugarplumlolliefaryz:sourgrapez::1992-07-29:AU:F:none:sugarplumlolliefaryz
sugarplumlolliepopp:battl3dom3:thebdbros@yahoo.com:1904-12-09:AW:M:none:Sugar Plum
sugarplumlollipop:casey01:shelbydarlene@hotmail.com:1991-04-10:US:F:204.38.202.91:Shelby
sugarplumloser:(staleeso26):mystery_person8@hotmail.com:1993-02-26:AU:F:121.210.224.186:Stacey
:::::::
sugarplumlove:dude100:enya_gen@yahoo.com:1991-01-02:US:F:24.225.13.18:Angel Park
sugarplumlovebaby:unibabe2008:kaylariche@hotmail.com:1989-02-14:CA:F:142.162.84.231:Kayla
sugarplumlover:blake::1991-12-27:US:F:none:sugarplumlover
sugarplumlucy:lu43365zon:sugarplum_lucy@hotmail.com:1990-04-23:US:F:98.210.211.157:Lucia
sugarplumlullaby:123789456:vg_87@yahoo.it:1987-10-31:IT:F:none:Valentina *
sugarplumm06:whiskers08::2000-07-08:US:F:207.255.211.101:Aimee
sugarplumm08:password08:xxily_bbyxx@yahoo.com:1991-03-09:US:F:74.128.34.92:blahh
sugarplumm10:danielle:sugarplumm10@aol.com:1989-09-04:US:F:none:Danielle Andersen
sugarplumm1098:sugar1998:bookwormm9@aol.com:1995-02-25:US:F:71.49.131.10:Kelly
sugarplumm300:sweet:supergrl314@aol.com:1989-02-14:AQ:F:none:sugar plum
sugarplumm666:devil666::1996-11-09:GB:F:86.130.119.41:Darcie
sugarplumm751:i8hummus:puppymadness94@gmail.com:1993-02-24:US:F:none:adie ilanit
sugarplumm880:97dogcat::2001-01-14:US:F:204.245.32.85:NULL
sugarplumm91:spice++91:sugarangel91@hotmail.com:1990-09-06:PR:F:none:ortiz martinez
sugarplumm99:stablew9::1987-10-28:US:F:none:Aarti Rijhwani
sugarplummack:LMM67::1993-11-17:MG:F:none:sugarplummack
sugarplummagic:honey::1994-01-28:GB:F:none:sugarplummagic
sugarplummaiden:enyasdarkness:heather.flynn@cox.net:1985-12-08:IS:F:Mail from illusen282:Inwe Ancalimon
sugarplummargera:tiger66:izzypop66@sbcglobal.n:1990-01-26:US:F:none:Yazmin Guzman
sugarplummariah:sugarplum1234::2000-03-22:US:F:96.252.36.185:NULL
sugarplummarije:sugarplum12::2001-01-21:US:F:96.252.36.185:NULL
SugarplumMarissa:12curlyb:sugarplumfairy@hotmail.ca:1984-10-26:CA:F:206.116.175.119:NULL
sugarplummari__aa:yomonkey01::1997-12-30:US:F:96.243.107.172:marianna
sugarplummarry:loveit$:sporty_but_crazygirl@hotmail.com:1992-04-10:CA:F:none:Efua AAT-Mensah
sugarplummary:angle79::1997-04-11:CA:F:99.239.35.33:angle
sugarplummary9:sarah2138:muffen@rogers.com:1989-04-11:US:F:72.141.51.227:angle
sugarplummdr:mrogers5121378:sugarplum39851@cox.net:1978-12-13:US:F:98.162.254.75:Melissa Rogers
sugarplummdrop00:polska00:alittlethingcalledmarcie@yahoo.com:1927-06-01:GB6:F:75.0.155.116:Heavenly
sugarplumme:luvat1st:chickychops@bad-candy.com:1985-03-14:SG:F:none:deb teo
sugarplummeg:meggypony23!::2000-04-07:GB:F:78.148.243.229:megz
sugarplummer:chazz111:mememe508@live.com:1963-05-13:AU:F:60.231.198.97:Issy
sugarplummermaid:mermaid44::1998-08-04:AU:F:115.128.5.88:taylah
SugarPlummetje:Cladey12:ais44@live.nl:1997-3-27:NL:F:87.209.185.182:Alicia
sugarplummfaerie:dances:sugarplummfaerie@safe-mail.net:1987-01-02:US:F:none:Sugar Plumm
sugarplummfairy:catdog:lil_monstaz@hotmail.com:1988-01-03::F:none:lucy load
sugarplummie:chloechloe00::1999-06-27:PH:F:121.54.1.2:chloe
sugarplummie2000:bennyboy:what_ever_i_want@hotmail.com:1970-02-12:GB:F:none:DanielleGordon
sugarplummies:ilovemeat88:meatiness@gmail.com:1988-06-12:BZ:F:76.112.240.159:NULL
sugarplummjm:pinkplum::1992-09-23:US:F:none:sugarplummjm
sugarplummm:12889103334me:sugarplummfaerie@hotmail.com:1991-05-13:US:F:none:Sugar Plum
sugarplummmm:parishilton11:musiii_@hotmail.com:1994-02-26:EE:F:84.50.11.128:LAURA
sugarplummmmmmmm:sugarrr11:lauren.mcguire@hotmail.co.uk:1994-01-01:GB:F:62.253.115.173:sugarplummmmmmm
sugarplummonkey:chaos10::1998-07-01:US:F:68.124.31.98:Ariana
sugarplummouse:mr burns::1993-01-01:GB3:F:none:sugarplummouse
sugarplummwah:princess10:lisarogers7@msn.com:1992-02-05:GB:F:86.13.166.38:lisa
sugarplummx:courtney96::1998-02-07:US:F:70.20.219.48:Courtney
sugarplummx3:thumper24:mornhinewaycatherine123@yahoo.com:1995-03-24::F:65.35.36.116:NULL
sugarplummy:juju1229::2000-01-01:US:F:68.36.79.11:
sugarplummy4:sweet:janetfulton10@hotmail.com:1975-10-01:CA:F:none:sugar plum
sugarplummy555:silvanna56::2002-09-05:US:F:72.199.248.243:NULL
sugarplumm_1881:princess12::2000-07-05:PH:F:122.3.223.191:Dani
sugarplumm_sugar:fireandice00::1996-11-09:GB:F:86.130.119.41:Darcie
sugarplumm_sweet:sweet666::1996-11-09:GB:F:86.130.118.26:Darcie
sugarplumn:crunchie99:sugar_plumn@hotmail.com:1990-11-21:NZ:F:118.93.88.25:NULL
sugarplumnatalie:sister7:lilsis4ever15@aol.com:1992-11-15:US:F:none:natalie duffy
sugarplumnatalie7:sister7:crazywildworld3@aim.com:1992-11-15:US:F:none:Natalie Duffy
sugarplumnatty:cincin127:sugarplumnatty@gmail.com:1989-03-11:US:F:71.204.154.218:Natalie
sugarplumneka:fatty1234:waynekerhunt@gmail.com:1991-01-30:BS:F:204.236.91.238:NULL
sugarplumneko:irene::1994-04-12:AU:F:none:sugarplumneko
sugarplumneo:taylor11:renovisions@sbcglobal.net:1993-03-28:US:F:76.223.70.216:gina
sugarplumneobratzz:18600::1993-09-11:US:F:none:sugarplumneobratzz
sugarplumnhan:olivia88:jennknapho@gmail.com:1990-02-23:US:F:173.60.33.231:NULL
sugarplumnkiwikid:Fruit::1992-05-28:US:F:none:sugarplumnkiwikid
sugarplumntonic:curlyfries69:kuniva8@hotmail.com:1990-02-19:GB:F:none:Tonic U
sugarplumoh:maddie02::2002-08-08:US:F:71.186.5.224:Madeline
sugarplumonkey:tUxxNrf2:shortstuff022@hotmail.com:1988-12-17:US:F:66.15.13.129:<u> </u>
sugarplump:fukk69:cenakissedme@yahoo.com:1990-06-29:US:F:none:manda omgweee
sugarplump000:cookie123::1992-12-14:US:F:none:sugarplump000
sugarplump1:candy12::1997-01-17:AU:F:59.100.242.212:Laura
sugarplump12:crazy:prepslittlesis@aol.com:1990-01-31:US:F:none:Maria Telahun
sugarplump128:984038::1993-06-30:US:F:71.37.240.151:sugarplump128
sugarplump13_4:whitelightning12:kassijoe@msn.com:1988-05-30:US:F:none:shelbi smith
sugarplump142:susiewho22:tay_t93@hotmail.com:1988-12-12:CA:F:none:lucy warmac
sugarplump1560:414414::2000-06-16:US:M:92.251.169.169:orla
sugarplump234:kiaraMS10::1999-06-04:US:F:69.126.122.158:kiara
sugarplump456:753357666::1992-06-09:CA:F:none:sugarplump456
sugarplump64:sugar334:p.monkey64@yahoo.com:1991-07-11:US:F:143.88.64.124:Sammy
sugarplump66:babyd14:todo_23d@yahoo.com:1992-12-15:US:F:74.237.150.15:Destinee
sugarplump888:karlie888::2000-03-11:US:F:76.174.79.226:karlie
sugarplump896:happyi98::1998-07-28::F:74.142.198.75:NULL
sugarplumpanda:crazy1116::1992-11-16:US:F:none:sugarplumpanda
sugarplumpanda93:crazy1116::1993-11-16:US:F:none:sugarplumpanda93
sugarplumpangel:rosey52125:angelface_cutiek@yahoo.com:1991-05-01:US:F:none:RuqayyahDaud
sugarplumparv:studd3dsh33p:sarah.jarvis@acafmc.co.uk:1988-01-26:GB:F:none:Sarah ******
sugarplumpatty2442:patty::1992-07-14:US:F:none:none
sugarplumperfection:21frogs:ginchiegurl@yahoo.com:1960-04-15:US:F:70.193.9.68:Kara Stephens
sugarplumpet:adrian12::1998-5-21:PA:F:189.220.35.42:sugerplum
sugarplumpfaerie:xpwx547:killiankrazy@yahoo.com:1991-08-02:US:F:209.158.255.79:Sugar
sugarplumpfairie:Un1versity:easdown15@hotmail.com:1989-06-07:GB:F:none:amy granger
sugarplumpfairy:powerandchaos:sublunarangel@yahoo.com:1982-11-23:GB2:F:none:alex sweetiedarling
sugarplumpfairy78:clueless:sugarplumpfairy@37.com:1978-01-27:PH:F:121.96.127.29:sugar plump
sugarplumpfairysarah:ballet:sugar_plump_fairy1989@msn.com:1989-01-21:CA:F:none:Sarah Cormack
sugarplumphairy:toyota:chubs_422@hotmail.com:1991-09-24:CA:F:none:alex peake
sugarplumpi:stupidhead00:pandemonium3d@yahoo.com:1980-10-31:DJ:F:128.62.173.118:Pooptypants
sugarplumpie:fairy:cutegirlj09@yahoo.com:1990-09-10:US:F:none:jalien smith
sugarplumpie1:piglet:its_my_life101@hotmail.com:1988-07-31:GB:F:none:Tilly McHugh
sugarplumpie145:sugar145:h.sugarplumpie6@yahoo.com:1995-07-13:US:F:67.177.197.161:Emma
sugarplumpie26:EVIL_WITCH:fike1977@bellsouth.net:1977-05-06:US:F:none:shellyfike
sugarplumpie266:kmist97::2000-08-26:US:F:71.103.120.163:Kayllah
sugarplumpie89:kristenlee89:hollywoodflick@hotmail.com:1989-07-29:CA:F:none:sugar plum  pie
sugarplumpie97:yummypie97:juliafantich@gmail.com:1997-03-10:US:F:68.41.169.222:NULL
sugarplumpink:01698748671:pinkitty@gmail.com:1990-04-03:GB:F:Can I be your NeoFriend?:sugarsweet
sugarplumpink123:3142329:sugarplumpink@hotmail.co.uk:1983-09-23:GB:F:90.194.137.185:NULL
sugarplumpirncess999:kitten978::2001-11-19:US:F:96.17.160.38:NULL
sugarplumpixie:sugar:jpalandro@comcast.net:1990-06-12:US:F:none:Tina Palandro
sugarplumpixie1:kaitaann11:blue3yeddreamer@netscape.net:1991-08-19:US:F:69.137.1.98:Faerie
sugarplumpixie2424:bubbles24:steph230487@aol.com:1989-04-24:GB:F:195.93.21.67:stephanie
sugarplumpixie70:missy60207:sugarplumpixie70@yahoo.com:1991-04-15:US:M:none:melissa piechowicz
sugarplumpixies:ejcoolj2k3:rlkeever@comcast.net:1991-03-12:US:F:none:Roxy ......
sugarplumpixxie2008:2008pixxieplumsugar::2001-07-02:US:F:74.254.196.197:NULL
sugarplumpj:junior11::1996-02-02:NL:F:84.81.35.213:Jennifer
sugarplumpkin:November02:x.xsweet-harmonyx.x@hotmail.com:1979-06-04:GB:F:86.6.7.27:talulah
sugarplumplum:leah123::2001-12-30:US:F:71.113.246.60:Leah
sugarplumplum2:234yes:ragamiga@yahoo.com:1983-02-02:IE:M:none:sgffhgj gnhmn
sugarplumplum22:guillem22:mguillem22@hotmail.com:1993-04-11:US:F:174.58.27.122:NULL
sugarplumplumfairy:nutcracker*:svoneschen@aol.com:1905-09-07:US:F:none:Mandie von Locksley
sugarplumplump:nannie12::1996-08-18:US:F:72.216.60.32:Anna
sugarplumplumpfariy:28120726:choccy05@hotmail.com:1993-08-12:NZ:F:222.155.7.136:grace
sugarplumplum_5:shanyn99::1999-01-08:US:F:67.246.96.123:shanyn
sugarplumpom:122787:tool82gb@aim.com:1987-12-27:US:F:none:Justine Arbogast
sugarplumpoo:ronaldinho:jameshowell2005@hotmail.co.uk:1986-02-02:GB:M:none:roo roo
sugarplumpop16:candy16:animalsmatter@sbcglobal.net:1990-09-16:US:F:none:Sugar Plum
sugarplumpower:m1ssycat:my-neopets@hotmail.co.uk:1993-01-07:GB:F:201.45.71.86:katie marriner
sugarplumppie:n1o2o3r4:noor.hamade@hotmail.com:1997-01-26:QA:F:78.100.197.191:NULL
sugarplumprettybum:miabeth::1994-09-02:GB:F:Mail from sugarplumprettybum:sugarplumprettybum
sugarplumprettybum1:Steve123:mia.honey@hotmail.co.uk:1993-09-02:GB:F:90.194.133.143:Claire Redfield
sugarplumpric:coolgal::1991-12-11:US:F:Battledome Challenge:sugarplumpric
sugarplumprince818:newy0rk93:cellogoddess818@gmail.com:1993-03-13:US:F:24.153.223.123:Brady
sugarplumprince81810:towtruck00:cellogoddess818@gmail.com:1993-03-13:US:M:70.123.149.223:Brady
sugarplumprincess:furtado:sugarplumprincess317@hotmail.com:1990-07-11:US:F:Mail from pineapple_em:Sugar Plum Fairy
sugarplumprincess102:thatsme7::1993-07-14:IL:F:none:sugarplumprincess102
sugarplumprincess111:Family1st:sugarplumfairy111@hotmail.co.uk:1986-04-09:GB:F:none:Sibel  Turgut
sugarplumprincess122:lamb*::1994-02-06:US:F:24.127.96.229:sugarplumprincess122
sugarplumprincess126:ssmm7905::2002-11-30:CA:F:209.18.39.87:NULL
sugarplumprincess127:bundchen22:nameless737@yahoo.com:1947-10-10:US:F:67.160.215.59:Heather
sugarplumprincess13:judethecat13:superfringe13@hotmail.co.uk:1993-12-16:GB:F:86.146.193.251:stephanie
sugarplumprincess131:sweety::1992-10-03:US:F:none:sugarplumprincess131
sugarplumprincess16:angelprincess::1993-03-25:CA:F:none:sugarplumprincess16
sugarplumprincess17:jenny::1993-04-17:US:F:none:none
sugarplumprincess179:okiland14:marie_1217@hotmail.com:1989-12-17:JP:F:210.233.200.92:That one girl     you know with the face
sugarplumprincess198:dothacker69:vampiregirl198@yahoo.com:1990-02-01:US:F:76.98.78.204:Janus
sugarplumprincess199:ginger11:lilo_lacson@yahoo.com:1990-08-11:PH:F:122.2.47.165:lilo
sugarplumprincess2:mccalister15:sweetcee78@comcast.net:1910-06-17::F:24.17.50.231:NULL
sugarplumprincess200:inouno1:spank_me13_51@hotmail.com:1991-07-08:GB:F:none:sammi parker
sugarplumprincess203:jackson:buddiebugs10@aol.com:1989-10-31:US:F:none:Rachel Hamilton
sugarplumprincess220:michele:kinger_01@hotmail.com:1988-06-22:CA:F:none:Kaela King
sugarplumprincess239:kissme:xxsno_babyxx@hotmail.com:1989-07-04:CA:F:none:kirsten paterson
sugarplumprincess24:synergy:dancer_24_nyb@hotmail.com:1989-09-09:US:M:none:Caren J.
sugarplumprincess309:sugarbabe12:pst40@aol.com:1990-07-10:US:F:acceptance:Kate  Johnson
sugarplumprincess331:cancer1012:starcrush36@hotmail.com:1990-07-11:US:F:66.96.77.102:naomi stanley
sugarplumprincess332:cancer1012:jew.girlisme@gmail.com:1993-07-11:US:F:66.96.77.102:Lanya
sugarplumprincess35:chris17:prettynsweetprincess@hotmail.com:1992-05-04:US:F:67.132.243.217:Lex Bishop
sugarplumprincess411:Bing0::1994-02-06:US:F:none:sugarplumprincess411
sugarplumprincess44:4586988::2002-07-23::F:75.66.165.178:NULL
sugarplumprincess6:cannon12345:rain.bow.xo@hotmail.com:1987-06-07:CA:F:67.204.16.106:Sifa
sugarplumprincess62:candygirl62:prybutok@charter.net:1996-11-26:US:F:71.15.115.149:sugarplumprincess62
sugarplumprincess622:paulandjenna1:harryandjenna@walla.com:1988-10-06:US:F:none:Mia Setonto
sugarplumprincess66:96797:princessninetyto@aol.com:1990-09-16:GU:F:none:Erin Alysse Lowe
sugarplumprincess7:jaidorsey10::2004-01-24:US:F:69.255.127.150:NULL
sugarplumprincess700:kuma5:warriorcat4life@yahoo.com:1962-01-23:US:F:none:horse lover
sugarplumprincess752:whiskermouse59::1995-11-29:GB5:F:88.111.124.156:darcy
sugarplumprincess77:banaz::1992-02-16:US:F:none:sugarplumprincess77
sugarplumprincess8:jasmine::1994-06-23:US:F:none:sugarplumprincess8
sugarplumprincess836:kathryn:xxzoexx1234@hotmail.com:1990-09-24:US:F:212.139.126.226:zoe zoe
sugarplumprincess87:jahnear:pjsparkles87@msn.com:1987-09-09:US:F:none:Prinnie Powell
sugarplumprincess88:berniethebunny:fuzzypinkslippers_99@hotmail.com:1988-07-13:CA:F:none:Leah  Sooley
sugarplumprincess914:silly8:ktc_fit_porcupine@msn.com:1988-04-30:GB:F:none:none
sugarplumprincess94:4656550089C:gumbyroxmysox@hotmail.com:1994-03-24:AU:F:202.45.105.4:Brooke
sugarplumprincess968:style:www.irishtapshan@aol.com:1987-05-22:US:F:none:shae tape
sugarplumprincess98:Barbie::1993-01-07:GB:F:none:sugarplumprincess98
sugarplumprincess987:rina12:little_violet24@yahoo.com:1993-11-09:US:F:76.227.246.162:SugarPlumPrincess987
sugarplumprincess99:scrappydoo12::1999-07-08:US:F:66.69.70.250:caitlyn
sugarplumprincess991:bumblebee:lollipop_princess_991@msn.com:1989-10-26:CA:F:none:princess alexa
sugarplumprincess999:kitten99::2001-11-19:US:F:71.232.75.42:emily
sugarplumprincessabc:plumabc:tonyt@eftel.com.au:1963-01-21:AU:F:none:elena and ellen
sugarplumprincessbar:peetree:butterfingers_queen@hotmail.com:1990-11-04:US:F:Can I be your NeoFriend?:Jiselle Klayden
sugarplumprincessel:mollmoll01::1995-10-20:AU:F:211.28.56.163:eleanor
sugarplumprincessrs:stephroz12:rozzieisthebest@hotmail.co.uk:1982-04-01:GB:F:80.42.74.219:steph roz
sugarplumprincess_12:kmkans::1992-08-20:US:F:72.161.70.159:sugarplumprincess_12
sugarplumprincess_1_:fuckyou1:skaterchops@aol.com:1985-01-29:GB:F:none:kelsey chalmers
sugarplumprincess_22:710524::1999-09-22::F:115.75.159.248:NULL
sugarplumprincess_5:kiara1006:ashenbergs@yahoo.com:1996-10-06::F:216.105.208.2:NULL
sugarplumprincess_8:123yourdead:skaterchops@aol.com:1983-01-29:GB:F:none:kelsey chalmers
sugarplumprincess_92:chicken1:craigrush666@aol.com:1992-03-26:GB:F:none:Amber Chapman
sugarplumprincess_th:123tif:sugarplumprincess-tifererse@hotmail.com:1992-08-11:GB:F:none:Tifererse Hobbs
sugarplumprincess_ti:123tif:sugarplumprincess-tifererse@hotmail.com:1989-08-11:GB:F:none:Tifererse Hobbs
sugarplumprincess_x:passion96:x-kyla-x96@hotmail.co.uk:1996-08-10:GB:F:92.232.136.81:Kyla
sugarplumprincezz:brewer:kimb08@aol.com:1990-01-21:US:F:none:Kim ?
sugarplumprincezzkim:brewer:kimb08@aol.com:1990-01-21:US:F:Mail from galactic_gummi:Kim ?
sugarplumprinc__38:4586988::2002-06-23:US:F:75.66.165.178:halie
sugarplumprinsess:mrgr1nch1:claudiaj010706@yahoo.com:1990-08-18:US:F:99.141.2.12:claudia
sugarplumprinsses:fuzzbuzz123::1998-11-12:CA:F:99.249.245.221:Sarah
sugarplumprin__50:clover11::1996-09-06:AU:F:60.230.210.200:talisha
sugarplumps:lilli2003:ducki05@yahoo.de:1989-10-12:DE:F:none:Sugarplum Fairy
sugarplumpudd1998:v3xj6l44::1998-04-02:GB:F:81.154.93.0:Freya
SugarPlumPumpkin:casper11:sugarplumsweetlove@gmail.com:1995-06-04::F:24.115.138.200:NULL
sugarplumpunkin:wavepool:orcababyz@aol.com:1987-12-24:US:F:none:Sugar Plum
sugarplumpup:orwell888::2002-03-12:US:F:118.231.121.193:NULL
sugarplumpuppy:harmony:hellokitty_candy@hotmail.com:1974-10-02:CA:F:none:sugarplumpuppy
sugarplumpuppy22:21094::1994-02-10:US:F:none:sugarplumpuppy22
sugarplumpurple:01248mariah::2001-01-13:US:F:74.218.23.134:Mariah
sugarplump_fairy:ginger13:karencuthill@tesco.net:1987-10-23:GB6:F:none:emzy cuthill
sugarplumqt207:sugarbabe207:sugarplumqt207@yahoo.com:1993-03-08:US:F:none:Danielle Robinson
sugarplumqt337:justin:cutedolly65@hotmail.com:1986-09-26:US:F:none:cutie pie
sugarplumqtpi:4meUdied:anglswinks@aol.com:1942-02-18:US:F:none:Terri Cantrell
sugarplumqueen:sugarbite101:fruitytootygirl@hotmail.co.uk:1988-05-14:GB:F:195.92.67.66:Meg Donovan
sugarplumqueen101010:missy10::1998-06-10::F:97.117.131.15:NULL
sugarplumqueen27:kitten12:c_reynaud@yahoo.com:1986-10-27:US:F:98.192.81.221:NULL
sugarplumqueen7:bubbles::1993-03-06:US:F:96.225.199.199:none
sugarplumrandl:fafa08::1999-09-07:US:F:24.16.229.17:Robyn Lillie
sugarplumrayahjuly2:rayahmomarsjuly2:snowangel26@myway.com:1982-04-03:US:F:none:Claudia Abasta
sugarplumred08:sugar:cutelilbrat19@aol.com:1985-04-06:US:F:none:Laura Long
SugarplumRegen:iaml33t:miss-evey@hotmail.com:1985-12-22:US:F:71.249.112.178:NULL
sugarplumrevenge:mrlittle:cutt_too_deep@yahoo.ca:1991-12-11:CA:F:none:revenge
sugarplumriderxxx:newyork123:lizzie15@hotmail.co.uk:1977-10-15:GB:F:81.157.181.204:elizabeth
sugarplumringtheif:soupbowl:snapeysooby@yahoo.com:1983-02-12:US:F:none:mARY MARY
sugarplumrocker:kiwilipgloss::1993-08-30:CA:F:none:sugarplumrocker
sugarplumrockfairy:rocker1:home@wilsonbott.co.uk:1992-08-16:GB:F:none:Melanie Bott
sugarplumrose:tanjie!:ikiwi_blitz@hotmail.com:1991-11-17:CA:F:66.131.103.49:Tram Anh Rivard
sugarplumrose19:peppamint1993:angelbabya93@aol.com:1992-02-11:US:F:none:Amy Mark
sugarplumrosey:marilyn12::2002-06-18::F:71.123.199.80:NULL
sugarplumrox101:piggy77::1998-01-01:AU:F:58.111.178.232:jaymee
sugarplumrules:butterscotch22:sibbles4@cs.com:1990-07-22:US:F:none:Anna
sugarplumrush:a1354m35:sugarplumrush@yahoo.com:1987-08-10:PH:M:121.54.1.3:Mark Anthony
sugarplums:ch3rry:poseformedahling@yahoo.com:1993-01-17:US:F:none:back stage YO!
sugarplums004:bloo7:vpalacios@bellsouth.net:1992-10-11:US:F:none:victoria palacios
