sugar_babe68:amadeus0768:stph_cristobal0768@hotmail.com:1989-01-23:PH:F:203.92.13.238:Stephanie Nicole M. Cristobal
sugar_babe69109:sweet::1990-11-26:AU:F:none:sugar_babe69109
sugar_babe7:nolan_moore:j_kwan_18@hotmail.com:1991-02-07:CA:F:24.80.12.100:Jessica Kwan
sugar_babe718:14times_::1987-09-25:CA:F:76.70.94.12:Vero Leclair
sugar_babe72:comp12:jocelynv9@hotmail.com:1990-02-06:CA:F:72.141.191.189:jocelyn
sugar_babe73:mitch:helpme_im_blonde@hotmail.com:1986-01-11:AU:F:none:brooke
sugar_babe731:bikebike::1992-08-15:US:F:none:none
sugar_babe75:blochs::1992-12-15:AU:F:none:sugar_babe75
sugar_babe7714:mellow:sugar_baby_714@hotmail.com:1984-11-07:CA:F:none:sarah jagger
sugar_babe773:interesting:canadian_kickass_chick@hotmail.com:1985-04-07:US:F:none:*Meg Hansell
sugar_babe77314:5760588:brat_child_forever69@hotmail.com:1989-02-15:US:F:none:Brittniey Fouts
sugar_babe785:popgal*:naughtie_nabs@hotmail.com:1991-03-04:CA:F:none:Nabila Esmail
sugar_babe79:q1w2e3r4t5!:melaniekastner@alice-dsl.de:1991-01-07:DE:F:85.180.4.197:lisa
sugar_babe79172:suga79172::1992-06-17:US:F:none:sugar_babe79172
sugar_babe800:herbie11:giarobinson7@msn.com:1984-05-01:GB:F:none:georgia_da_sweetie
sugar_babe808:hitlerstinkz:devilgurl808@hotmail.com:1986-10-30:US:F:none:Kuokalani Fox
sugar_babe8186:81863690:angel_babe8186@yahoo.com:1990-03-06:US:F:none:Holly West
sugar_babe820149:bikebike:hannah820149@hotmail.com:1988-04-18:US:F:none:ashley jade
sugar_babe8382004:keepitreal:suagr_babe8382004@yahoo.com:1986-11-13:US:F:none:nicole boggs
sugar_babe852:852456753951:nickimouse1470@hotmail.com:1992-04-02:AU:F:none:Nicole Thomas
sugar_babe8520:123789456:nickimouse1470@hotmail.com:1992-05-02:AU:F:none:nikki schwengler
sugar_babe88:scooter88:mighty_migit88@hotmail.com:1988-12-08:US:F:97.85.33.82:rachal
sugar_babe886:dustyjet::1992-10-23:GB:F:none:amber  donald
sugar_babe888_2:hotguysrock:sugar_babe888_2@yahoo.com.au:1989-05-12:AU:F:none:rita dawood
sugar_babe9:0432165344::1993-05-06:AU:F:none:sugar_babe9
sugar_babe9101:dagger93:paws9101@yahoo.com:1986-10-13:US:F:none:sugar_babe9101
sugar_babe911:canada2525:sugar_babe25@hotmail.com:1990-09-01:CA:F:none:Emma Bonomo
sugar_babe920:Potsie Nose Goblin:sugar_babe920@yahoo.com:1901-12-26:US:F:none:ihavenoname
sugar_babe92_92:159159:anni_98@safe-mail.net:1991-01-01:FI:F:none:Annika Brooke
sugar_babe93:scruffy93:sugar.babe93@live.com.au:1993-02-10:AU:F:123.100.38.38:Tiffany
sugar_babe939:kokanee:sugar_baby939@hotmail.com:1988-02-19:CA:F:none:Tricia Brown
sugar_babe94:ballet:oliviasweet94@hotmail.com:1991-05-17:CA:F:none:Olivia Assouad
sugar_babe95:1995929:wdgu2005@hotmail.com:1988-09-29:AU:F:none:sugary icicle
sugar_babe96:owen4nick:buddybear@fsmail.net:1990-12-05:AU:F:none:jessica *********
sugar_babe962:bailey01:steph.ferraro@hotmail.com:1989-06-01:CA:F:131.104.245.193:bailey
sugar_babe9696:53201:cierrahufford@san.rr.com:1984-07-24:US:F:none:!?!?!?!?!? !?!?!?!?!?!?
sugar_babe97:bestie00:delveen29@hotmail.com:1989-03-09:AU:F:120.18.55.122:krystal
sugar_babe99:chatter2:chickenmiclicken@hotmail.com:1989-08-08:AU:F:none:suzi simpkin
sugar_babe995:andrea1:mjkay@shaw.ca:1987-03-17:CA:F:24.67.253.203:No one knows No one cares
sugar_babe996:ilypedro96:hola_bamm@yahoo.com:1991-10-03:US:F:75.177.157.87:Bree
sugar_babe9981:chubs:baby4u_16_01@hotmail.com:1991-04-07:US:F:none:Marissa Doege
sugar_babebee:sugarbee::1993-08-10:NZ:F:none:sugar_babebee
sugar_babee:AM16anda:sugar_babee97@yahoo.ca:1988-07-22:CA:F:none:Lady Satan
sugar_babee0110:girlfriend:sugar_babee0110@hotmail.com:1990-01-25:AU:F:Mail from theneopetsteam:blah blah
sugar_babee12:mercadez:evilchick_776@hotmail.com:1991-06-20:US:F:none:Mercadez Purdue
sugar_babee17:magnum1:adorable_blonde2002@msn.com:1986-11-07:CA:F:none:maggie
sugar_babee49:danah:spinning_thru_space@hotmail.com:1984-06-04:AR:F:Mail from theneopetsteam:Gina Lee
sugar_babee757:sunshine:derrydude55@hotmail.com:1989-03-19:US:F:none:dude ette
sugar_babee93:iloveyou1:danz_d@hotmail.com:1987-07-08:US:F:130.63.210.180:Mickey Mouse
sugar_babee_101:carlie123::1997-05-28:AU:F:121.217.215.39:Tiarna Carlie
sugar_babee_212:carmel:neopet-staff-@hotmail.com:1980-09-22:CA:F:none:sugar kandy
sugar_babee_9:happyluv::1987-09-09:US:F:none:candy Blistch
sugar_babee_p1nk:lolipop:azn_chiq13@hotmail.com:1991-06-13:CA:F:none:darlenenguyen
sugar_babee_xoxo:iluvpaul:sugar_babee_xoxo@yahoo.ca:1986-02-20:CA:F:none:Carly C
sugar_babeno_1:anoif:shazzet@aol.com:1989-05-07:GB:F:none:charlette  mclachlan
sugar_babes:August_12th:candy4_me@hotmail.com:1986-08-22:MY:F:none:YuKiMiNeKuRa
sugar_babes07:LOSATEO07:hoty_delux@hotmail.com:1991-04-20:AU:F:136.153.2.6:Emma
sugar_babes153:leann52:sugarbabes1064@yahoo.com:1993-08-25:US:F:99.137.23.68:Brandi
sugar_babes22:eischeid22:chianneeischeid@yahoo.com:1998-02-22:US:F:173.17.211.5:NULL
sugar_babes2222:alexandra:midnite_princess14@yahoo.com:1980-03-14:US:F:neofriend:Abby Summers
sugar_babes235:chaniva:smiley45_34@hotmail.com:1987-07-10:CA:F:none:Chaniva Webkan
sugar_babes40:funluver::1992-03-30:GB:F:none:none
sugar_babes470:lottie:sellc003@hotmail.com:1991-05-29:US:F:none:lottie sellwood
sugar_babes5687:iluvleslie69er:kandybabe908@hotmail.com:1993-02-26:GB:F:none:nicole james
sugar_babes7:ricxss:sugar_babes7@hotmail.com:1981-12-25:PH:F:none:Edyzeth Christine Anne Francisco
sugar_babes7000:sugar7000::1993-06-15:AU:F:none:sugar_babes7000
sugar_babes93:charlie2:gabby_fogg@btinternet.com:1987-05-15:GB:F:none:gab fogg
sugar_babessss:gaby123::1998-08-03:GB:F:90.215.81.190:gaby
sugar_babesx:millie10::1998-04-03:GB:F:92.6.234.74:NULL
sugar_babes_2259:naomi:sk8ers4eva8@hotmail.com:1978-09-09:AU:F:none:mel anie
sugar_babes_4eva_101:luisa92:vanessaluisa92@hotmail.com:1990-11-22:AU:F:none:sugar babe
sugar_babes_619:SUGARBOOBOO:booboo_princess@hotmail.com:1985-03-15:US:F:none:ALEXIA ZIGGY
sugar_babes_beauty:beauty18:julinious@hotmail.com:1991-03-01:KN:F:204.19.202.232:Miranda
sugar_babes_girl:buffyfan::1993-07-03:GB:F:none:sugar_babes_girl
sugar_babes_luv:uptowngirl123::2000-07-16:ZA:F:196.207.40.149:alara
sugar_babexoxo1:muthafucka1:sugar_babexoxo@hotmail.com:1987-07-30:US:F:69.81.118.21:Theresa Kerner
sugar_babexx13:1234l:xiong-lizzy@yahoo.com:1990-11-05:US:F:none:Lizzy xiong
sugar_babexxx:yoman:laura@blueyonder.co.uk:1990-07-27:GB:F:none:Laurs Riordan
sugar_babexxxx:gaby123::1998-08-03:GB:F:90.207.26.187:Gaby
sugar_babey:angela::1991-08-14:CA:F:none:sugar_babey
sugar_babey12:20zena07:hiphoppin_paige@hotmail.com:1991-07-18:CA:F:69.157.56.13:Paige
sugar_babey2008:hitlerstinks::1984-10-30:US:F:none:kate fox
sugar_babey69:Rachii:skatie_babe69@hotmail.com:1989-12-19:AU:F:none:Rachii  Starry
sugar_babey_001:wazosis:sugar_babey_001@yahoo.com:1988-02-18:AU:F:Acceptance:Adrienne Louise
sugar_babey_18:harvey21:belge4ever@yahoo.co.uk:1993-09-23:GB:F:79.64.126.235:Emz
sugar_babez:cheap1:tweetyrox098@hotmail.com:1993-04-24:AU:F:124.185.155.42:Foxy Loxy
sugar_babez000:sugahbabez000:cheytru87@yahoo.com:1956-01-01::F:120.28.252.187:NULL
sugar_babez04:izzi1::1993-11-04:AU:F:none:sugar_babez04
sugar_babezs:beziguen33:carmindasantos42@hotmail.com:1993-02-03:PT:F:213.138.251.118:sara
sugar_babez_007:chelsea::1992-04-24:CA:F:none:sugar_babez_007
sugar_babez_6t9:madskillz1:baby_gurl_4_lyfe1@hotmail.com:1992-05-12:CA:F:none:Cheyanne T
sugar_babe_:sugarsweet:sweetcat810@yahoo.co.uk:1991-10-08:GB6:F:none:baby lozza
sugar_babe_001:sweetthang::1992-10-15:CA:F:none:sugar_babe_001
sugar_babe_001927:punkgirlrocks1:zbigniewwojtkowski@sbcglobal.net:1985-10-19:US:F:none:Karen Wojtkowski
sugar_babe_005:**gracie**::1992-10-16:GB:F:none:sugar_babe_005
sugar_babe_007:jamie123:jamie-marie@hotmail.de:1995-02-23:DE:F:79.193.182.154:Jamie
sugar_babe_008:samson::1993-07-08:SG:M:none:sugar_babe_008
sugar_babe_010103:010103:hazel@tanglewood.co.nz:1989-07-12:NZ:F:none:Hazel George
sugar_babe_011:roxypro1:sugar_babe_011@hotmail.com:1992-03-29:AU:F:none:Hayley Room
sugar_babe_02:teddy0:foxy_chic09@hotmail.com:1988-07-07:CA:F:none:Sara P
sugar_babe_0690:coolcool:jiggy_chick_69@hotmail.com:1989-05-25:CA:F:none:mireille grecco
sugar_babe_06_07:roxychic5:funky_monkey555@msn.com:1993-01-04:AU:F:none:Bec Unknown
sugar_babe_0893:nick09:booberbear9304@yahoo.com:1993-06-29:US:F:98.215.144.97:Elyssa
sugar_babe_1:macaroni666:Death_Inc_Music@yahoo.com:1992-08-13:US:F:207.200.116.67:Sam
sugar_babe_101:jessica22:sugar-babe.1@hotmail.com:1993-07-06:AU:F:124.191.179.90:Jessica
sugar_babe_108:sugarbabe::1993-05-08:AU:F:none:sugar_babe_108
sugar_babe_10_13:fashion101::1992-12-31:CA:F:none:sugar_babe_10_13
sugar_babe_11:popcorn:jessdidica@msn.com:1987-09-11:CA:F:none:Sugar Babe
Sugar_Babe_115:loveyou456:iinga123@info.lt:1995-05-05::F:88.223.49.40:NULL
sugar_babe_1175:sugarbabe11:samcalver11@hotmail.com:1990-09-27:GB:F:none:samantha calver
sugar_babe_11_hjv:Jayde11:Hannah_Jayde_Vaux11@hotmail.com:1990-02-21:AU:F:121.220.88.155:Hannah
sugar_babe_1214:sugar25::2000-07-03:US:F:174.17.94.81:adessa
sugar_babe_1222:sugarlips:canine_41@yahoo.com:1982-05-11:GB:F:none:paris johnson
sugar_babe_13:denimay13::1996-12-13:AU:F:121.220.217.18:Deni
sugar_babe_139:123wowie123:usher_rules_@hotmail.com:1990-06-06:AU:F:none:Rachel
sugar_babe_17:orange:kate17307965836@aol.com:1988-05-02:DE:F:none:Julia Bollig
sugar_babe_19:rebekkah10::2000-12-19:AU:F:58.108.49.147:Rebekkah
sugar_babe_1993:Sugar_shoe:sugar_babe_1993_27@hotmail.com:1987-03-27:AU:F:none:Aim\ee B
sugar_babe_1994904:horsome333:caseym@internode.on.net:1988-08-09:AU:F:none:Ask_me! Ask_me_again!
sugar_babe_1995:20130497c::1995-07-30:US:F:69.254.237.110:Codie
sugar_babe_1996:kina1996:bianca_aka_kina_1996@hotmail.com:1995-06-01:AU:F:203.214.93.46:Bianca
sugar_babe_19_95:crystal1995:crystal_loves_ari@hotmail.com:1995-05-14:AU:F:58.169.165.122:crystal
sugar_babe_1_6:girlfriend::1992-04-18:AU:F:none:sugar_babe_1_6
sugar_babe_2000:ilovehorses:rach00@talk21.com:1985-12-12::F:none:Rachael moore
sugar_babe_2005866:happygirl:volly_babe_2005@yahoo.com:1990-01-07:US:F:none:amber Auld
sugar_babe_2007:LOVE1992:jokester12006@yahoo.com:1988-05-12:US:F:none:kayla hartsoch
sugar_babe_2010:chelsie:chelsie_angel_hottie08@hotmail.com:1991-01-14:US:F:none:Chelsie Rowden
sugar_babe_21:boxer:purpledragon41593@yahoo.com:1983-04-15:US:F:none:Haily  mathers
sugar_babe_21__tt:1_heda_1:sugar.babe.21@hotmail.com:1993-02-11:AU:F:121.220.88.155:jayde gupwell
sugar_babe_227:ilovelee::1992-04-21:GB:F:none:sugar_babe_227
sugar_babe_23:teehee1:sugar_babe_14_4@hotmail.com:1991-03-03:CA:F:70.70.13.224: black eyedd peas rule !
sugar_babe_233:chippy:zozo12121318@hotmail.com:1990-05-04:GB:F:none:Zoe Gooding
sugar_babe_24:pounce2000::2000-01-24:GB:F:81.152.73.42:NULL
sugar_babe_247:leroy:chic_a_dee_4eva@hotmail.com:1987-12-26:AU:F:acceptance:Jessica Lotz
sugar_babe_2_2:anna_pavot22:sugar.babe.22@hotmail.com:1993-10-12:CA:F:none:Anna Pavot
sugar_babe_3:sivaji92:green_ggc@yahoo.com:1992-10-05:MY:F:203.106.49.130:greeny
sugar_babe_420:homie56:tiggerface99@yahoo.com:1991-07-11:US:F:75.138.201.181:Heather Vance
sugar_babe_420_666:homie56:tiggerface99@yahoo.com:1991-07-11:US:F:75.138.201.181:Heather Vance
sugar_babe_44:ILVCODY:spda@aol.com:1980-04-28:US:F:none:Jennifer Kumpala
sugar_babe_44203:star22:sophsta4@hotmail.com:1973-03-22:NZ:F:none:sophie smith
sugar_babe_4444:shabidon:elephnt_lover_4@msn.com:1991-07-25:CA:F:none:Lexi Chabidon
sugar_babe_48:kimmy1988*:sugar_babe_48@hotmail.com:1988-03-31:AU:F:220.245.62.231:kim scott
sugar_babe_4eva:pause54:kyles_lil_babe_4eva@yahoo.com:1991-07-23:US:F:none:Ashley Smith
sugar_babe_4eva_more:bffl12:sexy_ass_4eva@hotmail.co.uk:1992-10-26:GB:F:none:im cute AND im funny!
sugar_babe_4_ever:merle:suagr_cutie_101@hotmail.com:1988-06-04:US:F:none:candy  daiz
sugar_babe_500:summer::1993-07-07:CA:F:none:sugar_babe_500
sugar_babe_5000:sky5fliyer:amy.compton@hotmail.co.uk:1987-09-18:GB:F:none:amy compton
Sugar_babe_501:130499::1999-04-13:US:F:79.67.92.103:NULL
sugar_babe_55:evelin01:abbiec395@aol.com:1992-11-14:US:F:12.217.70.78:Evelin
sugar_babe_55345:carla:lil_angel065@hotmail.com:1989-04-06:CA:F:none:Carla Tapo
sugar_babe_556:carlyn12:sugar.babe.556@hotmail.com:1984-11-15:CA:F:24.207.13.135:Koby
sugar_babe_560:princess:sugar_babe_560@hotmail.com:1991-02-28:AU:F:none:sugar babe
sugar_babe_619:honeylove_L3::1994-01-28:US:F:none:sugar_babe_619
sugar_babe_626:rayron626:jrjarnesky@yahoo.com:1990-06-26:US:F:24.161.138.194:madison
sugar_babe_64:lalala::1992-09-11:CA:F:none:sugar_babe_64
sugar_babe_660:table75:sugar_babe_660@hotmail.com:1987-10-09:US:F:128.171.37.142:adrienne jacobs
sugar_babe_666:nibbles112::1998-05-01:GB:F:77.99.43.99:Siana
sugar_babe_681:grandma:katie_chloe@hotmail.com:1980-10-26:AU:F:Acceptance:chloe rumble
sugar_babe_699:charlene:pink_babe_69@hotmail.com:1990-08-20:NZ:F:none:rebecca  rijk
sugar_babe_75:lovebug123::1999-06-16:US:F:97.120.87.246:makenna
sugar_babe_778:dolphin:hhhhhhh@aol.com:1986-06-08:GB7:F:none:M!n@
sugar_babe_818:slim818:butterfly_kizzez_818@hotmail.com:1992-05-06:US:F:none:hannah kiefer
sugar_babe_87:993137:sexysteph4eva@hotmail.com:1987-11-15:GB:F:none:sugar babe
sugar_babe_900:sugar:sexybabe_cutiepie21@hotmail.com:1990-07-30:AU:F:none:Maddie Polson
sugar_babe_909_xx:ilovepan1999::1999-05-11:GB:F:80.1.111.20:kaya
sugar_babe_91:baby_ooo:princess_roxxie@hotmail.com:1990-07-24:CA:F:none:britany patchett
sugar_babe_9123:money987:money_honey_184@yahoo.com:1993-05-15:US:F:68.211.157.88:Shelby Coffin
sugar_babe_913:1991babe:netballbabe91@hotmail.com:1991-10-03:AU:F:none:Dana Tropea
sugar_babe_92:bonniebe::1992-07-04:AU:F:Offer Made on Lot:sugar_babe_92
sugar_babe_9250:litlemia1:taylor34xo@netscape.net:1988-01-05:US:F:none:Danielle Landooni
sugar_babe_93:dolly93::1993-11-20:AU:F:none:sugar_babe_93
sugar_babe_98_ally:alexandra98::1998-07-05:AU:F:122.107.234.95:aaa
sugar_babe_99:ROONEY12::1997-01-20:GB:F:84.69.156.66:mel
sugar_babe_99867:lovetommy2:under_broken_stars@hotmail.com:1987-09-02:CA:F:174.3.14.132:Cory Hyggen
sugar_babe_age13:sophie:patonlj@hotmail.com:1986-09-28:GB:F:none:sophienattrass
sugar_babe_amy:thompson!:flossypop@msn.com:1991-06-14:GB:F:none:Amy T
sugar_babe_ash:Ashley11:ash_k_angel@hotmail.com:1991-10-27:US:F:75.167.183.181:Ashley
sugar_babe_beacher:3746111:sagitara@praize.com:1990-12-05:US:F:none:Karol Ricks
sugar_babe_beka:sasha:x_grey_faerie_x@hotmail.com:1992-03-19:AU:F:none:Rebekah Kleesh
sugar_babe_beth734:apple44::1993-12-13:AU:F:none:sugar_babe_beth734
sugar_babe_cutie:sugary97::1997-07-29:AU:F:124.182.130.12:Hala
sugar_babe_dance_que:50505:sparkly_star_2@hotmail.com:1991-04-30:GB:F:none:Jessica Hoskins
sugar_babe_dick:sugar::1994-04-28:NZ:F:none:sugar_babe_dick
sugar_babe_diva:virgo:mebehippy@yahoo.com:1989-08-23:US:F:68.112.173.171:Sugar
sugar_babe_f23:pizzalol12:major_attitude911@hotmail.com:1993-02-23:CA:F:none:Sab Beaton
sugar_babe_fairy:mewa :)::mewa :):mewa :):mewa :):mewa :):mewa :)
:::::::
sugar_babe_fan:sugar::1993-08-03:GB:F:none:none
sugar_babe_girl:k0olk0olk0ol:strawberry_bliss19@yahoo.com.au:1991-07-19:AU:F:60.242.39.46:Nancy
sugar_babe_gurl65:yoyoyo::1993-05-09:NZ:F:none:sugar_babe_gurl65
sugar_babe_hottie:showercurtain2:sophia0liu@gmail.com:1988-01-13:VA:F:none:s l
sugar_babe_hunny:eminem4:soccer_4_bug@hotmail.com:1984-04-21:BS:F:none:britney bynoe
sugar_babe_is_back:gr8m8f8:lalor@exemail.com.au:1989-03-04:AU:F:220.233.113.48:alicia
sugar_babe_is_me:Sugar:heatashkandi@hotmail.com:1985-04-21:SA:F:none:Nonameplease
sugar_babe_j:alandbeano22:ju_bby@hotmail.co.uk:1970-09-30:GB:F:86.142.206.152:j
sugar_babe_jam01:mandyjaide01:mandyveegee@hotmail.com:1993-06-29:AU:F:none:Amanda Van Grinsven
sugar_babe_k8t:missmufet:twix_rules@hotmail.com:1990-01-05:AU:F:Mail from theneopetsteam:katie-lee Cassingham
sugar_babe_kitten:Elivanbach:puppygrrl92@msn.com:1984-08-11:US:F:Mail from lyrasilvertougne:Kellie  Hopkinson
sugar_babe_lily:iluvu@:surfin_chic.no.1@hotmail.com:1993-08-10:AU:F:none:lily-rose warnes
sugar_babe_love:coconut:fluffy_cloud_9@hotmail.com:1990-01-16:CA:F:none:me angel
sugar_babe_love_u:056803018:astek@bezeqint.net:1989-06-29:IL:F:none:lirona ashkenazi
sugar_babe_love_you:056803018:astek@bezeqint.net:1989-06-29:IL:F:none:LIRON ashkenazi
sugar_babe_lucky7:sugar:crazyblueangelface99@hotmail.com:1991-06-20:AU:F:none:Hannah Bryant
sugar_babe_me_:ANIMALS::1992-06-29:GB:F:none:sugar_babe_me_
sugar_babe_me_1:ANIMALS::1992-06-29:GB:F:none:sugar_babe_me_1
sugar_babe_mini:babe@#$%:sar_bear_94@hotmail.com:1966-09-25:AU:F:none:SARAH WALSH
sugar_babe_neo_:0192837465:ifonlyinewto@yahoo.co.uk:1986-10-25:GB:F:none:miss congeniallity
sugar_babe_of_2004:andy!:tiny_tenai@hotmail.com:1986-11-01:AU:F:none:tenai  ferguson
sugar_babe_on_a_high:*kitten:badgal93@hotmail.com:1992-03-09:NZ:F:none:Jordan  Prentice
sugar_babe_prinses:kevin01::1996-08-13:US:F:71.55.188.143:Stefanie
sugar_babe_queen:_hypergal_:hayley.barlow@sympatico.ca:1988-04-18:CA:F:none:??? ???
sugar_babe_r:heather:cutest_kitty_@hotmail.com:1985-12-14:US:F:none:Heidi
sugar_babe_ramsey_20:leggs::1992-10-02:CA:F:none:sugar_babe_ramsey_20
sugar_babe_s:ORLANDO:suga_babe88_8@hotmail.com:1988-12-08:GB:F:none:Sian Tunesi
sugar_babe_sher:gymnasticsrulz::1993-12-03:AU:F:none:sugar_babe_sher
sugar_babe_sophie12:sophie:nattrassm@hotmail.com:1991-09-28:GB:F:none:sophie paton
sugar_babe_surf:sweety::1993-04-03:AU:F:none:sugar_babe_surf
sugar_babe_sweeti_pi:sugar and spice:heimir@talk21.com:1991-09-09:GB:F:none:idont no
sugar_babe_top:carrot1:samalisha@talk21.com:1988-06-03:GB:F:none:Alisha mashall
sugar_babe_top2k:carrot2:zag24@hotmail.com:1988-06-03:GB:F:none:alisha marshall
sugar_babe_top45:carrot2:zag24@hotmail.com:1988-06-03:GB:F:none:alisha marshall
sugar_babe_uz:peppermint:foxyroxybabe18@hotmail.com:1984-05-04:AU:F:none:Kristen Murphy
sugar_babe_xx:dollz01:kevincrawford394@btinternet.com:1993-09-13:GB:F:86.150.161.183:Mellissa
sugar_babe__:pena123:helena1108@comcast.net:1990-11-08:IS:F:24.15.8.79:Helena
sugar_babe__27:bob4ever7:brooklynnnugent@yahoo.com:1924-09-10:US:M:71.57.236.193:bob
sugar_babe__79:91410456:dream_make_1234@hotmail.com:1995-11-09:BR:F:189.11.112.117:Natalia
sugar_babe__82:redcherrys82:lisa.c@clancy.catholic.edu.au:1995-04-19:AU:F:202.172.103.66:Lisa
sugar_babe__87:strawberry02:neeky_cutie_94@hotmail.com:1989-07-26:AU:F:60.229.170.39:monique
sugar_babe__93:gir_piggy*:tacoflower@hotmail.com:1989-09-14:AU:F:none:TYLA md
sugar_babi1:sexy1:babi_phat01@yahoo.com:1992-01-15:US:F:none:aly hutto
sugar_babi15:Shayne15:shawnaray_15_@hotmail.com:1990-05-01:CA:F:70.76.170.177:Shawna
sugar_babi1990:sweet:laf4124@aol.com:1990-09-19:US:F:24.74.41.198:Sugar Baby
sugar_babi488:spooky::1993-06-03:CA:F:none:sugar_babi488
sugar_babi8675309:cutiepie14:sweet_as_sugar238@yahoo.com:1992-03-31:US:F:none:brianna henry
sugar_babie:Danielle!:ccindygirl33@aol.com:1991-12-16:US:F:none:Danielle Miller
sugar_babie03:michael:sweet_n_sexy001@hotmail.com:1987-08-06:US:F:none:kill me
sugar_babie101:eric1:bees_r_cool@hotmail.com:1987-06-30:CA:F:none:rebecca  stewart
sugar_babie1112:jasons_gurl::1993-01-22:US:F:none:sugar_babie1112
sugar_babie123:chief11:sugarrbabeee@aim.com:1994-04-08:US:F:75.56.209.109:Erin
sugar_babie18:angelgirl:pow_puff_gal@hotmail.com:1988-03-18:CA:F:Mail from melanhead_26:jasmine todd
sugar_babie20:101492:shelby09@tampabay.rr.com:1989-10-14:US:F:none:Shelby Bourgeois
sugar_babie262:123654987:patmarquez@comcast.net:1990-10-15:US:F:none:JesseniaDelcallejo
sugar_babie29:makenzie:lovin_u_littlelady28@yahoo.com:1976-03-15:US:F:none:Ronda Barber
sugar_babie333:cailey:princess_cailey@4family.cnc.net:1984-06-18:US:F:Mail from kookookachoo20:Ashley Pistol
sugar_babie369:JaR=A::1993-01-06:US:F:none:none
sugar_babie409:jenny!:kat.sleepingbeauty@gmail.com:1993-04-05:US:F:none:Katherine Coleman
sugar_babie55:13255231:h0ney.d1p@hotmail.com:1989-02-04:CA:F:99.228.153.87:JESSICAA
sugar_babie600:100995:anymoney600@yahoo.com:1991-10-08:US:F:71.164.170.88:Emalee
sugar_babie677:everyday22:sugar_cutie57@hotmail.com:1988-01-15:CA:F:142.177.44.68:melissa
sugar_babie69:cory69:foxytrick@hotmail.com:1989-01-21:CA:F:none:katherine lees
sugar_babie717:chica1:miss_allll_that101@yahoo.com:1992-10-28:US:F:none:Devin Arceo
sugar_babie85:evilgirl119:k_costilow@yahoo.com:1993-03-07:US:F:none:Anh Nguyen
sugar_babiee:boopybum31:buffyboofhead@hotmail.com:1995-11-19:AU:F:122.107.106.65:Tayla
sugar_babiee09:sugerbabiee77643500::1998-01-22:SO:F:210.15.244.104:shukri
sugar_babiegirl:kaylynn:clemjayhawks@aol.com:1990-12-29:US:F:none:Kaylee  nunofurbuisness
sugar_babies:5501360:o0osliid0olayd3e@yahoo.com:1991-08-30:US:F:none:LilWun missbling
sugar_babies007:119cessna:cleokeyhill@hotmail.com:1991-01-28:US:F:none:Alex Hunter
sugar_babies22:lynnie44:vanilla-chocolate-lynn@hotmail.com:1992-12-08:CH:F:110.168.99.6:lynnie
sugar_babies313:wast351huge299:allie_baby1990@yahoo.com:1990-03-31:US:F:none:Alex Bernal
sugar_babies_1:ESCALONA:pocahontas199@aol.com:1990-10-05:US:F:none:FLOWER  HALK
sugar_babies_89:021889:melanie4neopets@yahoo.com:1986-02-18:US:F:none:Melanie E
sugar_babies_989:dancer333989::1999-03-19:CA:F:24.141.130.196:Nevi
sugar_babies_luv_pup:babyboytaro1:tarojamie@sympatico.ca:1993-02-07:CA:F:none:Dominique Allana
sugar_babies_rock89:14horse:Katekat1201@aol.com:1993-12-01:US:F:64.12.112.163:Katherine
sugar_babies_s37:state usa::1993-11-17:AU:F:none:sugar_babies_s37
sugar_babiey:pizza::1994-02-14:GB:F:none:sugar_babiey
sugar_babie_:imapimp::1992-06-27:US:F:none:sugar_babie_
sugar_babie_123:summer:motherangel55@hotmail.com:1955-06-24:CA:F:96.50.246.104:June Mc
sugar_babie_14:sunshine:sweetgurl_45@hotmail.com:1988-10-13:CA:F:none:Rosemary Daniel
sugar_babie_21:volleyball:sugar_babie_21@hotmail.com:1990-06-25:CA:F:none:brittany petten
sugar_babie_27:90009:rubberbander@hotmail.com:1991-09-27:US:F:none:pia g
sugar_babie_4:freekme:kahea_lavaflohottie@hotmail.com:1991-02-02:US:F:neofriend:megan peters
sugar_babie_420:leslie:sugar_babie995@hotmail.com:1985-11-21:CA:F:none:Tammy Cruise
sugar_babie_500:soccergirljets2:the_hottest_soccer_girl@hotmail.com:1993-03-29:US:F:71.208.112.22:ilo thome
sugar_babie_5_5_5:SWEETHEART_5_5_5:tigger26101@yahoo.com.au:1992-07-15:AU:F:124.187.186.97:Jordyn McFarlane
sugar_babie_66:milesctyle292:luckygirl4evea@aim.com:1992-10-31:US:F:none:Amber S
sugar_babie_90:dance!:gennabb@aol.com:1990-02-25:US:F:none:genna bloombecker
sugar_babie_93:dance!:gennabb@aol.com:1991-02-25:US:F:none:genna BloomBecker
sugar_babie_carmel:prommie111:Sugarbabiecarmelandtheapple@yahoo.com:1996-07-16:US:F:97.124.82.197:Promise Williams
sugar_babie_carmel_:prommie111:Proms998@yahoo.com:1996-07-16:US:F:97.124.82.197:Promise
sugar_babie_doll:hamilton:sugar_babie_doll12@hotmail.com:1985-02-14:CA:F:none:hi hey
sugar_babie_love:capercat:gurl_fwendz_4eva@hotmail.com:1987-12-03:US:F:none:Ting Ting Chan
sugar_babie_santos:chandos!:gotta_love_gucci@hotmail.com:1990-09-22:CA:F:none:meghan santos
sugar_babie_xo:sweetie!!:danielley9@hotmail.com:1992-09-28:CA:F:none:Amanda Greenn
sugar_babii0174:lnm22393:sugarbabii0174@yahoo.com:1993-02-23:US:F:none:lisa mills
sugar_babii16:337301:lil_cuti3e_babe@yahoo.ca:1991-07-16:CA:F:none:Delina Lam
sugar_babii315126:lipgloss1:blue_bubbles315@msn.com:1990-05-31:AU:F:none:Lisa
Sugar_Babii95:StarrMya23:13jwilliams@berwicksd.org:1995-8-28:US:F:24.229.178.3:Jenn
sugar_babii9879:parker123:babiikai9879@ymail.com:1997-01-28::F:76.177.195.104:NULL
sugar_babiiee:kristina12:xox_kris-tina_xox@hotmail.com:1990-12-29:CA:F:64.59.144.24:kristina
sugar_babiii:zuckerpopo94:schiller-jana@web.de:1980-10-25:DE:F:89.62.207.62:Jana
sugar_babii_00200:Tori02:tori_lynn_00200@yahoo.com:1991-07-02:US:F:none:Tori Geaver
sugar_babii_1:babyboy_0014:sugar_0014@hotmail.com:1991-10-14:US:F:67.124.11.108:Sugar
sugar_babii_8:princess_92:hottiigirl@yahoo.com:1992-10-22:US:F:63.117.245.126:Dynice
sugar_babii_daisy:sadie11::1999-01-03:GB:F:82.18.41.88:Daisy
sugar_babii_wuvs_you:alemap1:sugar_babii_@hotmail.com:1987-03-30:AU:F:none:sugar babii
sugar_babixx33:phlant11:hottcocoaxx@aim.com:1991-10-23:US:F:66.31.193.195:Connie
sugar_babiz02:9574563:slivankic@yahoo.com:1988-03-23:US:F:none:****************************** ******************************
sugar_babi_03:tiggah:sugar_babi_03@hotmail.com:1989-09-12:US:F:none:psycho
sugar_babi_06:familyluv12293:football_chic2005@hotmail.com:1986-01-22:US:F:none:morgan mulford
sugar_babi_09:iloveparker:butterfly_sparkler13@hotmail.com:1990-09-26:US:F:none:Aubri Gaylor
sugar_babi_10404:truestar:spazzgrl289@msn.com:1990-01-20:US:F:none:Breya Novak
sugar_babi_158:charly123::1997-06-05:GB:F:92.21.55.236:amy
sugar_babi_198:charly845::1996-06-05:GB:F:172.202.84.70:amy
sugar_babi_495:bailey101:sugar_babi_495@hellokitty.com:1986-05-20:US:F:none:Sugar Babi
sugar_babi_92:ki99y:sw33t_sugar_3@hotmail.com:1992-05-28:CA:F:none:lola longoria
sugar_babi_95:jaden95:sugar9babi95@aol.com:1991-09-09:US:F:74.64.16.139:nichole
sugar_babi_poni_luva:sunny:ThatGirl@peate.net:1988-03-04:AU:F:none:Tina Turnhan
sugar_baby:daine14:sugar_baby160@yahoo.com:1993-04-15:US:F:99.160.143.116:NULL
sugar_baby000:595584190435331541:sugarbaby321@gmail.com:1990-04-04:US:F:68.190.68.196:I have no name
sugar_baby0000:Mason:sugar_baby0000@hotmail.com:1987-03-16:CA:F:Can I be your NeoFriend?:Alisha McCleary
sugar_baby0005:porter:pluto_girl_33@hotmail.com:1977-05-06:US:F:none:Molly Heston
sugar_baby0011:nicole::1992-08-27:US:F:none:sugar_baby0011
sugar_baby00117:anime11:sugar-baby001@hotmail.com:1991-05-28:US:F:75.2.57.13:Holly Haddock
sugar_baby0023:jason1:sugar_baby0023@yahoo.com:1987-07-04:US:F:68.42.226.114:Beth Smith
sugar_baby005:oooooo:skitttlesgrl4u@yahoo.com:1987-01-31:US:F:none:Jessica Smith
sugar_baby01:soccerbabe:stephanie_hubbardo1@hotmail.com:1991-12-15:US:F:none:stephaniehubbard
sugar_baby0103:maverick marr:angelaf@nbnet.nb.ca:1990-05-26:CA:F:none:Megan Flint
sugar_baby011:DECEMBER123:ABABYTGURLX14@AOL.COM:1992-12-26:US:F:152.163.100.75:BRIANNA
sugar_baby011695:peanut16:miranda.dunn95@yahoo.com:1995-01-16:US:F:75.107.102.79:NULL
sugar_baby015:rotties433:rottylover1204@yahoo.com:1989-09-15:US:F:none:SugarBaby
sugar_baby01_13:adam hocker:dark_demon01_13@icqmail.com:1987-07-15:US:F:none:Chris Liggitt
sugar_baby01_1_1_1:butterfly22:amythetaco@yahoo.com:1986-05-17:US:F:76.4.6.49:melinda
sugar_baby01_6:pixies22::1999-06-04:US:F:71.187.113.229:khalida
sugar_baby0206:ratface$:booty_girl_02@hotmail.com:1990-09-02:CA:F:none:jaime betker
sugar_baby021:3288658:minh_chau021@yahoo.co.nz:1993-02-15:NZ:F:125.238.51.7:Thao
sugar_baby023:26842:britmclennan@shaw.ca:1990-10-12:CA:F:none:who wants to know
sugar_baby0303neoneo:cutie05:lilmonkey138@gogtt.net:1982-02-03:CA:F:none:sam joe
sugar_baby0306:pussycat11:baby.girl0306@hotmail.com:1993-06-03:AU:F:58.170.31.109:Bella
sugar_baby034:ilovepiglet044:sugar_baby034@hotmail.com:1987-05-06:CA:F:none:Sarah Iwosa
sugar_baby04:connor:crazibabe042002@yahoo.co.uk:1986-12-18:GB:F:none:louwilkinson
sugar_baby0410:jessey:lilchick316@hotmail.com:1990-09-14:US:F:none:michelle marshall
sugar_baby049:vernonlk:joyeme2@student.ednet.ns.ca:1984-09-16:CA:F:none:Melissa Joyce
sugar_baby05:kisses:dream_chick15@yahoo.com:1991-01-06:US:F:none:Tiffany Anderson
sugar_baby0503:haileighfraser:cal_pink@hotmail.com:1990-01-01:GW:F:none:mary keetch
sugar_baby05315:00735:polish_basketball1558@hotmail.com:1970-08-29:CA:F:none:Agnieszka Gendron
sugar_baby0595:whatever:hottsxychik95@yahoo.com:1985-10-11:US:F:none:the end
sugar_baby06:iloveyou9:j_mac.14@hotmail.com:1991-10-05:US:F:none:Jessica McMullen
sugar_baby07:dreaming:bluejeansbeloved@yahoo.com:1990-11-07:US:F:none:mandy miller
sugar_baby072:2starr::1992-10-20:US:F:none:none
sugar_baby08:shayne08:Mrs_adams082000@yahoo.com:1990-07-27:US:F:76.112.21.154:Cheyenne
sugar_baby0804:sugary0804:sf_ballet_diva@yahoo.com:1989-08-04:US:F:none:Bebe Escamilla
sugar_baby0804000:sugary:sf_ballet_diva@yahoo.com:1990-08-04:US:F:none:Bebe Escamilla
sugar_baby0810:htur660:rhalcos@sbcglobal.net:1976-09-19:US:F:none:Ruth Ann
sugar_baby08172:kaleigh:earthgurl90@aol.com:1989-08-22:US:F:none:Kaleigh McNish
sugar_baby09:sugar11:sugarbaby_0911@yahoo.com:1995-05-16:US:F:69.138.42.117:krissy
sugar_baby0910:lauren::1993-07-21:AU:F:none:sugar_baby0910
sugar_baby097:volleyball:rowdy_gurl_plus@yahoo.com:1991-08-23:US:F:none:Kaitlinn Thomas
sugar_baby0o3:reidyo3::1993-11-23:CA:F:none:katie reidy
sugar_baby1:jojo33:papillon_25@hotmail.com:1987-07-14:US:F:none:sugar baby
sugar_baby10:purplegirl::1990-07-13:PK:F:none:none
sugar_baby100:peachez!:sunset_baby18@hotmail.com:1988-06-26:CA:F:none:Jessica** Werner**
sugar_baby1001:whitetiger:tigerlillyse60@hotmail.com:1989-06-08:US:F:Item:sarah eliek
sugar_baby1004:everytime:smoochies_babe1004@hotmail.com:1980-09-05:CA:F:none:Grace Chang
sugar_baby101010:suggababy10:lalalandgrl1010@yahoo.com:1990-04-27:US:F:none:nicole
sugar_baby101104:kittykats:ducky_ducky_nutty@hotmail.com:1992-03-19:CA:F:none:Ashley
sugar_baby1012:alibi488:totallykoolchic333@yahoo.com:1994-08-06:US:F:76.110.66.39:Hannah
sugar_baby10123:johnnyisyummy::1990-08-25:CA:F:none:sugar_baby10123
sugar_baby101306:puppies:we4lambert@msn.net:1987-05-19:US:F:none:Brittany Lambert
sugar_baby101322:rachel*:matwat1@cox.net:1986-12-27:US:F:none:Rachel Zepeda
sugar_baby102:797485:myzzangirl@hotmail.com:1987-03-24:CA:F:none:JENN  P
sugar_baby1020:foto10:littleann1020@aim.com:1988-01-06:US:F:none:Leesa Schnider
sugar_baby10203:ssam9:princess_sam9@yahoo.com:1992-02-02:US:F:none:blah blah
sugar_baby1028:SASHA1028:sugar_baby28@sbcglobal.net:1992-10-28:US:F:none:Angelina Ventura
sugar_baby1092:bored::1992-10-11:US:F:none:sugar_baby1092
sugar_baby10_9692:verbena10:kristintonthat10@hotmail.com:1991-09-06:US:F:none:kristin
sugar_baby11:babygirl::1994-04-28:US:F:none:sugar_baby11
sugar_baby1111:717tori::2000-07-17:US:F:76.75.19.189:NULL
sugar_baby112:sugar11:sugarbaby11221@yahoo.com:1993-05-19:US:F:70.252.1.118:sugarbaby
sugar_baby114:patches:meganmckibbon@hotmail.com:1986-11-25:CA:F:Offer Made on Lot:megan mckibbon
Sugar_Baby11788:1@dyj):babe4life@gmail.com:1994-01-26:US:F:173.185.41.113:NULL
:::::::
sugar_baby12:school1:katielbos@aol.com:1992-04-12:GB:F:none:Katie B
sugar_baby1205:luvbrandon12:baby_angel_desi_devil@hotmail.com:1993-02-14:CA:F:99.245.43.236:amber
sugar_baby121:severs121:billy3408@hotmail.com:1990-03-10:US:F:none:Billy Yaw
sugar_baby1214:12141999:elizabeth.feng@gmail.com:1993-12-14:HK:F:203.218.141.207:Elizabeth
sugar_baby12141:babygirl:bootyliciouz_1236@hotmail.com:1990-01-15:US:F:Mail from moonbeam907:Kelley
sugar_baby121594:1215sugar1215:newyorkprincess1215@yahoo.com:1992-08-07:US:F:none:kayley lener
sugar_baby1216:melissa:michesan10@hotmail.com:1984-04-26:CA:F:Acceptance:michelle sanchez vega
sugar_baby122:rexy99:woop_234@hotmail.com:1978-03-01:US:F:72.250.136.107:Maggie
sugar_baby122890:122890:dnsbarron4@cs.com:1984-12-28:US:F:none:rachel mcgraw
sugar_baby123:kathy:suger_baby123@hotmail.com:1901-04-24:BE:F:none:Kathy Wong
sugar_baby12318:kitty1993:amythudson@hotmail.com:1993-03-05:FI:F:207.167.28.210:NULL
sugar_baby1232:sweet555:huahini@hawaii.rr.com:1993-03-08:US:F:24.94.78.145:Kristy Ekin
sugar_baby12333:iloveusher:barbie030lee@aol.com:1992-03-12:US:F:none:Logan Magee
sugar_baby1234:amann07::2003-07-31:US:F:99.147.224.1:Grace
sugar_baby12345:goldy123::2002-01-24:CA:F:70.68.98.8:NULL
sugar_baby123466:marshmellow01:alexis@imadoko.us:1987-06-12:JP:F:none:Alexis Sparkle
sugar_baby123_2005:briankennedy:meclo@earthlink.net:1991-08-24:US:F:none:chelsea warrick
sugar_baby124:chunky21::1999-07-14:US:F:65.184.133.106:ava
sugar_baby124311:adam14::1999-07-22:SG:F:218.186.8.225:NULL
sugar_baby1245:babycakes12:sugar_muffin1@yahoo.com:1995-08-02:US:F:98.209.130.98:holli
sugar_baby1255:haughey:sugar_baby1255@hotmail.com:1983-12-18:CA:F:Item:caitlin haughey
sugar_baby1299:abby1::1992-12-06:US:F:none:sugar_baby1299
sugar_baby12_5:casper12:lil_rose_bud56@yahoo.com:1985-09-28:US:F:69.92.60.67:Sesarea MacNeil
sugar_baby13:parrot:strawberry.sarah@gmail.com:1987-02-28:CA:F:173.212.66.14:sarah-anne bedford
sugar_baby1314:iloveme:sugar_baby1314@hotmail.com:1990-06-03:CA:F:none:Kassey Phillips
sugar_baby133:candygirl::1984-09-15:US:F:none:Buda  Wenthold
sugar_baby1340:orlando:laurelleigh13@msn.com:1991-08-23:US:F:96.13.223.155:Laurel Ringling
sugar_baby135:meandyou:dark_angel_200414@hotmail.com:1990-05-31:US:F:none:umm ya
sugar_baby135246:dude not cool65:LSBrox@gmail.com:1996-01-01:US:F:74.61.149.121:Natalie
sugar_baby1369:loveyou:little_mrs_bloom@hotmail.com:1990-06-13:CA:F:none:Jessica C.
sugar_baby138:eminem:sugar_baby01@mail.com:1985-04-01:US:F:none:Alysa  Peltier
sugar_baby14:assirac123:xxcutecarixx@yahoo.com:1989-06-14:JP:F:none:Amy Cruz
sugar_baby1412:karah:blond_babe9@hotmail.com:1989-01-29:BM:F:none:ronald macdonald
sugar_baby1416:16lovers:purple_stephanie_pals_forever@hotmail.com:1993-02-16:CA:F:none:Danielle Yu
sugar_baby1441:spiceandsugar:brocks_baby@hotmail.com:1987-10-29:CA:F:none:Ali Sansome
sugar_baby149:Baby!:rebelious_chyk69@hotmail.com:1987-01-28:CA:F:Acceptance:Alexa Slavin
sugar_baby1491:jasmine:sugar_baby1491@hotmail.com:1991-05-17:CA:F:none:Ashley Gagné
sugar_baby14__vv:chao13:ladynurse1015@aol.com:1992-07-28:US:F:none:aisha white
sugar_baby15:cocacola01:nickm._147@hotmail.com:1995-03-31:US:F:24.18.67.199:Meghan
sugar_baby150:bengiboy54::1998-04-04:US:F:74.174.151.94:faith
sugar_baby1504:jessi:anoyinggurl100@yahoo.com:1992-02-17:US:F:none:Sugar Doinky
sugar_baby1518:987654:sugar_baby1518@hotmail.com:1987-02-19:CA:F:Mail from promarkdrummer:Lacey Macanushe
sugar_baby1588:blue8:pinkpanther15@math.com:1990-02-09:US:F:Mail from bling_bling7351:Twixallinthemix
sugar_baby16:peanut16:bubbledblonde16@hotmail.com:1989-12-24:US:F:69.254.117.113:Kayla Gentry
sugar_baby164:mesofine:lmillar88@hotmail.com:1988-06-21:AR:F:none:Corny  Fields
sugar_baby1662:sugar:bluemoongurl01@aol.com:1989-11-16:US:F:Trade Closed:cheryl carlson
sugar_baby17:freckles:princess_shorty06@yahoo.com:1990-05-04:US:F:none:Korin Moore
sugar_baby1717:2good4u:tommychick60@hotmail.com:1990-09-23:CA:F:none:Alisha Smith
sugar_baby180:_sugar_:tennisgirl486@yahoo.com:1986-08-31:US:F:none:savannah  russell
sugar_baby1820:ellen18:scooter_81302@yahoo.com:1989-03-09:US:F:74.234.211.96:ellen
sugar_baby184:salem:zoogica4@go.com:1988-04-24:US:F:none:Monica Berge
sugar_baby185:potter:diana007002000@yahoo.com:1992-02-01:CA:F:none:diana turner
sugar_baby192:19021997::1997-03-02:GR:F:94.66.202.104:nektar fragou
sugar_baby1928:bonnieboo::1992-09-01:AU:F:none:sugar_baby1928
sugar_baby193:juleahisweird::1993-01-20:US:F:none:sugar_baby193
sugar_baby1954:sweet5:sweet_sugar_baby55@hotmail.com:1988-07-01:CA:F:Acceptance:ally khan
sugar_baby196868:scamp!:funky_monkey66_73@hotmail.com:1992-05-07:CA:F:none:brooke pickering
sugar_baby1979:john71:dottie_1011@yahoo.com:1979-03-18:US:F:98.30.81.167:dorothy
sugar_baby199:buddy199:brittanycollier1992@yahoo.com:1992-09-17::F:63.173.50.213:NULL
sugar_baby1992:sugarbaby1992:fab_five@hotmail.com:1989-05-18:CA:F:none:Lisa
sugar_baby1993:a97m123:air_maginx@yahoo.com.sg:1993-10-18:SG:F:202.156.12.10:kimberly
sugar_baby1_1992:tink#1:sugar_baby12006@yahoo.com:1992-11-14:US:F:none:kimmie ferguson
sugar_baby1_bb:hellokitty15:babi_phat01@yahoo.com:1992-01-15:US:F:none:aly hutto
sugar_baby2:katharinagozdzik123:xxeefjexx@hotmail.de:1994-11-29:CA:F:78.35.136.135:katharina
Sugar_Baby20:sugar20::1999-12-15:US:F:98.219.24.193:NULL
sugar_baby2000:ende28:cocomo28@hotmail.de:1992-09-28:DE:F:none:Sugar_Baby2000 ?
sugar_baby200099:meerca:diddley111@hotmail.com:1988-10-12:CA:F:Acceptance:Deanna Brooks
sugar_baby2001:487319b::1999-01-01:SG:F:220.255.7.163:nakagawa
sugar_baby2002:borrero02::2002-04-30:US:F:76.4.23.232:NULL
sugar_baby200415:cutie:naughty_momma@hotmail.com:1990-01-28:US:F:24.124.46.158:Monica Lawrence
sugar_baby2007_7_7_7:crazy1989:littlehotboricua763@yahoo.com:1989-11-27:US:F:67.140.128.254:whitney
sugar_baby2008:special11:sugar_baby3000@yahoo.com:1992-07-27:US:F:69.68.233.248:Candice
sugar_baby2013:2013me::1995-05-27:US:F:none:sugar_baby2013
sugar_baby2015:angelbaby10:angel_hot_chick@hotmail.com:1990-06-15:CA:F:none:Dayna  praestegaard
sugar_baby2020:cute11::1997-07-30:US:F:68.51.72.87:Tealia
sugar_baby2026:hotshot:lovemebaby2026@yahoo.ca:1985-09-03:CA:F:none:sugar baby
sugar_baby206:blue_banana_eater:pinkhearts_x@hotmail.com:1988-01-07:CA:F:99.228.245.89:*Butterfly*
sugar_baby209239:carilynn:pretty_in_punk209@yahoo.com:1985-03-17:US:F:none:Cari Keeney
sugar_baby2121:ilovemyself:sugar_baby212@hotmail.com:1989-09-08:US:F:none:Sabrina Devine
sugar_baby213:friends12::1999-09-18:NZ:F:219.89.229.86:mikayla
sugar_baby21__88:clover22:asylum_baby21@yahoo.com:1987-06-06:US:F:207.255.76.97:jennifer
sugar_baby22:toxicrose:wolf_angel1234321@yahoo.com:1988-12-22:US:F:none:Amanda Wolff
sugar_baby2201:lakers:sugar_baby2201@yahoo.ca:1989-01-31:CA:F:none:Coalie Stuckless
sugar_baby223:koolkat22:piplup@wow.com:1994-05-10:CA:F:71.81.64.8:amber
sugar_baby2243:pineapple:lil_bella_dee@hotmail.com:1990-06-12:CA:F:none:Liana Castellan
sugar_baby23:monique:monique_the_star@hotmail.com:1986-01-29:AU:F:none:Sugar  Baby
sugar_baby233:petpet322::2009-09-18::F:125.239.142.72:NULL
sugar_baby2346:cassandra:latin_chicka256@hotmail.com:1990-08-04:CA:F:none:Cassandra Molnar
sugar_baby239:string23:luvin_lucas@hotmail.com:1991-06-03:CA:F:none:Jackie Flowers
sugar_baby2424:134679:wildcat_gurlie24@hotmail.com:1990-11-07:US:F:none:renee hunter
sugar_baby2457:williams:dominiquew310@hotmail.com:1989-09-16:CA:F:none:dominique williams
sugar_baby246:sarameaney:puppyz_lover@hotmail.com:1990-11-20:CA:F:128.189.208.223:<u>*~*~Lisa~*~*</u>
sugar_baby246566:justin:xoroxy_babexo@hotmail.com:1992-02-19:CA:F:none:meagan myers
sugar_baby2470:melon2:carebears855@hotmail.com:1982-11-18:US:F:none:sugar baby
sugar_baby2472:j3551c4:azn_badgrl@hotmail.com:1990-04-24:CA:F:none:WhyDoUWannaKno
sugar_baby252:12pumkin90:prav52@hotmail.com:1990-07-15:CA:F:70.26.69.235:praveena ramjitsingh
sugar_baby2525:mommy123:courtney2523@hotmail.com:1991-07-20:US:F:none:Courtney Cox
sugar_baby254:Sugar_Sweat:frogg_hair@hotmail.com:1989-10-28:CA:F:none:Sara Lakcevic
sugar_baby260:choices:keira.hay@attglobal.net:1988-04-04:US:F:none:Chantal Mc Guire
sugar_baby27:sugarbaby27:smamen01@moreheadstate.edu:1987-07-17:US:F:74.132.253.80:Stacy
sugar_baby2712:KRISTIN:dragonmasta06@aol.com:1988-11-09:US:M:none:ODIE
sugar_baby28:england16:shelbyavicea@aol.com:1992-05-17:GB:F:80.41.167.246:shelby
sugar_baby292:karatekid:blinkmiesta@hotmail.com:1985-05-12:CA:F:none:sugar reece
sugar_baby299:BUTTER::1993-11-23:IE:F:none:sugar_baby299
sugar_baby2991:sandy2::1993-01-12:CA:F:none:sugar_baby2991
sugar_baby2994:londonbridge:sunnybunnyy@aol.com:1989-02-20:US:F:none:chelsie franklin
sugar_baby2cox:cutiepie::1993-09-16:US:F:none:sugar_baby2cox
sugar_baby3:candygirl:patrickcurtain@patrickcurtain.com:1987-08-07:US:F:none:Destiny
sugar_baby3000:kevin2524:www.beoncey3@yahoo.com:1988-08-04:US:F:76.174.158.134:april
sugar_baby319:pinky:dashasz@hotmail.com:1990-05-27:US:F:Mail from kitykisses:no name
sugar_baby32101:ruler::1993-09-06:CA:F:none:sugar_baby32101
sugar_baby333:justin:oohbear_0111@yahoo.com:1992-01-24:US:F:none:jessika
sugar_baby3331:babygirl113698::1998-02-24:US:F:69.144.146.34:Lyric
sugar_baby3337777777:warren:sugar_baby337@hotmail.com:1989-06-17:JP:F:99.246.101.71:ihavenoname
sugar_baby3351:sugar:shamrock_girl33@hotmail.com:1989-07-20:CA:F:none:Grace Schilling
sugar_baby3377:warren:sugar_baby337@hotmail.com:1987-06-17:CA:F:24.150.206.158:Tsugumi
sugar_baby340:13579:holly_macleod@hotmail.com:1990-11-28:CA:F:none:HOLLY BLAH BLAH
sugar_baby3416:jeanie:sugar_baby_3416@hotmail.com:1979-11-09:MY:F:none:Lim Shea-Jean
sugar_baby3433:mouse99:imrahil_basketball@hotmail.com:1984-01-04:AU:F:none:miki Kirman-Proud
sugar_baby347:lopez101::2000-11-08:US:F:76.28.25.244:Lilliana
sugar_baby360:me_myself_andi:queen_fruit_loop13@yahoo.com:1987-08-20:US:F:none:Mariana Giggle
sugar_baby3620:danger89:life_turns_out_great_everafter@msn.com:1987-07-29:AU:F:none:shaina natherson
sugar_baby363266:asd456:shoryu_baby@hotmail.com:1992-08-03:AU:F:none:Jess .H
sugar_baby367:mommy12793:desiraemcbride@yahoo.com:1988-01-27:US:F:none:tori jones
sugar_baby3710:hugkiss12::1990-07-04:IT:F:24.34.16.199:Kristal
sugar_baby38:momrocks97:missprissmckayla@yahoo.com:1995-11-12:US:F:75.170.113.226:mckayla
sugar_baby383:gohome::1980-01-01::F:none:A**shley*** Carter
sugar_baby390:Russia0426:stardust12042000@hotmail.com:1988-04-26:CA:F:none:~*Katerina*~
