sugar_karcus:tities69:ballet_girl2@hotmail.com:1993-12-15:CA:F:70.78.162.71:Karlien
sugar_karyadi123:141186:sugar_karyadi@yahoo.com:1986-11-14:ID:M:none:achmadi maulid
sugar_kassie:tagwai1:sugar_britches99@hotmail.com:1981-01-21:US:F:198.68.173.40:Kassie ........
sugar_kat:kitten94:amboodm@yahoo.com:1990-05-02:US:F:66.233.129.198:Amber
sugar_kat262:nayhoma8:hot_lil_minx_16@hotmail.com:1988-08-18:GB:F:86.163.163.158:*Kat*
sugar_kat90210:sugar:sugar_kat90210@yahoo.com:1986-07-18:CA:F:none:alexa gold
sugar_kath:18853833:asukasexx@hotmail.com:1989-07-08:VE:F:190.198.184.166:katherine moreau
sugar_kati:stex1234:sugar-katrin@arcor.de:1988-03-22:DE:F:none:Kati .
sugar_katty:yohasakura11:sugar_kat200@hotmail.com:1990-08-17:CA:F:76.65.31.35:Amber FentonRusso
sugar_katy:0506klb:www.katlynneb@yahoo.com:1995-06-05:ZA:F:217.14.90.47:Sugar_Katy
sugar_kat_06:white&blue:mnorwood@stmarysannapolis.org:1993-09-07:US:F:none:M N
sugar_kat_86:PRINCESS01::2000-04-02:NZ:F:122.57.237.94:Jasmine
sugar_kawaii_chika:rabbit1010:ksk92@hotmail.com:1988-09-29:AU:F:none:Sarah K
sugar_kay:barney77:karunachopra7@gmail.com:1980-07-27:CA:F:174.117.156.89:Kay C.
sugar_kay123:sugar::1991-09-25:CA:F:none:sugar_kay123
sugar_kayenine:kayenine1:neopets@mireth.com:1966-11-11:CA:F:none:Karen Johnson
Sugar_Kee_Kee:please12::2005-01-30::F:68.179.129.239:NULL
sugar_kellen:sugarken16:jane_16blue@yahoo.com:1994-12-15:PH:F:125.60.241.131:kellen
sugar_kelly35:sugar8kelly20:sugar_kelly820@hotmail.com:1986-08-19:HK:F:none:jin pak wai
sugar_kenny:kennedy22::1999-07-12:WS:F:70.31.74.185:kennedy
Sugar_Kerchyk:OMSWAMITHUNAI96:vaiishnavi_karnan@hotmail.com:1997-09-18:SG:F:218.186.8.246:NULL
sugar_kevin:minnie22::2010-08-02:US:M:70.251.105.222:NULL
sugar_khadija:Princess_Khadija12::1997-02-11:GB:F:82.36.155.44:Khadija
sugar_khai:nisa95:khairul_nisa95@hotmail.com:1995-01-19:SG:F:220.255.2.46:khai
sugar_ki:peachez:dramagal05@yahoo.com:1986-01-30:US:F:none:Akelia  Chesterfield
sugar_kicks:myname1:a_sweet_gal4u@hotmail.com:1983-11-27:GB:F:none:sugar kicks
sugar_kicks_butt:$auxtomates$:erinm_11@hotmail.com:1949-11-27:IE:F:none:u   !u
sugar_kicks_butt34:auxtomates:candy_rules_34@hotmail.com:1984-01-01:CA:F:none:?~*?~*
sugar_kid:girlsrule::1993-03-01:CA:F:none:sugar_kid
sugar_kid1992cass:caleb:katylb1105@hotmail.com:1981-11-19:US:F:none:Cassie copeland
sugar_kid2001:peace:neat_2001@hotmail.com:1982-10-10:CA:F:none:Beanica keating
sugar_kiddo:urbusted1234:Jamaicangal753@hotmail.com:1992-05-08:GB:F:195.93.21.98:Jess
sugar_kiisu:008789:sugar_kiisu@yahoo.com.hk:1987-08-09:HK:F:222.166.160.212:Sugar
sugar_kik_spice:cowgirl99:godess_of_faith@hotmail.com:1992-11-10:AU:F:203.164.205.47:zoe
sugar_kimy_angel:sugar:sugar_angel_demon@hotmail.com:1988-03-31:GB:F:none:kim y
sugar_kingno1:matthew22::1997-02-06:GB2:M:87.81.252.33:matthew
sugar_kins:081290:kissmequick_04_1@hotmail.com:1990-12-08:GB:F:none:Emma Chapman
sugar_kiss:sassy:teapot_227@hotmail.com:1991-11-09:CA:F:none:ashley majetic
sugar_kiss000:celeside:sugar_kiss000@msn.com:1963-06-26:AU:F:none:Sarb C
sugar_kiss007:music0007:darcey_giirl_11@hotmail.com:1992-10-28:US:F:207.50.0.22:Olivia
sugar_kiss09:sassy:sugarholic_09@hotmail.com:1991-11-09:CA:F:none:Ashley Majetic
sugar_kiss101:aleshia101:sugar.wings@hotmail.com:1991-01-01:DE:F:none:anna fay
sugar_kiss1234:iamcool:cherrie_chica411@hotmail.com:1990-01-25:CA:F:none:Rachel R
sugar_kiss16:sissy123abc::1999-09-10:CA:F:99.252.139.60:alyssia
sugar_kiss2:welcome:ariane_34@hotmail.com:1990-06-08:CA:F:none:Angel B
sugar_kiss22:catherine11:littlecat222@yahoo.com:1995-05-02:US:F:71.195.53.221:Amber
Sugar_kiss23:sugarcube13:sugar_kiss23@hotmail.com:1989-06-19:US:F:207.118.5.168:Tonya
sugar_kiss252:orlando!:cute_adorable_anna@hotmail.com:1992-10-14:AU:F:none:Anna Walsh
sugar_kiss3000:lolipop:sugar_kiss3000@hotmail.com:1987-12-01:CA:F:none:Katrina Chan
sugar_kiss626:000123150neo:ejones007@comcast.net:1991-03-29:US:F:68.35.34.254:Tori
sugar_kiss639:3dancer3:sexy_dancing_baybee@hotmail.com:1990-01-20:CA:F:none:Nadia Rukavina
sugar_kiss86:9702002:Kitten_baby987@yahoo.com:1991-07-18:US:F:none:Bianca
sugar_kiss89:JMC (my initials)::JMC (my initials):JMC (my initials):JMC (my initials):JMC (my initials):JMC (my initials)
:::::::
sugar_kiss998:scotty:bbezovie@telusplanet.net:1984-07-31:CA:F:192.197.128.18:Erin  Bezovie
sugar_kisses:pinkstar:creamy_dreamy_kisses@hotmail.com:1991-08-09:CA:F:none:Christina shepley
sugar_kisses0000:LOVEKISSES::1992-05-26:US:F:none:sugar_kisses0000
sugar_kisses01:FLOWER11:klmartinez01@yahoo.com:1990-01-05:US:F:75.84.220.86:Kenia
sugar_kisses02349:partygirl1:roxxi02349@aol.com:1987-02-05:DE:F:none:Jessica Honig
sugar_kisses04:kritters:jm_willis@bellsouth.net:1990-05-06:US:F:none:Kiersten Willis
sugar_kisses044:sweetypie27:kimmy.lamb@hotmail.com:1994-12-27:CA:F:65.93.99.177:sami
sugar_kisses05:cocoa04:butterfly_kisses@yahoo.com:1992-03-28:US:F:none:madison broostrom
sugar_kisses10:comics:sk8r_690@hotmail.com:1985-06-29:CA:F:206.75.198.6:Dawn Scott
sugar_kisses122003:sugar:sweetsugar122003@yahoo.ca:1988-06-12:CA:F:none:Josie Richard
sugar_kisses123:6501858::1997-04-23:US:F:72.92.117.234:dab
sugar_kisses123_101:tnbarecute:pictureperfect123@msn.com:1987-07-01:GB2:F:none:Sugar Kiss
sugar_kisses1869:oliver:sugar_kisses@wmol.com:1988-12-27:US:F:none:Jessica Doud
sugar_kisses22:party12:mizzdramaqueen1@hotmail.com:1991-12-16:US:F:24.251.30.53:Cecilie
sugar_kisses303:love_me::1988-08-07:AU:F:none:none
sugar_kisses33579:jazzy1:bratty_angel05@hotmail.com:1986-08-15:AU:F:174.119.25.6:Jaz
sugar_kisses406:harvie4::1993-04-04:AU:F:202.164.202.187:sugar_kisses406
sugar_kisses4u:1lovefood:marcociampa255@hotmail.com:1986-03-30:CA:F:none:diana spagnolo
sugar_kisses54:ilovetaylor:basketballchick148@hotmail.com:1990-03-24:CA:F:none:Sugar Kiss
sugar_kisses567:whylie:cbockhorst@cox.net:1989-07-11:US:F:none:Amey Thomas
sugar_kisses69:dudette:sweetas_sugar88@hotmail.com:1988-12-04:AF:F:none:me me
sugar_kisses90:ccfcifwlink:jelly_company@yahoo.com:1988-07-23:US:F:Acceptance:Jennifer Park
sugar_kisses95:1994711:chickiebabie95094@yahoo.com:1988-09-07:US:F:208.29.67.36:Betty N Taylor
sugar_kisses9793:sisters4life72:xx_midnight_hopes_xx@hotmail.com:1993-02-02:US:F:71.113.24.41:valia
sugar_kisses_:dude00:Teagan_gangsta_gal@hotmail.com:1993-02-09:CA:F:24.66.94.142:Teagan
sugar_kisses_0:cubbybear13:iluvboys_52@hotmail.com:1991-07-13:US:F:64.90.77.240:DesiRae
sugar_kisses_012:lice!:sugar_kisses_012@yahoo.com:1991-12-21:US:F:none:Chloe Lancil
sugar_kisses_07_:24279167:bby_sugar@hotmail.co.uk:1984-03-12:JP:F:none:darragh murphy
sugar_kisses_09:oxfordsux:miz_jai_09@yahoo.com:1989-09-28:US:F:none:Jade  Black
sugar_kisses_1:buster111::1993-08-13:US:F:none:sugar_kisses_1
sugar_kisses_24:wows12:courtneybabe94@yahoo.com:1990-02-24:US:F:69.133.85.152:courtney
sugar_kisses_258:6501858:bg.cutie4life@gmail.com:1995-06-16:BG:F:72.94.72.222:gigi
sugar_kisses_3:chibiguicha:tina_3_2003@hotmail.com:1991-01-23:CA:F:none:tina b
sugar_kisses_356:socbas26::1993-06-26:US:F:none:sugar_kisses_356
sugar_kisses_39:couleeab:sugar_kiss_39@hotmail.com:1965-11-11:CA:F:none:oh MY
sugar_kisses_4_u:rambo123:michy_moo_cow@hotmail.com:1988-09-16:NZ:F:76.17.239.105:Sugar Kisses
sugar_kisses_666:deviled666:sugar-kisses-666@hotmail.com:1992-01-11:AU:F:none:Cait Alice
sugar_kisses_9:michy4242:roxiieboxiie@hotmail.com:1990-08-22:AU:F:202.67.120.40:chelsea
sugar_kisses_90:boobah18:nicole112233@live.com:1990-10-12:US:F:71.104.7.120:sugar
sugar_kisses_randi12:samantha12:sugar_kisses_randi@hotmail.com:1990-07-13:CA:F:none:Randi Marsh
sugar_kisses_xo:sana121:sana-khan-786@hotmail.com:1990-01-03:CA:F:76.68.60.20:nadia
sugar_kisses_xoxo:12345654321:sugar_sugar_lips_xoxo@yahoo.co.nz:1992-04-01:NZ:F:222.155.41.247:Kairi
sugar_kissez:bambam123::1992-12-11:CA:F:none:sugar_kissez
sugar_kissez77:william999:dixiechickfan64@hotmail.com:1993-06-10:CA:F:70.53.145.154:cierra
sugar_kissing_lips:ilove14:sugar_kissing_lips@hotmail.com:1991-08-06:AU:F:none:Danni Goodall
sugar_kissz:westshayz:ying_ting04@yahoo.com.sg:1987-12-05:IE:F:none:Sugar^^Kissz
sugar_kiss_1004:rainbow05:lily_kimbo@hotmail.com:1985-06-05:CA:F:99.249.96.178:*lillian kim*
sugar_kiss_1994:sunshine:z_sugar@hotmail.com:1978-11-25:CA:F:none:Laryssacook
sugar_kiss_2006:scream6:oliviacampbell10@yahoo.co.uk:1993-11-05:GB2:F:none:Olivia campbell
sugar_kiss_39:couleeab:sugar_kiss_39@hotmail.com:1990-01-21:CA:F:none:Becca Hosty
sugar_kiss_411:diamonx:sugar_love_00@hotmail.com:1963-03-25:CA:F:none:Hilary Duff
sugar_kiss_bunny:sugar:the_hot_chick_67@hotmail.com:1987-08-26:CA:F:Mail from evry1luvsme_imaqt:Robyn Sonjay
sugar_kiss_diamond:#jm@kay::1993-02-02:CA:F:none:sugar_kiss_diamond
sugar_kiss_robot:ludacris:sugar_kiss_robot@yahoo.com:1987-10-08:US:F:none:Tina Sampson
sugar_kiss_x:leorabbit123:never.mind.me@hotmail.co.uk:1990-08-02:GB:F:80.47.196.50:charli
sugar_kiss_xox:mango_tango:jvantruong@yahoo.ca:1990-02-26:CA:F:173.34.96.241:Crystal Truong
sugar_kiss_xoxo:piggy1234:cristane101@yahoo.com:1993-04-23:US:F:76.209.234.153:Lorelai
sugar_kitteh:ucantguess:sugar_kitty@hotmail.co.uk:1986-05-01:GB:F:none:Sugar Kitteh
sugar_kitten:abbie:shaun_da_sheep@hotmail.com:1990-12-25:GB:F:none:KittyCat
sugar_kitten0:teddy49:sens-lover@hotmail.com:1993-03-10:CA:F:216.106.101.94:robyn
sugar_kitten01:justin:sugar_kitten01@yahoo.com:1987-04-29:US:F:none:Aurora Black
sugar_kitten02:woodruffs2:s_cook86@hotmail.com:1986-06-24:AU:F:60.228.112.157:Cookie Monster P
sugar_kitten101:Remus101:cat_lover101@hotmail.com:1990-06-23:US:F:71.231.236.170:Monique
sugar_kitten102:neopets47:baby_kougra101@hotmail.com:1985-05-19:DE:F:210.79.185.153:Aleshia
sugar_kitten108:littlemiss:monkeyaa@msn.com:1987-10-08:US:F:none:Monica
sugar_kitten117:racquel:cheerleader_angel603@hotmail.com:1989-02-16:CA:F:none:Mizz Cassidy
sugar_kitten19:beetle:sugar_kitten9@hotmail.com:1990-04-23:US:F:acceptance:Izi Holland
sugar_kitten2009:class09:bartsoffm@yahoo.com:1990-11-24:US:F:24.247.203.205:Nicole
sugar_kitten51:hershey::1993-09-05:CA:F:none:sugar_kitten51
sugar_kitten529:Remus101:hardtattack@hotmail.com:1990-06-23:US:F:67.183.102.232:Monique Bell
sugar_kitten9:beetle::1994-04-23:GB:F:none:sugar_kitten9
sugar_kitten94:mayo77:karinasugar@hotmail.com:1993-05-20:US:F:none:Karina the sugar cookie
sugar_kitten_1_3:flower13:sthrnswthrt412@aol.com:1993-11-18:US:F:152.163.100.197:kristen
Sugar_kitten_2:Irock23456:redheadedchick@6yahoo.com:1993-5-25:US:F:76.92.167.75:Gabby
sugar_kitten_2004:rocko:sweetcandy489@yahoo.com:1988-05-16:US:F:none:Megan Trevino
sugar_kitten_529:Remus101:cat-lover-cutie@hotmail.com:1994-06-23:US:F:67.183.102.232:Monique
sugar_kitten_8_8:flower*:sthrnswthrt412@aol.com:1993-11-18:US:F:69.22.125.140:kristen poe
sugar_kitten_91:beano::1988-05-16:US:F:none:ihavenoname
sugar_kitten_sk:danny09:becky.angel09@yahoo.co.uk:1993-04-26:GB:F:82.32.153.16:Becky
sugar_kittey:kitty:watsontaylor74@hotmail.com:1985-11-15:CA:F:none:Taylor Watson
sugar_kittey101:mackenzie101:m_taylor_watson@hotmail.com:1988-11-15:CA:F:99.255.154.124:taylor Watson
sugar_kittey21:kitty21:watsonsydney77@hotmail.com:1986-11-15:CA:F:none:Taylor Watson
sugar_kittey221:kitty221:alyxis.watson@rogers.com:1967-07-24:CA:F:none:taylor watson
sugar_kittey24:bella101:m_taylor_watson@hotmail.com:1985-11-15:CA:F:24.57.165.63:Taylor
sugar_kitties:chobits84:nemuri.no.mori@gmail.com:1984-11-11:US:F:none:Elizabeth Muzzarini
sugar_kitty100:kangaro07::1997-10-19:GB:F:86.137.49.183:kath
sugar_kitty120:sweetie120:kate.smith@charter.net:1992-04-10:US:F:66.189.207.224:Sugar
sugar_kitty13:(pipsu)::(pipsu):(pipsu):(pipsu):(pipsu):(pipsu)
:::::::
sugar_kitty19:peewee123:crystalclear6790@aol.com:1990-07-06:GB:F:none:KaT
sugar_kitty23:gabrielle90::2000-5-15:US:F:75.164.7.108:gabrielle
sugar_kitty265:catsrock62:ginger659123@yahoo.com:1991-06-25:US:F:75.75.58.30:kristin
sugar_kitty33:BUBBLES:pimpchik33@aol.com:1989-12-03:US:F:Mail from marshyna:KISHA KEITH
sugar_kitty4204:kittycat4204::1993-12-30:CA:F:none:sugar_kitty4204
sugar_kitty5894:25478987452::1994-05-08:US:F:none:sugar_kitty5894
sugar_kitty70:tittytat:cottoncandy2004233@yahoo.com:1987-05-29:US:F:none:o_0 ^_^
sugar_kitty77:kittykitty626:sugarwoods@live.com:1970-07-19:US:F:99.37.5.170:Brit
sugar_kitty7910:sidd117::1994-03-17:FR:F:none:sugar_kitty7910
sugar_kitty825:pencil825:sugar_kitty825@yahoo.com:1985-08-25:US:F:64.71.1.98:Alicia
sugar_kitty85:jz302226:angelfacejamie12@yahoo.com:1985-12-13:US:F:none:jamie zanini
sugar_kittycat:kitten123:sugar_cat@googlemail.com:1989-01-08:GB:F:82.26.74.212:alex cole
sugar_kittykat_123:root42:jullene.g@hotmail.com:1994-04-01:CA:F:76.66.72.228:jullene
sugar_kittylove:love123:nicole.philipsz@hotmail.co.uk:1988-02-08:GB:F:82.26.74.163:mandy
sugar_kittyx:487932:sugar_kittyx@hotmail.com:1989-10-08:SG:F:220.255.7.135:Patricia Choy
sugar_kitty_04:kate428::1994-04-28:US:F:none:sugar_kitty_04
sugar_kitty_333:carnut1::1994-03-17:CA:F:142.179.80.208:sugar_kitty_333
sugar_kitty_9:mouse:cthomas@unibase.com:1988-08-17:CA:F:none:Caitlyn Thomas
sugar_kitty_babe2005:lilpunk1:kittyclub2005@yahoo.com:1987-09-10:US:F:none:Mari Negron
sugar_kitty_cake:coco1::1996-04-13:CA:F:none:sugar_kitty_cake
sugar_kitty_gurl45:151439:fluffykittygrl@comcast.net:1993-01-26:US:F:68.51.134.47:hannah
sugar_kitty_lol:ale675::1993-08-15:AU:F:none:mia smidle
sugar_kitty_lyn:sweetkittyluv2:sugarypink2@yahoo.com:1992-11-10:US:F:none:Lyndee Archie
sugar_kitty_princess:xyz123::1999-05-20:US:F:96.242.87.191:Caitlyn
sugar_kitty__aa:jackdaniels19:taintedlovegirl@hotmail.co.uk:1991-04-19:GB:F:86.141.121.160:Roxie
sugar_kiwi813:sasuke94:juliechian94@yahoo.com:1988-08-13:CA:F:none:Julie Chian
sugar_kizzes:heart:kaggzzy@yahoo.co.uk:1990-03-02:GB:F:none:not tellin you ha
sugar_kizzie:misty147:kizzie.sugar@yahoo.com:1992-05-01:US:F:72.190.108.204:Mckenzie
sugar_kizz_mini_kiz:manuel1:island_chick_00@hotmail.com:1988-05-06:US:F:74.195.212.21:mckinzie devereaux
sugar_klutz:wolfie!:klutzyblond187@yahoo.com:1992-07-27:US:F:none:Sugar Klutz
sugar_knife:barccrab07:demon_cupcake@yahoo.com:1995-01-24:US:F:75.70.127.177:Baily
sugar_knight:sugar:hyper_suga@hotmail.com:1985-03-21:CA:F:none:high sugar
sugar_ko0ki:5788853:ashlo13@yahoo.com:1991-07-21:US:F:none:YdoYaWannano
sugar_kolokithas:family99:sialovescarebears@yahoo.com:1988-06-22:US:F:24.236.173.4:Sia
sugar_kooki:maggie97::1997-06-15:US:F:66.89.110.155:Maggie
sugar_kookie:cooler:monkeykelci@hotmail.com:1987-07-31:US:F:none:Krissy Cullmans
sugar_kookie143:1ballbreaker1::1998-06-30::F:72.199.100.18:NULL
Sugar_Kookie28:allison28::1996-10-10:US:F:71.111.40.61:NULL
sugar_kookie666:numba1:pokemepenguin@hotmail.com:1968-04-16:JP:F:none:Kasumi Umi
sugar_kool:1234567890poiuytrewq:darknightmareangelstar@yahoo.com:1995-03-26:US:F:97.115.71.199:marcy
sugar_koolade:passpass:goud_dog@yahoo.ca:1905-11-26:NZ:F:none:Sugar Koolade
sugar_kougra:amanda2:ackken9@hotmail.com:1990-08-31:CA:F:none:amanda ke
sugar_kougra64:amanda2:ackken9@aol.com:1992-08-31:CA:F:none:amanda moly
sugar_krazee:allmine:elenadawson@yahoo.ca:1985-12-10:CA:F:Mail from bionic_squirrel:Elena Dawson
sugar_krazy:chill_pill711:happy_bunny711@hotmail.com:1992-05-31:CA:F:none:BReAk.AwAy.fLY
sugar_krista:kbss4eva:smallfriez61@hotmail.com:1986-01-23:LS:F:none:krista calderon
sugar_krystals:10123::1986-03-12:US:F:none:Alexia Jasiewicz
sugar_krystals998:haters:sugar_krystals@hotmail.com:1985-01-24:CA:F:none:Krissy Krissy
sugar_kube:Sidney (I&#x27;m a girl. Yes...)::Sidney (I&#x27;m a girl. Yes...):Sidney (I&#x27;m a girl. Yes...):Sidney (I&#x27;m a girl. Yes...):Sidney (I&#x27;m a girl. Yes...):Sidney (I&#x27;m a girl. Yes...)
:::::::
sugar_kube_wjw:whisenant256818:sugar_kube_wjw@hotmail.com:1992-05-03:US:F:none:Whitney Whisenant
sugar_kween:ilovenewyork123:carolyn_goh27@yahoo.com:1991-04-04:US:F:68.5.94.207:LC
sugar_kysses:sammy529:soccergeek529@hotmail.com:1994-05-29:US:F:75.172.174.52:Rhaena
sugar_L:bazil1998::1998-9-18:AU:F:124.182.210.28:Lani
SuGar_L0v3:ron4o2005::1997-05-21:US:F:77.85.18.147:NULL
sugar_l0v3r:44332211:cupycake321@gmail.com:1995-07-04:US:F:68.106.24.175:Cilla
sugar_l0v3r101:44332211:cupycake321@gmail.com:1995-07-04:US:F:72.211.166.225:Cilla
sugar_l0ve:cetrnaest14:mala-filipa@hotmail.com:1996-05-17:HR:F:89.172.197.121:Melita
sugar_l30y:1qaz2wsx:tsai.c.jerry@gmail.com:1988-06-25:US:M:none:jerry tsai
sugar_l92:sugarl92::1994-05-10:AU:F:none:sugar_l92
sugar_lace:felix7:willy6972penny@bigpond.com:1993-01-01:AU:F:124.185.154.54:jess dettrick
sugar_ladie:sanam::1993-06-30:SE:F:none:sugar_ladie
sugar_ladies12321:memame::1992-10-16:AM:M:none:sugar_ladies12321
sugar_lady0:layla:kaylo11@hotmail.com:1990-01-01:CA:F:none:k l
sugar_lady123:unclesam:simgirl20036@aol.com:1986-12-27:US:F:none:somebody  stupid
sugar_lady13:puddyf13::1995-11-17:AU:F:122.111.88.42:Izzy
sugar_lady2006:gabbana1:emilyfogarty_2006@hotmail.com:1992-06-30:GB:F:none:emily fogarty
sugar_lady2009:nyl171988:xxx_noelia_xxx1@yahoo.com:1988-02-22:US:F:190.87.246.70:noelia
sugar_lady20289:nikki::1987-03-20:CA:F:none:nik rom
sugar_lady25:Popstarontherise25::2000-01-25:SG:F:220.255.7.133:Lee
sugar_lady320:baresugar320:crazyladies320@yahoo.com:1988-07-19:US:F:none:Jean George
sugar_lady321:ladysugar12:patriciac@yahoo.com:1993-07-02:US:F:12.180.242.100:patrica
sugar_lady366144:margot::1993-04-23:GB2:F:none:sugar_lady366144
sugar_lady4:cool80::1993-12-01:GB:F:none:sugar_lady4
sugar_lady49:dogsrule:sugar_lady49@hotmail.com:1986-08-20:US:F:none:Alex M.
sugar_lady495:011293::1993-12-01:GB:F:none:sugar_lady495
sugar_lady_:marion88:redflash51@onlinehome.de:1988-09-06:DE:F:none:Marion S
sugar_lady_123:123sweet:hinsonkenneth@yahoo.com:1990-08-31:US:F:151.213.97.147:Heather
sugar_lake:angel1:clsrea@aol.com:1982-07-22:GB:F:none:Rhia Coles
sugar_lala10:lala_lychee10::1997-12-17:GB:F:87.114.65.89:Layla
sugar_lamb:sugarlamb::1992-09-02:AU:F:none:Lauren Walters
sugar_land:777blemedboygle:digiminimon@aol.com:1991-07-17:US:F:none:karate girl
sugar_land12233:sugarland11:jordyn_m_20079@hotmail.com:1990-04-09:US:F:65.25.64.7:christina laurence
sugar_land2010:sugar2010:jvcalicchio@yahoo.com:1964-6-9:US:M:75.89.76.145:juan
sugar_land2113:cutie13:baby_sweet2113@hotmail.com:1993-07-20:US:F:24.209.15.124:vanessa
sugar_land22:sugar00:chelsnwalker@yahoo.com:1992-11-03:US:F:74.177.38.214:Nunya
sugar_land90210:bogobalabethy12:drama_queen98@sbcglobal.net:1990-08-12:US:F:99.103.144.57:NULL
sugar_land93:ilovesvs01:sugar_land94@yahoo.com:1993-11-21:US:F:75.16.236.27:samantha
sugar_land_13_hearts:crazy1frog3:bananers12@yahoo.com:1989-01-27:US:F:70.58.88.84:Anna
sugar_land_45:candyz11:pifranklin@yahoo.com:1994-10-26:US:M:209.209.140.20:2 cool 4 u
sugar_land_chickae:kennyj29:lelj13@aol.com:1989-10-22:CA:F:none:Leslie Gough
sugar_land_girl:teddy:yippygirl@hotmail.com:1992-05-01:CA:F:none:krystal emes
sugar_land_girlz:sugarland10::1998-03-22:US:F:72.24.100.29:Sabrina
sugar_lane:sweetie1::1990-02-08:US:F:none:Music lover
sugar_lankan_gyal:hotmail::1993-11-09:AU:F:none:sugar_lankan_gyal
sugar_latina:halim18:dila1990@gmx.de:1990-12-15:DE:F:none:Dila Traore
sugar_lau22:tszwan:tszwan22@hotmail.com:1991-01-22:CN:F:none:abc ccb
sugar_laugh_108:hashabir15::1999-08-12:GB:F:194.176.105.38:habiba
sugar_laura:27091869:@neomail.com:1995-03-03:::NULL:sugar_laura
sugar_lava:rocket:sugar_lava@hotmail.com:1986-05-26:US:F:none:megan sheridan
sugar_leaf:14ratties_rule14:meredithcat_bff@yahoo.com:1990-12-20:US:F:75.186.93.48:Teh Anneh
sugar_leaf_1989:sweet:pinkcherryblossom@hotmail.com:1989-05-14:US:F:173.239.191.202:Rena
sugar_lea_may:howard:sugar_10_lea@yahoo.com:1986-06-02:PH:F:none:lea honey
sugar_lee2005:lillian9::1992-12-07:HK:F:none:sugar_lee2005
sugar_leef:751968:loser_of_2008@hotmail.com:1989-11-15:US:F:66.156.92.228:Amber
sugar_lee_hooper:suiker::1985-01-05:NL:F:none:Sugar Lee Hooper
sugar_left:princesa24:sara_blanqui@hotmail.com:1980-01-01:CC:F:88.2.206.72:sugar left culopolloazul
sugar_legs:Ashley09:nascarr1992@hotmail.com:1996-07-30:US:F:75.216.102.46:Ashley
sugar_lemon:horses1:short_but_cute18@hotmail.com:1992-01-18:AU:F:none:tilly blonde
sugar_lemonade:rscubaafflealis7::1988-03-16:SG:F:none:Anonymous
sugar_lemonpop:icecream21::1998-01-01:AU:F:210.49.93.135:Amanda
sugar_lemons690:joanna13:sugar_lemons_690@hotmail.com:1989-09-04:CA:F:none:joanna gondek
sugar_lemonz:yummy!:chiahanmae@hotmail.com:1992-06-16:SG:F:none:chia mae
sugar_lemon_cola:sugababy:sugar_lemon_cola@hotmail.com:1988-12-19:CA:F:Can I be your NeoFriend?:Tranice Dove
sugar_lemon_jag:lupesrang929@:carolynnorris1221@yahoo.com:1993-06-26:US:F:24.197.155.143:Sugar Lemon
sugar_lenafan:iluvuhylmie12:mushi_moshi@yahoo.com:1987-06-26:PH:F:124.104.152.3:janine haron
sugar_lexxie:lexxie78:lexxie-7@hotmail.com:1998-02-07:MY:F:110.159.188.244:Lexxie
sugar_le_warne:custard33:imitatewaterdown@hotmail.co.uk:1992-04-18:GB:F:78.144.102.101:Sophie
sugar_lgm_5_5_5:FBI45::1998-09-29:US:F:75.54.127.42:sugar_lgm_5_5_5
sugar_licious:summer::1992-12-20:CA:F:none:hello hello
sugar_licious62:::1991-01-16:CA:F:none:sugar_licious62
sugar_licious_1990:(bicth):sugarlicious1990@hotmail.com:1990-12-20:US:F:none:Maranda Owen
:::::::
sugar_licuous:sugarers61::1998-12-27:US:F:173.50.193.19:A&#x27;niya&#x27;
sugar_lie:danny1:xxfoxheart_121xx@yahoo.com:1992-02-04:US:F:none:juanita pacheco
sugar_liih:Liih x)::Liih x):Liih x):Liih x):Liih x):Liih x)
:::::::
sugar_like:tu1212:iluck_scel@hotmail.com:1981-03-12:FJ:F:201.19.117.244:eeeeeeeeeee
sugar_lil:jessica22:ana_sugar_@hotmail.com:1992-09-22:CA:F:99.232.247.84:Ana
sugar_lila:iluvjosh1:iluv191@hotmail.com:1992-05-30:US:F:67.63.104.188:paige meyer
sugar_lilac:morgan:j.coyle@merseymail.com:1992-06-09:GB:F:none:jodie princess
sugar_lili:silly:pinklili12@yahoo.com:1989-09-12:US:F:Mail from __neo__baby__:Sugar Lili
sugar_lilly:chinthe1:maddiechick10k@yahoo.ca:1987-04-10:CA:F:none:Clara Johnson
sugar_lilly13:shadow100:lillybluetoo@yahoo.com:1992-12-21:US:F:71.113.142.176:i have no name
sugar_lilly525:toddy564::1993-07-04:US:F:none:sugar_lilly525
sugar_lilly_:Alicia14:lctoro@sbcglobal.net:1994-10-10:US:F:75.15.202.178:Alicia
sugar_lily:lola25940:abbyaudet@austin.rr.com:1993-02-14:US:F:66.69.243.126:Sugar
sugar_lily01:lilypop::1993-02-04:GB:F:none:sugar_lily01
sugar_lily1222:italy#1:vcasilli@hotmail.com:1989-12-22:US:F:none:Petrina Casilli
sugar_lily718:justin:tamia169@hotmail.com:1987-02-18:US:F:71.255.53.214:patricia pierre
sugar_lily_468:re864txw:roxane890@hotmail.co.uk:1992-05-04:GB:F:82.69.101.231:Kt
sugar_lily_cybunny:yo555:tinkerbell47150@sbcglobal.net:1987-01-27:US:F:none:Sugar Lily
sugar_limes:roses:kiwi_limes@hotmail.com:1989-07-29:VG:F:none:July Summers
sugar_lindy:lefebvre20:lindyballos@hotmail.com:1992-08-20:CA:F:70.29.34.188:Lindy
sugar_lindy122:feedtherat:matthewa_lindyb@yahoo.ca:1989-08-20:CA:F:Trade Closed:Lindy Ballas
sugar_ling:67497384Kitty:sugar_ling0826@hotmail.com:1994-08-26:CN:F:59.149.216.39:ling
sugar_linx1194:tyler::1994-04-08:US:F:none:sugar_linx1194
sugar_lip:icecream99:anabubbles@yahoo.com:1985-08-07:GB:F:92.17.225.158:chrisitana
sugar_lipgloss:dreamy11:misshcrooks@yahoo.co.uk:1983-04-02:GB:F:81.158.59.225:karz
sugar_lippglossz:*1439taupo*::1997-12-28:NZ:F:166.179.151.116:Holly
sugar_lipps:ally09:benbanchs@yahoo.com:1992-07-02:US:F:65.6.125.170:shleshle
sugar_lips0:hott56:navy_brat_52@hotmail.com:1992-03-02:US:F:none:ashley weidner
sugar_lips00:bruciebear00::1996-01-17:CA:F:199.216.129.225:crystal
sugar_lips001:ilovecody001:555551@hotmail.com:1991-08-02:AU:F:121.220.17.205:Sarah
sugar_lips007:jellybean76::1994-05-09:US:F:66.138.99.26:Lindsey
sugar_lips01:97610201:sugar_lips_obays_no_one@hotmail.com:1975-07-01:AU:F:none:ebony bloms
sugar_lips0505:smokey7:odbarchi@aol.com:1993-05-04:US:F:none:Hannah Archibald
sugar_lips11:iloveuu00:sugar_lips11@ymail.com:1996-09-11:US:F:96.28.161.136:Dystany
sugar_lips13:lemmings13:papaleah@hotmail.com:1986-09-13:AU:F:58.7.189.44:emma papalia
sugar_lips15:candylips15:HotMinnie2005@yahoo.com:1993-02-17:US:F:70.121.175.100:Stephanie
sugar_lips1997:momdadme97babie3:bradners5@ol.com:1980-03-28:US:F:96.228.80.49:olivia
sugar_lips1999:sugarlips1999:plugzy1@aol.com:1994-05-07:GB:F:90.206.30.90:lucy
sugar_lips21:caitlin21::1997-10-21:GB:F:90.195.144.245:caitlin
sugar_lips341:024023::1997-05-14:US:F:75.40.157.58:sugar_lips341
sugar_lips472:laura:sugar_lips472@hotmail.com:1986-11-20:GB2:F:78.144.34.33:Laura  Williams
sugar_lips654:chocolate lips654:plugzy1@aol.com:1994-05-07:GB:F:92.4.125.188:lucy
Sugar_lips66:meangirls12::1997-02-14:US:F:71.207.58.136:NULL
sugar_lips6977:rachie77:rachie2001aus@hotmail.com:1990-07-07:AU:F:203.111.32.170:Rachel Dillon
sugar_lipswales:cleopatra66:sugar_lipswales@msn.com:1981-11-24:GB:F:90.198.34.28:zoe
sugar_lipsxx:vickichris2007:miss.gooner@hotmail.co.uk:1984-03-23:GB:F:92.13.114.118:vicki
sugar_lips_0618:ilovedeg09:heatherward@frontiernet.net:1992-06-18:US:F:74.32.196.158:Heather
sugar_lips_09_603:iloveme09:brittany_nicole_98@yahoo.com:1990-09-30::F:74.194.140.37:NULL
sugar_lips_0_7:puppies78::2001-10-31:AU:F:209.107.209.100:tayla
sugar_lips_1:iloveej01:pixie31593@yahoo.com:1993-03-15:US:F:67.60.79.212:kyla
sugar_lips_101:akeila12:kyhlap@hotmail.com:1988-10-09:US:F:65.75.97.6:akeila
sugar_lips_1019778:qwerty12:sparklegrace@comcast.net:1994-09-13:US:F:98.245.91.203:Grace
sugar_lips_1999:sugar lips 1999:plugzy1@aol.com:1994-05-07:GB:F:92.1.190.204:lucy
sugar_lips_34:jess_hm#123:jess_italian94@hotmail.com:1994-08-03:AU:F:58.165.61.136:Jess
sugar_lips_35:chocolate12:farrah.2010@hotmail.co.uk:1996-01-06:GB:F:92.27.9.114:NULL
sugar_lips_4_u:gordon22:csellars69@hotmail.com:1989-05-26:CA:F:96.52.255.88:Cassandra
sugar_lips_8:9821613842::1997-11-08:GB:F:122.169.50.217:Anoushka
sugar_lips_blondie:harrison:sugar_lips_blondie@hotmail.com:1991-07-01:AU:F:58.7.145.39:Hayley Smith
sugar_lips_hannah:hannah12:sugar-lips_hannah@hotmail.com:1994-03-09:AU:F:144.132.131.30:hannah
sugar_lips_laurie:ilove4you2shake::1999-08-10:US:F:207.138.82.76:Laurie
sugar_lips_nicole:nicoleandbevon4li22:all_haters_ofprecious@hotmail.com:1995-01-20:KN:F:204.19.202.83:nicole
sugar_lipz_sh:yarethzy54::1999-06-15:SN:F:70.134.82.140:NULL
sugar_live:685249007:rafaelferoz@hotmail.com:1992-06-26:BR:M:189.24.13.99:rafael
sugar_llama:nhuy123edc:kiruki_san123@yahoo.com:1996-09-20:US:F:71.71.24.155:Amy
Sugar_Loaf:alpaca12:csimon1994@yahoo.com:1992-01-01:US:M:76.109.24.2:NULL
sugar_lobster8383:sweetlobster164:sweetlobster164@yahoo.com:1986-05-10:US:F:76.225.35.126:Sugar
Sugar_Lolipopz:puddingpudding123::2001-04-05::F:99.248.78.230:NULL
sugar_lollies_5:lollies34::2002-08-08:US:F:24.121.84.37:samantha
sugar_lollipop:kwbo1995:keeelys@gmail.com:1990-01-09:US:F:69.62.226.227:keeeelys
sugar_lollipop30:readingrocks11::1999-04-12:US:F:75.25.131.134:Lillian
sugar_lollipop64:indira64::1999-04-05:PH:F:121.54.96.2:ira
sugar_lollipop98:cricket98::2000-07-08:US:F:71.106.223.38:andrea
sugar_lollipop_15:ferreira14::1997-01-29:PT:F:88.157.53.33:Joana
sugar_lollipop_candy:sirius123:mansikrishna@rediffmail.com:1991-03-27:MU:F:82.194.62.100:sugar
sugar_lollipop_p:banana00:mandy__crazy@hotmail.com:1991-03-06:US:F:201.230.107.82:Patty (:
sugar_lollypink:march16::1996-03-16:AU:F:58.165.39.122:Angela
sugar_lollypop:lovezack11::1999-03-19:NL:F:77.166.114.203:milenia
sugar_lollypop_lump:brini43::1996-09-18:ZA:F:41.242.80.185:Laura
sugar_lollys:112266:sugar_lolies@hotmail.com:1990-03-05:AU:M:124.180.178.138:Ben
sugar_lolly_08:webkinz101:ice_creme@live.com:1985-09-09:US:F:24.121.251.244:aly
sugar_loly:zoey101:giulia.zaidan@gmail.com:1909-01-01:BR:F:189.104.82.220:Sugar Pepsi Maradona
sugar_lop98:camila123:CristinaBarreraAguilera@hotmail.com:1987-8-7:PR:F:189.215.30.168:camm
sugar_lovable:timtameeee08::1998-12-24:AU:F:120.152.48.105:asopani
sugar_love:sugarlunna15:lunnacarrizales@ymail.com:1997-12-15:US:F:64.188.213.147:NULL
Sugar_lOve0:dorisjulia00:juliax_tkm@hotmail.com:1997-10-05:PE:F:190.42.81.55:NULL
sugar_love10:natalia10:natalie.2000_@hotmail.com:1992-07-19:US:F:97.119.131.12:NULL
sugar_love23:sugar23::1998-01-05:CA:F:75.156.93.86:Ashley
sugar_love58:845612379sun:lovesun_58@hotmail.com:1996-05-08:MY:F:203.82.91.102:yong
sugar_loveliness:starstar22:heartless_angel_brat@hotmail.com:1989-04-22:VN:F:203.171.195.209:Anita
Sugar_Lover101:SaRap2006:thepittmans.2k3@comcast.net:1993-02-04:US:F:67.183.73.177:NULL
sugar_lover86:nobodyhackit23:bijouthehamster@hotmail.com:1987-07-18:CA:F:69.156.54.211:none
sugar_lover_01:anfi39::1996-08-19:GB:F:81.152.195.236:katie
sugar_lover_10:sugar10:chonnie29@yahoo.com:1993-07-29:AU:F:121.223.101.142:ChontelleLouise
sugar_lover_11:tenerife11:l.painter96@hotmail.co.uk:1996-11-13:GB:F:2.123.89.63:Lucy
sugar_lover_2000:green2000::2000-03-28:US:F:69.254.236.86:Lauri
sugar_lover_3a:hallo12::1997-07-25:DE:M:79.217.78.118:Fatih
sugar_lover_88:nsxw9u:jess_hoover_88@hotmail.com:1988-03-17:US:F:182.237.7.83:Hi Everyone
sugar_lover_96:miri (mary)::miri (mary):miri (mary):miri (mary):miri (mary):miri (mary)
:::::::
sugar_lover_ab:12killer::1997-07-25:DE:M:79.217.68.152:Fatih
sugar_lover_babe:virdy7896:xsugarcrazyx@yahoo.com:1994-07-08:US:F:76.168.96.103:viridiana
sugar_lover_engin:celine11::1998-11-09:DE:M:79.217.117.231:Engin
sugar_lover_sugar:cxetncxetn100:schoolgirl44454@yahoomail.com:1964-05-24:US:F:66.188.45.213:liza
sugar_loves:sydney29:syd94@okcollegestart.org:1993-04-14:US:F:65.70.87.3:sydney
sugar_love_15:madison13::2002-07-29:US:F:149.101.1.119:NULL
sugar_love_5:manchester229::2003-08-25:GB2:F:86.181.165.234:jo
sugar_love_56:sugar567::1996-01-05:CA:F:76.67.54.204:hannah
Sugar_Love_6897:bonbon6897:nickyc6897@hotmail.com:1997-08-06:MT:F:195.158.102.122:NULL
sugar_lulu:yinyang27:livexlaughxlove@live.ca:1991-04-18:US:F:76.66.56.169:Lola
sugar_lump12:wetback1967:slump12@yahoo.com:1967-09-22:US:F:24.175.216.160:Mindy
sugar_lump22:wetback1967:slump12@yahoo.com:1967-09-22:US:F:24.175.216.160:Mindy
sugar_lump48:qwertyme48::2000-04-10:GB:F:78.105.61.22:Marlileze
sugar_lumps1:sugar123::1997-08-22:GB:F:86.143.115.12:paige
sugar_lumps101:sugarlumps101::1997-10-01:PK:F:58.27.180.244:mini
sugar_lumps7:sugarlumps07:teejaydun@sympatico.ca:1995-01-21:NZ:F:66.78.125.50:Lindsay Taylor
sugar_lumps_x:Goodmans123:midget-fin@hotmail.co.uk:1995-05-27:GB:F:91.109.226.156:finley
Sugar_lumpy:ilovemeat88:meatballies@gmail.com:1988-06-12:BG:F:76.112.240.159:NULL
sugar_lumpzxoxo:fab2406:tabtilachowdhury@yahoo.com:1995-07-31:US:F:24.192.168.227:Tabtila
sugar_lump_91:year1991:char_jin91@hotmail.com:1991-02-04:SG:F:82.30.144.208:Charmaine Jin
sugar_lump_sweetie:Baby_cakes:emmakissane@onetel.com:1988-07-16:GB:F:none:jessica lipssmacker
sugar_lump__81:hamilton45::1998-01-15:US:F:71.175.144.69:inez
sugar_lune:sugar2::1993-12-21:JP:F:none:sugar_lune
sugar_lust:bladerdash:vampire_mushrooms@yahoo.com:1988-01-15:AU:F:none:Sugar Lust
sugar_lust89:10271962:witchwendy@hotmail.com:1989-01-15:AU:F:none:Piggie Pug
sugar_luv:h2882:stormyrules@cox.net:1991-12-19:AR:F:none:baseball  freak
sugar_luv101:vipan:vipan_viper56@hotmail.com:1992-05-28:CA:F:none:Sugar Luv
sugar_luv12:lavendar::1992-09-01:US:F:none:sugar_luv12
sugar_luv1200:kstar:blue10cat@yahoo.com:1989-05-22:US:F:none:eileen joh
sugar_luv123:blake:sugar_luv123@yahoo.com:1991-02-20:US:F:none:alana ogden
sugar_luv258:secret:missspider258@aol.com:1989-06-01:GB:F:none:Terri X
sugar_luva:jewel%9:aries89a@aol.com:1988-03-23:US:F:none:Christina
sugar_luvar09:finnie*:onz95@aol.com:1992-01-09:US:F:none:Anya
sugar_luva_4_eva:cascade:ameywolfe@hotmail.com:1990-09-18:GB:F:none:sugar_luva_4_eva
sugar_luver09:shireen:murshida9@hotmail.com:1963-08-21:US:F:none:sugar_luver09 narry
sugar_luver14:scorpion:soccersteph1988@yahoo.com:1988-09-19:US:F:65.31.109.165:Steph N/a
sugar_luver147:147147147:sugar_floatie@hotmail.com:1990-03-20:GB:F:none:flatron flato
sugar_luver22:jesusisourlord:bubble_blowin_babie@hotmail.com:1991-12-22:CA:F:none:Jooyoung Jeon
sugar_luver24:tinkerbell:luv_kiss224@hotmail.com:1991-04-24:JP:F:none:Sara Malamud
sugar_luver369:bubbles36:jame-s@cox.net:1993-02-14:US:M:none:james ronald
sugar_luver460:dogsrock::1994-05-03:US:F:none:sugar_luver460
sugar_luver6:sugar::1992-02-23:CA:F:none:sugar_luver6
sugar_luver_1324:cheese123:dzkneelandagain@google.com:1992-08-24:US:F:67.150.244.31:Anjelica
sugar_luver_5:school08:messie.jessie123@hotmail.com:1992-11-05:CA:F:74.104.10.103:jessica
sugar_luvie:tinkerbellgrl77777:tink_rox_mi_sox@yahoo.com:1991-02-14:US:F:71.121.145.179:
sugar_luvr:ragus:sugar@ilovechocolate.com:1987-10-13:US:F:Mail from shelby71801:Sugar Lover
sugar_luvr_16:091823:animefreek_16@hotmail.com:1989-11-09:CA:F:none:Elianne Goupil
sugar_luvs_her_baby:baby(marc):brittbrittneygrl@hotmail.com:1993-04-06:US:F:76.244.25.28:brittney
:::::::
sugar_luvs_matt:allen1:thesugary1@yahoo.com:1991-03-08:US:F:none:sarrah leonard
sugar_luvs_me818:sk8er:etnie_girl212@yahoo.com:1988-12-23:US:F:none:sugar luver
sugar_luvs_u:sugarluvsu:sugar_is_sweet_69@hotmail.com:1987-01-19:US:F:none:paige coyote
sugar_luvur:luvbug2:snowflake6@charter.net:1988-09-10:US:F:none:Alycia Guerrero
sugar_luvva08:sideaccount08:g_ena93@live.co.uk:1993-08-14:GB:F:78.144.154.59:Ask me Im right behind you
sugar_luv_:school30::2001-09-01:US:F:99.63.196.222:NULL
sugar_luv_1_2_3:jordyn11::1997-04-13:US:F:207.200.116.138:jordyn
sugar_luv_56:vipan:vipan_viper56@hotmail.com:1992-05-16:CA:F:none:Sugar Luv
sugar_luv_babii:maria!::1993-05-25:US:F:none:maria alonzo
sugar_luv_mia:1lover:marie_ginger@hotmail.com:1989-09-26:CA:F:none:marie macweat
sugar_lver1995:alicialorraine123:confirm@confirm.net:1988-01-23:US:F:none:Aly none-o-your -business
sugar_lvr123:purple24:marlene0928@yahoo.com:1991-09-28:US:F:189.163.35.198:Stephanie
sugar_lylas_sister:sadie12:lylas_621@hotmail.com:1985-06-21:US:F:64.136.26.228:Katt
sugar_lynette_rush:heart chalice:calinku_miraki@yahoo.com:1988-08-02:US:F:none:Sugar Rush
sugar_lynz:d51Nn5:lyn_lim@pacific.net.sg:1958-12-21:SG:F:220.255.2.147:Linda Lim
sugar_m:melissa:sugarbabes_box@hotmail.com:1989-01-13:AU:F:none:melissa maher
sugar_m00fin:qwegh!:endangered.freedom@hotmail.com:1988-05-23:CA:F:none:Madison Greystone
sugar_m23:winston23:henryandapril@verizon.net:1994-08-23:US:F:72.67.89.9:Maylin
sugar_m7:SANJAYISAFUCKER:thakur_tina@hotmail.com:1983-06-12:CA:F:none:Tina Thakur
sugar_ma21:portugal:samantha_31785@hotmail.com:1961-01-11:GB:F:none:shawn Riddlesden
sugar_mabel:annihilator90:may_may_ppg@yahoo.com.hk:1989-11-16:HK:F:none:NganMabel
sugar_macabre:duck123:chained_by_lust@hotmail.com:1991-07-04:AU:F:none:Kayla Parkinson
sugar_mackie:trevor12::1999-04-20::F:173.87.17.142:NULL
sugar_maddie:569222::1998-05-21:GB:F:84.13.173.63:madison
sugar_maddy:515335:julia.shoebridge@googlemail.com:1994-05-21:GB:F:84.13.173.63:julia
sugar_made_angel:detiny:supreme_angel77@hotmail.com:1901-11-24:BA:F:none:Crap On Me
sugar_madness:vladimir:tropicalsugarbabe@yahoo.ca:1979-06-20:CA:F:none:Lena
sugar_madness98:lwang522001::1998-12-25:CA:F:99.253.163.16:Gabbie
sugar_madnessxx:mememe:darkfairyxx@hotmail.co.uk:1987-07-12::F:90.203.57.156:Lilly Stante
sugar_mady:123lulu123::2000-8-8:GB:F:90.220.147.200:madeleine
Sugar_Mag:artdeco2011:chinacatfish@gmail.com:1969-03-19:US:F:98.114.178.140:NULL
sugar_magic:k2j5c4:www.touellc519@rogers.com:1991-01-02:CA:F:none:Jessica Ouellette
sugar_magic224:eliza224::1996-07-12:AU:F:220.253.3.235:Eliza
sugar_magick:wallpaper:jesuslivesincyberspace@hotmail.com:1984-03-25:GB:F:none:fritz kassoff
sugar_magic_dragon:Eragon19:zachmoreno@comcast.net:1988-09-19:US:F:24.118.38.44:Britany
sugar_magik_baby:nakkan12:em.nak@hotmail.com:1908-07-01:AQ:F:58.168.32.215:Michelle-Rose
sugar_magn0lia:littlewerthers45:tulipoflower@yahoo.com:1992-01-03:GB:M:99.162.88.165:NULL
sugar_magnolia:5384202::1978-05-18:US:F:none:<u> </u>
sugar_magnolia17:Earless:littlemeg27@comporium.net:1987-08-27:US:F:none:Brenna Pavlinchak
sugar_magnolia19:hippie420:sugarmagnolia_36@hotmail.com:1983-10-03:CA:F:none:Dana Horoky
sugar_magnolia321:lucky77:iggy54321@gmail.com:1989-10-14:US:F:12.219.233.42:susan
sugar_magnolia420:madeline::1980-02-03:US:F:none:DeadHead
sugar_magnolia47:dinah51504:gbadiorio@gmail.com:1985-08-04:US:F:24.90.8.228:Genevieve
Sugar_magnolia88:kaktus88:candleocean@yahoo.se:1988-07-05:SE:F:81.224.117.153:NULL
sugar_magnolias:thomas:tinkerbell_leavell_2009@yahoo.com:1989-12-10:US:F:none:tink bell
sugar_magnolya:steve1:sucremagnolia@yahoo.com:1970-06-05:US:F:50.90.9.148:Blossoms Blooming
sugar_magz:wormie:maggiemelendez@yahoo.com:1989-11-03:US:F:none:MaggieLuvzsuga
sugar_maiden_911:fuckfuck:chattingformusic@msn.com:1984-09-07:US:F:Mail from fairywolf222:Us
sugar_mail:code123::1995-11-07:CA:F:none:sugar_mail
sugar_maker:fqaocmzk12:giovanna_tabano@hotmail.com:1991-10-21:BR:F:189.121.120.60:Giovanna
sugar_makes_me_crazy:good12:cferguson2@pvlearners.net:1990-01-18:US:F:68.106.252.216:Why you looking?
sugar_makes_me_happy:sugar320:crazyladies320@yahoo.com:1988-07-19:US:F:none:Hey Yal!
sugar_makes_me_hyper:glanmire!:emilieodriscoll@yahoo.ie:1991-05-06:IE:F:none:Emilie ODriscoll
sugar_makes_me_silly:pepper1:sugar_equals_love@yahoo.com:1992-09-09:US:F:none:Crazzy Chicken
sugar_makes_u_hy:madeincanada:garbage_queen@hotmail.com:1983-08-05:CA:F:none:Sugar Hy
sugar_maki:coconut:sugar_maki2000@yahoo.com:1990-01-01:US:F:Trade Closed:Doll Marie
sugar_mali:sugar_mail22:heidi.wheeler@hotmail.com:1993-07-25:AU:F:121.217.25.247:heidi
sugar_malika:malikakhan12::1996-05-15:US:F:173.20.56.108:malika
sugar_mama:2457699:west_beach_360@hotmail.com:1986-05-21:CA:F:neofriend:Chelsea Blanchard
sugar_mama001:jenelle::1992-06-09:CA:F:none:sugar_mama001
sugar_mama0293:teairra11::1993-02-11:US:F:none:sugar_mama0293
sugar_mama08:michigan:egirl08@yahoo.com:1980-05-07:ZW:M:Mail from au_michelle:LizTurner
sugar_mama1:sugarpie32::1996-10-14:US:F:76.124.112.213:Sage
sugar_mama101:english101:sheila.a.graham@gmail.com:1991-12-07:CA:F:68.147.23.116:Sheila
sugar_mama111:sugar:r_fernandez0208@yahoo.com:1901-02-01:PH:F:Can I be your NeoFriend?:sugar mama
sugar_mama114:absol::1992-11-11:CA:F:none:none
sugar_mama123222:scott:sweet_thing144@hotmail.com:1989-04-14:CA:F:none:jessica t
sugar_mama12_mm:cha123una456:sexy_hot-babe-from-hell666@hotmail.com:1987-04-23:CA:F:65.95.105.204:bill clinton
sugar_mama13:2346897:pinkpeddle8@yahoo.com:1996-08-20:US:F:71.200.18.117:najah
sugar_mama1356:wicked:white_gravy_69@yahoo.com:1987-03-21:US:F:none:Michelle Battyanyi
sugar_mama143:scott:sweet_thing144@hotmail.com:1989-04-14:CA:F:none:jessica robinson
sugar_mama15:buster14::1992-04-14:GB:F:88.110.42.230:Melanie
sugar_mama15843:jack_slager:mariannaemohney@hotmail.com:1971-09-28:US:F:none:carrie mohney
sugar_mama18:123456a:sugar.mama18@yahoo.com:1988-10-16:US:F:70.20.110.179:Becky
sugar_mama185:kirsche1:jeandark11584@aol.com:1985-05-11:DE:F:none:Alexandra Müller
sugar_mama195:52661:roxc_rachel@hotmail.com:1992-05-19:NZ:F:none:rachel taylor
sugar_mama1991:hamilton5::1991-05-22:US:F:none:Amanda Y.
sugar_mama1992:Lizzy::1992-05-02:US:F:none:sugar_mama1992
sugar_mama199218:voilet04:sugar_mama1992@hotmail.com:1992-04-01:CA:F:174.112.225.52:kerry
sugar_mama1995:billy1997:sugar_daddy1995@yahoo.com:1995-07-25:US:F:75.69.88.230:shelby
sugar_mama2010:BABYGIRL::1992-08-01:US:F:none:sugar_mama2010
sugar_mama21:sugarpie:ghetto_gurl151@hotmail.com:1991-01-25:CA:F:none:melanie williams
sugar_mama210:pizzapie345:crislercr@msn.com:1970-01-05:US:F:none:Rebecca
sugar_mama22:arianna21:ctt54233@yahoo.com:1971-03-25:US:F:12.217.199.55:Candice
sugar_mama2222:lizzy:jruedas@mybluelight.com:1991-05-02:US:F:none:Elizabeth Ruedas
