sugar_pie1005:1005chan:sb.esquire@gmail.com:1987-10-05:CA:F:67.193.163.211:benj
sugar_pie101:davidbowie3:lazygirltwo@yahoo.com:1991-05-28:US:F:none:Mary Roney
sugar_pie1010:replay1010:dancergirl1010@roadrunner.com:1995-03-13:US:F:66.74.201.137:Chuck
sugar_pie1011:101187:princess_babe_757@hotmail.com:1987-10-11:US:F:none:Jenny Kinkaid
sugar_pie103:bratz:christina_466@hotmail.com:1989-05-27:CA:F:none:Jessie
sugar_pie1034:jakeryan1034:kchawk7@aim.com:1988-02-18:US:F:none:Kara H.
sugar_pie105:rabbits::1992-05-01:GB:F:none:sugar_pie105
sugar_pie106:busterbrown:sugar_pie106@hotmail.com:1988-12-27:CA:F:none:Bailee Allen
sugar_pie107:bubbles25:redeye02@sprynet.com:1990-04-20:US:F:none:Rachel Stoops
sugar_pie114:mclean123:peppermint783@hotmail.com:1988-02-26:US:F:none:blah
sugar_pie12:joysyratt:blueberry_pie12@hotmail.com:1987-12-09:CA:F:Acceptance:meghan luttrell
sugar_pie1210:yapjiamun:jiamun@hotmail.com:1987-12-12:MY:F:none:carmen  yap
sugar_pie1222:shitcar::1993-04-22:AU:F:none:sugar_pie1222
sugar_pie123:heather:sugar_pie123@sbcglobal.net:1992-03-29:US:F:none:Darrian Cross
sugar_pie1232:vanessa:namyerg@exite.com:1991-06-21:US:F:none:vanessa hattan
sugar_pie1234:445678:jburgessfam@yahoo.com:1993-04-14:US:F:64.203.180.158:gabriela
sugar_pie12345:sana123::2001-11-14:IN:F:59.92.127.102:sana
sugar_pie1234__15:6682891:satanist_goth_klown@hotmail.com:1987-07-27:CA:F:none:charlene rivard
sugar_pie123_s32:stanky2010::2000-6-20:US:F:173.73.121.132:mya
sugar_pie124:mumanddad1:sugar_pie124@hotmail.com:1992-12-08:AU:F:203.164.206.81:sugar baby
sugar_pie13:cutie:ewilder@twmi.rr.com:1987-07-13:US:F:none:emily wilder
sugar_pie130:iloveelijahwood:ktheaven@hotmail.com:1982-01-24:CA:F:none:Kymberly Tisher
sugar_pie132:nikolina::1990-09-05:CA:F:24.71.97.68:none
sugar_pie1324:irox4ever:sugar_pie124@hotmail.com:1992-12-08:AU:F:none:roxy foxy
sugar_pie135:xxxshortiexxx97:popdivajuls97@gmail.com:1993-07-04:US:F:68.81.188.111:Julia
sugar_pie14:385500::1993-11-14:CA:F:none:sugar_pie14
sugar_pie141:urweird*:rkwhynot@eastlink.ca:1991-07-04:CA:F:none:Ashley Whynot
sugar_pie143neo:jelly::1991-04-19:US:F:none:sugar_pie143neo
sugar_pie144:loley:messy_jessy8@hotmail.com:1992-02-04:AU:F:none:jessica curtin
sugar_pie156:bella:sugar_pie156@hotmail.com:1988-04-07:CA:F:none:chandni d
sugar_pie157:0634234383p75x3:tina_pina123@hotmail.com:1989-03-16:CA:F:99.238.110.21:tina
sugar_pie159:i_luv_james::1992-02-17:NZ:F:none:sugar_pie159
sugar_pie1594:missyjay15:smart_monkey1594@hotmail.com:1993-09-15:CA:F:74.57.161.194:Julia
sugar_pie159587:kayin22::2000-07-13:US:F:68.28.169.230:avery
sugar_pie161:fuckyou:hot_chick_judy92@hotmail.com:1990-05-17:US:F:Mail from multiplayer_setup:judy pom
sugar_pie17:todd17:ashleyvandegrift10@hotmail.com:1989-04-17:US:F:207.224.90.207:Ashley
sugar_pie1990:candy:adramaqueen0818@cs.com:1989-08-18:US:F:none:heather carter
sugar_pie1993:mumsgirl*13:samantha_glodek@yahoo.co.uk:1993-01-13:GB:F:87.113.67.227:Samantha Glodek
sugar_pie2:codybby:kissez_4_yooh@hotmail.com:1985-05-31:CA:F:Mail from theneopetsteam:MissKrissie
sugar_pie2005:sugar and spice::1992-11-19:BY:F:none:sugar_pie2005
sugar_pie2011:simon77:sugar_pie2011@yahoo.com:1991-10-13:US:F:69.205.158.223:Natalie
sugar_pie21:hannah21:hannah_kiltz@hotmail.com:1991-07-09:CA:F:65.92.46.20:melissa
sugar_pie2112:sabrina!::1992-10-21:CA:F:none:sugar_pie2112
sugar_pie218:seed87:mmontes@gatewayhigh.net:1991-04-16:US:F:75.18.241.98:Melly
sugar_pie219:password10::1999-05-05:US:F:24.32.148.55:carin
sugar_pie22:hayley::1993-11-06:CA:F:none:sugar_pie22
sugar_pie231:stars:kinny_laughs@yahoo.com:1990-10-03:US:F:none:hidi jackson
sugar_pie2313:sugarpie2313::1993-11-13:US:F:none:sugar_pie2313
sugar_pie2314:sugarpie2314::1993-11-13:US:F:none:sugar_pie2314
sugar_pie2464:090796:smiley_blink1a2@yahoo.com:1987-10-18:US:F:none:Buggie Squash
sugar_pie249:123trixie:lani@interbel.net:1964-04-27:US:F:65.19.234.26:LC
sugar_pie25:swimming:cutie_chicky25@hotmail.com:1987-11-25:NZ:F:125.239.80.144:krystine barrett
sugar_pie25535:redearing:pisces_princess203@hotmail.com:1990-02-20:CA:F:item:MelissaKate
sugar_pie26:scooter97:banana_peel97@yahoo.ca:1980-01-01:TD:F:154.20.108.211:katie wong
SuGaR_pIe263:Rafael12::2000-06-17:US:F:98.119.140.16:NULL
sugar_pie26578:emmabeth7:cookiecrisp118@aol.com:1992-06-08:IT:F:none:emma rosenbaum
sugar_pie303__ll:stinkbug7_69:hpass@sasktel.net:1988-10-31:CA:F:none:candy landy
sugar_pie309:cardinals::1993-08-24:US:F:none:sugar_pie309
sugar_pie310:sugarplum:sugarplumfairy_80@hotmail.com:1990-09-07:BD:0:none:Dayna ffshdfb
sugar_pie32:password::1992-03-08:CA:F:none:sugar_pie32
sugar_pie321:corina:sugar_pie111@hotmail.com:1988-11-17:CA:F:none:sam h
sugar_pie3213:445678:jburgessfam@ntelos.com:1993-04-14:US:F:64.203.180.167:gabriela
sugar_pie324:btr456:eddiemiranda@bellsouth.net:1991-2-23:US:F:98.64.219.216:hannah
sugar_pie32_1:halo123:lovekarleene@yahoo.com:1989-07-02:US:F:none:Karleene Mraz
sugar_pie341:bubbles:baby_chick93@hotmail.com:1991-07-23:CA:F:none:chloe wong
sugar_pie358:bubble:strawbeez@aol.com:1986-01-29:CA:F:none:Becky
sugar_pie372:pizza::1991-12-04:CA:F:Trade Closed:sugar_pie372
sugar_pie417:sugar:pirate4ever714@aol.com:1988-03-29:US:F:none:U don\t Need to Know
sugar_pie442:smith::1992-11-15:US:F:none:sugar_pie442
sugar_pie46123:alwayssugar123:tikypiky_13@hotmail.com:1993-02-16:US:F:none:theresa borg
sugar_pie4650:chicken5473539:rap_master92@hotmail.com:1982-01-20:CA:F:68.147.70.107:Johanna
sugar_pie505:sunshine:brittneyjolene@msn.com:1987-07-13:US:F:none:brittney debourbon
sugar_pie512:100394:cocobong512@yahoo.com:1990-02-25:US:F:none:JoJo Cominella
sugar_pie5221489:aaams1234:devanteboo_123@yahoo.com:1988-01-03:US:F:69.19.14.37:angelica
sugar_pie543212004:Bobica123:lil_gurl1990@sbcglobal.net:1990-05-29:US:F:none:Candice W.
sugar_pie555:sugar pie555::1999-08-07:CA:F:99.227.162.131:pavi
sugar_pie555_5:555pie:soccergrl_1995@yahoo.com:1989-03-31:US:F:67.160.158.27:kelsi jacobson
sugar_pie61:piesryum::1991-12-16:NZ:F:none:sugar_pie61
sugar_pie654:sugar_pie456:rolipoli@comcast.net:1993-05-09:US:F:71.33.201.215:Haleigh
sugar_pie66:ppiiee44:shazzya9210@hotmail.com:1992-09-07:AU:F:none:shazzy amjadi
sugar_pie67:victoria:gummie_bear233@hotmail.com:1985-05-01:CA:F:none:Toria D\\
sugar_pie68210:brittany::1991-12-12:CA:F:none:sugar_pie68210
sugar_pie69:daniel31:weed_girl_16@hotmail.com:1990-06-08:CA:F:70.49.131.171:ashlee
sugar_pie701:sexy101:lazy_angel002@hotmail.com:1988-01-23:IE:F:none:lila hoho
sugar_pie714:CoolRanch1::1993-07-14:US:F:none:sugar_pie714
sugar_pie768:L00SER:greenrongreen@yahoo.com:1987-04-07:US:F:none:Nora James
sugar_pie777:evgr1993:princess71718@hotmail.com:1992-04-06:CA:F:none:Emily Railton
sugar_pie789:midnight123::1997-04-19:CA:F:67.193.209.212:tasha
sugar_pie7902:christy:sugar_pie7902@yahoo.com:1979-02-22:US:F:none:Sara Schmidtka
sugar_pie803:roxy!:g.martin@xtra.co.nz:1992-05-09:NZ:F:none:Summer Winter
sugar_pie804:dreams:lizzylizard8@aol.com:1988-08-04:US:F:none:~Lizzy~
sugar_pie87:loveu99:meshell_1987@hotmail.com:1987-10-06:MY:F:124.82.113.223:cutie
sugar_pie880:joyjoy34:littlellama15@hotmail.com:1994-09-18:US:F:74.232.89.125:Summer
sugar_pie911:sweet::1993-07-02:CA:F:none:sugar_pie911
sugar_pie93:poodle::1993-11-15:US:F:none:sugar_pie93
sugar_pie939:98989::1993-02-19:CA:F:none:none
sugar_pie94:Simone:one_outrageous_girl@hotmail.com:1990-05-21:US:F:none:x SiMMY
sugar_pie98:honey bunch67::1997-02-07:US:F:69.105.150.197:valerie iriarte
sugar_pie990:sexxy::1994-01-10:CA:F:none:sugar_pie990
sugar_pie999:melaniem:cherrytwist21@aol.com:1982-04-01:US:F:none:Mel Hoff
sugar_pieabc:poohbear9376:jo_jo9376@hotmail.com:1986-03-24:CA:F:none:Jojo Loiselle
sugar_pieamy:sugarpie::1992-11-03:AU:F:none:sugar_pieamy
sugar_pieces:married12:sweet_as_chocolate05@hotmail.com:1990-08-12:GB:F:78.151.241.130:elle
sugar_piee:shannonw7:shannon-merie@hotmail.com:1992-08-20:CA:F:none:shannon jac
sugar_pielovers:240195:crystal_lovebirds@yahoo.com.sg:1987-01-24:SG:F:none:Crystal Corals
sugar_pies:recreio12:thecaioi@hotmail.com:1990-07-18:BR:M:189.107.174.88:Pie
sugar_pies760:voice:alisalizzie@ezweb.ne.jp:1990-04-10:GB:F:none:Lilly juni
sugar_pieuno:134679852:sugar_pieuno@yahoo.com:1984-09-25:CA:F:none:kickit lil
sugar_piez:mewmewpower1:luckster2004@hotmail.com:1991-11-11:US:F:24.31.121.189:Cocoa
sugar_pie_:hunnybun41:ppolly2000@hotmail.com:1987-02-18:NZ:F:219.89.147.128:sugar  pie
sugar_pie_00:sweetcake00:talkinggirl12@hotmail.com:1990-01-28:US:F:none:Chelsie Patterson
sugar_pie_002:sweetcake00:talkinggirl12@hotmail.com:1990-01-28:US:F:none:Chelsie Patterson
sugar_pie_01:*hello11:winniegirl33@hotmail.com:1991-02-11:CA:F:209.161.240.175:Nicky
sugar_pie_03_:japan:sophie_o4@msn.com:1986-03-25:NZ:F:none:Emma Lucas
sugar_pie_04:harris04::1997-02-01:TR:F:69.128.233.89:emster
Sugar_Pie_10:thefray10:bapalapalue@ymail.com:1995-11-02::F:174.19.86.12:NULL
sugar_pie_14:cookies14::1997-06-26:US:F:72.137.227.103:miley
sugar_pie_16:sangel77:angels_r_4ever16@hotmail.com:1988-07-30:CA:F:131.104.249.38:Sammi
sugar_pie_1991:smokey11:taconb01@yahoo.com:1991-11-24:US:F:70.149.134.128:Nicole
sugar_pie_1992:honeybee102:march_angel@sky.com:1992-03-20:GB:F:90.213.98.50:Fiona
sugar_pie_1_2_3:kepp!!98::1999-01-01:AU:F:58.178.159.57:Sez
sugar_pie_2:ul188apv::1997-06-25:IE:F:86.40.218.104:Aisling
sugar_pie_203:meanster67:justcrapo303@yahoo.com:1994-04-14:US:F:68.126.20.14:Sugar
sugar_pie_34:molly63::1999-01-08:US:F:206.176.103.66:mikayla
sugar_pie_3_3:dashy80d::2002-08-15:AU:F:123.211.17.79:daisy
sugar_pie_622:june221998::1998-06-22:US:F:76.102.115.254:Annalie
Sugar_pie_7:heritage2102::1999-11-24:IN:F:122.169.24.127:NULL
sugar_pie_81:neopets81::1997-06-21:US:F:72.197.140.212:adrianna
sugar_pie_9:jazzy203::1999-01-28:GI:F:92.7.16.233:Jasmin
sugar_pie_girl:yara187::1997-08-15:EG:F:217.54.204.73:rora
sugar_pie_honey_bun9:chrisb14:angelbrebre13@yahoo.com:1992-07-22:US:F:66.177.111.71:Breana
sugar_pie_honey_buns:fuzzy112:chw737@sbcglobal.net:1993-02-10:US:F:69.14.204.221:maralee
sugar_pie_kk:Franklin 123::2003-01-30:US:F:76.94.65.158:Kaela
sugar_pie_love333::::::220.253.92.48:NULL
Sugar_Pie_Sweetheart:cameron123456:sabrinadickerman@yahoo.com:1997-6-9:US:F:24.22.197.35:Sabrina
sugar_pie__22:sam123::2002-02-20:US:F:71.231.173.235:samantha
sugar_piink:jane1spotty2:sugarpink01@aol.com:1989-08-03:NZ:F:81.158.176.60:Carly
sugar_pill_effect:seda100%:sinkgremlins@hotmail.com:1990-12-01:US:F:65.30.188.253:Amanda
sugar_pinch:sugardash18:farahismail@ymail.com:1986-04-16:US:F:72.129.20.84:dash
sugar_pinch33:sugardash11::1996-04-16:US:F:72.129.20.84:amy_3133
sugar_pinch_3_3_3:sugardash18::1996-04-16:US:F:72.129.20.84:amy_ dash3133
sugar_pine:c0rsiva::1993-07-04:US:F:none:sugar_pine
sugar_pineapple:suga_:wfstott@bigpond.com:1988-11-30:AU:F:none:Amanda Cha
sugar_pink:fudencio:sugar_pink@hotmail.com:1986-11-26:BR:F:none:Dani Machado
sugar_pink0101:010191:lauramary0101@hotmail.com:1991-01-01:US:F:Mail from punkin1077:Pinkbabii
sugar_pink20:MINIME_FURBY::1992-10-12:GB:F:none:sugar_pink20
sugar_pink58:sugarpink:muslim_angel1@hotmail.com:1990-11-02:CA:F:none:Gulnazli Yilmaz
sugar_pink77:vampier77:juciyfruitselect@googlemail.com:1994-03-08:GB:F:82.45.118.183:Mollie
sugar_pink922:makalah22:hyper_chick_94@yahoo.com:1993-02-24:US:F:none:Khadijah Mclain
sugar_pink93:berlioz*::1993-07-07:FR:F:none:sugar_pink93
sugar_pinks:magistr:sugar_pinks@hotmail.com:1989-02-10:CA:F:none:Joãny LuSsier
sugar_pink_14:dora2:kmarie@prodigy.net:1985-07-13:US:F:none:kristin olsen
sugar_pink_bubble:lollipop11:frankiexx_25@hotmail.com:1992-11-20:GB:F:87.228.228.78:Frankie
sugar_pink_bubblegum:gaggymnasticsgag99::1990-09-15:CA:F:none:kitkat
sugar_pink_caro:juliebee39:caroline341@hotmail.com:1991-05-26:CA:F:none:Caroline Bertrand
sugar_pink_faerie:ilovetom:funki_faerie@hotmail.com:1990-03-02:GB:F:none:becki
sugar_pink_fairy:jimmersnicole4230:cyndellnight@yahoo.com:1997-03-25:US:F:50.108.52.41:taylor
sugar_pink_heart:elijah11::1997-02-19:US:F:24.44.235.233:julia
sugar_pink_ichigo:thriller123::1994-01-08:AU:F:none:sugar_pink_ichigo
sugar_pink_kel:ryley1::1993-12-21:AU:F:none:sugar_pink_kel
sugar_pink_kimicy:shaana01::2001-08-29:GB:F:90.192.49.203:NULL
sugar_pink_kitty:23_06_94:ella@macks.plus.com:1991-06-23:GB:F:84.92.63.184:Ella
sugar_pink_lemon:star*:shootingstarssm@aol.com:1992-07-31:US:F:24.1.103.129:Nadia Mahmood
Sugar_pink_love:14_4_2008:sugar_pink@live.com.pt:1993-5-7:FR:F:85.240.19.123:Suguie
sugar_pink_sammyb:tomsmells:miss_perfection69@hotmail.co.uk:1989-09-30:GB:F:none:samantha belgrave
sugar_piper:034245::2000-04-15:US:F:71.149.160.81:piper
sugar_pirate:orly_luvvah:nizzy_the_great@sbcglobal.net:1991-04-29:US:F:none:Celeste Arruda
sugar_pirates:dropje!95:didi-pop@hotmail.com:1988-01-31:NL:F:85.145.237.223:Marianne
sugar_pirate_ladies:ilove_kai:seinsiedler@yahoo.com:1987-08-11:SI:F:none:Maa einsiedler
sugar_pixel:busted::1994-01-13:GB:F:none:sugar_pixel
sugar_pixels:pixels::1990-04-23:CA:F:none:Jessica Dubauskas
sugar_pixie02:brenden:tacos_pocket@hotmail.com:1984-03-18:US:F:none:CJ Hirning
sugar_pixie10:oneym3yea:sugar_pixie10@hotmail.com:1990-10-10:CA:F:none:ardelis y
sugar_pixie14:4teenmonkeys:rjvella@tpg.com.au:1989-04-14:AU:F:124.191.32.212:robyn vella
sugar_pixie59:aurelia15:blitzchick187@hotmail.com:1986-11-15:AU:F:58.106.112.116:Hannah
sugar_pixies:zaq12wsx:fafafooey@wideopenwest.com:1993-04-21:US:F:none:i have no name
sugar_pixie_13:jade02:tolittletomuch@aol.com:1985-09-20:US:F:69.138.135.240:brittany
sugar_pixie_luv:coroda::1993-05-17:CA:F:none:sugar_pixie_luv
sugar_pixle:candylove123:melissa6559@yahoo.com:1987-08-30:US:F:none:Melissa Chen
sugar_pixy:holic56:s.w.e.e.t.k.a.i@hotmail.com:1991-06-19:MX:F:189.158.71.253:Sunshine
sugar_pixy_dust:jondavid143:blood_dragoness@yahoo.com:1985-07-08:US:F:75.209.24.42:Ellen
sugar_pi_102104:shadow3236912:mista07@aol.com:1997-07-26:US:F:68.32.19.19:NULL
sugar_pi_honey_bunch:ballerina:balletfreak13@hotmail.com:1990-08-24:US:F:Mail from theneopetsteam:Alexa Harmon
sugar_placebo:kadoo:sugar_placebo@hotmail.com:1990-07-14:CA:F:none:Mary Jane
sugar_planet88:imthebest:lil_queen33@hotmail.com:1985-08-28:US:F:none:andy wilson
sugar_planet_baby:brandy:maxinelansdown@aol.com:1989-02-10:GB:F:92.21.154.183:cherry lips
sugar_plim302:kitten:shellydiva12@hotmail.com:1991-12-27:NZ:F:none:Michelle Davis
sugar_pluberri:trouble3:flynntw@hotmail.com:1986-03-09:CA:F:none:Flynn Raymakers
sugar_pluff_princess:secreteyes:kliki_katti@hotmail.com:1990-02-10:GB:F:none:becky
sugar_plum:::1999-09-09:US:F:186.44.153.19:NULL
Sugar_Plum0:111222:monee-0@hotmail.com:1993-04-15:NZ:F:118.92.62.173:NULL
sugar_plum00:hope faith19::2000-08-10:US:F:108.13.87.40:anna
sugar_plum0000:poodle:smiely_smithers26@hotmail.com:1990-01-03:AU:F:none:gianna Tanswell
sugar_plum001:eastenders::1992-02-02:GB:F:none:sugar_plum001
sugar_plum01:sugarpie10::1998-03-16:GB:F:90.221.253.163:Lola
sugar_plum014:amandaloveschris::1986-11-23:CA:F:none:Mandie Campbell
sugar_plum019:shiznit07:vbabe9@yahoo.com:1985-01-18:US:F:74.74.119.173:Esophagus
sugar_plum0206:_jessie:rugby_redrage_06@hotmail.com:1987-07-08:CA:F:216.123.245.183:Lindsay Petro
sugar_plum0304:gerty::1992-07-26:AU:F:none:none
Sugar_plum0342:wishbone12:c.cutillo.mattes@gmail.com:1992-12-21:CA:F:66.183.176.120:NULL
sugar_plum040:sweetheart79:crazi_canadian23@hotmail.com:1990-08-18:CA:F:none:Tina me!
sugar_plum0403:gerty::1992-07-26:AU:F:none:none
sugar_plum0405:sugar14:lilmel14@hotmail.com:1988-08-17:GB:F:none:melissa campbell
sugar_plum05:sugarplum05:melody143_muah@yahoo.com:1974-03-16:PH:F:112.202.233.210:myra s. castro
sugar_plum077:n2334457625:sugarplum0202@HOTMAIL.COM:1993-01-21:US:F:71.56.133.217:blah
sugar_plum08:wildcats:sugar_plum08@hotmail.com:1987-05-03:US:F:147.126.10.254:ver reyes
sugar_plum0802:pombears0802:podge28@hotmail.co.uk:1993-02-15:GB:F:82.15.231.9:candy_floss
sugar_plum09:AllwayZ09::2001-10-24:CK:F:70.78.219.23:NULL
sugar_plum1:1aubaid:flower_pond15@yahoo.com:1992-06-26:CA:F:none:sara bond
sugar_plum10:JESSICA10:chula_243@yahoo.com:1992-02-20:US:F:64.251.51.2:JESSICA
sugar_plum101:fearless!:dixiedog26@yahoo.com:1990-08-25:US:F:none:Liz Mae
sugar_plum10938:Chocolate24::1998-07-17:AU:F:150.101.253.50:Icy
sugar_plum11:frank11:sugarplum_babe90@yahoo.com:1989-11-01:IN:F:none:apoorva shrivastava
sugar_plum111:afra.08::1999-01-15:GB:F:89.241.253.247:maya
sugar_plum112:fattoretto:dusky_dolphin2002@yahoo.com:1986-09-25:AU:F:none:jenny iris
sugar_plum12:lisa4ever:bring3mout@yahoo.com:1988-09-30:US:M:none:john fajardo
sugar_plum121:blackberry12:farahmusani@hotmail.co.uk:1995-03-09:GB:F:81.101.120.139:NULL
sugar_plum1224:1qaz2wsx:smp62@georgetown.edu:1988-01-20:US:F:none:Stephanie Nugent
sugar_plum123212:ellie123:ejlatham@hotmail.co.uk:1987-08-21:GB:F:81.154.184.51:NULL
sugar_plum1234:honey16::1998-07-01:US:F:76.197.250.4:brianna
sugar_plum123905:puddin:vicsea4@aol.com:1990-10-27:US:F:none:ashley
sugar_plum1280:batback::1992-01-23:US:F:none:sugar_plum1280
sugar_plum12_4:sugarplum22:rachelbron0@gmail.com:1995-08-10:US:F:74.5.10.133:rachel
sugar_plum13:ilovesarah:sugarplum13@hotmail.com:1988-09-14:GB:F:none:Charlotte Baker
sugar_plum1313:tkfkdgo13::1992-08-12:US:F:none:sugar_plum1313
sugar_plum131313:tkfkdgo13:holyshimmery_13@hotmail.com:1954-08-12:US:F:none:Sarah Jung
sugar_plum1320:popgirl123::2000-01-13:AU:F:58.178.46.200:NULL
sugar_plum1321:ILOVEJW:cutie-pie@writeme.com:1991-02-14:US:F:Mail from faeriestarlite:nichole eipsin
sugar_plum14:gardner14::2001-09-23:GB:F:90.50.157.51:alice
sugar_plum1409:sugarplum::1992-09-14:GB:F:none:hayley mallinson
sugar_plum140989:victoria:emily_hirst1989@hotmail.com:1989-09-14:GB:F:none:Emily Hirst
sugar_plum141:rosebud141:vanilla__21@hotmail.com:1988-12-19:CA:F:174.115.131.220:Doris Daily
sugar_plum1415:ballet1415:the_ganders@yahoo.ca:1989-08-14:US:F:none:sugar_plum1415
sugar_plum1416:coolboob:sugar_plum1416@yahoo.com:1990-02-27:US:F:none:Melissa  Reed
sugar_plum147:r2223:rach_the_red@hotmail.com:1992-04-11:NZ:F:122.57.122.111:Shayla Harris
sugar_plum150:84620::1994-01-03:BN:F:none:sugar_plum150
sugar_plum1523:billybear123:princess_laura_11@live.co.uk:1994-04-15:GB:F:86.147.248.207:lauraa.
sugar_plum1590:daines90:daines_90@hotmail.com:1990-06-14:GB:F:none:kelly wright
sugar_plum16:babyfruit16:cnancy122899@aol.com:1980-12-28:US:F:71.102.89.45:Daniela
sugar_plum160:sugar:peter_pizza@hotmail.com:1989-04-30:AU:F:none:ali morrison
sugar_plum1600:doll9:coolkat3@barbie.com:1972-03-23:CA:F:none:no  name
sugar_plum1613:cheerleading:angela_stevenson1@hotmail.com:1989-09-16:KH:F:none:Angie Stevenson
sugar_plum1628:nicola:hunnybunny_1hc@hotmail.com:1991-01-10:GB:F:none:Hannah Clarke
sugar_plum164:mama-bear::1993-05-16:CA:F:none:sugar_plum164
sugar_plum17:cutiepie17:angelbeez90@yahoo.com:1989-10-10:US:F:76.240.82.237:Polly Lolly
sugar_plum178:koydash:hgh785@aol.com:1985-04-27:GB:F:none:shelley hughes
sugar_plum18:madden99::1996-10-18:US:F:71.193.76.59:Tiana
sugar_plum180:shark5:daisy_dukes006@hotmail.com:1992-09-03:CA:F:none:Sammi Parkin
sugar_plum1917:hellnah1:sugarplum84334@aol.com:1984-02-19:US:F:none:Tiffany
sugar_plum193:tundra94:reese_chic_100@hotmail.com:1986-07-03:CA:F:none:chelsey parts
sugar_plum1930:friends:friends_88@hotmail.com:1982-05-11:CA:F:none:Jewels
sugar_plum1989:Kieran:emilyhirst1989@hotmail.com:1989-09-14:GB:F:none:Emily Hirst
sugar_plum199114:teilo13:ceri-ann.charles@ntlworld.com:1991-04-13:GB7:F:none:Ceri-Ann Charles
sugar_plum1993:hunter::1993-06-07:CA:F:none:sugar_plum1993
sugar_plum1994:tweety16:dancing_star16_1994@hotmail.com:1994-10-02:AU:F:122.148.137.81:Sammi
sugar_plum1995:angel66:danse_forever60@yahoo.com:1990-06-12:US:F:none:Katie Rosengarten
sugar_plum1997:maryfatima08::1997-08-28:GB:F:92.21.90.107:Maryniel
Sugar_plum19970:blast97:laurapazumas16@gmail.com:1997-04-04:US:F:184.6.194.186:NULL
sugar_plum1998:pembroke11:sarazonte@hotmail.com:1992-07-01:BM:F:209.107.209.100:sarazonte
sugar_plum1o1:030403::2003-03-04:CA:F:70.65.192.202:ashley
sugar_plum2:dianne28::1996-11-27:US:F:24.192.199.201:dianne
sugar_plum200435:poison:jessika1900@yahoo.com:1985-03-26:BS:F:none:jessika love
sugar_plum200593:ArmyBrat:murtagh2@bellsouth.net:1990-11-26:US:F:none:O O
sugar_plum2010:hilow::1992-06-18:CA:F:none:sugar_plum2010
sugar_plum208:mooncat:emily40252001@yahoo.com:1988-04-28:US:F:none:sidnonnahill
sugar_plum2099:ledger:nwalrond@home.com:1988-01-31:US:F:Acceptance:Nicole W.
sugar_plum21:alvinsmith24:cindymichell766@hotmail.com:1987-06-21:CO:F:none:cynthia michell
sugar_plum2114:niko71:miwell@verizon.net:1991-07-28:US:F:none:Shelby Lavely
sugar_plum2121:2706sticks::1997-05-18:CA:F:none:sugar_plum2121
sugar_plum2187:daisy::1987-12-21:CA:F:96.50.183.242:Lexi Demeyere
sugar_plum22:cormick!:naomicormick@hotmail.com:1990-03-18:US:F:none:naomi blue
sugar_plum229:cupcake:jesskelly120@hotmail.com:1990-10-26:GB:F:Mail from sugar_plum229:Jessica  Kelly
sugar_plum22_94:kumba1:awa_topaz@hotmail.com:1993-04-22:GB:F:none:awa negri
sugar_plum23100:JasmineM.::1992-03-14:US:F:none:sugar_plum23100
sugar_plum24:chocolate123abc::1998-07-03:AU:F:150.101.253.50:Snuffy
sugar_plum2412:smp012088:smp62@georgetown.edu:1988-01-20:US:F:71.239.40.44:Stephanie ooo
sugar_plum250:brandy250::1999-06-17:US:F:82.22.163.248:emily
sugar_plum2563:fey2563::1996-08-23:US:F:75.43.193.69:fey
sugar_plum27:piano32:kristigarcia@baymoon.com:1996-08-29:US:F:63.249.116.199:Kristi
sugar_plum2739:sugar_plum:mamiehc@hotmail.com:1990-09-14:AU:F:none:Mamie Hazeldine
sugar_plum286:maxie:tigerrocks_6@hotmail.com:1982-10-10:CA:F:none:rachel jhfseguryseiugfwy
sugar_plum29_29:iloveangel2929::1997-07-07:US:F:68.3.230.129:Dylaney
sugar_plum29_9:iloveangel29:chicks445@msn.com:1994-07-07:US:F:68.3.230.129:Dylaney
sugar_plum3:rheeisthebest12:l1l_ch42@hotmail.co.uk:1994-12-24:GB:F:90.211.212.108:Rhiannon
sugar_plum30:Ilovangel30:dylaney.hicks@yahoo.com:1995-07-07:US:F:97.124.26.87:Dylaney
sugar_plum3000114:sweetsugar::1991-04-29:US:F:none:sugar_plum3000114
sugar_plum306306:dozza:cheeky_devil_912@hotmail.com:1992-05-18:AU:F:none:sugar_plum306306
sugar_plum31:brownies31:Roxygrl53191@aol.com:1991-05-31:US:F:69.123.21.35:Fran
sugar_plum310:strawberry1:hershy_hug@hotmail.com:1989-04-20:CA:F:72.12.144.114:Kelsey
sugar_plum311:65011:j0y_winnie@yahoo.com:1992-02-28:US:F:none:Charlene-Ann B.
Sugar_Plum318:brownies31:roxygrl53191@aol.com:1991-05-31::F:69.113.141.169:NULL
sugar_plum325:mikaila11:lil_dude253@yahoo.com:1992-05-20:US:F:72.183.228.137:mikaila
sugar_plum326:shelbymj:cartoonorbitboy@msn.com:1991-05-05:US:M:none:General
sugar_plum333:sweetie333:siennalevae@hotmail.com:1988-04-10:CA:F:none:Sugar Plum
sugar_plum334:dejan::1992-02-16:AU:F:none:svet
sugar_plum347:skyerox347:ridergirl347@hotmail.com:1985-03-19:CA:F:74.13.72.50:Holly
sugar_plum3478:fireball2:jenn77095@yahoo.com:1992-11-29:US:F:none:Who Cares? don\\\t know
sugar_plum35:canada10:katherine_48@hotmail.com:1988-09-27:CA:F:70.72.12.145:katherine
sugar_plum35922399:sugarplum359::1994-01-13:AU:F:Battledome Challenge:sugar_plum35922399
sugar_plum360:yugimoto!:sam_lindsay89@hotmail.com:1988-08-10:CA:F:72.138.191.30:Courtney Lindsay
sugar_plum384:plums:louisesweeney6@hotmail.com:1970-05-02:GB:F:none:louise sweeney
sugar_plum404:number:cherrybrook@shaw.ca:1992-04-01:CA:F:none:Laura Martin
sugar_plum42:kole42:pop2bop@aol.com:1990-09-22:US:F:none:madigan noble
sugar_plum422:sugar2:tiny_sprite2003@yahoo.com:1988-02-25:US:F:97.87.176.233:*Lepeka*
Sugar_Plum4365:candycane1995:ozlemcali101@gmail.com:1995-11-25:US:F:76.94.233.27:NULL
sugar_plum444:0::heart666333:F:1992-11-02:0:Sam P
sugar_plum4523:pretty:sugar_plum4523@hotmail.com:1989-09-25:CA:F:152.7.1.242:Nadine  Halabi
sugar_plum4545:nelle01:lilcuti1994@aol.com:1992-05-04:US:F:none:Janellle Robertson
sugar_plum4567:pretty10::1998-07-07:US:F:173.88.128.158:Ty
sugar_plum462:marchbaby16::1997-03-16:GB:F:86.142.242.12:Rosie
sugar_plum487:lemonytwist:soccer_punk_rocker41@hotmail.com:1988-07-23:CA:F:none:Courtney Lindsay
sugar_plum49:vodka:baby_darlin186@homail.com:1986-04-12:GB:F:Mail from baby_darlin2003:amy ...
sugar_plum4eva:hamish1:cotton_candy4eva@hotmail.com:1982-01-08:AU:F:61.69.139.147:olivia okely
sugar_plum505:teetot:teetot55@yahoo.com:1992-02-10:US:F:none:Tanya  Leary
sugar_plum534:popcorn:sugar_plum507@hotmail.com:1990-02-11:CA:F:152.7.1.242:Alice Edward
sugar_plum54:Flozo21:mannu_annu@hotmail.com:1994-10-21:CA:F:70.55.138.243:Mannu
sugar_plum543:francette543::1994-10-12:CA:F:76.64.52.190:sugar_plum543
sugar_plum543210:thirtytwo:deanpiper@optusnet.com:1987-10-25:AU:F:none:chloe piper
sugar_plum6:hercules66:trlathrop@yahoo.com:1980-02-01:US:F:72.208.255.27:Tamara
sugar_plum60:plums::1994-03-30:CA:F:none:sugar_plum60
sugar_plum618:mommy1710::1988-02-27:BS:F:none:Jus Me!
sugar_plum620:amy_yuill:suger_plum_68@hotmail.co.uk:1992-05-17:GB:F:none:amy yuill
sugar_plum63:prin23:princessallways@hotmail.com:1991-02-22:US:F:71.77.205.104:Krystyn
sugar_plum638_46:richards46::2000-06-03:AU:F:121.223.172.226:Cassandra
sugar_plum6472:sdgmkm:laurad_morgan@msn.com:1989-06-04:US:F:none:brianna gonzomorg
sugar_plum6633:tryinhard6::1994-04-05:AE:F:none:sugar_plum6633
sugar_plum666:penguin1:miss_sugar_plum1@yahoo.com:1993-06-06:ZA:F:none:Ashna Prag
sugar_plum672:handbag26:Rosey_Lee672@hotmail.co.uk:1994-01-26:GB:F:86.29.133.110:Rosey Lee
sugar_plum688:davidson1:harley699@msn.com:1987-02-25:US:F:none:rebecca claycomb
sugar_plum69:babe69:kaitlyngoodman@hotmail.com:1988-10-21:CA:F:24.36.245.158:Kaitlyn
sugar_plum716:fairy:girlygirl_510@hotmail.com:1989-07-16:CA:F:99.236.44.138:Annabel Cowan
sugar_plum731:sugarmelody1:meilin_rae3@hotmail.com:1988-12-23:US:F:none:Sandra Yan
sugar_plum7373:sugar plum7373::2000-11-08:US:F:209.107.209.100:Anna
sugar_plum789:sheashea789:ccureilly5@aim.com:1993-04-07:US:F:68.47.136.80:Reilly
sugar_plum798:mckenzie:sugar_plum798@hotmail.com:1989-01-28:CA:F:none:Robin Felix
sugar_plum80:kaseykeever:merlekeever@hotmail.com:1987-08-25:US:F:none:Yuna Liviki
sugar_plum808:tweetybird17::1992-06-18:US:F:64.252.57.86:sugar_plum808
sugar_plum81:chocolate17:kait_e_qt1@hotmail.com:1991-11-18:US:F:75.128.128.95:Kaitlyn
sugar_plum82:webkinz13::2001-09-10:US:F:70.140.69.161:Emily
sugar_plum827:bobothegirl123::1999-10-10:MY:F:115.132.35.150:aliah
sugar_plum85:ice_cream::1993-07-13:US:F:none:sugar_plum85
sugar_plum863:160591:sassy664@hotmail.com:1990-03-20:AU:F:acceptance:Amelia Dehrens
sugar_plum866:rosie::1992-08-05:US:F:none:sugar_plum866
sugar_plum88:usher:florida_sweetness@hotmail.com:1990-12-20:CA:F:none:thina ly
sugar_plum89:blossom89:the_smitten1029@yahoo.com:1989-03-25:US:F:71.218.134.167:kk e
sugar_plum890:lol890jk:s_brau@yahoo.com:1993-06-08:US:F:70.94.48.178:samantha
sugar_plum89566:3559480:ajklfjsld@hotmail.com:1990-09-22:CA:F:none:andrea lee
sugar_plum90:easter:ert@aol.com:1988-08-25:US:F:Mail from kalla214:Cho
sugar_plum911:booya!:sugarplum911@hotmail.com:1989-06-25:CA:F:98.238.188.29:Me Me
sugar_plum922:QWERTREWQ1:cookie_crum@shaw.ca:1993-03-19:CA:F:none:Shaelyn Vaillant
sugar_plum931:toodles12:killerrabbit32@hotmail.com:1990-02-23:CA:F:70.50.54.7:stephanie
sugar_plum94:subana1::1993-07-24:CA:F:none:sugar_plum94
sugar_plum95:lala143:brisamoore@yahoo.com:1991-02-01:US:F:72.220.161.102:juicy
sugar_plum96:poface:plum_pudding170@hotmail.com:1989-11-26:AU:M:124.182.229.158:bobs uruncle
sugar_plum9610111:funtimes64::1996-10-11:US:F:24.59.142.62:Meggie
sugar_plum97:liquid:celebrity_hottie143@hotmail.com:1984-01-14:US:F:none:Nikki Miller
sugar_plum98:89plum:g_beckie@hotmail.com:1983-10-24:US:F:none:?????? ???????
sugar_plum99:peaches:cheeky004@hotmail.com:1990-05-16:AU:0:none:virginia k
sugar_plum9922:QWERTREWQ1::1993-03-19:CA:F:none:Shaelyn Vaillant
sugar_plum9999:janelle1:llillcuti1994@yahoo.com:1992-05-04:US:F:none:janelle Robertson
sugar_plumb:nutty01::1993-02-11:GB:F:none:sugar_plumb
sugar_plumb05:la101:lidllozza@hotmail.com:1991-07-17:GB:F:none:lauren ley
sugar_plumb14:andrea14:ozarkmountainsanitation@yahoo.com:1989-03-14:US:F:98.134.187.21:andrea
sugar_plumb185:hatelife:sugar_fairy_plumb185@hotmail.com:1991-06-16:CA:F:none:Krystal Smith
sugar_plumb1995:Washington1995::1995-11-07:US:F:24.159.58.52:Mckyah
sugar_plumb399:bagpuss:lilstar@doramail.com:1988-07-05:GB3:F:none:Georgina Rushforth
sugar_plumb5:reema.com::1991-04-17:LB:F:none:sugar_plumb5
sugar_plumb510:summer::1993-12-29:AU:F:none:sugar_plumb510
sugar_plumb99:duckie::1992-12-11:GB:F:Mail from theneopetsteam:sugar_plumb99
sugar_plumbaby:babymaker12:amberstar267@hotmail.com:1997-06-20:US:F:63.117.205.231:NULL
sugar_plumbc05:charlesisthebest96::1996-03-06:GB:F:81.158.198.80:charlie
sugar_plumberri:trouble3:flynntw@hotmail.com:1986-03-09:CA:F:none:Flynn Raymakers
sugar_plumberry:berry:angel_meghan321@hotmail.com:1983-04-05:CA:F:none:Kelsie Stiles
sugar_plumbs:jeagger!12mr:g12123@live.com:1990-12-07:US:F:76.178.74.186:McKenzie
sugar_plumbz:a015542:sugar_plumbz@hotmail.com:1988-11-21:GB:F:none:Alex Parr
sugar_plumb_92:ihatehackers:sugarplumb@hotmail.com:1981-06-01:US:F:none:sugar plumb
sugar_plumb_faerie:carwash:seakau123@hotmail.com:1990-10-06:AT:F:none:Naomi Horseshoe
sugar_plumb_fairy:vanessa:balletdancing_angel@msn.com:1965-03-05:PH:F:none:Vanessa Segundo
sugar_plumb_fairy95:MinitureNeopets123:beerboycallum@hotmail.com:1988-06-05:GB:F:none:Neo Babe
sugar_plumb_gal:verdehl1:sugarbabe-princess-lolly@hotmail.com:1993-03-11:AU:F:none:Nikky Gubert
sugar_plumb_princess:jglm1234:maa_missy@yahoo.com.au:1992-01-01:AU:F:211.31.21.144:shana
sugar_plumb_pr_7_7:flower12::1996-11-19:GB:F:172.159.57.115:Chanell
sugar_plume:1a2n3d:mdaniel22@comcast.net:1995-03-20:US:F:24.129.19.66:ashley
sugar_plume_20:peanut::1993-04-20:US:F:none:sugar_plume_20
sugar_plume_and_spic:milliejade*::1993-07-04:US:F:none:Millie Kast
sugar_plumfaerie:(nutcracker):the3amigos44@hotmail.com:1987-01-01:NZ:M:none:none none
:::::::
sugar_plumfairy1:race8:soccer_jewel13@hotmail.com:1990-04-28:CA:M:none:sophie gagnon
sugar_plumgurl:12435:joegantt@sbc.net:1990-02-13:US:F:none:aliyah ross
sugar_plumkagome:kagome:alley_roo@yahoo.com:1985-05-06:US:F:none:allison hilbrandt
sugar_plumm:crunchie99:sugar_plumn@hotmail.com:1990-11-21:NZ:F:219.88.22.241:Chelsea
Sugar_plummy:ilovemeat88:meatballies@gmail.com:1988-06-12:BZ:F:76.112.240.159:NULL
sugar_plumm_00:scarecrow:victoriamanning15@hotmail.com:1989-03-26:CA:F:none:Victoria Manning
sugar_plumn:cherry1:chelsea_sugar_@hotmail.com:1990-11-21:NZ:F:none:Chelsea S
sugar_plump:hollee04:yourkie98@aol.co.uk:1992-03-15:GB:F:195.93.21.37:Georgia
sugar_plump1:althepal12::2003-02-09:GB7:F:82.0.119.228:al
sugar_plump3:sugar::1990-09-21:US:F:none:Brittini Thomas
sugar_plump38:sweets:sweetcoeya@yahoo.com:1989-09-20:BS:F:none:shakera smith
sugar_plumplum_fairy:plummy::1992-12-25:GB:F:none:sugar_plumplum_fairy
Sugar_Plumpy_Bear:bertha13:lpchorses@gmail.com:1996-09-15:US:F:68.50.153.156:Lauren
sugar_plump_farie:bear12:lexigirl1a@aol.com:1993-02-20:US:F:75.28.17.63:sage
sugar_plump_huni_pie:montana11:blue_eyed_bombshell.29@hotmail.com:1990-12-28:AU:F:124.149.54.22:Sugar Plump
sugar_plump_perfect:tigertriger161616:www.katierharper@hotmail.co.uk:1992-11-16:GB:F:none:sweet plump
sugar_plump__17:245886::1998-8-15:US:F:99.7.14.55:Priscila Macuil
sugar_plums03:sophia9:lush-princess16@hotmai.com:1992-10-16:CA:F:none:Elizabeth Lounge
sugar_plums1:sugar12::1998-08-11:AQ:F:124.184.251.243:lollypop
sugar_plums12:plum12::2001-09-15:AU:F:124.184.251.243:lollypop
sugar_plums13:courtney:jimberly_2@hotmail.com:1989-01-13:US:F:none:Kaolla Su
sugar_plums2006:ericbubar:loveable_princess_fosta@hotmail.com:1986-01-22:US:F:Mail from theneopetsteam:Danielle Foster
sugar_plums412:6986897:peters398@msn.com:1993-01-17:US:F:none:brittany peters
sugar_plums50:180SUPERWOMEN::1999-08-02:US:F:96.17.72.84:NULL
sugar_plumsy:ww.abc123:mdaniel22@comcast.net:1995-03-20:US:F:24.129.19.66:ashley
sugar_plums_:ambf23dapp98:luckybear10@comcast.net:1994-10-28:US:F:98.201.51.96:Nicole
sugar_plums_04:brent:stephens_hayley@yahoo.com:1989-06-21:CL:F:none:tina blah blah
sugar_plums__x:rusty1:lilmissdark@hotmail.com:1993-03-09:GB:F:86.133.38.70:baby girl
sugar_plumx:2468lol!:xkrist3nx@hotmail.com:1991-02-11:CA:F:none:Kristen A
sugar_plumx3:AyalaJayde12:ayaladarliin___X@hotmail.com:1995-09-28:ES:M:83.53.229.201:Ayala
sugar_plumxox:paleing12:naturallybrond@hotmail.com:1991-07-31:NZ:F:222.152.164.171:sophie
sugar_plumxx:mememe1:mad_babesxx@hotmail.co.uk:1987-08-02::F:none:Amber
sugar_plumz92:sugarrush:xx_i_luvnutcracker_xx_@hotmail.co.uk:1987-11-23:GB:F:none:Gretchen Weiners
sugar_plum_:kitty13:fashionsista101@aol.com:1992-04-17:US:F:68.111.243.206:Sophia
sugar_plum_001:state!1:hotnotlow@hotmail.com:1985-01-25:AU:F:none:Amy Wolton
sugar_plum_01:fuckyou01:jasmeengill505@gmail.com:1993-07-16:US:F:76.102.96.194:Jasmine
sugar_plum_05:DUDES:grixie01@yahoo.co.uk:1988-06-05:GB:F:none:kursty Gricks
sugar_plum_07:s9520584d:sugar_plump@hotmail.com:1989-06-09:SG:F:none:Aida Al-Ghazali
sugar_plum_08:iloveyou08:redcookiemonster15@hotmail.com:1990-02-10:US:F:72.161.184.216:sam
sugar_plum_1:piglet:peggy@kan102.fsnet.co.uk:1991-10-11:GB:F:none:peggy kan
sugar_plum_101_aa:bumble_bee34::1996-04-01:GB:F:89.243.60.195:arrianne
sugar_plum_102938:12bucklemyshoe:supervollyballchik@hotmail.com:1990-01-03:US:F:67.117.31.45:Lisa
sugar_plum_10_2_2_2:password123456789:lovelovee12@yahoo.com:1988-09-20:US:F:none:amy brukner
sugar_plum_11:misslee28:kandy_luver_28@yahoo.com:1994-01-12:US:F:24.17.231.195:helen
sugar_plum_117:pump!::1994-01-31:GB:F:none:sugar_plum_117
sugar_plum_123456:babygirl11893:blue_rose_deme@hotmail.com:1993-08-11:AU:F:none:Deme Gray
sugar_plum_123_:sugar12um::2000-03-15:GB2:M:94.168.233.132:bob
sugar_plum_124:rachel934:davidandlisa@clear.net.nz:1990-06-23:NZ:F:203.97.251.184:Rachel
sugar_plum_13:floyd12:luv_the_maddy_baby@hotmail.com:1995-09-15:AU:F:203.59.195.207:Maddy
sugar_plum_135:sugerplum135:k8tygrf@hotmail.co.uk:1994-02-19:GB:F:81.155.157.211:kathryn
sugar_plum_143:mojomin:kathryn_reddecliff@hotmail.com:1990-09-15:CA:F:24.70.95.205:sugar_plum_143
sugar_plum_14_sneha:sneha14::1998-03-14:IN:F:59.95.28.237:sneha
sugar_plum_15:Chloe15::1999-09-10:GB:F:92.1.160.34:Chloe
sugar_plum_1509:HORSEMAD15::1996-09-15:GB:F:195.93.21.9:KIERRA
sugar_plum_16:sherri:forbiden_empire16@hotmail.com:1985-10-01:CA:F:68.150.194.0:Jennifer Harris
sugar_plum_17:stephen:sugar_plum@talk21.com:1986-07-03:GB:F:none:katie jane
sugar_plum_18:butterfly21:tarry_legend@hotmail.com:1989-11-12:GB:F:86.141.147.152:Lauren
sugar_plum_1980:jen$jen:jencity_07@yahoo.com:1980-05-14:US:F:none:jenica gonzalez
sugar_plum_1993:sassylittlegirl::1993-02-10:US:F:none:sugar_plum_1993
sugar_plum_1_:redhot:avangog@cogeco.ca:1991-09-01:GB:F:none:Sugar
sugar_plum_2002:atiqah2002::2002-02-07:MY:F:175.137.46.5:NULL
sugar_plum_21:capecod123::2001-01-21:US:F:207.138.82.4:emma
sugar_plum_212:sugar:brooke_finkelstein@hotmail.com:1987-02-02:CU:F:none:kate winnepeg
sugar_plum_222:cupcake222::1999-03-19:GB:F:86.156.39.217:Sophie
sugar_plum_2244:torirox::1992-04-12:CA:F:none:sugar_plum_2244
sugar_plum_224488:summer03::2001-01-22:US:F:68.227.24.132:cinamon
sugar_plum_226:bran@:latoya8@cox.net:1992-09-23:US:F:none:latoya ingram
sugar_plum_252:fairy:kendallrabbit@hotmail.com:1990-10-29:NZ:F:none:Kendall Brown
sugar_plum_254:honey+sugar::1993-10-06:GB:F:none:sugar_plum_254
sugar_plum_27:shannick:cute_lil_devil27@hotmail.com:1989-11-22:NZ:F:none:nicole brown
sugar_plum_28:kittykat50:positionloser_44444@yahoo.com:1992-08-31:US:F:71.231.247.16:jaimee
sugar_plum_2_4_7:ihatelife:marissa_ressom@hotmail.com:1988-11-13:AU:F:none:sugar plum
sugar_plum_3000:GabbyLee13:StarryIslandgirl@msn.com:1987-09-13:US:F:97.122.253.204:Eileen Garcia
sugar_plum_311:larry32::2001-09-28:US:F:98.25.44.134:NULL
sugar_plum_337:honeybee12:kashiacree@hotmail.co.uk:1993-07-08:GB:F:80.192.161.105:kaisha
sugar_plum_3433:3433696::1993-02-02:CA:F:none:sugar_plum_3433
sugar_plum_360:11x3 33::1998-08-12:US:F:67.176.15.12:Ellie
sugar_plum_3694_9:123icansee:purple_panda94@hotmail.com:1994-06-03:US:F:69.178.24.11:molly
sugar_plum_37:tinkerbell37:xoxo_candy_monique@hotmail.com:1995-12-19:CA:F:99.230.46.67:Monique
sugar_plum_3737:parker37::1999-04-21:US:F:67.166.120.19:mckaylee
sugar_plum_3_3:charlotte01:jcfn3@yahoo.com:1986-08-11:PH:F:122.3.200.31:faye nicole
sugar_plum_4:sugar11::1998-05-03:CA:F:208.99.145.132:Megan
sugar_plum_42:afra.08::1999-01-15:GB2:F:79.67.69.117:Maya
sugar_plum_420:ishita713:crghosh@ozemail.com.au:1993-08-04:AU:F:210.49.185.241:ishita
sugar_plum_47:Snoop:lil_wild_women@html.com:1989-04-29:AU:F:none:Lindsey Greidanus
sugar_plum_4eva:angels:wild_people_r_crazy@hotmail.com:1990-07-06:GB:F:none:why do you care?
sugar_plum_4_4_4:beauty10:tahmimsyeda@aol.co.uk:1995-06-25:GB:F:78.149.175.232:katey
sugar_plum_50:graylish101:sugar_plum_50@hotmail.com:1963-03-23:GB:F:81.110.196.19:Aylish
sugar_plum_5000147:Lassie:kderkse@shaw.ca:1990-05-07:CA:F:none:sara Derksen
sugar_plum_51:alys1::1994-05-03:AU:F:none:sugar_plum_51
sugar_plum_54:teddybear08::1999-06-27:AU:F:114.73.128.161:NULL
sugar_plum_54321:dogs11::1999-10-23:AE:F:117.195.35.157:kimberly
sugar_plum_60:aylish11:aylish.gray@hotmail.com:1990-06-07:GB:F:80.3.160.9:aylish gray
sugar_plum_61:parker12:boopy557@yahoo.com:1997-12-21:US:F:98.250.90.74:NULL
sugar_plum_6910:candy cane:bayb_bava10@hotmail.com:1990-02-21:CA:F:74.113.128.170:Sugar Plum
sugar_plum_6_6:iamyaz91:yazzi1991@hotmail.co.uk:1991-10-05:GB:F:86.27.78.89:Yaz
sugar_plum_7:l4rt6r::1998-06-01:GB:F:89.240.126.188:Emily
sugar_plum_71196:ILoveYou96::1996-07-11:US:F:97.126.204.115:Jessica
sugar_plum_72:caroline:rach_rules72@yahoo.com:1989-07-11:US:F:none:Rachel Duncan
sugar_plum_777:supersweet7:simplysweet@hotmail.com:1987-07-11:US:F:none:Molly Jenkins
sugar_plum_7_7:scotty77:shoot_hoopz94@hotmail.com:1993-05-03:US:F:none:Jessica Meyer
sugar_plum_8:gaby192:gaby.192@hotmail.com:1994-04-26:NZ:F:219.89.248.237:Gaby
sugar_plum_80:samantha:shrimpy_the_shrimp@hotmail.com:1987-06-10:CA:F:none:Sammie candy is good
sugar_plum_87:blocks:rtp_87@hotmail.com:1987-05-28:CA:F:none:Rianna
sugar_plum_88:6047195153:kathryn_w@live.ca:1993-01-08:VU:M:24.87.140.219:wildren
sugar_plum_9:caitlin:hunnypooh_13@hotmail.com:1988-12-17:CA:F:Acceptance:Caitlin Poirier
sugar_plum_911:hershy01:hannah_bui@hotmail.com:1989-06-27:CA:F:none:Princess Fantastic
sugar_plum_94:sugar11:kaorinagy@gmail.com:1994-03-16:US:F:173.173.88.147:kristine
sugar_plum_96:iluvcoco96::1996-03-07:AU:F:121.216.108.126:brooke
sugar_plum_97:sUGARsWEET97::1997-10-08:GB:F:86.112.254.86:Mollie
sugar_plum_aa:destiny98::1998-09-04:US:F:66.153.135.254:Destiny
sugar_plum_amy89:lovelove:littlemissmooooo@aol.com:1989-08-27:GB:F:none:Amy Heath
sugar_plum_angel:rambutan:spring17girl@hotmail.com:1988-04-17:CA:F:113.170.179.17:DeliciousPurpleJurples!
