sugar_spice_1926:spicy19:super_star90016@yahoo.com:1986-10-26:US:F:none:Stephanie Z
sugar_spice_1975:suga1spice2:sugahotmamasayhi@yahoo.com:1975-01-13:US:F:none:Erin Romero
sugar_spice_1991_15:15Sugars:love_and_lust_1991@hotmail.com:1991-04-03:US:F:none:Cheryl Barlow
sugar_spice_1997:brenna1997:Blue_Lady_Brenna@hotmail.co.uk:1992-03-22:GB:F:88.110.66.244:Brenna
sugar_spice_2:bubbles123::1996-08-24:GB:F:86.0.100.153:Aimee
sugar_spice_2004:hunter:chubby_cheeks@hotmail.com:1990-08-14:CA:F:none:Regeena Phalangy
sugar_spice_2008:sugar21::1996-11-19:GB:F:90.192.239.174:aisha
sugar_spice_2009:Ryan23:angelcakeface_fifi@yahoo.com:1991-12-04:US:F:67.49.217.48:Jasmine
sugar_spice_2011:katielane:k.jacobson@sbcglobal.net:1973-03-11:US:F:Acceptance:Brittany  Saxbury
sugar_spice_2012:kailababy71:bling_baby_bling_2006@yahoo.com:1994-04-15:US:F:75.40.250.106:mickaila
sugar_spice_2110:because:the_one_and_only_wog@hotmail.com:1989-08-16:AU:F:none:Caitlin Amanda
sugar_spice_2121:pinkcutie:monkey_princess_222@hotmail.com:1991-10-09:US:F:none:Megan Myers
sugar_spice_2222:carly11:prissyglamour_234@hotmail.com:1988-07-19:AU:F:none:Savannah Postle
sugar_spice_223:tarbaby12::1996-12-18:US:F:99.194.134.168:Kloe
sugar_spice_234:sugar:sparkest@k12.nf.ca:1972-10-22:CA:F:none:robyn wheeler
sugar_spice_246:246spicesugar::1992-07-04:IT:F:Trade Closed:sugar_spice_246
sugar_spice_2519:anglefire:taylordj@attbi.com:1989-02-10:US:F:none:Julia Taylor
sugar_spice_276:1q2w3e4r5t:cute_kitty_4_eva_@hotmail.com:1986-04-12:CA:F:none:Andriana S.
sugar_spice_285:IL0veY0u::1997-05-28:GB:F:82.6.85.89:Sehar
sugar_spice_287:eberhart06:FadedMemories006@aim.com:1990-09-27:US:F:75.51.198.184:sugar_spice287
sugar_spice_2k2:lavender:sugar_spice_2k2@yahoo.com:1987-04-02:US:F:none:shannon cowan
sugar_spice_2_nice:hello_sandiego:dredata@cox.net:1985-01-17:US:F:none:jacoba bulah
sugar_spice_3:53wall:hayley.rose@optusnet.com.au:1993-12-31:AU:F:122.109.26.240:hayley
sugar_spice_300000:faner:spice200000@hotmail.com:1988-07-05:CA:F:none:Secret secret
sugar_spice_30000741:faner:spice200000@hotmail.com:1988-07-05:CA:F:none:Secret secret
sugar_spice_303:!ragus14:ikickbutt_99@hotmail.com:1992-11-19:CA:F:70.65.25.153:Danae Desk
sugar_spice_310:meanie13:cali_g13@yahoo.com:1994-03-10:US:F:75.171.89.44:Jenny Plascencia
sugar_spice_341:peewee14:softballgirl341@gmail.com:1993-11-26:US:F:69.183.51.131:Chantelle
sugar_spice_357:dgoddess!:sugarspicefireice@gmail.com:1981-07-29:US:F:none:Sugar Spice
sugar_spice_3579:fuckoff:liz6_6_38@hotmail.com:1988-04-18:AU:F:none:Elizabeth Jewell
sugar_spice_3729:cinnamon:ambiebambie123@shaw.ca:1987-02-14:CA:F:none:alanna vis
sugar_spice_394:sunflower223::1998-09-11:CA:F:205.206.98.227:KIARA
sugar_spice_3_abc:m41197::1997-04-11:US:F:173.16.93.218:Maureen
sugar_spice_411:ace_is_hot12:shorty@rexcom.ca:1993-02-20:CA:F:206.210.98.171:Alex
sugar_spice_42069:dicksuck:kirr_2005@yahoo.com:1976-01-29:US:F:none:kirsten hill
sugar_spice_4244:Bestfriends::1993-02-27:CA:F:none:sugar_spice_4244
sugar_spice_431:saymyname:nalnisharma@hotmail.com:1991-02-24:CA:F:none:sugar spice
sugar_spice_4490:monke13:umdahfarooqi@yahoo.com:1994-08-31:US:F:24.7.201.26:Umdah
sugar_spice_4539:puppyluv1:cutie_4539@yahoo.ca:1993-05-13:CA:F:none:Jocelyn Wiebe
sugar_spice_4ever:835462:myfriendishyper@yahoo.com:1990-11-29:US:F:none:LettyCastillo
sugar_spice_4life:candy treat01:SugarSpicefl@aol.com:1994-07-03:US:F:74.224.146.109:Bria
sugar_spice_4_lif499:bobby:ks20911pmsi118@bellsouth.net:1987-07-16:US:F:none:amanda hessler
sugar_spice_4_lif504:liberty:ks20911pmsi118@bellsouth.net:1983-05-04:US:F:NULL:amanda panda
sugar_spice_4_lif947:bobby:ks20911pmsi118@bellsouth.net:1987-07-16:US:F:none:amanda hessler
sugar_spice_4_life:bobby:ks20911pmsi118@bellsouth.net:1987-05-31:US:F:none:amanda tepper
sugar_spice_53:fluffy:sugar_spice_533@hotmail.com:1986-06-02:CA:F:none:Emma labratee
sugar_spice_56:123lizzie::1994-04-16:CA:F:none:sugar_spice_56
sugar_spice_567:pop567:maimadevil_66@hotmail.com:1990-09-25:CA:F:24.71.223.148:Umaima Begum
sugar_spice_58:kaleigh::1991-10-08:US:F:none:sugar_spice_58
sugar_spice_59:123lizzie:dannyxlent@hotmail.com:1993-05-22:CA:F:24.141.185.33:Nelly Pocks
sugar_spice_5_5:iloveu12:Baby_gurl2245@yahoo.com:1992-11-22:US:F:69.176.44.74:Elizabeth
sugar_spice_6:likeallthingsnice34:Fariygirl556@hotmail.com:1982-04-27:AU:F:58.87.1.193:Emma
sugar_spice_60:taylor12::1996-05-03:CA:F:142.68.235.197:Madison
sugar_spice_62:poobah:giggles_pig@hotmail.com:1978-07-04:US:F:none:Michelle Baverman
sugar_spice_7:britney7::1994-04-05:AU:F:none:sugar_spice_7
sugar_spice_7714:nonsinglelife2:ted.tritchew@sympatico.ca:1989-04-14:CA:F:none:KaitlynTritchew
sugar_spice_786:2stars4eva::1997-05-01:GB:F:82.4.163.154:chole
sugar_spice_8:cheerleading0147:eeyore103094@hotmail.com:1992-10-30:US:F:96.227.219.119:Mia
sugar_spice_83:5436139:ash1ss0czy@aol.com:1989-12-17:US:F:none:JasmynJewell
sugar_spice_88:ooogers22:cuddlequeen@gmail.com:1990-05-31:US:F:76.121.135.80:Erin Bluhm
sugar_spice_9:stonebird96:rajk59@hotmail.com:1992-02-10:AU:F:122.104.251.74:rachel
sugar_spice_9111:fashion::1990-09-20:CA:F:none:none
sugar_spice_92:jazmen::1992-02-25:US:F:none:sugar_spice_92
sugar_spice_94:iluvmummy!!!:peanut_person@hotmail.com:1982-09-20:AU:F:121.222.153.32:Mikaela Dean
sugar_spice_97:neopets97::1997-10-16:US:F:69.115.227.206:manda
sugar_spice_992104:mm9921:neopets992104@yahoo.com:1988-08-08:US:F:none:Megan Lover
sugar_spice_aa:clair48:momndad74@yahoo.com:1989-10-11:US:F:71.219.196.98:Clair
sugar_spice_abbi:food1...2::1995-09-26:AU:F:121.45.37.230:Abby
sugar_spice_and_evil:henrypollo313:fgangsters@yahoo.com:1986-01-01:US:F:75.21.66.196:wackaflocka
sugar_spice_angel101:PetPetSitter::1992-09-18:US:F:none:Morgan lovelace
sugar_spice_angel999:imsupercool:super_star_angel101@hotmail.com:1991-12-08:CA:F:none:Angela Tan
sugar_spice_angelic:lolly!:jaredlh@hotmail.com:1984-06-23:US:F:none:kylol kylol
sugar_spice_anime:chesenips12:hannahsoutreach@msn.com:1993-08-04:US:F:71.110.229.59:Arabella
sugar_spice_babe:3363317:kaylawojtalewicz@hotmail.com:1987-07-01:US:F:none:Britney Spears
sugar_spice_babe23:powerpuff:sugar_spice_n_everything_nice820@yahoo.com:1982-08-27:US:F:none:tomara Wood
sugar_spice_beauty:ixizat:pc81131@aol.com:1991-06-10:US:F:none:Lolli pop
sugar_spice_bhb121:1994bhb:babyfairy16@hotmail.com:1992-02-16:US:F:none:sammy nicole
sugar_spice_bre12:Honey:breannedarling620@hotmail.com:1989-06-10:CA:F:none:Brittany Darling
sugar_spice_butter:love101:lopez.mayra70@yahoo.com:1993-11-11:RO:F:71.118.149.7:mayra
sugar_spice_ceo:0211295226::1993-08-10:NZ:F:none:sugar_spice_ceo
sugar_spice_chic:crispy20:ayo.rajaratne@optusnet.com.au:1994-08-04:AU:F:58.107.133.19:Arianna
sugar_spice_chocolat:chocolate:soph.bruce@ntlworld.com:1988-07-08:GB:F:none:sophie bruce
sugar_spice_cook:cookies43:Chelsea12fan@gmail.com:1974-06-02:GB:F:81.102.19.139:Head chef
sugar_spice_cookie:dough!:ilike_bubbles@hotmail.com:1905-05-02:MX:F:none:lip smacker
sugar_spice_cooks:Cookies43:jessicajaynei@gmail.co.uk:1984-06-02:GB:F:82.11.254.220:Head Chef
sugar_spice_cutie::):::)::)::)::)::)
:::::::
sugar_spice_cutie999:jaimelefrancais:perfect_angel1000@hotmail.com:1991-12-08:CA:F:none:Angela Smeets
sugar_spice_cutiepie:marlea12:marlea.b@hotmail.com:1993-01-07:AU:F:203.208.88.138:grace
sugar_spice_death:classof2013:vanralston@yahoo.com:1994-09-01:US:M:207.118.35.254:Van
sugar_spice_devil_fo:patricia:sweet_babe_4_u89@hotmail.com:1990-07-24:CA:F:none:Patricia C obniac
sugar_spice_disaster:sugasuga::1993-05-29:CA:F:none:sugar_spice_disaster
sugar_spice_forever:nightime91!!:iwptlfaml@hotmail.com:1993-01-05:US:F:none:Ariana Betts
sugar_spice_girl:hawaii101:padee@mts.net:1992-01-01:CA:F:207.161.209.168:Sugar Sweet
sugar_spice_girl1234:thomasian4:pajamagirl12345@aol.com:1993-06-25:US:F:none:Sugar Spice
sugar_spice_girl_101:dancer2:hilarydufflover111@yahoo.com:1990-12-29:US:F:none:Monique
sugar_spice_girl_28:cocacola:lecutie@hotmail.com:1984-09-28:DO:F:none:Krystal
sugar_spice_girl_4:popprincess11::1998-06-17:CA:F:24.66.94.142:madi
sugar_spice_gurl:sugar_gurl$$$07::1998-08-22:NZ:F:219.89.174.221:Saraela
sugar_spice_gurls::keepurmorals@gmail.com:1996-12-13:US:F:65.25.111.3:NULL
sugar_spice_hana:bubble13:hana_jeffries@hotmail.com:1993-12-17:GB:F:82.151.236.133:Hannah
sugar_spice_ice:Abbygail09:big_flamer@hotmail.com:1987-02-06:US:F:68.116.212.19:abbygail
sugar_spice_khali:princess29:kittyrox29@yahoo.com:1994-03-29:US:F:76.185.17.39:Khali
sugar_spice_kim_302:naughty302:kimdenser@yahoo.ca:1982-07-08:CA:F:216.36.151.18:kim denser
sugar_spice_ks:zack*:faerie_smiles@hotmail.com:1993-03-08:US:F:none:Kiya  Stone
sugar_spice_liv_mir:olivia1:miranda_panda95@hotmail.com:1988-07-04:CA:F:67.158.74.102:Molivira Mattherson
sugar_spice_love:sexyyy:usa_chick_505@msn.com:1985-04-20:US:F:none:sugar spice
sugar_spice_love_99:tylyn12:tylyn94_9@msn.com:1993-04-19:US:F:70.16.115.47:tylyn martin
sugar_spice_love_u2:123spice:smexy_mama1234@hotmail.com:1986-03-03:US:F:none:cant tell cant tell
sugar_spice_maria:shrek2::1993-06-10:US:F:none:sugar_spice_maria
sugar_spice_marzipan:chesse:james@jcarney.fsnet.co.uk:1989-07-22:GB:F:none:Tamsian Smith
sugar_spice_mel:mellymoo10::1998-02-19:AU:F:61.68.29.154:melanie
sugar_spice_me_nice:op971:kissy_kissy_pop@yahoo.com:1987-03-26:US:F:none:Jade  A Raute
sugar_spice_mini:minidogs:loz1192@hotmail.com:1986-05-13:NZ:F:none:Lauren Talia
sugar_spice_moody:colegirls::1985-07-14:US:F:none:Madeline Stedman Eliza cohen
sugar_spice_n:everythingnice:h.emac@bigpond.net:1992-03-28:AU:F:none:Maddie Witchell
sugar_spice_neo:lukylover:theplaya_08@hotmail.com:1990-10-23:US:F:none:Destin Rouch
sugar_spice_neogirl:coolcat34::1997-03-11:PR:F:168.213.1.133:dseire
sugar_spice_nice:smile::1992-05-23:US:F:none:sugar_spice_nice
sugar_spice_nice10:01171612:cassidy_cox210@yahoo.com:1994-04-17:US:F:69.223.137.110:cassidy
sugar_spice_nice1740:ICECREAM!:tomandheidi@earthlink.net:1981-03-03:US:F:none:Natalie  E.
sugar_spice_nice1995:i like camilla::1995-08-24:GB:F:none:sugar_spice_nice1995
sugar_spice_nice21:habibi:kikishosho2118@yahoo.com:1964-12-06:US:F:none:Shareen Helwa
sugar_spice_nice22:friends::1990-04-10:CA:F:none:none
sugar_spice_nice222:verysweet45:kittykarate55@yahoo.com:1985-09-05:US:F:none:CoOl ChIcK
sugar_spice_nice75:jackson:vance_91@hotmail.com:1987-08-09:US:F:216.137.229.54:Why do you care?
sugar_spice_nice934:cuteandstylish:superpup37@aol.com:1987-06-03:BE:F:none:gj hg
sugar_spice_nice_:hotspot28:kuzco246@hotmail.com:1990-02-11:CA:F:24.72.57.90:fathia
sugar_spice_nice_123:SYDNI562:ronmunizzi@aol.com:1983-05-20:US:F:none:nicole shontilla
sugar_spice_nice_294:rachanne::1993-08-08:CA:F:Mail from theneopetsteam:sugar_spice_nice_294
sugar_spice_nice_ice:spice:t_n133@yahoo.com:1986-08-31:US:F:none:Tauren  Nyland
sugar_spice_nice_me:flamesoftruth::1992-12-14::F:none:sugar_spice_nice_me
sugar_spice_nicolle:dixie2404::1998-06-20:US:F:75.74.93.209:GHislaine
sugar_spice_n_321:qkk9e4xa:afiqah123@gmail.com:1994-04-21:SG:F:218.186.13.3:Siti Nur
sugar_spice_n_cuddly:osmara22:qtpie_valeria_redhot@hotmail.com:1991-02-09:US:F:none:Valeria Yamileth
sugar_spice_n_cute:osmara22:qtpie_valeria_redhot@hotmail.com:1991-11-01:US:F:none:Valeria
sugar_spice_pretty4:neopets77:miabarbie2006@aol.com:1994-07-07:US:F:69.255.112.192:jen
sugar_spice_queen:luckygirl22::1993-04-14:US:F:none:sugar_spice_queen
sugar_spice_serina:pookie:sugar_spice_1@msn.com:1991-04-01:CA:F:none:Serina G
sugar_spice_shai10:sharmian::1993-07-06:CA:F:none:sugar_spice_shai10
sugar_spice_shorty:qazxsw:rebeccamccloskey@rogers.com:1990-05-05:CA:F:none:rebecca mccloskey
sugar_spice_sistas:clis1311:indigovelocity@cox.net:1993-09-12:US:F:70.157.21.199:India
sugar_spice_spark178:sparkle24::1992-09-24:GB:F:none:sugar_spice_spark178
sugar_spice_sparkle:kellyclarkson1:devilz_angelz_64@hotmail.com:1990-01-23:CA:F:none:Arina Severina
sugar_spice_ss:july7:sbeth8705@yahoo.com:1984-03-29:US:F:71.29.242.179:Sarah
sugar_spice_sweetpie:natalie:sgrlips@hotmail.com:1989-04-21:US:F:none:natalie dewitt
sugar_spice_sweet_co:chad m murry:cmleroy08@hotmail.com:1991-04-08:CA:F:acceptance:Cassie ?
sugar_spice_twin_105:kailey:grballerinalnit13@yahoo.com:1990-04-19:US:F:none:spice ka*de
sugar_spice_x3:twins4eva:fre4k0ut@yahoo.com:1992-05-20:US:F:none:sugar spice
sugar_spice_xox:superstar11:denniesej@hotmail.com:1986-12-17:CA:F:99.240.237.159:Natasha
sugar_spice_x_2:109908::1996-07-02:US:F:75.190.149.82:Nancy
sugar_spice__10:cassy1:clobie@hotmail.com:1993-11-16:AU:F:none:cassy obrien
sugar_spice__750:mackenziem90::1998-04-08:US:F:76.27.180.79:Mackenzie
sugar_spicy_princess:girlpower12:gurly_fresh_princess@yahoo.com:1992-04-26:US:F:none:Nicole Johnson
sugar_spicy_sweet:red815:junkyardkittie@aol.com:1988-08-15:US:F:none:Maliah Pitts
sugar_spider:nanaki2376:feversandmirrors7@gmail.com:1991-04-04:US:F:76.185.181.185:Leigh
sugar_spiice:flaming0:eye.heart.lucy@gmail.com:1985-06-08:US:F:none:alucy trao
sugar_spikes:whowho:hsam12my@aol.com:1985-10-28:US:F:none:Mrs margera
sugar_spikes_:webkinz12::1999-02-25:US:F:12.149.188.162:alexis
sugar_spirit:fgsltw07::1994-04-24:US:F:65.54.154.48:Danielle
sugar_splash:queenbee:dumpsterqueen@msn.com:1990-04-10:US:F:none:MuffyCrumb
sugar_splash333:wearecool:chinese_cat_wash@hotmail.com:1982-10-06:AU:F:none:chelsea murphy
sugar_splat:123blt:leah_pirani@hotmail.com:1978-02-06:CA:F:none:leah pirani
sugar_splendente:f1a2in:sabato.benedettoz86c@alice.it:1996-03-26:IT:F:93.41.16.1:Francesca
sugar_splender:1charmed^3:ranny@gmail.com:1991-10-17:AU:F:124.180.125.83:Rhiannon
sugar_splice:jess1234:jessicasdabest@hotmail.com:1987-12-21:NZ:F:none:Jessica Penney
sugar_sponge:shadow24::1996-10-24:US:F:67.189.43.235:ToniAnne
sugar_sports2:paigejan2993::1993-01-29:US:F:none:sugar_sports2
sugar_spots:butcher4989:jessie_lou89@hotmail.co.uk:1989-07-10:GB:F:86.179.235.1:Jessica
sugar_spotted_lepie:ssl67346:evc248tra@netzero.net:1992-10-30:US:F:none:Jilly Calderon
sugar_spriinkle:ola123:cookiemunsturola@yahoo.com:1993-06-27:US:F:76.238.31.63:Aleksandra
sugar_spring:bolinha9090:sugar.spring@hotmail.com:1995-04-26:CV:F:189.102.161.221:Sugar -no tags here-3
Sugar_Sprink:1643216432::1997-09-22::F:211.30.212.131:NULL
sugar_sprinkle:monica21:i_love_my_justin@mail.com:1990-10-27:US:F:68.102.32.23:Heather
sugar_sprinkle6:15324::1992-09-30:US:F:Mail from theneopetsteam:sugar_sprinkle6
sugar_sprinkled:s1250600::1996-08-31:CA:F:220.246.123.163:Chloe
sugar_sprinkles:queenbee:mzblondy_05@msn.com:1991-06-03:US:F:none:SugarCrumb
sugar_sprinkles_203:godspell::1991-08-22:GB:F:none:sugar_sprinkles_203
sugar_sprinklez:junebug214::1998-06-20:US:F:68.224.89.190:Airiana
sugar_sprinklez219:winnie:winnie@www.yahoo.com:1980-03-04:US:F:Acceptance:Casey Lannin
sugar_sprite:chrysalis::1980-08-04:US:F:Mail from magicwizardtauros:Paris Keatley
sugar_sprite56:boozy15:sugarsprite56@aim.com:1992-08-28:US:F:65.185.78.243:Inuka Taisho
sugar_sprout:nonono12345:naabelanaaznin@yahoo.ca:1993-06-15:CA:F:74.102.83.235:Tiffany Ross
sugar_sprout812:iamthebest:nikilin@hotmail.com:1989-02-16:JP:F:none:ChimikoHamitoshi
sugar_spud:violin1::1994-01-02:GB:F:83.104.80.225:sugar_spud
sugar_squirrel:tuffy:berry_the_squirrel@hotmail.com:1988-08-05:CA:F:none:Littleoldme
sugar_squirrel14:squirrel101:guinea_baby@hotmail.com:1993-02-08:CA:F:64.59.144.24:shayla
sugar_srazy:_Cacha_:sugar_crazy_hannah@hotmail.com:1987-09-04:AU:F:none:hannah konecny
sugar_ss:MERIJN11::2007-01-27:NL:M:86.83.117.184:Merijn
sugar_ssd:02ssd97::1997-02-06:US:F:98.199.95.113:Sabrina
sugar_st0rm:philo67:ll_volatile_ll@yahoo.com:1981-06-19:US:F:none:Johanna R
sugar_sta:sweet!:livipop@hotmail.com:1913-09-29:NZ:F:none:Olivia Jarosz
sugar_stacy:richardl:kissxkissx@yahoo.co.uk:1987-06-11:GB:F:none:stacy mck
sugar_star:sugar123:sugary-cuteness@iinet.net.au:1989-09-24:AU:F:203.14.53.46:Jade Audino
sugar_star011:Kittie:ouellette_2005@yahoo.ca:1987-01-02:CA:F:none:Jessica Ouellette
sugar_star1:angel:star_angel4life@hotmail.com:1980-07-14:CA:F:none:Kayla Lee
sugar_star101:stardust:sugar_star200@hotmail.com:1987-11-25:CA:F:none:Jazzy  Grant
sugar_star111:simsim1:sayeda_abubakr@hotmail.com:1992-07-10:SD:F:none:I forgot my name at home
sugar_star12:fabb12::1999-03-09:US:F:68.46.209.40:emily
sugar_star123:110193:lcdmax@aol.com:1993-11-01:US:F:none:maya andrews
sugar_star144:galaxy:jesschan132@hotmail.com:1988-05-08:VN:F:none:Marine Tsukimaro
sugar_star15:fungusyo55:sereena_moore04@hotmail.com:1991-04-04:CA:F:24.202.186.47:Sereena
sugar_star165:sweet:crazy___lady@hotmail.com:1976-05-29:GB:F:none:Sugar Star
sugar_star203:thong:purpleglow@hotmail.co.uk:1986-05-10:AT:F:none:lacy surridge
sugar_star25:aaabbb123:sharontan1991@hotmail.com:1988-11-25:MU:F:165.21.154.8:sharon tan
sugar_star300:stardust:sugar_star200@hotmail.com:1980-05-18:CA:F:none:Jazzy Grant
sugar_star34:star34 sugar::2000-06-04:US:F:70.138.219.234:rebekah
sugar_star4:lenny123:sugar_hoshi4@hotmail.com:1993-02-20:CA:F:64.141.73.7:talitha
sugar_star566555:puppy55:mug_racinette@hotmail.com:1990-03-23:CA:F:none:None Of  Your Business
sugar_star5_45:KIKL78 78::1999-08-09:US:F:67.80.84.33:KATHERINE
sugar_star779:try34:ilovedogs05@hotmail.com:1992-03-09:CA:M:none:Bob Glitchen
sugar_star807:petpetpark78::2003-12-10::F:116.71.151.150:NULL
sugar_star8076:zxcvbnm90::2003-12-10::F:110.37.30.152:NULL
sugar_star890:petpetpark89::2003-12-10::F:116.71.151.150:NULL
sugar_star95:nana97::1995-07-18:US:F:70.244.194.247:Talia
sugar_star951:Desigirl247:sweet_blossom247@yahoo.com:1990-03-16:US:F:68.249.100.63:Azba
sugar_starfish:ilovetopee:sugar_starfish@hotmail.com:1988-06-20:SG:F:none:z z
sugar_starr:shaina11:crazy.fire.skittles@hotmail.com:1995-03-22:CA:F:142.161.72.14:Shaina
sugar_starre135:starre12:sam_awon@yahoo.co.uk:1988-05-23:GB:F:none:Sally Jones
sugar_stars:5554304:93-hugrun@fludaskoli.is:1957-10-31:IS:F:none:sugar_stars cute
sugar_stars19:jklyp99::1999-11-19:US:F:63.116.166.103:janise
sugar_stars1999:jklyp99::1999-11-19::F:74.97.181.218:NULL
sugar_stars23:sugar_stars23:a_bootz@hotmail.com:1995-09-19:AR:F:201.255.147.15:Agus
sugar_starshine05:try56:horses_rock05canada@hotmail.com:1992-08-07:CA:F:none:q nothing
sugar_starss:babay:angelpixie_88@yahoo.com:1984-09-21:AW:F:none:Chantal Fradl
sugar_stars_shop:scary01spice:mandy@sugar-stars-shop.com:1983-03-11:US:F:12.214.239.100:Sugar
sugar_starved_idiot:christine1:misty_and_ayesha@yahoo.com:1992-12-25:US:F:24.127.24.82:Chelsea Greenland
sugar_starx:995380:qiaoyan91@hotmail.com:1988-07-22:SG:F:165.21.155.16:qiaoyan
sugar_starz34:sweets::2005-01-01:CA:0:none:Arianna Nagle
sugar_starz777:chichichow:traceyhl7@hotmail.com:1986-11-23:CA:F:99.245.244.126:Tracey Landon
sugar_starz92:14173571:sparklebunny92@hotmail.com:1988-01-22:CA:F:none:Laura  Li
sugar_star_09:yasmin24::1997-10-25:VG:F:74.232.190.83:Star
sugar_star_101:pradeep29:sweet_kisses_puppy@hotmail.com:1989-04-26:IE:F:14.96.15.33:Wendy Shell
sugar_star_1234567:sparkle123::1998-05-01:US:F:65.100.218.1:nessa
sugar_star_4:lenny123:sugar_-_girl@hotmail.com:1993-02-20:CA:F:64.141.73.7:talitha
sugar_star_424:asdfghjkl90::2003-12-10::F:116.71.144.253:NULL
sugar_star_7:transit77:Sweet_Kisses_Puppy@hotmail.com:1991-04-26:SG:F:202.156.11.1:wendy
sugar_star_8:princess88::2001-07-13:CA:F:76.68.126.60:Ella
sugar_star_baby_666:jacob**:miss_ya_lots_baby@hotmail.com:1990-06-14:NZ:F:none:jess james
sugar_star_candle:star5::1993-05-05:US:F:none:sugar_star_candle
sugar_star_candy:sampson18:p-o-l-l-y@hotmail.co.uk:1991-04-19:GB:F:none:ABCD 1234
sugar_star_faery:asdf123:sugarstarfaery@hotmail.com:1984-02-09:US:F:67.142.130.24:Call me Sugar
sugar_star_girl_:Lacky12:Beaknerner@yahoo.de:1996-01-09:DE:F:88.134.128.149:Bea
Sugar_star_pop:mais12::1998-06-30::F:94.97.108.59:NULL
sugar_star_princess:rebecca&luis:kooliokiki@yahoo.com:1991-02-24:US:F:none:ShiningStar
sugar_star_sprinkles:mintysage162:mintysage162@yahoo.com:1990-08-25:US:F:76.194.24.14:Basil
Sugar_Star_Sweets:carcar123::2000-04-27:CA:F:99.248.227.44:NULL
sugar_star_tears:pretear:dark_princess_quya@yahoo.com:1991-10-03:US:F:acceptance:AlexCeurvels
sugar_star_venus:giraffe66:xx-starry_eyed-xx@hotmail.com:1993-06-09:GB:F:86.136.211.88:Becky Wyde
sugar_star_xoxo:sugarstar09::1998-07-04:CA:F:154.5.51.232:Delia
sugar_stefie:michelle:shibdon@cutey.com:1989-12-11:US:F:none:Stefanie Hibdon
sugar_sternchen:haschien01:Yvi-Welker@web.de:1995-01-25:DE:F:217.230.74.167:Yvonne
sugar_stick:fuckyou:midnight_rendevous27@hotmail.com:1987-09-27:CA:F:none:sabrina mosey
sugar_stick01:groumez01:drama_queen216@yahoo.com:1994-02-20:US:F:24.12.172.244:Gabbie
sugar_stick109:123455::1999-12-09:US:F:76.196.235.91:mikayla
sugar_stick11:animal29:animal-lover-cat@hotmail.com:1994-01-12:GB:F:88.104.196.101:catherine
sugar_stick28:maemae12:carley_maemae@yahoo.com:1982-10-29:US:F:68.56.176.6:Carley
sugar_stick4:peyton18:axelburroughs@yahoo.com:1995-07-13:US:M:74.34.221.73:alex burrough
sugar_sticks:05kona:dxyjj571@yahoo.co.jp:1990-11-17:JP:M:220.31.18.254:増田翔太
sugar_sticks_98:cherrypop 98::1998-03-18:CA:F:216.36.151.198:Jackie
sugar_stick_4:kero45::2000-09-30:US:F:65.185.4.167:tyra
sugar_stiks:neopets94:victorianmcknight@yahoo.com:1994-11-28:US:F:121.130.75.244:victorianmcknight
sugar_stix:coles.10:star_grl63@yahoo.com:1992-10-11:US:F:216.88.32.210:lauren
sugar_stix01:luver_gurl22::1993-08-20:US:F:none:ReGiNA NAstRi
sugar_stix_104:cabe8:sugar_stix104@hotmail.com:1967-06-13:US:F:207.200.116.7:cabe_is_my_dream stephens
sugar_stone:caritoloca95:irene.meza@hotmail.com:1995-07-15:US:F:201.143.32.246:irene
sugar_stone_babe:chicago1:sugarstonebabe@hotmail.com:1990-05-11:CA:F:none:Mia Hill
sugar_storme10:sugar::1993-11-30:US:F:none:sugar_storme10
sugar_storme1010:sugar::1993-11-30:US:F:none:sugar_storme1010
sugar_stormer:syaoran707:zomboid@gmail.com:1977-02-23:US:F:74.66.231.73:Jessica
sugar_storms:bilbil:chocolate_ponies@hotmail.com:1984-03-28:AU:F:none:Corny War
sugar_strawberry:ihatejasmine:lisa4snowfire7@yahoo.com:1984-05-07:US:F:none:JasmineHyde
sugar_strawberry193:flower1:sugar_strawberry@hotmail.com:1990-03-22:AU:F:none:Jessie Harrison
sugar_strawberry22:camden:kate_evans2000@hotmail.com:1990-12-22:GB:F:none:kate evens
sugar_strawberry69:donuts30:puss96@hotmail.com:1990-06-28:AU:F:none:sugar inbootsstrawberry
sugar_strawberry_88:msnrocks15:monkeybutzzz@hotmail.com:1990-04-04:CA:F:206.188.83.187:erika
sugar_strawberry_no1:fluffy12:smelly_grunger@fsmail.net:1987-09-07:GB:F:134.36.111.100:dunno noidea
sugar_strikes:kiki0022:rawhidezz@aol.com:1990-01-05:US:M:none:***Sugary Goodness***
sugar_stripes:mollyandmunchie11::1996-09-05:GB:F:86.135.199.125:Amy
sugar_stuff65:happ1::1993-05-14:GB:F:none:Taylor Knowles
sugar_stuff886:batty:syncro_babe_4856@hotmail.com:1980-12-26:CA:F:none:Kady Lawson
sugar_stuff_02134:sugar::1993-04-22:US:F:none:sugar_stuff_02134
sugar_stuff_123_321:mnbvcxz:roxy_luvs_2_flirt@hotmail.com:1987-06-15:AU:F:none:CaraWelington
sugar_stuff_372:weather*:victoriathornes@aol.com:1988-10-20:GB:F:none:vickie thornes
sugar_stunt:i&smile:ellina513@yahoo.com:1992-04-13:US:F:68.119.82.130:sugar stunt
sugar_style:matty1:matty_miaps@hotmail.com:1991-05-28:CL:M:none:Matty Merinoò !
sugar_style001:bobo1212:adriana_lazic@yahoo.de:1988-04-15:DE:F:84.161.99.85:ashley
Sugar_Styx:frankie588:yvette_pedro@yahoo.com:1988-06-14:US:F:71.143.159.13:Rome
sugar_suar:crisibaby:cheerbaby92@hotmail.com:1991-04-01:US:F:none:Sara Michelle
sugar_substitute:4ninjo4:julie_xb@hotmail.com:1992-11-01:DK:F:108.62.158.52:Julie
sugar_succar:1234succar:steven_succar@hotmail.com:1992-10-05:CA:F:64.230.115.210:stephanie
sugar_sucker:tagalong!::1993-11-16:US:F:none:sugar_sucker
sugar_suckerfish:redhots1:porcelain_chinadoll@hotmail.com:1991-10-01:US:F:none:lamp shade
sugar_sucks:muffin10:carvers@cebridge.net:1965-12-04:US:F:64.92.17.188:SmoochyPoo
sugar_sucks2:muffin10:candace143@cox-internet.com:1965-12-04:US:F:209.169.96.214:Candace Carver
sugar_sug:mikki101:hard_tail_2@hotmail.com:1953-08-02:US:F:76.86.25.49:kayla
sugar_suga26:friends:emmie_lou4u@hotmail.com:1988-04-29:AU:F:none:em ma
sugar_suga55:juskiddin:sugar_suga_10@hotmail.com:1990-04-27:CA:F:none:Danielle L
sugar_sugar:sydnee:s_y_d_n_e_e@hotmail.com:1991-07-21:AU:F:Mail from bubba_bronze:Sydnee Doolan
sugar_sugar0125:012593:alaineebug93@aol.com:1993-01-25:US:F:none:alainee shuman
sugar_sugar0621:rune_94:cinnamoroll0621@yahoo.com.hk:1994-06-21:HK:F:219.78.202.242:RAcHeLNiki
sugar_sugar100:karate*:braksi_stephaniem@hotmail.com:1990-05-23:AU:F:none:Steph Mallach
sugar_sugar101:coolgirl::1992-07-22:US:F:none:bla bla bla bla bla blo
sugar_sugar105:likem3::1992-11-28:CA:F:none:sugar_sugar105
sugar_sugar105105:sugarlover106:greatkid105@yahoo.com:1992-07-21:US:F:none:Jennifer Hoang
sugar_sugar109:natalie:rosebez9100@yahoo.com:1990-01-12:US:F:none:Betha Hennessy
sugar_sugar119:yellow::1991-09-04:CA:F:none:sugar_sugar119
sugar_sugar12:danny:kreider@wna-linknet.com:1991-10-06:US:F:none:Carole Kreider
sugar_sugar121:sexy1232::1997-12-05:AU:F:124.180.102.187:olivia
sugar_sugar123:lollies11:sickly_sweet23@hotmail.com:1992-08-23:AU:F:58.174.117.63:jess
sugar_sugar12313:goldy88:lhappyrock@aol.com:1990-01-27:US:F:none:Marika Mandish
sugar_sugar123321_1:hannah123:sugar_pop123321_1@hotmail.com:1990-04-04:US:F:none:killiabomb blow up
sugar_sugar1234:cookiejar1234:sweetcake1212@yahoo.com:1993-11-09:PH:F:124.107.252.138:Trixie
sugar_sugar12345:luna13:moon_goddess_luna_23@yahoo.com:1994-04-12:US:F:173.51.64.93:Luna
sugar_sugar151:sugar::1993-11-15:AU:F:none:sugar_sugar151
sugar_sugar16318:samantha:baby_sugar16@hotmail.com:1991-04-23:US:F:none:samantha hernandez
sugar_sugar19:ruffrose26:cute_denise7@yahoo.com:1989-01-20:PH:F:124.217.9.126:denise adrianne
sugar_sugar1993:brittany:brittany_1993@hotmail.com:1973-06-16:CA:F:none:brittany unruh
sugar_sugar2005:shift::1993-10-15:NZ:F:none:sugar_sugar2005
sugar_sugar2008:121993:schoolgirl_91210@yahoo.com:1993-06-06:US:F:76.211.224.221:Tran
sugar_sugar2010:horsecrazy!::1993-09-01:US:F:none:sugar_sugar2010
sugar_sugar202:3232566:dude_where_ma_car@hotmail.com:1990-03-17:AU:F:none:Rebecca Vinci
sugar_sugar2024:candyfloss::1994-05-02:GB:F:none:sugar_sugar2024
sugar_sugar214:0::jennifer10393:F:1986-07-22:0:bl a vla 
sugar_sugar259:*thomas:miss_vicki@hotmail.com:1992-04-14:CA:F:none:tori spen
sugar_sugar26:jessica26::1998-08-26:US:F:74.96.121.52:Jesscia
sugar_sugar264:kpikool2:kpikool@aol.com:1988-04-27:US:F:none:kirsten Ivers
sugar_sugar271:socker:sugar_bubble@yahoo.com:1991-09-26:US:F:none:cccccc kkkkkk
sugar_sugar298:happy:kingrustin@aol.com:1990-09-15:US:F:none:who wants to know
sugar_sugar300:boxxer:sugar_sugar_20031_@yahoo.com:1990-06-07:US:M:none:Shane Ake
sugar_sugar301:laura:cool_star21@hotmail.com:1991-04-09:CA:F:none:Laura Foldinski
sugar_sugar369:natalie:sugar_sugar963.@yahoo.com:1986-12-25:US:F:none:jenny guga
sugar_sugar3733:mag33::1995-03-03:US:F:none:sugar_sugar3733
sugar_sugar45:friends:candy_coated_cuitness@hotmail.com:1983-04-22:CA:0:none:qwerty qwerty
sugar_sugar47:sugar::1992-11-09:US:F:none:sugar_sugar47
sugar_sugar5292:bunnbunn::1993-05-02:US:F:none:sugar_sugar5292
sugar_sugar567:natalie:blackviolet999@yahoo.com:1980-02-05:US:F:none:Natalie Avila
sugar_sugar571:hamburgersteak9714:cookie_monster731@hotmail.com:1987-06-09:CA:F:173.0.8.195:Vanni S
sugar_sugar6:slurpee00:marshmallows_make_u_happy@hotmail.com:1984-09-05:TG:F:121.220.95.174:georgia
sugar_sugar666:makeup:brittany_dempsey666@hotmail.com:1901-03-07::F:none:brittany dempsey
sugar_sugar69:roxybaby11:Hott_stuff_baby69er@hotmail.com:1989-04-28:NZ:M:60.234.207.230:Bobby
sugar_sugar69r:sugarbaby:caitlin_adel12@hotmail.com:1991-04-17:US:F:none:Kina Summers
sugar_sugar70:sugar::1993-11-18:US:F:none:sugar_sugar70
sugar_sugar721:01010:lz_lala@yahoo.com:1991-07-21:US:F:none:Liz Lala
sugar_sugar73091:michael:sugar_sweet73091@yahoo.com:1991-07-30:US:F:none:sherokee soto
sugar_sugar812:tiggerdo:deelynne12@hotmail.com:1965-08-12:US:F:none:sugar_sugar812
sugar_sugar86:bruckless:owen@kerrimuirps.vic.edu.au:1963-04-13:AU:M:none:Owen  Cassidy
sugar_sugar92:marias:baby_face9876@yahoo.com:1990-03-10:US:F:Mail from luckycoral:Rosa  Sullivyan
sugar_sugar93:louie07:hannah_kimel@yahoo.com:1991-09-20:US:F:72.2.250.63:Hannah
sugar_sugar98:sweet98:jasmineh1998@yahoo.com:1980-01-31:US:F:75.63.16.33:jasmine
sugar_sugar98696:sugar8:zpha@hotmail.com:1989-02-19:US:F:none:lisa tir
sugar_sugarbaby_32:sweet::1993-01-12:US:F:none:sugar_sugarbaby_32
sugar_sugarplum:123456bubbles:pennytrinh@hotmail.com:1982-04-02:AU:F:49.197.130.72:penny trinh
sugar_sugarrune:ba82789::1997-04-10:PH:F:112.202.127.236:janika
sugar_sugarstar1010:sweetiepie1010::1993-07-28:US:F:none:sugar_sugarstar1010
sugar_sugarxd:831999::1999-04-06:IL:F:87.69.42.81:nelya
sugar_sugary_candy:3013412878::1997-01-01:US:F:71.108.197.219:Alice
sugar_sugar_:94522515:teechaiwanna@hotmail.com:1982-10-06:AU:M:none:James piromwong
sugar_sugar_06:cocacola#1:tedybear4562@hotmail.com:1989-11-18:US:F:none:Kathryn Lawson
sugar_sugar_10:apples10:cutiejennie@hotmail.com:1993-05-10:CA:F:184.146.107.26:J N
sugar_sugar_120:BACKMANSRULE98::1998-09-02:AU:F:122.107.194.140:ashleigh
sugar_sugar_123_88:barney22::1999-07-06:US:M:66.38.53.154:la la
sugar_sugar_125:19991202::1999-12-02:HK:F:219.79.161.50:chelsy
sugar_sugar_13:8111791::1991-07-13:US:F:none:sugar_sugar_13
sugar_sugar_2020_4:hollywood101:mariahquack@hotmail.com:1993-10-21:CA:F:24.64.223.205:Mariah
sugar_sugar_25:sweet25::1992-08-20:CA:F:none:Haley Bell
sugar_sugar_28:musik28::1996-10-16:DE:F:95.88.19.54:Canan
sugar_sugar_2_2_2:neopets00:www.ilovepets@bigbond.com:1989-09-10:AU:F:58.166.208.164:stacy
sugar_sugar_357:shorty357:sweet_serenity357@hotmail.com:1988-06-05:CA:F:74.15.80.74:Krystyna
sugar_sugar_3_3_3:birthday00::1990-01-10:US:M:122.106.195.106:duncan
sugar_sugar_4:poohpooh99::1999-08-10:HK:M:218.102.117.126:yau  HOO  CHEUK
sugar_sugar_411:pennycot:jessicac@tab.tas.edu.au:1987-09-29:AU:F:none:jessica evelyn
sugar_sugar_505:shimbug:flame_girl_505@yahoo.com:1985-06-15:US:F:none:N Lujan
sugar_sugar_5293:bunnbunn::1993-05-02:US:F:none:sugar_sugar_5293
sugar_sugar_77:sugar28::1998-12-04:HK:F:123.202.41.126:Yiu Yiu
sugar_sugar_7_7:leuk678lo:ncc524@aol.com:1986-12-20:BR:F:24.209.223.215:9reuti
sugar_sugar_7_7_7:sugar77:fmartinez@shaw.ca:1954-07-26:CA:F:24.70.95.205:lorraine
sugar_sugar_88:bianca10::2000-04-01:AU:F:58.175.73.114:bianca
sugar_sugar_8_8_8:brat12:veronicachrist19@yahoo.com:1991-04-24:US:F:68.238.224.93:october
sugar_sugar_9:ilovehim12:volleyballatfrancis@yahoo.com:1992-03-20:US:F:69.144.59.26:danielle
sugar_sugar_94:lushlush94:elfstar94@yahoo.co.uk:1988-03-16:GB:F:none:elf star
sugar_sugar_964:646770853:lullaby_chick_101@yahoo.com:1991-11-18:US:F:none:manuel gonzaez
sugar_sugar_9_9_9:154928:partygirl907@yahoo.com:1990-06-09:US:F:65.54.154.153:courtney
sugar_sugar_a41:norcia14:m0ligers14@aim.com:1992-04-01:US:F:74.77.125.69:molly
sugar_sugar_a63:teabag123:sheldonbrunt@bigpond.com.au:1977-09-21:AU:M:121.219.251.243:SHELLO
sugar_sugar_a70:sugar123:yyy111@yoyo.com:1979-03-26:AF:F:76.22.70.4:Sugar
sugar_sugar_baby23:le5wq159:pup_say@hotmail.com:1988-12-21:CA:F:none:alice  vax
sugar_sugar_baby39:smile:sugar_plum_princess39@hotmail.com:1984-03-11:CA:F:none:Allie G
sugar_sugar_bug:supre94:jesssie_c@hotmail.com:1991-06-25:GB:F:211.30.39.173:Georgii
sugar_sugar_bunny:lolo90:bubble-gummi@hotmail.com:1992-04-09:JP:F:69.10.107.233:Sugar
sugar_sugar_candy:putadu01:wariomona@hotmail.com:1990-03-13:AU:M:124.177.72.151:Robert
sugar_sugar_chocola:(SUGARSUGAR)::1997-11-24:IT:F:93.150.26.5:Giorgia
:::::::
sugar_sugar_cookie:orange::1993-07-01:CA:F:none:sugar_sugar_cookie
sugar_sugar_fly_girl:daisy:california_chick_101@yahoo.com:1991-03-29:US:F:none:KaitlynSomeBuddy
sugar_sugar_girl:luckey:best_friends_4ever_01@hotmail.com:1987-04-14:AU:F:Mail from bobby2112176:Alley Fish
sugar_sugar_girl_1:10155pugsnp:jackieprecious10@yahoo.com:1994-08-31:US:F:69.232.55.8:steffi
sugar_sugar_ki:19980208:kiki1_mail@yahoo.com.hk:1992-07-06:HK:F:204.188.138.7:精靈
sugar_sugar_lollipop:YamiBakura!:sugar_high_lollipop_freak@hotmail.com:1991-07-01:AU:F:none:Sugar Lollipop
sugar_sugar_love:sugarsugarlove26::1999-11-26:PH:F:122.2.176.125:kirstine
sugar_sugar_marty09:ropars09::1998-03-26:US:F:69.142.248.252:sabrina
sugar_sugar_oh_henry:mandycandy*:hello_hunny_heyo@hotmail.com:1961-02-19:US:M:none:Ginger Snap
sugar_sugar_pop:naughty:bumblebeegirl17@hotmail.com:1991-10-17:CA:F:none:Taya L
sugar_sugar_r:starclan12:rwalker1@student.ednet.ns.ca:1993-03-06:CA:F:24.138.17.244:Becca
sugar_sugar_rocks:meaghansugar::1993-07-30:CA:F:none:sugar_sugar_rocks
sugar_sugar_roon12:matthew123:ashley_tisdale_1234ever@yahoo.com:1990-05-05:PH:F:125.60.241.198:ashley
sugar_sugar_run:27978787:peggylaw14@hotmail.com:1992-05-27:HK:F:none:♪喵兔（主戶）
sugar_sugar_rune:fruitsbasket1234:pandalover65@hotmail.com:1994-08-19:CA:F:70.40.179.76:NULL
sugar_sugar_rune01:080498:karmeelle_aliceacademy@yahoo.com.ph:1992-08-04:PH:F:125.60.241.83:karmeelle
sugar_sugar_rune1:6368008:yodabazoo@yahoo.com:1988-10-19:US:F:none:vanilla ice
sugar_sugar_rune13:11291:stealing_your_soul13@yahoo.com:1991-11-02:US:F:none:dunno dun care
sugar_sugar_rune2:6368008:yodabazoo@yahoo.com:1988-10-19:US:F:none:vanilla ice
sugar_sugar_runer_14:divinas14::2002-05-14:PE:F:190.42.164.77:alisson gabriela
sugar_sugar_rune_1:ichigo123:wateva@hotmail.com:1986-06-30:JP:F:211.30.93.120:mewmewpudding
sugar_sugar_rune_194:16262157012:harrypotterluuuv@yahoo.com:1993-02-08:US:F:99.190.165.171:Chocolat Kato
sugar_sugar_rune_777:bancus123::1999-12-20:PH:F:121.97.134.154:sophia
sugar_sugar_rune_fan:hill99:skydancer101@comcast.net:1996-01-20:US:F:69.136.233.103:Cytheria
sugar_sugar_rune__aa:KCkc964532:jerry_tsoi@hotmail.com:1989-01-25:CN:F:219.78.17.187:chocola
sugar_sugar_sugar:1qazzz:www.chtdoc@aol.com:1993-08-02:US:F:76.94.5.162:sugar sugar rinn rinn
sugar_sugar_sugar_08:horses21:riding_babe1@yahoo.com:1984-12-15:US:F:64.77.194.201:Elizabeth
sugar_sugar_sweet:annie1995::1985-05-19:US:F:69.203.80.61:mwah mwah candy
sugar_sugar_sweet203:zacky::1991-12-04:CA:F:none:sugar_sugar_sweet203
sugar_sugar_sweetie:foreverlove:rpepper@charter.net:1988-08-08:US:F:none:Jessica P
sugar_sugar_wolf:luv1991:silverwolfmeg@aol.com:1991-10-25:US:F:207.200.116.11:Rae
sugar_sugar_yummy:looloo567:coloradonikki@gmail.com:1997-04-16::F:71.196.160.68:NULL
sugar_sugar__30:hannasch40:kristingediga@t-online.de:1994-08-07:DE:F:87.175.70.198:Miriam
sugar_sugar__49:lincoln1:ddvail@usu.edu:1981-03-18:US:F:none:John  Smith
sugar_sugar__60:Kitty32:ka_thumper46@verizon.net:1927-05-08:GT:M:72.69.123.211:Candice
sugar_sugar__xx:afdstg8:ferek2003@yahoo.ca:1981-04-26:CA:F:none:ssd sdfsfd
sugar_suga_10:ilovearta:sugar_suga_10@hotmail.com:1984-04-27:CA:F:none:Danielle  Lemma
sugar_suga_11:heythere:sugar_suga_10@hotmail.com:1990-04-27:US:F:none:Danielle Lemma
sugar_suite_babe:ilovezack!:cheetahprncess7@aimmail.com:1987-01-27:US:F:none:Venessa McVassa
sugar_sukoii:12330431:sugar0sa@hotmail.com:1992-07-31:CN:F:none:KI HO
sugar_summer:s1u2n#:shanita05@live.com:1996-01-05:SG:F:220.255.2.79:shanita
sugar_sun86420:summergirl48::2004-07-05:US:F:98.231.141.191:georgia de buerba
sugar_sundae:nutbar:halo_00@thefragile.com:1981-02-25:CA:F:none:c w
sugar_sunny_by:emo7girl:tunny_dd@hotmail.com:1988-08-09:AR:F:none:Sugar Sunny
sugar_sunset23:thesims:missmachine08@hotmail.com:1986-05-23:CA:F:none:Wednesdayx
sugar_sun_girl:sunshinesugar:kmcdonald@lakeorion.k12.mi.us:1974-07-29:US:F:none:unouluvme admit it
sugar_superstar123:sugarsugar:angelhonggz@hotmail.com:1980-05-06:CN:F:none:candy something
sugar_superstarbaby1:friends:sugar_girl179@hotmail.com:1990-05-25:CA:F:none:Julianna Gazzoli
sugar_super_lips:hp1702:lovely.lea@live.nl:1980-05-01::F:77.248.12.228:NULL
sugar_surf:puppys::1994-02-02:AU:F:none:sugar_surf
sugar_surge_69:madeline:dream_on_69r@hotmail.com:1990-02-09:AU:F:none:madeline morton
sugar_surprise_:sweet::1994-03-19:GB2:F:none:sugar_surprise_
sugar_sushi:yumy32:sushi_apple@yahoo.com:1927-10-31:US:F:75.75.95.117:alice marie anttointe
sugar_suzan311:suzie:kevinngo@juno.com:1990-03-11:US:F:Can I be your NeoFriend?:suzie le
sugar_sw33th3art:florida:twinkler853@sbcglobal.net:1991-04-01:US:F:none:i LoV3 aLl oF u!
sugar_sw33tie:cooly85::1993-08-23:US:F:none:sugar_sw33tie
sugar_sw33tz:)::):):):):)
:::::::
sugar_swan876:happybunnbunn987:happybunny876@gmail.com:1995-05-06:US:F:71.125.117.2:tina
sugar_sweatie_10:ratboy::1991-05-30:US:F:none:sugar_sweatie_10
sugar_sweeeet:starpass:tinylikewhoa@aol.com:1989-01-23:US:F:none:marina k
sugar_sweeet124:nathecat:pixie_dust7@hotmail.com:1991-06-06:CA:F:none:Amber Hughes
sugar_sweeet_7777:zaq789:sugar_plumfairy0704@hotmail.com:1988-11-04:CA:F:none:ria joseph
sugar_sweeet_babe:0418226309+menai:sugar_sweet__babe@hotmail.com:1992-06-08:AU:F:none: SweeT ChiK
sugar_sweer:march20::1998-03-20:US:F:69.171.163.133:NULL
sugar_sweet:abdullah2006:rockz96@hotmail.com:1988-12-16:MY:F:none:putri suhaily
sugar_sweet01:Speakers01:lottie_babeei@hotmail.co.uk:1993-07-04:GB:F:90.212.21.94:None
sugar_sweet010:weerubes:ruby_h_arrigan@hotmail.com:1990-04-04:GB:F:none:Ruby  Harrigan
sugar_sweet04:cupcake:lizythomas@aol.com:1990-04-04:US:F:none:Lizzy Thomas
sugar_sweet0569:goodman::1991-11-28:CA:F:none:sugar_sweet0569
sugar_sweet06:jupitar:hoop_lover06@hotmail.com:1990-08-05:CA:F:Acceptance:? ?
sugar_sweet07:charley38::1997-05-12:GB:F:82.14.67.171:Ruth
sugar_sweet08:marissa8:sugar_sweet0808@hotmail.com:1991-09-21:AU:F:none:Amy Stirrat
sugar_sweet09:honey::1991-04-09:CA:F:none:Dunn o
sugar_sweet1:hornsea:moomoo1@btconnect.com:1990-10-06:GB2:F:none:laura
sugar_sweet100:zellers22@:pink_perfection_xoxoxo@hotmail.com:1990-03-22:CA:F:99.232.237.85:Vanessa
sugar_sweet1000:lovely::1992-07-21:NZ:F:Mail from theneopetsteam:none
sugar_sweet1004:hyunjin555:sugar_sweet1004@hotmail.com:1989-02-17:CA:F:none::: a L L y   ^-^
sugar_sweet101:AwZoMeGiRl6868:j_gal_7@yahoo.ca:1992-02-29:CA:F:none:Myself
sugar_sweet1010:letteri10:surgar_sweet@hotmail.com:1985-04-06:CA:F:none:minilina
sugar_sweet1012:nathan:chelseacumby@hotmail.com:1990-01-01:CA:F:Mail from contest_judge:chelsea cumby
sugar_sweet101__jj:JeeV5462::1995-11-10:CA:F:173.180.200.62:Swtangel
sugar_sweet1069:travis:metallicasnoboardchik@hotmail.com:1986-01-02:US:M:none:T F
sugar_sweet11:sugar11::1996-11-09:GB:F:86.144.119.106:darcie
sugar_sweet1114:didis::1993-10-14:CA:F:none:sugar_sweet1114
sugar_sweet112:cupcake112:rockqueen_78@aol.com:1994-06-15:GB:F:212.85.1.1:Annie
sugar_sweet113:pepper*:pepper_spice113@yahoo.com:1991-03-19:US:F:none:Karma
sugar_sweet114:sweet4::1993-06-12:CA:F:none:sugar_sweet114
sugar_sweet116:Why do you need to know??? ??? :)::Why do you need to know??? ??? :):Why do you need to know??? ??? :):Why do you need to know??? ??? :):Why do you need to know??? ??? :):Why do you need to know??? ??? :)
:::::::
sugar_sweet117:spice_:nillers9875@yahoo.com:1991-05-07:US:F:none:123 456
sugar_sweet12:oreoissuper12:aly_olsen_rocks@yahoo.com:1987-03-08:CA:F:216.232.157.194:ashley
sugar_sweet1209:april13:il0vegymnastics@yahoo.com:1991-04-13:US:F:Item:**Lauren Williams**
sugar_sweet12128:beth h::1993-01-27:US:F:none:sugar_sweet12128
sugar_sweet12133:123456789::1994-05-01:US:F:none:sugar_sweet12133
sugar_sweet1219:kenlui:clarissachow@hotmail.com:1986-08-31:CN:F:none:Clarissa C
sugar_sweet121xo:m_r12:artificial_dreamer4484@hotmail.com:1992-07-07:CA:F:none:McKenzie Roberts
Sugar_Sweet123:10755aba::2000-12-14:CA:F:70.27.25.44:NULL
sugar_sweet12300:missy101:mommy_lil_girl22@hotmail.com:1991-10-25:CA:F:none:holly buchanan
sugar_sweet123321:zellers22:sugar_sweet100@hotmail.com:1987-03-22:CA:F:none:vanessa Martin
sugar_sweet123987:cancer:bad_girl123@hotmail.com:1990-06-13:AU:F:none:Kaitlyn Becster
sugar_sweet127:queenc:super_cute_238@hotmail.com:1985-06-08:CA:F:Mail from kittykat_13101:Nicole Vannoyin
sugar_sweet13:kittykat:super_christy_baby123167@yahoo.com:1991-06-27:US:F:none:jessica l
sugar_sweet130:zellers22@:sugar_sweet100@hotmail.com:1989-03-22:CA:F:74.108.207.98:vanessa martins
sugar_sweet168:paintjeans:little_steph88@hotmail.com:1988-07-13:CA:F:none:Stephanie Davison
sugar_sweet16_2002:hottie::1990-10-15:CA:F:none:none
sugar_sweet170:tylerswoman:sweet_as_sugar_and_spice_5@hotmail.com:1982-01-02:CA:F:Mail from gr8tobeagirl:melaine carter
