sugergirl_15:smokey::1993-09-14:US:F:none:sugergirl_15
sugergirl_2006:UNDZILE$:phetsilevilakati@yahoo.co.uk:1990-02-23:GB:F:none:PHETSILE VILAKATI
sugergirl_3:jenna33:super-cutie-3@hotmail.com:1994-03-29:CA:F:24.70.95.205:Alicia
sugergirl_3_7:kiki12::1996-06-12:US:F:71.88.99.40:kira
sugergirl_7:1565slater::1997-05-05:CA:F:198.20.32.253:jessica
sugergirl_a72:funkyfun12::2000-10-06:US:F:75.62.94.82:natalia
sugergirl_boa:cccc22:Caprice.Jussel@gmx.at:1993-10-31:AT:F:62.47.233.231:Caprice
sugergli0119:stars:ctcope23@msn.com:1982-03-30:US:F:76.104.100.242:Star  Cope
sugerglider:horses:bellecharlotte97@yahoo.com:1992-06-08:US:F:none:Charlotte McKee
sugerglider102:sugeys101::2000-06-21:US:F:173.168.101.58:Brianna
sugerglider11:regus::1993-01-28:CA:M:none:sugerglider11
sugerglider123:domino123::1998-04-03::F:98.199.208.27:NULL
sugerglider144:shimmer14::1998-6-14:US:F:98.243.101.102:summer
sugerglider15:slayer5:ronfee@san.rr.com:1993-06-12:US:M:none:michael fee
sugerglider1616:tucker22:sugerglider14@hotmail.com:1991-01-13:CA:F:70.53.108.145:josi!ash
sugerglider1993:sugersuger19:snow.princess.93@hotmail.com:1993-05-26:CA:F:64.228.129.73:lindsey
sugerglider22:9058524417:bikein_moutains@hotmail.com:1988-08-02:CA:M:Item:Mike Whitey bikein_moutains@hotmail.com
sugerglider2681:sugerman:jdcatc@zplug.net:1989-01-11:US:M:none:Casey Seitz
sugerglider45:shelly5:spiketoyfordogs@yahoo.com:1969-03-24:US:M:none:cammy digbb
sugerglider63:starlight64::1997-11-21:US:F:72.177.88.96:SugerGlider
sugerglider789:princess45:ante610@msn.com:1993-02-13:US:F:24.30.239.112:Lexy
sugergliderlover:Sugar08:Lilywater2008@aim.com:1989-06-06:US:F:65.25.32.2:Kat
sugerglidersrock:iamawsome!::1993-11-03:US:M:none:sugerglidersrock
sugerglider_13:mother44:ptrettyprincess22@cox.net:1993-01-15:US:F:68.103.72.215:Panda
sugerglider_5:sugercane52::1998-09-07:US:F:68.174.209.216:lianna
sugerglitch37:griswoldM12:sugerglitch65@yahoo.com:1994-06-01:US:F:68.9.79.18:shafika
sugerglyder:koodaboo:sugarglyder_1011@hotmail.com:1975-12-29:US:M:none:mark berrett
sugergoddesscandy:funnys:sailor_mars_cf@yahoo.com:1983-10-08:US:F:206.188.248.80:Candy Fleck
sugergood:naescooleh:seanoriver@hotmail.com:1989-01-28:CA:M:none:Sean Flanagan
sugergood36:hellokitty13:joeykitty1113@yahoo.com.hk:1991-01-01:HK:F:219.73.84.53:suger leung
sugergood950:friends4evr:mikegober@qwest.net:1990-02-07:US:F:216.147.226.99:Brooke
sugergopher:6400jen:jennifier.lynne@gmail.com:1987-05-10:US:F:75.143.73.163:jen
sugergoth666:186881:sugersister2003@yahoo.com:1990-01-26:US:F:none:ashley marks
sugergrace05:jumps:princess_pace_2004@yahoo.co.uk:1992-05-18:GB:F:none:megan allison
sugergrisen:hamster7:saro_musen@hotmail.com:1993-02-03:DK:F:80.167.83.206:sukker grisen
sugergrl102:CANDYLOVE::1991-04-29:US:F:none:sugergrl102
sugergrl11:andrews14:sugergrl11@aol.com:1992-06-21:US:F:76.48.180.152:Jill
sugergrl15:5421455:nikki_4rm_cali_714@yahoo.com:1991-02-01:US:F:none:nikki hernandez
sugergrl2010:chelsea::1992-02-15:US:F:none:sugergrl2010
sugergrl3000:stargrl*:teeny_weeny_bopper@hotmail.com:1991-04-18:CA:F:none:Tracy Mcgraw
sugergrl5:friends:sugergrl5@aol.com:1991-03-11:US:F:none:lauren wagner
sugergrove:softball65::1997-06-04:US:M:165.138.87.253:Thomas
sugergrrl:726840:c00keh@yahoo.com:1986-01-10:US:F:98.245.17.28:Jamie
sugergueen_777:jediandlilly00::1995-07-25:US:F:72.23.110.59:lielah
sugergum123:soniQ106::2000-11-05::F:124.191.36.226:NULL
sugergumdrop:8507612::2000-02-11:US:F:70.234.48.193:maddison
sugergumgumdrop:lklklk:danielle@zipsworld.com:1972-07-17:US:M:none:joe robitaille
sugergum_bubblegumm_:lokiju12::1999-09-21:US:F:72.226.207.35:morgan
sugergurl08:gurlsuger08:KaylaMasdon@yahoo.com:1994-08-03:US:F:68.153.154.160:Kayla
sugergurl120:tinkerbell:cherierae@msn.com:1990-03-19:US:F:Mail from summer12325:Jessica Andrade
sugergurl137:romance:walker203@shaw.ca:1987-01-10:CA:F:none:emma jones
sugergurl18:luvver1:suger_gurl_18_is_sweet_luv@hotmail.com:1987-04-25:US:F:none:Willow Anonya
sugergurl333:iloveyoualot101::2000-02-28:US:F:198.70.218.158:caylee
sugergurl49:heyyhotty7715::1997-04-09:US:F:216.241.195.115:Kassidy
sugergurl7:heyyhotty7715::1999-04-09::F:216.241.195.115:NULL
sugergurl77:heyyhotty7715::1999-04-09:US:F:216.241.195.115:Kass
sugergurl78248:jason::1992-10-16:CA:F:none:sugergurl78248
sugergurl7_7_49:heyyhotty7715::1999-04-19:US:F:216.241.195.115:Kass
sugergurl7_7_4_9:heyyhotty7715::1999-04-09:US:F:216.241.195.115:Kass
sugergurlcane:2581681:yi_pink@hotmail.com:1988-06-29:CA:F:none:huiming yang
sugergurlie:suger:devilslikemerock@yahoo.com:1989-12-25:US:F:none:Lacy Kags
sugergurlzz18:BLUEROSES18::1998-02-21:US:F:8.7.69.16:BRIANA
sugergurl_1:dipping1:vampiresrcool@hotmail.com:1989-04-02:AU:F:none:bex harting
sugergurr75:mackey::1991-10-31:US:F:none:sugergurr75
sugergween:9874tc::1997-04-07:US:F:70.176.186.44:Taylor
sugerh:GELERT::1992-04-09:US:F:none:sugerh
sugerhead:babe12::1993-09-25:US:F:none:sugerhead
sugerhead101:moyah:lasqueeza@hotmail.com:1907-06-22:CA:F:none:sable moyah
sugerhead123:allison:demand109@yahoo.com:1986-01-15:US:F:none:allison smith
Sugerhead2001:hihi123::2001-03-13:US:F:24.129.30.1:NULL
sugerhead24:soccerkai24::2005-02-03::F:173.77.145.134:NULL
sugerhead2424:soccerkai24::2000-4-24:US:F:173.52.237.39:breka
sugerhead313:hihi123::2001-03-13:US:F:24.129.30.1:NULL
sugerhead50:ytrew:oswaldpal@hotmail.com:1982-04-25:GB:M:none:jsdnc.dsajv kdsvma.dsk
sugerheart:turce:shahrzad_khoshnazar@yahoo.ca:1948-07-06:CA:F:none:shahrzad12345 khoshnazar
sugerheart101:score::1991-11-03:GB:F:Mail from love_heartuk:sugerheart101
sugerheart19:mony123::2003-04-14:US:F:74.4.58.224:NULL
sugerheart5523:swetty:troublemaker209@yahoo.com:1986-05-02:US:F:none:evette beitbadal
sugerheart75:hockey92::2002-08-13::F:69.179.35.50:NULL
sugerheart_14:peanut13:breannalloyd43@yahoo.com:1995-11-22:US:F:71.211.182.154:Breanna
sugerheyhey:heyheyheygoodbye12::1999-01-22:GB:F:68.98.133.79:ty
sugerhi:darting::1992-11-23:US:M:Mail from theneopetsteam:sugerhi
sugerhi247:Christine:sugerhi247@yahoo.com:1986-05-08:US:F:none:Christine Sanchez
sugerhi247365:7836128:scseth711@aol.com:1990-02-27:US:M:none:seth wooke
sugerhi247866:7836128::1993-04-25:US:M:none:sugerhi247866
sugerhi73:polkadot08::1998-09-21:US:F:97.118.246.43:Julia
sugerhigh:hyperactive_bunnys::1993-02-07:NZ:F:none:sugerhigh
sugerhigh0:lifelike12:superprincess124@yahoo.com:1994-08-19:US:F:68.187.101.114:amber
sugerhigh123:mlb1393:mariabehm@gmail.com:1992-11-09:US:F:24.4.16.116:Maria
sugerhigh125:50192::1992-05-01:US:M:none:sugerhigh125
sugerhigh13:azzurrastn.:bgnobhill@msn.com:1989-04-04:US:F:none:Juliet Hermens
sugerhigh1992:september12:sugerhigh9792@aol.com:1992-09-07:US:F:74.79.237.84:monique
sugerhigh21:halo12:babemagnet19@sbcglobal.net:1991-01-08:US:M:none:Nick Mead
sugerhigh247:sugarhigh247:sugerhigh247@aim.com:1991-11-12:US:F:none:Paula Sharp
sugerhigh24_7:affhole!:monkeyapple911@yahoo.com:1992-03-05:US:F:69.244.162.126:shellshell i dont know
sugerhigh45:smiles::1992-10-30:US:F:none:sugerhigh45
sugerhigh4evs:suger11:sugerhigh9792@yahoo.com:1992-09-07:US:F:24.59.199.26:monique
sugerhigh4life:masha:mayadobry@attbi.com:1981-08-05:US:F:none:katie mansfield
sugerhigh798:Johnson1::1993-04-30:US:M:none:sugerhigh798
sugerhigh909:cautiondanger44::1996-10-06:US:F:98.220.195.168:Chloe
sugerhigh93:dazzle93:runsweetierun@yahoo.com:1993-10-02:US:F:24.91.21.136:K
sugerhighchick:boohbah7::1993-02-10:US:F:none:sugerhighchick
sugerhighfreak:laney*:zanietangy@yahoo.com:1992-09-21:US:F:none:Rebekah Rogerson
sugerhighgirl101:crazy:sweetiecake101@yahoo.com:1990-03-14:US:F:none:lizzie smith
sugerhighh:wness04:kirby645@aol.com:1988-09-20:US:F:69.118.213.237:Darcy
sugerhighkitsune132:anime:malaquia@sbc.net:1991-09-19:US:F:none:malquia brown
sugerhighkitty16:ellabella07:sugerhighkitty@yahoo.com:1991-06-20:US:F:70.190.101.175:Dana Koslowsky
sugerhighmonkey:ladyaaat:way2hothottie@yahoo.com:1991-08-17:US:F:none:Alyssa Skiba
sugerhighrocketsky:1pikachu:dominique_horner@ehs.edgemont.org:1991-11-17:US:F:none:D N
sugerhighsweetie:alicehong11:lilholyangel@yahoo.com:1983-02-08:US:F:none:Ali Hon
sugerhighsweety:alicehong11:sugerhighsweety@yahoo.com:1983-02-08:US:F:none:Ali Hon
sugerhightomboy:luvpoopy:shedevilofthenight@yahoo.com:1990-06-24:US:F:70.177.236.205:Amanda
sugerhigh_1:may10::1994-05-10:US:F:none:sugerhigh_1
sugerhigh_4456:shelbie12:musicgeek4456@hotmail.com:1989-09-16:US:F:216.125.196.97:ShelDan
sugerhigh__62:ohshit321:constance7@earthlink.net:1989-04-14:US:M:none:constance cassell
sugerhill:421422:izzy4214@hotmail.com:1993-03-17:US:F:none:isadora dau
sugerhill421:4214224i:izzy4214224@hotmail.com:1995-01-11:US:F:96.224.149.42:isadora
sugerhill989:zs8610888:sugerhill@163.com:1986-08-09:CN:M:119.40.49.18:NULL
sugerhillchick:4money:bazdito@msn.com:1990-07-27:US:F:71.218.212.201:Jessica Santose
sugerhive15:click5:fruiteen15@aim.com:1987-02-07:US:F:none:candycane herkly
sugerhoi:870420:sugerhoi1@hotmail.com:1987-03-14:KR:F:220.94.225.82:ì„±í¬
sugerholic88:smileyface123::1997-09-09:TO:F:71.211.207.159:Mackenzie
sugerhoney:wooddy:keokitty14@yahoo.com:1990-04-17:US:F:none:krisztina oliveira
sugerhoney08912:cuteaj:coolgirl7@cox.net:1991-01-02:US:F:none:Jenelle Mercurio
sugerhoney101:22night::1996-02-27:GB:F:81.157.30.38:natalie
sugerhoney113:bugger!::1993-11-06:NZ:F:none:sugerhoney113
sugerhoney182002:sashay:sugerhoney182002@yahoo.com:1986-03-16:US:F:none:sasha davis
sugerhoney19884281:198881:sunnydaycute@yahoo.com.tw:1987-08-01:TW:F:none:婛婛 劉
sugerhoney2:lizzie::1992-09-09:GB:F:none:sugerhoney2
sugerhoney247:jadepottle::1994-04-09:GB:F:none:sugerhoney247
Sugerhoney27:lola135::1999-05-17:GB:F:77.100.114.115:NULL
sugerhoney32:icetea33::1998-12-23:US:F:24.217.96.104:kayla
sugerhoney327:4764940::1999-03-27:NZ:F:120.89.83.54:NULL
sugerhoney55a:saskia10:saskiabennett@hotmail.co.uk:1993-09-10:GB:F:86.159.201.105:saskia
sugerhoney67:SNOW3456::1993-12-22:US:F:none:sugerhoney67
sugerhoney775:babygirl99::1994-01-14:US:F:none:sugerhoney775
sugerhoneybee01:suger::1990-01-01:US:F:neofriend:sugerhoneybee01
sugerhoneygirl:chelmay0989::1989-09-11:US:F:none:none
sugerhoneyhoney:beastquest55::2002-7-24:GB:F:94.168.122.245:estrell
sugerhoneyice:ding dong1994:madray12@earthlink.net:1988-12-25:US:F:none:Madison Freak
sugerhoneyicecubes:avay2525::1998-08-14:US:F:72.84.92.178:kayla
sugerhoneyicetea:bitsy12::2004-07-26:US:F:68.55.59.202:NULL
sugerhoneyicetea11:ivanna12:NU_bon2008@yahoo.com:1994-08-28:US:F:68.161.148.101:Shiva
sugerhoneyicetea43:gosh2:bigsis@gmail.com:1993-03-03:US:F:none:Rachel  D\Amato
sugerhoneyicetea52:maraqua:celespnzr08@aol.com:1975-03-23:US:M:none:Mark Hammond
sugerhoneyiceteayeah:dave2dave:flickaflee@aim.com:1988-11-11:US:F:none:Suger Honey
sugerhoneyicetea_285:austin12::2001-07-07::F:96.233.94.49:NULL
sugerhoneylandlol:0923663::1999-10-04::F:68.203.161.116:NULL
sugerhoneysickle:love2828:katerynapolek@hotmail.com:1994-04-28:CA:F:70.24.25.88:NULL
sugerhoneyyumyum:00tintin:xoxo-n.i.u.s.h.a-xoxo@hotmail.com:1981-04-20:AU:F:58.109.112.186:Niniush
sugerhoney_5_5_5:love_:philboss@aapt.net.au:1993-06-12:AU:F:none:Tayla Boss
sugerhoney_92:pink!::1992-10-13:US:F:none:Morgan Johnson
sugerhoney_icetea:bambi*:mmcerlean@rcc.qld.edu.au:1992-01-28:AU:F:none:madi mcerlean
sugerhoney__62:*casey*:nanastoe@aol.com:1990-05-08:US:F:none:Erin Stoeffler
sugerhony_123:maddie123::1997-07-18:US:F:76.248.8.3:brooke
sugerhorse101:ulricksen28::1997-05-26:US:F:209.193.40.205:maleea
sugerhorse33:licious:krazie4horses36@hotmail.com:1985-02-08:US:F:Mail from theneopetsteam:Natalie Currie
sugerhorsey527:sabrina527::1994-05-27:US:F:24.180.16.72:sugerhorsey527
sugerhottie340_6:joeyben11:ttree@maine.rr.com:1991-07-11:US:F:74.75.122.222:Taylor
sugerhottie_7:morgan01:brookekid02@yahoo.com:1982-02-10:US:F:24.27.54.54:brooke
sugerhot_r2000:IcETeA123::2000-02-08:AU:F:116.240.151.86:SuGeR
sugerhound13:i love dogs11:patchesandsarah@sbcglobal.net:1994-11-23:US:F:76.235.92.146:Sarah
sugerhound94:i love dogs11:siefken6@sbcglobal.net:1994-11-23:US:F:76.235.98.131:Sarah
sugerhounyhouny:22144::1994-05-10:US:F:none:sugerhounyhouny
sugerhun123:arielle123:crazzyjuw123@aol.com:1992-03-12:US:F:none:karen alexansder
sugerhuni:josh16:sUgEr-hUnI@hotmail.com:1991-05-31:NZ:F:125.239.78.48:caysea
sugerhunii66:brandy::1992-02-19:US:F:none:sugerhunii66
sugerhunni:icetea10:kndllsanchez@yahoo.com:1995-03-15:US:F:69.23.159.168:kendall
sugerhunnie42:kne42:lneal36@adelphia.net:1989-02-21:US:F:none:kati  neal
sugerhunnieicetea__2:password99::1999-03-26:NZ:F:218.101.117.148:ruby
sugerhunny123:hellomoto:bunnie_babe@hotmail.co.uk:1992-05-02:GB:F:none:cloz baby
sugerhunny222:spice:zoejansen@aol.com:1989-07-10:GB:F:none:Zoe Jansen
sugerhunnyicetea:melany31::1999-10-31:AU:F:115.130.57.95:kaija
sugerhunter:sweet1:jr_sexy_pizza@hotmail.com:1990-01-25:CA:M:none:Andrew knapton
sugerhy:Anastasia:sprinkledsuger@yahoo.com:1991-03-11:US:F:none:Ana W.
sugerhygh:Angel333:sugerhygh1994@aim.com:1989-04-03:US:F:138.89.62.194:Bobby Bugalsavia
sugerhygh1994:Angel333::1994-04-03:US:F:none:Bob Bugalsavia
sugerhype:crazy1:crontw@yahoo.com:1985-11-19:US:F:none:Korn jonny
sugerhypedcrazygirl:sweetanlow_2:sugerhypedcrazygirl@hotmail.com:1984-01-03:US:F:none:Coffee In a cup
sugerhyper143:rootbeer12::1995-11-27:US:F:72.75.72.190:michaela
sugerhyper223:abbie11:sammybgauvain@verizon.net:1993-10-22:US:F:71.168.110.198:Tay Tay
sugeri:98735780:geral_145@hotmail.com:1990-12-30:PE:F:200.62.146.245:Geraldine Ramirez Andrade
sugeri0260:abs456852:fish3026@yahoo.com.tw:1988-03-26:TW:F:61.216.232.188:糖一雲
sugeri1228:rathsay:rissy_oslie@hotmail.com:1987-09-12:US:F:none:shundiin green
sugeri123:nazlyn18:nazlyn18@yahoo.com:1983-01-18:US:F:69.124.182.122:nazlyn
sugeri91:taggi:taggerung_2003@ozemail.com.au:1991-06-23:AU:F:Acceptance:sam ryan
sugeribola:su7su16:sugeribola@hotmail.com:1987-05-14:BR:F:none:Suelen Geribola de Lucena
sugerice12:729453:quatia.dorsey@yahoo.com:1997-05-30:US:F:99.73.16.243:tia
sugerice7:ilovemarco7::1993-12-10:US:F:none:sugerice7
sugerice922:cake00::1999-10-02:US:F:66.170.211.18:iyana
sugericebabe06:ice06:cutiehotie32@aol.com:1990-05-20:US:F:none:kimberly riggs
sugerice_1:132333:aya.riched@gmail.com:1993-08-05:US:F:99.140.61.209:aya
sugerice_2:muffin123::1999-11-06:US:F:71.55.246.186:jasmine
sugeriday:iloveyou:sugerdaisies@yahoo.com:1984-11-25:US:F:none:Stephanie Elston
sugerido128:sugestao12:bubix_96@hotmail.com:1994-07-15:BR:F:189.70.86.207:mariane
sugeridos:98210451r:dide171@hotmail.com:1995-05-24:BR:M:201.93.216.141:Rodolfo
sugerie:boo13::1993-09-19:US:F:none:sugerie
sugerieshelby:saj56821:sjohnstone@pvlearners.net:1996-06-27:US:F:70.190.149.242:Shelby
sugeriesweet27:iloveu:chikibabe10@yahoo.com:1990-09-21:US:F:none:rachel friedman
sugerie_candie_floss:DAHLIA1:shadow_dahlia@hotmail.com:1985-12-25:SG:F:none:nicole crest
sugerie_shelby:saj56821:fuzzywuzzy96@cox.net:1993-06-27:US:F:68.2.94.27:shelby
sugerie_shelby21:saj56821:iluvphx32@aol.com:1993-06-27:US:F:68.230.100.13:shelby
sugerimos:123456789123:nandinho.vasco@hotmail.com:1991-10-08:GP:M:189.124.176.161:sugerimos
sugerinc:1mcgaffee1:evanncarter@yahoo.com:1994-05-19:US:F:76.90.33.238:Sam
sugerinorangejuice:ilamsm:the_dougler69@hotmail.com:1990-09-11:CA:M:Mail from referralteam:Doug MacKenzie
sugerinspice159:argyle15::1993-11-15:US:F:none:sugerinspice159
sugerintea:5d872s35::1999-12-08::F:99.27.255.22:NULL
sugerinthetea:hom7s::1993-08-17:IE:F:none:sugerinthetea
sugerir:88568685:me.leine@hotmail.com:1994-08-07:GR:F:200.149.50.206:~
sugerir1:88568685:me.leine@hotmail.com:1994-05-05:EG:F:200.149.50.206:~
sugerisbad16:john1:sugerisbad16@aol.com:1987-01-23:US:F:none:mistie  caldwell
sugerisdead:devin99:DEVINRADFORD69@YAHOO.COM:1992-02-05:US:M:24.176.156.144:DEVIN
sugerisgood::fsajjad3@yahoo.com:1991-08-05:US:F:68.114.57.55:NULL
SUGERisGOOD13:monkey123:poopisgood@yahoo.com:1997-08-05:US:F:68.114.57.55:NULL
sugerish:ibrahim12:suger_sh@hotmail.com:1988-07-03:CA:F:none:saida hassan
sugerismyfriend:crazymegs!:mt1121m@aol.com:1992-06-12:US:F:none:Meagan and Sammi
sugerismyfriend7:banana:callahan579@verizon.net:1983-09-28:US:F:Mail from theneopetsteam:Hannah Wagner
sugerissweet:yoyoyo1::1993-08-14:CA:F:none:sugerissweet
sugerissweet141:booboo21::1993-03-29:CA:F:none:sugerissweet141
sugerissweet22:corrie22::1997-02-16:GB:F:82.33.230.34:corrie
sugerissweet3435:brfc77787:brfc77787@yahoo.com:1960-01-25:US:F:none:becky claton
sugerissweetoo:pinky01:ckerr@queenstown.school.nz:1988-04-10:NZ:F:none:chelsea kerr
sugeristhekey:homer123:streetdancer@hotmail.co.uk:1911-05-25:AE:F:86.96.227.73:ellie
sugerisweet:people11:suger_sweety@yahoo.com:1988-01-18:US:F:76.20.179.29:jen
sugerisweet101:sugerisweet12::1997-10-07:US:F:71.97.19.13:Criswell
sugerisweet1297:sugerandspice2007::1997-10-07:US:F:71.168.215.59:Crissy
sugerisweet24:justinbieber15::1999-08-31:US:F:67.82.68.124:julia
sugerisweety:people11:suger_sweety@yahoo.com:1992-01-18:US:F:66.227.168.18:Jen
sugerita:sugerita123:plushy22@yahoo.com:1987-03-15:FR:F:74.236.140.139:malika
sugerita456:webkinz456::1999-09-29:US:F:74.236.140.139:nicolet
sugeriy101:samantha101:Gatitaestepani@yahoo.com:1995-01-21:US:F:69.140.130.251:Gelin
sugeri_2003:sugeri:taggerung_2003@ozemail.com.au:1985-06-23:AU:F:none:samryan
sugeri_goddess:derek:sugeri_goodness@hotmail.com:1991-10-21:CA:F:none:Becky White
sugerj:nibbles11::1996-03-28:CA:F:70.73.177.199:julie
sugerj3abe:aznjanuary221996:michelle.dang@hotmail.com:1992-01-22:CA:F:70.51.165.120:queenie
sugerj56:dave91364:quadgirl@hmrmagazine.com:1981-01-01:US:F:none:laurea jonson
sugerjacks:colleen:fashionbabe710@aol.com:1987-10-18:US:F:none:gigi patton
sugerjanny:janabruegel:kleene_mausiii@gmx.de:1990-12-23:DE:F:none:Ciara Lilien
sugerjay:hiphop23::1998-10-01:US:F:72.172.207.125:NULL
sugerjelltpop_07:login::1991-06-14:US:F:none:sugerjelltpop_07
sugerjiju:jiju9::1992-09-10:US:F:none:지 주영
sugerjiju910:jiju90::1992-09-10:US:F:none:지 주영
sugerjingle:weeman12:xx_xx_sexy_jing_xx_xx@hotmail.co.uk:1992-08-04:GB6:F:none:Jillian Connelly
sugerjj:stars#1711:Jess_luvs_MCR_17@hotmail.com:1991-11-17:US:M:170.140.65.96:Anastaciaa
sugerjk:fluffy12::1997-03-04:US:F:205.188.116.133:stephanie
sugerjones63:watermelon::1907-02-10:US:F:Mail from tienangel23:sarah willams
sugerjonk12421:honkey1:docs12421@yahoo.com:1981-01-04:US:M:none:Corey Redding
sugerjr123:shanti:you_are_dung@bolt.com:1989-07-26:US:F:none:sara
sugerjryea:iluvsug369::2005-05-28:US:F:24.60.243.6:NULL
sugerjuciesupe:mallory94::1995-07-04:CC:F:70.192.246.194:puprlecutie
sugerk:pupies13::2001-10-13::F:98.220.231.109:NULL
sugerkake:123123d::1998-09-30::F:67.181.154.64:NULL
sugerkandy:hypie:sugerkanddy@yahoo.com:1989-10-01:US:F:none:Hypie ******
sugerkane:boost11::1998-04-09:GB:F:114.77.201.169:lacey
sugerkane46:sugerkane46:prettyinpink0315@adelphia.net:1992-03-15:US:F:76.100.195.40:Jasmine
sugerkane990:neoangel::1994-02-10:US:F:none:sugerkane990
sugerkate11:soccer11::2000-05-22:US:F:68.60.29.31:katie
sugerkatie:katiesuger12::1999-06-11:US:F:76.25.16.171:katie
sugerkats:sydney77:superrandomo@aim.com:1990-06-24:US:F:76.167.236.190:paris
sugerkatxd:mewmew92::1998-05-22:CA:F:70.79.242.43:Maggie
sugerkat_06:loveandmore!:theblonde042001@yahoo.com:1991-04-16:US:F:none:katie schlemmer
sugerke:roosje66:sugerke66@hotmail.com:1989-01-16:BE:F:81.164.104.180:kim peeters
sugerke01:roosje:sugerke66@hotmail.com:1989-01-16:BE:F:Can I be your NeoFriend?:kim peeters
sugerke66:roosje::1990-01-16:BE:F:none:sugerke66
sugerkerbear:ilikeyou123:kerricute@prodigy.net:1996-03-03:US:F:68.88.236.40:Carrie
sugerki:456401:kiki90222@yahoo.com.hk:1990-02-22:MO:F:none:kiki chan
sugerkid:123098:long03@yahoo.com:1992-8-28:US:M:65.5.199.20:kelsey
sugerkid21:happydog32::1999-08-04:US:F:128.122.193.182:Leslie
sugerkid30:preteens1::1994-04-24:US:F:none:sugerkid30
sugerkid32:superturtle12::1999-08-04:US:F:128.122.193.182:Leslie
sugerkid34:TOM123::1993-01-27:US:M:none:Thomas Folger
sugerkiissez_x0x:4502636:juicylyshiouz_20@yahoo.com:1991-03-19:US:F:none:Alysha Everhart
sugerkim:9peak86:sugerkim@comcast.net:1989-09-21:US:F:98.224.217.61:Kim
sugerking94:z1994::1992-07-24:US:M:none:sugerking94
sugerkinz:sarah12::1997-02-01:IE:F:86.45.134.112:diva
sugerkinz123:dadmom12::2002-04-08::F:173.65.254.153:NULL
sugerkinz55:maggie33::2000-01-19:US:F:24.126.1.141:shaylyn
sugerkinzrocks:looloo44::2000-01-19:US:F:68.33.49.17:shaylyn
sugerkiss:honor:bobrempel@hotmail.com:1989-12-18:CA:F:none:bob rempel
sugerkiss101:love12:PJ$$@hotmail.com:1990-06-21:US:F:68.198.70.241:cassie
sugerkiss11802:336823::1998-02-24:US:F:70.227.27.96:dana
sugerkiss123:sidney:mandyhousehold@aol.com:1989-08-05:GB:F:Can I be your NeoFriend?:stephanie liddle
sugerkiss13:halloween13::1993-10-31:US:F:none:sugerkiss13
sugerkiss3:kisssuger46:negema@gmail.com:1992-04-14:US:F:71.170.227.177:kacci
sugerkiss33:kisssuger33:negema@gmail.com:1992-04-14::F:173.74.116.236:NULL
sugerkiss55:Sims_GCE:little-nelly@gmx.de:1987-05-15:DE:F:none:Sammy Walkers
sugerkiss874:rocky12::2002-03-07:US:F:97.119.182.220:NULL
sugerkiss878:sweetlips101:pinkpunk878@yahoo.com:1994-11-06:US:F:75.75.26.135:Dolly
sugerkisscheerbabe:sadie12:talsea@aol.com:1991-10-30:US:F:none:Alexandra Seabrook
sugerkissedxoxo:SUGERLIPS:lynnaams1@netzero.net:1991-12-22:US:F:none:Amber Joyner
sugerkissed_val:freya12:silent_aisling@yahoo.com:1984-10-05:CA:F:24.36.248.46:val
sugerkisses:lollypop2:evel_me@hotmail.com:1989-05-06:AU:F:124.178.24.5:. .
sugerkisses123:lucylocket::1992-11-29:GB:F:none:sugerkisses123
sugerkissesmw:jessie::1987-09-20:US:F:none:staysha walker
sugerkisses_46754:spirit24::1999-09-25::F:208.54.94.8:NULL
sugerkisses_8654:spirit2456::1999-09-25::F:208.54.94.95:NULL
sugerkisses__32:12bms34otd:ox.kendall.xo@gmail.com:1993-05-03:US:F:none:Kendall Stuckey
sugerkissez4life:pitonyak:mouthyem131@aol.com:1988-02-22:US:F:acceptance:emma pitonyak
sugerkissez89:cuddly5:xox_gigglybear_xox@hotmail.com:1988-07-26:CA:F:none:Devann halbot
sugerkiss_07:joy887noun480:lacy1413@yahoo.com:1990-03-11:US:F:none:lacy adams
sugerkiss_1:superduper!:isabelar@shaw.ca:1992-01-01:CA:F:none:Isabele R
sugerkiss__aa:babygrl18::2001-01-12:US:F:69.208.148.62:hannah
sugerkist:freya12:silent_aisling@yahoo.com:1984-10-05:US:F:65.88.88.200:karlissa
sugerkittay:9372567781:shttrdspirit@yahoo.com:1904-05-12:US:F:none:Kizzys Her Name
sugerkitten:angela:suga_kit_1985@hotmail.com:1985-11-13:AU:F:none:sharon brittain
sugerkitten01:kitcat02::1998-12-27:US:F:173.169.120.80:Vongkham
sugerkitten2005:seankelly1::1993-04-25:US:F:none:sugerkitten2005
sugerkitten2006:seankelly2:sugerkitten2005@yahoo.com:1991-05-23:US:F:none:emily smith
sugerkitten33:scooby33:bendavis10@yahoo.com:1993-06-04:US:F:69.29.118.231:allison
sugerkitten44:thedevil24::2000-05-02::F:24.186.16.19:NULL
sugerkitten66:janet17:suger_kitten66@hotmail.com:1988-03-06:GB:F:86.21.197.31:lora
sugerkitten711:buster1:www.gelg@comcast.com:1986-10-07:US:F:none:katie gelgisser
sugerkitty:mintyharley101:internetconcepts1@hotmail.com:1988-10-06:US:F:none:ToxicSlash and  SilverPool
sugerkitty1:kittykat10::1999-06-09:US:M:70.116.68.98:NULL
sugerkitty2:kittykat10::1999-06-01:US:M:70.116.78.65:matthew
sugerkitty21:chicago13:coolchickvo26@aol.com:1991-10-26:US:F:none:vanessa ortega
sugerkitty777:bcherry:suger_kitty@onlink.net:1991-03-26:CA:F:none:Ricki Davis
sugerkitty804:mmlweb12::1998-09-10:US:F:24.125.127.61:Malena
sugerkitty9_0:kitty52::1998-09-23:US:F:72.133.201.2:Fiona
sugerkittybaby20:wigwamcreek25:coolchickvo26@aol.com:1991-10-26:US:F:none:Vanessa Ortega
sugerkitty__41:1q2w3e4r5:pickelfrenchfry@gmail.com:1983-02-11:US:F:72.71.120.3:lilly
sugerkiwi:rickydonez333:angel_nicola333@yahoo.com:1994-12-23:US:F:98.199.88.194:nikkiola
sugerkiwi101:awer61::1998-10-07:CA:F:70.68.143.117:Amy
sugerkiwilips:ilovehorses::1991-11-28:GB:F:none:sugerkiwilips
sugerkizzay:duz6ew:mrjay53@comcast.net:1985-07-13:GB:F:Acceptance:Jesse
sugerkm:suger10::1998-02-03:US:F:63.224.85.47:kaileen
sugerknight:surgersurger::1993-08-06:US:M:none:sugerknight
sugerkooke:b12nc2::1996-09-15:CH:F:84.226.117.92:giada
sugerkookie33:lover:hcwhitekracker9127@myway.com:1990-08-13:US:F:none:Lindsey Warner
sugerkoolaid:shannon:sugerkoolaid@yahoo.com:1985-01-30:US:F:Trade Closed:Charisma Tanner
sugerksugerk774:kaylee::1993-07-18:US:F:none:sugerksugerk774
sugerkube:buttercup10:clknopf@sbcglobal.net:1997-2-26:US:F:76.199.90.47:kayci
sugerl05:harrypotter:suegirl_90@hotmail.com:1990-10-05:SG:F:Can I be your NeoFriend?:Suhailah Supandi
sugerl1ps:gurls4ever1:born.to.be.hot@hotmail.com:1991-12-17:CA:F:70.65.122.226:Honey
sugerlady100:pets99::2000-09-05:US:F:98.197.90.141:kendyl
sugerlady800:kim3777::1999-09-18:US:F:24.8.62.47:NULL
sugerladybug:SUGERBOOM87::2000-10-26:US:F:97.81.228.34:TIANA
sugerlady_65:munkie30::2000-08-30:US:F:98.180.48.222:ismene
sugerlalalala:1alipag1:tracey@shason.net:1993-10-08:US:F:74.170.251.131:alison
sugerlamb123:clowenface45::2000-02-07::F:76.98.110.45:NULL
sugerlamd:dragon12::1998-05-31::F:172.163.48.145:NULL
sugerland01:lovemonky01::2000-04-14:US:F:64.8.44.13:alyssa
sugerland102:wolf6677::2000-06-21::F:71.253.246.5:NULL
sugerland121::::::70.70.29.134:NULL
sugerland1230:192864753::2000-08-11::F:70.245.238.223:NULL
sugerland135:angel14::1998-05-26:US:F:96.231.139.243:alex
sugerland16:sugerland12::1998-11-16:US:F:65.184.122.168:tricia
sugerland18:denise99::1996-12-18:US:F:207.144.162.31:Denise
sugerland197:wolf66547::2004-03-05::F:72.82.69.34:NULL
sugerland23:rosebud20:acefan14@yahoo.com:1993-3-11:US:F:74.221.11.9:avorie
sugerland281:2111998::1998-02-04::F:98.101.25.79:NULL
sugerland3342:MPYmsy24::2001-05-08:US:F:69.146.21.157:kinzleeee
sugerland56:mans01::1997-07-16:US:F:72.82.60.183:madalyn
sugerland727:031096:gatormanbrw@cox.net:1991-09-30:US:F:98.183.33.241:Alexa
sugerlandbear:272cat::2002-10-16:US:F:24.255.13.83:grace
sugerlandjoey:addie11::1996-12-29:US:F:24.29.43.58:addie
sugerlandkid:041104::2004-11-04::M:76.30.145.159:NULL
sugerlandla:alice1999::1999-08-20:GB:F:81.129.156.125:alice
sugerlandsour:suorcandy22::2001-08-29::F:24.2.38.122:NULL
sugerland_098:quinn98::1999-07-29:CA:F:70.70.29.134:NULL
sugerland_1:thundercatrays77::1996-08-21:US:F:68.201.26.247:kaylee
sugerland_197:wolf66::2000-03-06::F:72.82.69.34:NULL
sugerland_7_4:mariamaria12::1996-12-04:US:F:66.20.162.10:clare
sugerland_taylor:boone_89:caroline.dobbs@gaggle.net:1995-02-25:US:F:205.208.227.54:Caroline
sugerlane101:kinddog101::2001-02-21::F:72.14.108.224:NULL
Sugerlashes:lamaoy09::1999-02-26:GB:F:86.25.188.166:NULL
sugerlee_5:sugerlee770::1999-09-22:US:F:99.9.206.92:Morgan
sugerlemon123:lemon55:Sherice.Robinson@yahoo.com:1994-11-25:US:F:24.183.138.73:sherice
sugerlemon20:loveladygaga28::2001-12-19::F:68.197.90.229:NULL
sugerless:yokosama123:kohitocha@ymail.com:1991-04-02:US:M:74.195.199.126:NULL
sugerliciouse:sapulette01!:ruthsimones@gmail.com:1992-11-27:NL:F:95.96.148.245:NULL
sugerliily1:alemi12:marjonalemi@gmail.com:1994-01-01:US:F:99.38.105.76:marjon
sugerlilly:qawsed12::2001-02-10:US:F:96.240.188.198:NULL
sugerlilly1:ilovesvs12:katywalt@att.net:1987-01-16:US:F:69.153.7.212:destiny
sugerlily1:alemi12::1999-12-13:US:F:76.212.129.244:marjon
sugerlime:brianna15::1999-07-18:US:F:76.23.138.69:NULL
sugerline456:sugerplum45:car-o-linep@live.com:1995-08-17:US:F:71.231.147.147:sugerline456
sugerlips1001:password1225::1999-01-04:US:F:98.220.6.63:natalie654
sugerlips123:primark12:georgiaonthemic@live.co.uk:1975-08-19:GB:F:82.19.135.133:NULL
Sugerlips15:callee15::2000-01-01:US:F:96.24.56.231:NULL
sugerlips16:ducky16::1996-08-27:CA:F:76.66.62.71:MEagAN
sugerlips18:lipgloss23::2000-01-27:US:F:98.25.132.13:maci
sugerlips1996:breannon96::1996-07-27:AU:F:220.239.212.134:bree
sugerlips1_:iloveyou11::2000-02-28:US:F:70.113.27.250:alexis
sugerlips1_2_2_2:star16::1999-01-06:US:F:72.177.33.5:avarie
sugerlips202:suger202::1998-01-03:CA:F:207.161.131.107:Alexas
sugerlips21:hibye99:waffle8531@yahoo.com:1996-08-05::F:69.131.109.254:NULL
sugerlips250:gregory312::1998-11-03:CA:F:209.52.241.162:tatum
sugerlips26:foxymama26::1997-03-11:US:F:68.160.63.135:Eva
sugerlips52500:eddie12::1998-02-18:GB:F:62.171.194.8:ellie
sugerlips554:ilovecandy77:daddysboo050397@gmail.com:1995-05-03:US:F:97.102.8.40:megan
sugerlips556:password2008::1998-12-05:US:F:70.133.148.163:monica
sugerlips564:babygirl22::1998-08-08::F:74.62.65.206:NULL
sugerlips63:hottie89::1998-09-16:US:F:70.123.89.241:melanie
sugerlips8:blacky70:sugerlips7@yahoo.com:1992-10-19:US:M:69.131.139.179:dillon
sugerlips897:monstergirl97::1997-10-17:US:F:69.142.146.6:Srephanie 
sugerlips909:skegness12::1999-04-04:GB:F:88.108.56.245:chloe
sugerlips98:babycackes98::1998-03-01:GB:F:90.198.227.96:NULL
sugerlips_30:meathead27::2000-01-03::F:24.116.229.116:NULL
sugerlips_8:amber88::1997-10-30::F:65.8.135.9:NULL
sugerlipz:shyshy01::2000-06-24::F:76.170.50.193:NULL
sugerlipz01:sugerlipz02::2000-07-25::F:76.170.50.40:NULL
sugerlisa:224152::1998-02-13:US:F:69.253.184.117:lisa
sugerliu1456:maha123456:l888eric@yahoo.com:1964-01-27:CN:F:60.250.72.227:劉慕華
sugerloaf12:IHATEWILLOW12::1998-01-07:US:F:71.191.203.203:cheyenne
sugerloaf192:IHATEWILLOW12::1998-01-07:US:F:209.234.163.83:cheyenne
sugerloafer96:oliver77:sugerloafer96@gmail.com:1994-11-07:US:M:24.63.181.40:Oliver
sugerlollie555:amaarah555::2000-11-25:GB:F:93.96.157.34:amaarah
sugerlollipop60:iloverainbows45::2003-01-05::F:74.211.12.93:NULL
sugerlollipop90:iloverainbows45::2003-01-04::F:74.211.12.93:NULL
sugerlolly:lollypop69:kiera_sheridan@hotmail.com:1992-03-18:BE:F:84.192.91.79:kiera
sugerlollyplop:gimpygray11::2002-03-29::F:71.87.171.116:NULL
sugerlollypop3712:34g34g::2000-11-25:AU:F:210.9.142.91:Evie
sugerlove1:jake101::1997-10-26:US:F:207.237.16.30:danielle
sugerlove11:ammo98::1998-08-05::F:75.130.213.118:NULL
sugerlove111:poohbear01::1999-8-26:US:F:98.164.250.234:lexi
sugerlove143:tink13::2001-05-24::F:71.70.225.218:NULL
sugerlove1996:marmar1996::1996-11-01:US:F:72.150.91.83:marlea
sugerlove543:::1999-07-13:US:F:67.186.19.122:NULL
SugerLove8:040474::2000-02-15:US:F:74.44.31.27:NULL
sugerlover101:sugar77::1996-04-14:US:F:24.230.37.79:nannah
sugerlover123:ilovewiley56:toxicant12@yahoo.com:1956-11-29:US:F:174.74.32.185:gag
sugerlum26:cuttie26::1998-02-19:US:F:24.205.205.18:bobbyjo
sugerlump:kittens11::2001-05-25:AU:F:121.215.15.30:NULL
sugerlump12:66567012::1999-09-22::F:209.188.62.211:NULL
sugerlump223:love123::1999-04-21:GB:F:86.178.102.13:kate
sugerlump232:sugerlumps323::1998-09-19:US:F:96.245.194.176:Abby
sugerlumpies:booger22::1998-11-12::F:74.46.139.134:NULL
sugerlumpkookies:soccer101::2000-09-10:US:F:99.116.133.21:NULL
sugerlumps2399:gilbert13:sugerlumps23@yahoo.com:1995-05-18:US:F:71.10.27.107:Jessica
sugerlump_444:sugerlump 444::2000-02-17:KE:F:196.201.217.231:coco
sugerlump__aa:pepper19::1997-03-03:GB:F:78.151.199.148:kaylee
sugerluv:lutherson00::1997-10-13::M:76.117.162.133:NULL
sugerlynn:flipflop88::2006-03-05::F:99.190.88.108:NULL
sugermacho:153115:chococake@ezweb.ne.jp:1993-06-07:JP:F:116.83.30.69:佐藤　万亜子
sugermagnolia:classof2012:cmdavis@mtintouch.net:1994-02-12:US:F:66.113.44.128:NULL
sugermama1:daddysgirl10::1999-11-15:US:F:66.245.14.24:NULL
sugermama121:5755729:hottiegirls1212@yahoo.com:1996-10-01:US:F:98.235.92.138:mika
sugermama16:michaelj09::1997-01-13:US:F:98.115.66.32:jessica
sugermama1996000:123456789::2009-05-15::F:75.63.149.40:NULL
sugermama2:asdert23::2000-06-19::M:24.115.1.192:NULL
SugerMama2001:698473::2001-02-13::F:72.84.186.211:NULL
sugermama226882:2263882::2002-01-17:US:F:207.138.82.4:NULL
sugermama35:asdert59::2000-06-19::M:24.115.1.192:NULL
sugermama813:2540127:ashley.soley@yahoo.com:1995-12-25::F:71.41.38.234:NULL
sugermama91:kaylaisaac91@yahoo.c::2003-05-27:US:F:174.61.115.159:NULL
sugermama987:cutiepie987:cloe98765@gmail.com:1983-12-01:US:F:67.160.148.206:NULL
sugermama98765:cutiepie987:cloe98765@gmail.com:1995-12-12:US:F:67.160.148.206:nyshae
sugermamalee:strickland09::1998-05-29:US:F:68.49.166.239:aaliyah
sugermama_1_1:sugermama11:lailacastillo@sbcglobal.net:1996-04-15:US:F:75.63.149.40:crystal
sugermama__aa:alex11::2000-08-05:US:F:69.116.135.117:denasia
sugermami13:limegreen13:spicymama13@hotmail.com:1997-03-13::F:108.13.51.2:NULL
sugermamma:robby16:bittybrat11@yahoo.com:1993-08-16:US:F:74.78.121.147:brittany eaton
Sugerman:suger56::2003-01-31:US:F:72.67.18.232:NULL
sugerman1023:pfeifen18::2000-04-04:DE:F:84.185.100.47:Lisa
sugerman3:stewart35::1997-09-12:US:M:96.42.175.137:alex
sugerman69:a7533577:devin.hendry@yahoo.com:1994-11-07:US:M:76.104.217.185:devin
Sugerman7:sugerman98::1998-07-10::M:69.234.28.246:NULL
sugermanftw:suger98::1998-07-10:US:M:69.234.27.216:carlos
sugermapletree::gemmadowns18@gmail.com:1995-03-18:ZA:F:41.133.231.106:NULL
sugermario:xman11:mccorklemario@yahoo.com:1996-5-20:US:M:75.65.114.59:mario
sugermaster:lol412:laurence_412@yahoo.com.hk:1995-12-31:GB:M:91.105.17.105:bob
sugerme:puffletuffle123::2000-06-07:US:M:63.200.125.65:NULL
sugermelt:babymelt#33::1996-10-21:US:F:12.10.19.142:sue sue
Sugermesweet:ht91040:harleyditz@aol.com:1984-09-27::F:64.60.201.18:NULL
Sugermetimber:Jasonrules22::2003-06-28:US:F:76.233.83.237:NULL
sugermexican33:paint33::1996-07-18:US:M:24.47.55.16:Sefferoth
sugermexican88:baymen88::1996-01-12:US:M:173.77.159.117:ernie
sugermidnight:ilovepet13:spikydragoon@yahoo.com:1996-04-08:US:F:75.64.86.170:trisha
sugermilk:65422219881128::2008-11-28:CN:F:222.209.200.61:sugermilk
sugermilk96:ying112:baby-lov395@hotmail.com:1996-01-08:MY:F:175.136.236.146:NULL
sugermint100:juna123::2002-07-04::F:24.84.49.136:NULL
sugermint12:mint23::2000-3-8:US:F:98.194.5.90:Alanna
sugermiss:kai666:auderytruyens@hotmail.com:1993-12-02:BE:F:84.192.247.81:audrey
sugermisty:penny717::1999-01-18::F:71.57.249.6:NULL
sugermoma123:fishesswim23:zebrastripes101@att.net:1996-11-13:US:F:70.230.144.140:NULL
sugermoma2:5348699:kiddycatbaby@kol.com:1987-06-03:US:F:98.88.194.225:destiny
sugermoma33:pokemon22::1997-10-05:US:F:75.3.91.242:jhaila
sugermoma444444:199719971997::1997-10-05:US:F:75.3.91.241:jhaila
sugermoma78__51:yellow45::1998-07-12:US:F:69.29.70.40:Kayla
sugermoma99:19971997:mcwilliams.jhaila@yahoo.com:1993-10-05:US:F:68.74.65.174:jhaila
sugermomma123:loving123::2001-04-03::F:71.155.148.22:NULL
Sugermommy45:tanisha32::2001-02-13:US:F:173.54.104.159:NULL
sugermonkey100:Sugermonkey2000::1998-03-31:US:F:76.178.184.213:Tiana
Sugermonkey1000:Sugermonkey2000::1998-03-31::F:76.178.190.76:NULL
sugermonkeykid123:cocomochabenny21::1998-02-12:US:F:24.121.239.133:Reagan
sugermonkey_2:green72::1997-11-22:US:F:24.12.164.123:sabrina
sugermonster32:princess20417:angelofgod4ever@yahoo.com:1992-05-20:CX:F:98.200.190.195:bek
sugermouse:cheeky13:megan-at-home@hotmail.com:1994-01-30:GB:F:89.168.129.168:Megan
sugermouse123:qwert123::1999-03-12:AU:F:58.172.161.232:NULL
sugermousexx:frogs2010::2000-1-21:GB:F:82.46.11.137:finley
sugermouse_2009:qwert12345::1999-03-12:AU:F:58.172.161.232:Janet
sugermouth:candy602::2006-05-12:US:F:96.234.12.77:NULL
sugermuffens:abbie123::1998-12-23::F:72.82.65.96:NULL
Sugermuffin109:Rileytwinn55::1999-10-26::F:66.111.118.157:NULL
sugermuffin7700502:sugeryum123::2006-04-04::F:76.225.59.106:NULL
sugermuffin999:superbabe123::2001-07-31:IE:F:213.200.108.37:NULL
SugerMuffins:penguin987::2000-05-05::F:71.74.230.235:NULL
sugermumma2:fred12345:pwootten@optusnet.com.au:1970-02-01:AU:F:122.106.220.119:alana
sugermumps123:jnguyen051893:ballive_chan@yahoo.com:1993-05-18:US:F:68.102.117.132:BoKBoKchan
