SugerMuntain:skyler1995:augustcowgirl95@hotmail.com:1995-08-31:CA:F:173.180.144.136:NULL
sugerncream33:MAyaco33::1997-02-03:US:F:69.54.22.23:Sophie
sugerness:love123:puppycandystar@hotmail.com:1990-02-01:US:F:67.180.142.177:lisa
sugerness1:love123:puppycandystar2@yahoo.com:1985-02-01:US:F:75.36.230.148:lisa
sugernspice823:anjali123::2002-05-07:US:F:65.190.6.95:Anjali
sugerntjee:ayvenno01:Sugarntjee@hotmail.com:1994-10-24:NL:F:83.160.137.90:norien
sugero:gliu8gliu8:ragequit@hotmail.com.au:1996-11-13:AU:M:60.241.48.121:Exalted Ice
sugero3:cesar09::1999-07-14:US:M:76.115.231.33:cesar
sugerolivia:NANNYROSE12::2001-6-12:GB:F:90.218.113.133:OLIVIA
sugeroo:1q2wer::1999-04-12:GB:F:212.137.62.225:Emma
sugerorspicey:foreverandallways01:angieball40@yahoo.com:1981-02-16:US:F:75.207.71.228:NULL
sugerpants101:josie12:lil1dogz@yahoo.com:1991-07-29:US:F:70.178.173.16:josie
sugerpark:bunn22::2000-03-16::F:72.229.43.75:NULL
sugerpark1:bunny22::2000-03-16::F:72.229.43.75:NULL
sugerpaw:sam5612::1997-08-28:US:F:76.4.184.150:Emileigh
sugerpaws:ss12345ss::1999-10-22:IN:F:121.246.6.165:ajanta
sugerpaws200:snowypaws200::2000-11-03:GB:F:87.242.144.77:katherine
sugerpea22:paigepoo22::1998-02-22:US:F:74.4.255.102:Paige
sugerpebblesandspice:chippers12:sugerpebbles@hotmail.com:1995-06-21:AU:F:59.100.236.195:hannah
sugerpeople_aa:ladynight12::1998-08-12:FM:F:202.131.164.177:elizadlc
sugerperson:GGG56GG::2000-03-09::F:71.91.3.196:NULL
sugerpets:lola1234::1999-08-18:US:F:98.200.73.201:anaissa
sugerpetsgirl13:tyeisha13:Blackdarkevil12@yahoo.com:1994-05-30:US:F:98.215.200.11:Tye
sugerpeyton:peytonfails54::2002-08-09::F:74.193.114.249:NULL
sugerpie08:robert11:ali_rox_ur_sox_lol@hotmail.com:1991-12-19:NZ:F:60.234.114.4:Alex
sugerpie09:pizzas34::2001-09-16::F:74.136.131.241:NULL
sugerpie0989:wonderland0989::1999-5-30:US:F:99.53.132.38:jesica
sugerpie1000000:zoeytia03::2003-03-06::M:97.122.239.135:NULL
sugerpie10000000:zoeytia99::1999-09-28:US:F:97.118.109.146:Jessica
sugerpie100000000:zoeytia99::1999-09-28::F:97.122.239.135:NULL
sugerpie101:love1877:sugerpie105@gmail.com:1996-04-04:US:F:50.12.243.224:NULL
sugerpie102:disney102::1998-07-09:US:F:72.147.227.65:kenna-lee
sugerpie1023:chiann13::1997-06-13:US:F:69.133.73.165:chiann
sugerpie1023_225:chiann13::1997-06-13:US:F:66.213.113.183:NULL
sugerpie103:love881::1996-04-04:US:F:71.195.58.25:alishia
sugerpie109:suger109::1995-12-31:US:F:70.134.90.241:natalia
sugerpie113:june16::1998-04-16::F:216.78.218.53:NULL
sugerpie12:flofflo12::1999-12-29:TT:F:186.45.124.107:NULL
sugerpie1221:1221pieregus:spf2057@yahoo.com:1996-06-01:US:F:173.30.249.91:Bre
sugerpie123:katefelag11::2000-04-10:US:F:72.209.8.87:NULL
sugerpie1230:joey101::1997-02-21:US:F:67.182.221.200:nicole
sugerpie123321:babygirl101:bcellis1@hotmail.com:1995-11-24::F:66.57.1.30:NULL
sugerpie1234:amberandtoribffl12:azgirl2u@hotmail.com:1994-10-25:US:F:24.180.209.217:Victoria
sugerpie1234512345:sugerpie123456:kims2busy@yahoo.com:1997-02-16:US:F:76.105.228.248:NULL
sugerpie123456:tuna632::2000-11-07:US:F:76.20.211.183:chandler
sugerpie1234567890:123456789::2001-04-04::F:71.28.232.151:NULL
sugerpie1234567cutie:nikeygirl12::1998-09-05:US:F:98.220.223.251:tatum
sugerpie123456_60:safety12::2000-07-19::F:71.195.110.79:NULL
sugerpie123__aa:brewster123::1999-01-08:US:F:70.234.192.192:grace
sugerpie139:264810::1998-08-18:US:F:68.54.70.228:ellie
sugerpie1390:246810139::1998-08-18:US:F:68.54.70.228:ellie
sugerpie13f:*dream*:avila@telus.net:1989-05-11:CA:F:24.67.167.62:Ellissa Avila
sugerpie14:jazmine910::2001-01-01::F:68.3.195.53:NULL
sugerpie151:dragon151:samanthaoverly@ymail.com:1997-06-30:US:F:71.94.91.94:NULL
sugerpie159:134652::2000-01-19::F:208.120.44.200:NULL
sugerpie1889:myspace1509::2000-07-20::F:24.17.27.87:NULL
sugerpie188920:myspace150988::2000-07-07::F:24.17.27.87:NULL
sugerpie188924:myspace123456::2000-07-20::F:74.61.9.9:NULL
sugerpie1889a:myspace1509::2000-07-20:US:F:24.17.27.87:jada
sugerpie200:strawberry200::1998-05-19:AU:F:122.104.166.142:shania
sugerpie22:willnsylvia07:sylvie_26651@hotmail.com:1985-09-29:US:F:173.80.101.107:Silver
sugerpie2230:1234sbb:sbb2230@gmail.com:1994-06-29:US:F:98.213.102.128:NULL
sugerpie2244:krystal2244:gamepoint@att.net:1995-04-19:US:F:71.222.210.148:calyn
sugerpie22741:16welchsl::1998-05-30:US:F:162.127.32.57:NULL
sugerpie22_09:shannae22::1999-09-22:AU:F:124.171.76.45:shannae
sugerpie22_a:kitty22::1999-05-20:US:F:71.90.164.251:tylor
sugerpie22_aa:baby12::1997-10-02:US:F:74.171.122.54:kierra
sugerpie22__72:sweetheart158::2000-08-31:US:F:98.231.21.177:nikki
sugerpie246:sadia13::1997-12-04::F:72.78.58.222:NULL
sugerpie2468_7_7_7:toopink27::2001-08-28:US:F:98.197.198.30:endi
sugerpie247:abcd247:shnweturtle@yahoo.com:1995-11-14:US:M:67.142.162.27:NULL
sugerpie27:302724::1999-05-03::F:70.234.232.247:NULL
sugerpie28333:gsahkf12:gharman2@nc.rr.com:1995-08-23:US:F:75.189.251.67:NULL
SugerPie29:132436a::2000-05-24::F:76.25.103.124:NULL
sugerpie29_477:nicole29::2001-04-29::F:24.144.223.81:NULL
sugerpie3:suger33::1999-08-10::F:71.139.197.180:NULL
sugerpie303:p011ycat::1998-04-01:GB:F:89.242.113.153:ljbhhy
sugerpie3434:reenas34:katelynisarockstar@gmail.com:1992-05-15:US:F:24.175.183.125:katie
sugerpie343434:hellogoogle34:farty@gmail.com:1909-08-28:US:F:71.52.131.164:chelsea
sugerpie3977:puppy123::2000-08-26:US:F:216.151.187.110:leah
sugerpie3_6_0:cucumber21::1998-7-17:US:F:67.252.191.249:gabrielle
sugerpie42:redwall12:jercat@yahoo.com:1970-07-14:US:M:97.123.113.18:Donavon
sugerpie433:pinky12345::2001-05-04::F:75.117.198.83:NULL
sugerpie44:toosweet44::2001-08-28:US:F:99.185.121.199:endi
sugerpie4433:satin4433::1996-04-28:US:F:24.12.36.217:satin
sugerpie444980:pinky12345::2001-02-04::F:98.19.81.233:NULL
sugerpie444_910:pinky12345::2001-02-04::F:98.19.81.233:NULL
sugerpie44__7:TOOSWEET44::2001-08-28::F:99.88.237.232:NULL
sugerpie4566:ilovechicken67::2000-07-25:US:F:76.199.127.180:NULL
sugerpie458:ertyui98::2002-02-11:US:F:99.22.31.74:NULL
sugerpie5032:tyler1:sugerpie503@yahoo.com:1989-09-25:US:F:98.246.138.184:jaleeisha tyler
sugerpie545:suger68::1999-08-09::F:174.17.29.109:NULL
sugerpie55100:capricorn55::1995-12-27:US:F:72.36.31.225:Mrogan
sugerpie5566:cupcake77::2000-08-01:US:F:71.218.42.214:NULL
sugerpie56:burns222::2000-11-10:US:F:76.176.74.36:bella
sugerpie5_6_6:annika12::1999-10-10:US:F:70.244.195.226:annika
sugerpie6:cuttie69::1997-07-09::F:72.94.7.155:NULL
sugerpie613:sugerpie13::1997-09-22:US:F:69.133.72.168:chiann
sugerpie6386:sugerpie63867::1999-12-18::F:68.47.151.166:NULL
sugerpie77:patrick35::1997-05-30:US:F:69.154.11.226:Tia
sugerpie79_9:madison ross80::2003-11-14:US:F:74.112.108.95:madison
sugerpie8:cutiepie28::1999-05-31:US:F:24.10.216.150:courtnee
sugerpie8297:tayloredwards14::1997-08-02::F:98.19.142.126:NULL
sugerpie899:5544637:www.wickburner@yahoo.com:1990-03-24:US:F:98.119.163.50:Dana Rhoades
sugerpie8_527:karleigh823::2000-11-09::F:71.31.105.34:NULL
sugerpie90:sweetpee90:9910738@portal.rsb.qc.ca:1995-08-10:CA:F:70.31.236.167:Dawn
sugerpie949:123horse321::2000-02-04:US:F:174.77.137.24:Hayli
sugerpie98:sweetie98::1998-07-25:US:F:66.168.98.136:izzy
sugerpiecupcake:KATIES181818::2000-06-21:AU:F:121.219.151.40:kate
sugerpiehoneybun19:pickles19:xoxgerrox@aim.com:1989-07-01:YE:F:68.42.10.136:Kaliegh
sugerpiehoneybunch:renee13:whoisawsome@yahoo.com:1993-04-12:US:F:68.104.227.168:Taylor
sugerpiehoneybunch08:sweetsugercandyman11::1997-06-05:NZ:F:122.57.222.76:VAndANa
sugerpiehunnybun:1orange1:randeea.schuh@yahoo.com:1997-05-14:US:F:72.20.69.133:NULL
sugerpiehunybun:sugerpie11::1999-01-13:US:F:216.187.179.122:NULL
sugerpiekitty:robbie75::2002-07-23::F:67.217.203.252:NULL
Sugerpielump:wowsers12::1998-10-11::F:82.35.76.32:NULL
sugerpiepin:catpet1234::1999-04-05::F:72.220.187.27:NULL
sugerpiepink1:465809::2001-04-04::F:98.19.66.83:NULL
sugerpiepuff:999666333::2000-08-18::F:86.178.47.133:NULL
sugerpies:lunchbasket64:rockinnrollnmoose@yahoo.com.sg:1990-04-02:NZ:F:220.255.7.202:Celine
SugerpieSweetpea:Butterfingers001::2003-09-26:US:F:184.3.52.70:NULL
sugerpie_:212335::1997-10-21:US:F:173.22.106.177:angel
sugerpie_08:tiffany08:angelbullardcutie@yahoo.com:1994-09-03:US:F:168.9.37.245:angel
sugerpie_08_95:zack08:angelbullardcutie@yahoo.com:1993-08-12:US:F:76.97.137.204:angel
sugerpie_12345:pinky12345::2001-04-04:US:F:98.17.236.20:NULL
sugerpie_2001:destiny15:angel_girl_kad@yahoo.com:1994-02-26:US:F:71.144.71.2:Karlie
sugerpie_202:sup3rstar:danielle.kathyrne@hotmail.com:1991-05-02:CA:F:68.147.247.146:Scarlett Smith
sugerpie_27:pumpkin27::1998-06-10::F:24.209.196.167:NULL
sugerpie_407:lalado89::2001-08-18::F:76.222.226.6:NULL
sugerpie_444:pinky12345::2001-02-04::F:98.19.81.233:NULL
sugerpie_460:123105jc::1997-01-06:US:F:70.20.63.159:poxhwgtxjs
sugerpie_7_7_7:jacey12::2000-10-23:US:F:66.157.50.21:jacey
sugerpie_88:cutiepie_101::2001-08-18::F:68.103.249.221:NULL
sugerpie_honeybunch:beesarecool10:mybigfatfeet@gmail.com:1991-01-01:US:F:96.60.37.166:Lily
sugerpie__26:12345ab::1996-02-19:US:F:70.223.219.111:Tianna
sugerpin:o730420:dearslex@yahoo.com.tw:1960-08-28:TW:M:140.121.222.95:李 岳霖
sugerpink:burcuburcu::1994-03-29:CA:F:none:sugerpink
sugerpink9:Bratz10::1998-06-16:US:F:74.194.101.135:Farah
sugerpink_696:aly62897::2003-01-11::F:108.0.198.40:NULL
sugerpipe:Sexy12:ponny_girl13@hotmail.com:1993-01-05:NO:F:84.49.168.61:Lill Heidi Nodeland
sugerpirlparis:meeeow::1993-09-01:US:F:none:sugerpirlparis
sugerpixi:orange1:swimmingstarcw@yahoo.com:1992-03-10:US:F:none:Chloe Your mom
sugerpixie101:jesus:suger_angel11@yahoo.com:1990-09-23:US:F:138.210.194.210:Rachel ROSE
sugerpixie129:8595397:james@lexcominc.org:1988-03-30:GB:F:none:Jessi Leftwich
sugerpixie89:patricia::1994-03-17:US:F:none:sugerpixie89
sugerpixie94:hannahb94::1993-03-21:US:F:none:sugerpixie94
sugerpixies:pixies:aaronbonvie@hotmail.com:1986-02-18:CA:F:acceptance:AbbyParker
sugerpiy22:cutypiy30::2001-01-27:AL:M:71.106.2.241:kaili
sugerplanet123:fremont123:sugerplanet@gmail.com:1996-03-25:US:F:76.169.155.173:Alondra Pealoza
sugerplanetmermaid89:floppy910::1999-05-19:GB:F:81.129.238.160:lauren
sugerpllumfary:lalaland::1992-11-13:CA:F:none:brittney yenttirb
sugerplm1900:cookie:coho66@aol.com:1984-05-09:US:F:none:Jessica Grim
sugerplu1000:honey::1992-10-17:CA:F:none:sugerplu1000
sugerplum:cookieguild:lilneatfreak2@yahoo.com:1984-09-10:US:F:none:Suger Plum
sugerplum0:kos713123:koz21@hotmail.com:1950-01-01:AU:F:none:sweety NICE
sugerplum00:desiree00:earthnet12@google.com:1909-08-12:US:F:98.211.239.185:sugerplum123
sugerplum000:desiree00::1995-09-20:US:F:75.74.97.101:desiree
sugerplum000000:sume1:angelbabykissess908@yahoo.com:1982-07-31:US:F:none:kenz fox
sugerplum00000000000:sume1:angelbabykissess908@yahoo.com:1982-07-31:US:F:none:kenz fox
sugerplum0003:jasper&justin:zac@aisthorpe-nelincs.co.uk:1992-01-03:GB:F:none:Phoebe Aisthorpe
sugerplum003:jasper&justin:jo@aisthorpe-nelincs.co.uk:1992-01-03:GB:F:none:Phoebe Aisthorpe
sugerplum007:matilda::1994-04-20:AU:F:none:none
sugerplum01:gthom119::2000-04-06:AU:F:124.179.113.80:georgia
sugerplum012:0123456789::1993-02-20:AU:F:none:sugerplum012
sugerplum01799:sweetiepie05::1994-02-25:US:F:none:sugerplum01799
sugerplum03:2122453:xoxoxo_Nicki_xoxoxo@hotmail.com:1987-02-01:CA:F:216.113.222.130:None of your Beezwax
sugerplum0376:sugur3:sugurplum12@aol.com:1977-05-20:US:F:none:Holly Greenfield
SUGERPLUM03_26:SIMPREET03::2003-01-26::F:96.28.99.41:NULL
sugerplum0426:ginger22::1994-03-22:US:F:none:sugerplum0426
sugerplum05:cheesecake01::1993-11-02:US:F:none:sugerplum05
sugerplum061:youare12qw:deartv4kimmy@hotmail.com:1995-08-12:US:F:99.229.89.208:lauren
sugerplum07:mylove07:emilylucero_01@yahoo.com:1987-04-10:US:F:209.194.208.132:Emily
sugerplum08:chilli333:kneebs@westnet.com.au:1988-05-24:AU:F:220.235.4.136:Cordelia
sugerplum080:cookies_10:tierneyberry@www.yahoo.com:1995-5-20:GB:F:98.30.240.57:tierney
sugerplum08_s:doggy06:mellisaj@yahoo.com:1993-01-09:US:F:none:Kacey Bickford
sugerplum09:missy:suzie1650@msn.com:1991-07-30:US:F:none:heather brown
sugerplum0908:jason0_0:bessy_2@hotmail.co.uk:1995-07-17:GB:F:86.28.123.242:kess
sugerplum0910:seattle96::1996-09-10:US:F:98.208.174.141:Harlie
sugerplum0975:dripdrop12:maderakid@yahoo.com:1992-04-23:US:F:none:kelly lagle
sugerplum1:sugerplum3::1993-01-01:AU:F:Mail from good_charlottes_fan1:none
sugerplum1000:clouds:teddybear200046@hotmail.com:1988-12-25:SG:F:Item:Suger Plum
sugerplum100492:jair100492::1992-10-04:US:F:none:sugerplum100492
sugerplum10108:TopRamen:glitterskate@aol.com:1985-01-01:US:F:Mail from mini_me58362:Delaney Dreyer
sugerplum101_al:Destiny*:lucy101@mn.rr.com:1993-05-22:US:F:none:ahna larson
sugerplum102203:sugerspice::1994-01-26:US:F:none:sugerplum102203
sugerplum102938:powder::1992-08-26:US:F:none:sugerplum102938
sugerplum10599:princess00::1999-10-05:US:F:74.241.193.250:Sydney
sugerplum10_1:hannah000::1997-08-17:US:M:207.119.152.242:alex
sugerplum10_3_9_8:els1999::1999-08-23:US:F:76.88.151.99:suger
sugerplum11:angel3427:chelsea@btinternet.com:1991-11-19:GB6:F:none:chelsea auerbach
sugerplum11012:::2000-11-08:US:F:69.142.80.11:NULL
sugerplum1122:poopys12::1999-02-20::F:68.205.152.140:NULL
sugerplum112233:stormy123:jocelynecovarrubias@yahoo.com:1995-09-09:US:F:67.141.94.17:Jocelyne
sugerplum1122635:destney12:ashleyjonas31@yahoo.com:1991-01-02:US:F:24.190.44.136:lola
sugerplum1123:firends3:keke2813308004@yahoo.com:1992-04-06:US:F:none:Kelsy Morrison
sugerplum11445566:babygirl::1994-05-04:US:F:none:sugerplum11445566
sugerplum115:162707::2000-01-29::F:173.31.167.199:NULL
sugerplum116:Choco:tommykd10@aol.com:1990-03-04:US:F:Mail from ashnicoleb:Casey  Corrier
sugerplum11902:kerry12:bbygrl25@cox.net:1985-03-14:US:F:68.1.137.155:jenny
sugerplum119607:bruno1::1993-09-11:GB:F:none:sugerplum119607
sugerplum1215:dance:nadia_butterfly@hotmail.com:1990-12-15:KW:F:Battledome Challenge:nadooy s
sugerplum122:kim122:h0tpink1224@aim.com:1991-01-10:US:F:68.192.128.5:Rachel Glass
sugerplum12200:monkey100::1999-04-05::F:68.93.75.154:NULL
sugerplum1221:saa(l):maxinerowlands1@hotmail.com:1991-08-27:GB:F:82.39.84.44:sarah rowlands
:::::::
sugerplum1221600:huiyi94:b_f_chen@yahoo.com.au:1984-01-01:AU:F:none:stephanie wang
sugerplum123:suger1234::1993-01-18:GB:F:none:sugerplum123
sugerplum123361:jodie::1992-02-13:GB:F:none:sugerplum123361
sugerplum123456:hottie3000::1998-02-19:US:F:205.188.116.140:Taylor
sugerplum12345678910:panda10::2001-02-04::F:209.6.111.58:NULL
sugerplum123457:peaunut:dolfingurl00@aol.com:1990-05-17:US:F:none:paige liddberg
sugerplum123556:dylan:bonbon912@aol.com:1991-10-06:US:F:none:amber hightower
sugerplum12356:suggii156:summerchika10102@aol.com:1980-04-17:US:F:216.6.159.173:XxX boo
sugerplum123565:happy_2002_2003::1994-03-25:GB6:F:none:sugerplum123565
sugerplum123789:christina123::1999-07-15:US:F:66.68.247.219:NULL
sugerplum12389:troux123::2002-02-05:US:F:76.247.216.84:NULL
sugerplum124:ethandallas12:effeman12@hotmail.com:1990-07-26:BS:F:none:Dallas Knowles
sugerplum12603:mittens2:jutman1776@yahoo.com:1990-01-25:US:F:none:Marissa Williams
sugerplum12_609:iloveyou56::2002-04-16::F:68.39.249.39:NULL
sugerplum13:VICTORY13:charlesncrystal@att.net:1993-07-20:US:F:76.195.205.13:CHAZZIDY
sugerplum130:sugerplum12::1999-06-10:GB:F:89.240.133.161:annalise
sugerplum1312:sugargril1312::1995-12-25:GB:F:195.93.21.105:emma-louise
sugerplum134:gianna12::2001-01-30:US:F:67.162.79.31:NULL
sugerplum1345:ceeta::1992-05-11:US:F:none:sugerplum1345
sugerplum135:gianna12::2000-01-30:US:F:67.162.79.31:NULL
sugerplum1351:135191:jasperkitten3@live.ca:1991-07-11:CA:F:24.84.162.213:jjc
sugerplum1396:thunder:horsiechick@gmail.com:1987-08-13:US:F:71.98.25.217:Devon
sugerplum13_7:sugerplum29:becky-72@suddenlink.net:1994-12-05:US:F:74.194.196.104:kaycee
sugerplum1404:andec:acurtis@columbus.rr.com:1990-09-13:US:F:none:lila Rogers
sugerplum1414:jourdan:tayance19@yahoo.com:1986-07-28:US:F:none:taylor yance
sugerplum143:ilovemydaddy450::1996-09-13:US:F:71.197.131.94:DANASIA
sugerplum144:CHOCOLATE::1992-12-15:AU:F:none:sugerplum144
sugerplum150:suger::1993-05-28:GB:F:none:sugerplum150
sugerplum15121:lkdjrucn:willd031@sgfl.org.uk:1989-08-10:GB:M:none:david williams
sugerplum16:infinity16:suger_plum16@hotmail.com:1991-09-16:CY:F:213.7.48.91:Kate
sugerplum1606:nowteen:badgirl725z@hotmail.com:1984-04-17:US:F:none:Sarah  Smith
sugerplum1609:elizabeth21:cameronmeyer23@gmail.com:1994-07-24:US:F:70.248.169.210:Elizabeth
sugerplum1616:Dreamer1:pixxy1616@hotmail.com:1988-02-16:GB:F:Acceptance:Jenna Holbrough
sugerplum16161616:angel123321::1993-09-24:CA:F:none:sugerplum16161616
sugerplum174:mattb:theresabradley@aol.com:1905-03-31:US:M:none:matt bradley
sugerplum175571:songsun:sugerplum175@yahoo.com:1991-09-10:US:F:none:Chloe Lim
sugerplum181:dancer2192::1992-02-01:US:F:71.118.30.193:none
sugerplum182:plants123::1993-06-10:US:F:none:sugerplum182
sugerplum185:danielle:davidson495@aol.com:1990-07-21:GB:F:none:danielle davidson
sugerplum1926:456892371::2000-09-08::F:74.192.191.22:NULL
sugerplum196:Neopetmaster::1993-09-28:US:F:none:sugerplum196
sugerplum1972:sherbert12:sk8tergirl105@aol.com:1984-10-25:US:F:67.244.103.111:Kelly
sugerplum197212::sk8tergirl105@aol.com:1996-10-25:US:F:170.170.59.138:NULL
sugerplum197213:chipdotangel!12:sk8tergirl105@aol.com:1986-10-25:US:F:207.172.170.153:Kelly
sugerplum1990:holly:sashsa02@yahoo.com:1990-02-12:US:F:none:sashsa brook
sugerplum1992:nugget:buggababie33@aol.com:1985-12-28:US:F:none:Kelly Mahoney
sugerplum1992535:murphy:ashleighbelcher@msn.com:1992-06-15:GB:F:none:ashleigh belcher
sugerplum1994:logan::1994-02-08:CA:F:none:sugerplum1994
sugerplum1997:redcup26::1997-11-20:US:F:202.152.82.162:alanna
sugerplum1998:ilovemusic22::1998-11-19::F:24.185.188.188:NULL
sugerplum2:unicorn11:pippahawkes@dsl.pipex.com:1994-10-11:GB:F:88.106.7.50:pippa
sugerplum20:aiden7181:rainbowbrightshortcake@yahoo.com:1985-04-15:US:F:none:April Sutherland
sugerplum200:lemonlime62::1999-04-27:US:F:71.195.241.88:sabrina
sugerplum2000:popper2000::2000-08-09:GB:F:90.209.245.51:NULL
sugerplum2001:RUBYCRYSTAL89::2001-10-18:GB:F:94.10.58.22:Tvisha
sugerplum2006:78107:pink_suger_plum@yahoo.com:1988-03-02:US:F:none:Crystal DeBose
sugerplum2008:gummyworm22:shawnsporleder80@hotmail.com:1980-07-21:US:F:66.146.242.65:shawn
sugerplum201:sugerplum21:www.dalonnac@yahoo.com:1995-09-25:US:F:72.205.255.199:dalonna
sugerplum205:liana::1993-07-09:US:F:none:sugerplum205
sugerplum208:nascar25::2000-04-05::F:98.145.86.212:NULL
sugerplum209:suger:toondisney2@yahoo.com.hk:1972-09-02:HK:F:none:Cammy Cho
sugerplum21:suger dog20:magickitten21@hotmail.com:1965-02-21:SG:F:202.156.12.10:felicia
sugerplum22:ginger*:badgurl_4u_1428@yahoo.com:1990-03-22:US:F:none:gina garcia
sugerplum223443:fallie!:vme962005@yahoo.com:1992-05-30:US:F:none:Victoria Esain
sugerplum226:suger12:candii_cutie172@hotmail.com:1993-12-22:CA:F:72.136.114.246:jenny
sugerplum2321:town12::2002-10-11:US:F:24.34.201.71:NULL
sugerplum23340:buttercup22::2000-09-27::F:72.68.131.43:NULL
sugerplum233_1_1:iloveapples33:cmposton@aol.com:1993-03-16:US:F:63.229.81.87:cassandra
sugerplum238:123456789::1992-07-21:CA:F:none:sugerplum238
sugerplum238248:sugerfairysweet12::2000-11-17::F:66.229.77.96:NULL
sugerplum239:vivicascool12::1999-03-24:US:F:216.246.75.110:vivica
sugerplum23_340:buttercup22::2000-09-27::F:72.68.131.43:NULL
sugerplum24:sodapop11::1996-06-06:US:F:98.212.47.221:Tiffany
sugerplum240:kirsty::1993-01-15:GB:F:none:sugerplum240
sugerplum24_27:chester45::2000-10-28::F:74.197.47.24:NULL
sugerplum24__40:horses22::1997-07-01:NZ:F:222.155.21.87:sarah
sugerplum25:apriljohnson11:apez_april@hotmail.com:1994-04-01:AU:F:123.243.38.240:april
sugerplum256:peppar256:vnic@ihug.co.nz:1982-07-16:NZ:F:203.109.220.12:Elena
sugerplum258:225581::1999-10-20:US:F:97.81.129.140:destiny
sugerplum26:mary26::2000-02-26:US:F:12.69.50.141:mary
sugerplum260:iluvcamper:julie.hicks1@ntlworld.com:1985-07-01:GB:F:none:tryguessnoneofyourbeeswax
sugerplum262:booth123::1998-06-11:NZ:F:121.73.173.53:madison
sugerplum263:stacey::1990-08-19:GB:F:none:none
sugerplum264:chase:jordypops@hotmail.com:1989-07-24:NZ:F:none:Jordyn M
sugerplum273010:marissa98::1998-11-17:US:F:64.12.116.201:Marissa
sugerplum28:lena23::1998-11-18:GB:F:77.100.164.207:summer
sugerplum29:fluffy40::1999-05-17::F:99.233.150.11:NULL
sugerplum292:mousseline:mugs1989@hotmail.com:1987-06-01:CA:F:none:Ashlee wittet
sugerplum296:jojo321:sweetcourtney92@hotmail.com:1990-01-12:US:F:none:courtney w
sugerplum316:goodwin::1993-02-23:GB:F:none:sugerplum316
sugerplum3231:12345677::1998-07-02:NZ:F:78.93.227.97:amy
sugerplum325173:sugerplum:cgr82@yahoo.com:1990-03-25:US:F:Acceptance:christy ryan
sugerplum326:mindy::1992-04-29:AU:F:144.139.99.132:Aki
sugerplum333:justinlover209::1997-08-06:US:F:208.61.26.142:emily
sugerplum34:135191:jewelkitten3@yahoo.ca:1991-07-11:CA:F:24.84.166.53:l
sugerplum344:skyler:spooky_133@hotmail.com:1989-09-11:CA:F:24.84.162.213:brittany white
sugerplum3444:calidog2:jasperkitten3@yahoo.ca:1991-07-10:CA:F:none:l  m
sugerplum34441:135191:lmajor91@yahoo.ca:1991-07-11:CA:F:none:lm 91
sugerplum34444:dixiechicks12:jasperkitten3@yahoo.ca:1991-07-12:US:F:24.84.162.213:chip
sugerplum34444191:135191:jasperkitten191@yahoo.ca:1991-04-16:US:F:24.84.170.58:asdfghjkl; asdfghjk
sugerplum344441911:135191:jasperkitten191@yahoo.ca:1991-07-11:US:F:24.84.162.213:jasper jewel
sugerplum34444191351:135191:dogz_r_kool123@hotmail.com:1991-02-20:CA:F:none:l none
sugerplum344444:jasperkitten3:jasperkitten3@hotmail.com:1991-07-03:CA:F:none:who wants 2 no boo
sugerplum3444444:135191:leannedm3@yahoo.ca:1991-04-02:US:F:24.84.170.58:none none
sugerplum34444444:135191:leannedm3@yahoo.ca:1991-07-22:US:F:24.84.170.58:none  cat
sugerplum344444444:135191:jasperkitten191@yahoo.ca:1991-07-11:US:M:24.84.170.58:kitten jasper
sugerplum3444444444:135191:jasperkitten191@yahoo.ca:1991-07-11:US:F:24.84.170.58:none zero
sugerplum34444444441:135191:jasperkitten_3@yahoo.ca:1991-07-11:CA:F:none:none none
sugerplum34444444442:135191:jasperkitten_3@yahoo.ca:1991-07-20:CA:F:none:none none
sugerplum34444444443:135191:jasperkitten_3@yahoo.ca:1991-07-11:CA:F:none:none none
sugerplum34444444444:135191:jasperkitten191@yahoo.ca:1988-07-11:US:F:none:dingo dog
sugerplum34444444445:135191:jasperkitten_3@yahoo.ca:1991-07-11:CA:F:none:none none
sugerplum34444444446:135191:jewelkitten191@yahoo.ca:1991-07-12:CA:F:none:none none
sugerplum34444444447:135191:jewelkitten191@yahoo.ca:1991-08-22:CA:F:none:none none
sugerplum34444444448:135191:jewelkitten191@yahoo.ca:1991-07-11:CA:M:none:none none
sugerplum34444444449:135191:jasperkitten_3@yahoo.ca:1991-07-11:CA:F:none:who wants 2 no none
sugerplum345:sugerbaby12::1999-10-18:US:F:72.88.231.195:stephanie
sugerplum3456:flower12::1998-12-12:CA:F:67.70.205.130:morgan
sugerplum346:OCEAN1:martincccad@earthlink.com:1987-04-10:US:F:none:Linsy Biscet
sugerplum35:fairy::1992-11-26:GB:F:none:sugerplum35
sugerplum355:135191:neo_pets1@yahoo.ca:1991-07-11:CA:F:24.84.162.213:L
sugerplum3555:135191:neo_pets1@yahoo.ca:1991-07-11:CA:F:24.84.162.213:
sugerplum35555:135191:neo_pets1@yahoo.ca:1991-07-11:CA:F:24.84.166.53:
sugerplum369:2107199412051992:dinosaurs-go-rawrr@hotmail.com:1910-07-21:PT:F:85.244.117.8:Laura
sugerplum373:softball:brucemassey@gci.net:1980-08-09:US:F:Mail from theneopetsteam:Hannah dani
sugerplum37618:alicem55::1998-06-25:US:F:216.41.245.191:alice
sugerplum3805:shovel3805::2001-03-29:AU:F:58.170.181.184:cheyenne
sugerplum39:zoesa::1993-05-04:US:F:none:none
sugerplum4:peachy13::1994-04-23:GB:F:195.93.21.73:lauren
sugerplum4034:04034514:muskan.yadav26@gmail.com:1998-07-26:IN:F:207.138.82.4:NULL
sugerplum405:cuteplum96::1994-01-27:US:F:none:sugerplum405
sugerplum41:ordnance41:mbm_hun@hotmail.co.uk:1994-08-09:GB:F:86.153.193.174:Morgo
sugerplum411:becky1234:booboo76@myfairpoint.net:1991-12-20:US:F:70.105.247.235:NULL
sugerplum420:t1122:scchic1122@aol.com:1984-03-02:US:F:none:Tiffany Bracken
sugerplum42429:bumblebee:louisannagirl42@yahoo.com:1991-01-26:US:F:none:Victoria Rice
sugerplum427:madagascar007::2000-05-01::F:68.204.183.124:NULL
sugerplum435:****beauty:xxxxcheekygirlxxxx@hotmail.com:1988-06-10:GB:F:none:kirsty lovell
sugerplum44:glb12::1993-09-26:GB:F:none:sugerplum44
sugerplum4444:bloody4444:saraekehoe@hotmail.com:1994-04-04:US:F:67.189.251.188:GJ
sugerplum4455:Jewls::1993-03-27:CA:F:none:sugerplum4455
sugerplum448:meccem12::2002-06-16:US:F:98.235.159.228:NULL
sugerplum451:amanda45::1997-04-04:US:F:209.234.252.28:amanda
sugerplum453:sun200:westcoastboarder11@hotmail.com:1988-10-05:CA:F:none:ruthann thompson
sugerplum4555:135191:neo_pets1@yahoo.ca:1991-07-11:CA:F:24.84.166.53:L
sugerplum456:1793bri:surgarplum456@hotmail.co.uk:1992-01-13:GB:F:81.159.144.119:catherine
sugerplum45678:princess24:aerianna_jhonston@hotmail.com:1996-02-25:US:F:99.3.23.86:alexis pollard
sugerplum47:rose-1:gmsgroovygirl@aol.com:1983-07-19:US:F:none:Dorrie Mayhew
sugerplum48:faty55::2004-02-02:US:F:173.55.86.54:NULL
sugerplum488:*cocomoco*:teenie_sweetie@hotmail.com:1979-07-21:CA:F:none:Jen Reidl
sugerplum5:wade12::1997-08-25:US:M:98.196.216.121:wade
sugerplum501:lovers:sugerplum501@yahoo.com:1988-06-20:GB:F:167.7.205.206:Alinda Cox
sugerplum506:password123:sarahcathern@gmail.com:1996-06-13::F:68.54.198.133:NULL
sugerplum5149:sweet16:parisdellapenna@aol.com:1989-08-14:US:F:none:*kiss~ ~kiss*
sugerplum54:magic12::1995-06-11:US:F:71.31.246.237:Isis
sugerplum55:MERCY12::1996-11-07:US:F:72.220.147.82:MERCEDES
sugerplum555:sunny5:ddeedee456@aol.com:1990-12-26:US:F:none:Dee Dee D
sugerplum55502:chocolate::1992-12-15:AU:F:none:sugerplum55502
sugerplum56:babyjames:purplepiglet56@hotmail.co.uk:1990-02-16:GB:F:none:may cruickshank
sugerplum561:carebear:powerpet@aol.com:1984-09-03:US:F:none:Cayleen Grimmer
sugerplum567:flashy67:pinkmoonflower2@gmail.com:1996-08-16:US:F:67.61.50.250:sugerplum567
sugerplum57:samantha:victorianewmarch@hotmail.com:1981-05-09:US:F:none:vicki newmarch
sugerplum5993:59935993::2001-01-15:GB:F:94.11.225.189:NULL
sugerplum6:suger800::2001-08-20:US:F:204.2.199.22:julia
sugerplum600:1200ME::2008-07-29:US:F:65.5.233.199:EMILY
sugerplum62:pinkeydo62::1999-09-21:US:F:12.207.2.173:mikal
sugerplum63:pyramid12:myngelmia@hotmail.com:1993-11-04:BS:F:71.92.213.128:Mia
sugerplum64:babygirl21::1998-3-14:US:F:68.171.233.145:Renee
sugerplum65:65glasses::1998-09-30:GB:F:84.92.227.169:emma
sugerplum650:clement50::1997-07-03:US:F:12.197.120.227:alexa
sugerplum6524:ginger28::2000-07-24:US:F:66.169.181.82:Faith
sugerplum6545241:misty6545241:helen@strato.net:1964-07-23:US:F:none:tiffany goller
sugerplum67:1234589::1999-07-10:US:F:65.0.68.64:kara
sugerplum689:swettypie86::2000-3-14:US:F:64.90.155.228:brooklyn
sugerplum7:159489::1997-05-30:US:F:99.69.144.219:tia
sugerplum7000:suger:limejellyjirl@hotmail.com:1977-07-07:CX:F:none:Rebeacka SweetWaters
sugerplum725:6363916002:kodyxyz@aol.com:1977-07-01:CX:F:Mail from referralteam:RebeckaMSweetWaters
sugerplum727:sugerbaby727::2002-12-11::F:70.118.76.101:NULL
sugerplum75:sweetytweety123::2005-02-02::F:72.221.107.98:NULL
sugerplum755:590687::2000-10-31:US:F:108.67.177.39:NULL
sugerplum77:kylie77::1997-08-30:GB:F:82.7.111.234:rebecca
Sugerplum77791:sondra9441::2000-07-07::F:74.221.146.92:NULL
sugerplum78:band45::2000-10-01::F:74.197.47.24:NULL
sugerplum7800:kimmy123::1999-09-18:US:F:24.8.62.47:NULL
sugerplum781994:stephanie::1994-01-07:GB:F:none:sugerplum781994
sugerplum789:4359225::1998-07-04:US:F:99.188.197.217:NULL
sugerplum8:ohio11:kelly@eldreds.org:1988-08-11:US:F:67.149.173.205:ritzy laf\ente
sugerplum800:kim377::1999-09-18:US:F:24.8.62.47:NULL
sugerplum821:pinky78::2001-10-19::F:69.209.121.191:NULL
sugerplum84:chappy:chapman_girl@hotmail.com:1991-02-13:NZ:F:Acceptance:gannah bhaman
sugerplum85:admin123::2000-03-18:GB:F:88.212.176.241:fifi
sugerplum854:225581::1999-10-20:US:F:97.81.129.140:destiny
sugerplum857:light:sugerplum857@yahoo.com:1991-03-15:US:F:none:Samantha Clement
sugerplum86:sugerplum865::2000-05-07::F:124.188.58.220:NULL
sugerplum87:87!@#87aib:drdmcrd@yahoo.com:1995-10-18:US:F:74.51.148.157:Anabel Avalos
sugerplum8819:angelgirl7723::1999-02-26:US:F:96.238.95.229:ajan
sugerplum888:bluecat98:twinkleberry98@gmail.com:1995-06-05:US:F:76.246.37.8:Annie
sugerplum888888:dozer:sagedavis80395.com@msn.com:1979-08-03:US:F:Can I be your NeoFriend?:sage davis
sugerplum895:kukugirl64:kukugirl64@aol.com:1996-05-06::F:24.107.239.158:NULL
sugerplum89788:loudog:mphockeychick@netscape.net:1990-04-11:US:F:none:megan petite
sugerplum89coco:kukugirl64::1998-05-06:US:F:71.10.255.184:cyndi
sugerplum91:blue55:cutie_pie9086@yahoo.com:1991-05-04:US:F:24.253.207.24:Stephani
sugerplum9318:241580:sugerplum93@hotmail.com:1972-08-18:CA:F:none:janai  kkk
sugerplum932:missy932::1993-11-12:US:F:208.107.34.218:sugerplum932
sugerplum94:june231994:ingrid_sweet15@hotmail.com:1994-06-23:CA:F:74.12.198.82:ingrid
sugerplum949:qsnsmellybbe1996::1996-12-29:GB:F:82.21.193.254:careligh
sugerplum95:heroine93:halleypkasher@yahoo.com:1991-08-30:US:F:97.114.80.130:NULL
sugerplum9509:lovebug09:lopez.patricia15@yahoo.com:1995-02-27:US:F:75.91.198.6:Angelica
sugerplum96:DB725:rcingulare@hotmail.com:1961-09-22:US:F:none:dominique bettencourt
sugerplum963:subanarules::1993-10-02:CA:F:none:sugerplum963
sugerplum9696:loser:sexi_b_69@hotmail.com:1985-04-11:CA:F:none:Bryanne campell
sugerplum97:password09:idolfan9000@yahoo.com:1992-03-16:BR:F:24.92.201.36:kaitlyn
sugerplum97_202:lucy202::1997-02-21:US:F:76.214.0.53:lucy
sugerplum98:puppet::1993-10-19:US:M:none:sugerplum98
sugerplum9876:maxyspot12::2000-06-19:US:F:96.19.28.1:NULL
sugerplum987_1:zoe123::1998-06-16:US:F:76.28.187.128:Rachael
sugerplum9971:0579143::1990-07-17:US:F:none:Molly Smith
sugerplum9973:small67::2004-04-06::F:24.74.170.70:NULL
sugerplumalexa:123456789::1992-11-11:GB:F:none:none
sugerplumashlee:pop123:ashleehowerox@hotmail.com:1994-01-01:AU:F:none:ashlee howe
sugerplumb46:icecream::1993-01-05:US:F:none:sugerplumb46
sugerplumb5:neopets22::1999-12-03:CA:F:198.166.25.6:katie
sugerplumb96:MCKENZIE96:jorjam66@bellsouth.net:1992-08-04:US:F:72.195.183.45:Jordan
sugerplumbaby13:littleplum13:sweetctk@yahoo.com:1994-01-13:US:F:69.86.210.228:Charlotte
sugerplumbbarbie:stephrocks13::1997-06-13:AU:F:121.91.28.219:stephanie
sugerplumbby:sexydavid92:glenfoot@hotmail.co.uk:1992-05-24:GB:F:84.64.175.92:laura mackechniela
sugerplumbec99:becks09:vikki@perfectcomputers.f9.co.uk:1991-03-03:GB:F:none:rebecca hobson
sugerplumbfairie:strawberry::1992-07-14:CA:F:none:sugerplumbfairie
sugerplumbfairy21:firefly12::1994-04-13:US:F:74.79.108.26:sugerplumbfairy21
sugerplumbprincess:barbiegirl1:curlysue.alice@gmail.com:1992-05-19:IE:F:none:Ali Bowwow
sugerplumbubblegum18:bubbles::1991-06-08:CA:F:none:sugerplumbubblegum18
sugerplumbum:base1234:sugerplumbum@yahoo.com:1971-01-03:US:M:none:lodjfhg ;fdkjhg
sugerplumbw:apple123::1999-07-05:US:F:24.61.133.153:cassidy
sugerplumcandyminty:kandykids1:alan@simpsonvile.fsnet.co.uk:1993-01-06:GB:F:none:cerys/maddie simpson
sugerplumcow:sugerplumcow15::1996-12-31:GB:F:89.242.68.227:Shannon
sugerplumcutie123:ihartu69:chodge21@rcn.com:1995-08-06::F:65.78.95.227:NULL
sugerplumcutiepie:waswere24:haley.ogcd1@gmail.com:1993-02-08:US:F:65.12.43.204:Haley
sugerplumdrop75:hannah12::1996-04-26:GB:F:217.43.181.52:hannah
sugerplumduff:puppydoggy:mygirlsmum@hotmail.com:1984-04-01:CA:F:none:sarah rorke
sugerplume:scholasticgirl97::1996-04-02:CA:F:72.53.2.14:sugerplume
sugerplume11:yanny11:yan-fab-123@hotmail.co.uk:1990-03-25:GB:F:none:ayanna name
sugerplume112568:898585:cindytam1@hotmail.com:1990-11-25:US:F:none:Jessica Jessica
sugerplume999:toffee12::1992-07-24:GB:F:Offer Not Accepted:sugerplume999
sugerplumemma:holly::1994-06-08:GB:F:86.138.166.82:sugerplumemma
sugerplumeprinnces:16171819::1997-08-22:US:F:64.12.116.14:tikesha
sugerplumes:coco15:cocoluveshiphop@yahoo.com:1994-07-19:US:F:24.176.160.51:coco
sugerplume_34:kati12:ajangela1237@yahoo.com:1990-08-20::F:69.112.106.216:NULL
sugerplumf:chantel:xane46@aol.com:1980-06-10:US:F:none:cherisee isaac
sugerplumfaerie001:BUTTERCUP:profit@ecoquestintl.com:1990-08-22:US:F:none:RACHEL WHITE
sugerplumfaerie9:ariel:theresal@attbi.com:1982-09-21:US:F:none:keara Lehanen
sugerplumfaeriegirl:5908475::1992-02-29:CA:F:none:sugerplumfaeriegirl
sugerplumfaeriepm:pow12:gummybearpm@yahoo.com:1984-04-26:US:F:none:Pam Marte
sugerplumfaire:12121212:lindasmith23@hotmail.com:1989-01-04:US:F:67.66.253.37:jakie
sugerplumfairee:4stonedene:ktisere_999@hotmail.com:1989-07-30:GB3:F:none:ashalee kya
sugerplumfairy:bluebell106:sugerplumfairy1993@yahoo.co.uk:1993-10-11:GB:F:88.106.231.183:gemma coyle
sugerplumfairy04:cuteie:angoori94@aol.com:1981-11-29:US:F:none:kimi k
sugerplumfairy05:swordfish:tziporah@gmail.com:1992-04-01:US:F:none:Shelly  Mcreen
sugerplumfairy101grl:mymeow!::1992-11-29:US:F:none:sugerplumfairy101grl
sugerplumfairy119:5352785::1993-03-17:US:M:none:sugerplumfairy119
sugerplumfairy123:keziakay123::1996-11-15:GB:F:86.112.169.69:kezia-kay
sugerplumfairy12345:1kitkat1:grace_houston@hotmail.com:1992-01-28:GB:F:none:grace houston
sugerplumfairy154:ilovenick:caymanator@sbcglobal.net:1991-08-29:US:F:none:CaymanAllen
sugerplumfairy1850:fairyland::1992-11-18:GB:F:none:sugerplumfairy1850
sugerplumfairy19:france*:friedfrog19@hotmail.co.uk:1991-04-05:GB:F:none:Suger Fairy
sugerplumfairy2003:ZINGETE::1992-12-02:GB2:F:none:sugerplumfairy2003
sugerplumfairy21:kirsty:kirstyo13@aol.com:1963-02-02:GB:F:Can I be your NeoFriend?:angel ??????
sugerplumfairy219:benji:victorianewmarch@hotmail.com:1988-05-09:GB:F:none:vicki newmarch
sugerplumfairy22:sharon24:sugerplumfairy22@ntlworld.com:1990-09-26:GB:F:86.5.1.4:Kirsty
sugerplumfairy222:eric17:sugarboy410@aol.com:1986-06-05:US:F:Acceptance:eric pyatt
sugerplumfairy252:plumpy:leo32662@aol.com:1991-07-24:US:F:Item:Danna  Coulter
sugerplumfairy2807:ballet:choccchip@aol.com:1991-07-28:GB:F:none:Chloe Palmer
sugerplumfairy3:goldfish1:maddiedeleo@hotmail.com:1989-12-15:AU:F:59.100.245.170:Madeleine De Leo
sugerplumfairy55:tweetybird55:toothfairy77312@yahoo.com:1992-07-03:US:F:24.58.70.74:none
sugerplumfairy700:suger3000::1993-07-02:GB:F:none:sugerplumfairy700
sugerplumfairy77:honey77:dreamergurl2012@goowy.com:1993-02-28:US:F:69.179.147.103:kiah  glassnor
sugerplumfairy777662:sugpf7:gymnast2themax@yahoo.com:1981-07-27:US:F:none:lu lu
sugerplumfairy79:hamsters:cute_teddy_edward@hotmail.com:1989-06-19:GB:F:none:hannah  nolan
sugerplumfairy80:looser:coolpanda_13@hotmail.com:1989-10-03:CA:F:none:Tanya Fournier
sugerplumfairy843:becky:calicokittens@hotmail.com:1990-07-19:CA:F:24.187.114.134:sugerplumfairy843
sugerplumfairy88:dancer:cutie_booty_2003@hotmail.com:1971-09-01:GB:F:none:Alex Yearly
Sugerplumfairy96:yummy96:porcupineinvadors@gmail.com:1996-04-12::F:24.9.122.248:NULL
sugerplumfairy99:cali2001:the_evil_muffin@hotmail.com:1988-04-11:GB:F:none:Cali Perkins
sugerplumfairycake:sootie:debness@tesco.net:1989-06-07:GB:F:none:VanessaSmith
sugerplumfairys:meglou12:p.e.nlandscaping@ntlworld.com:1990-10-03:GB:F:213.105.93.80:laura
sugerplumfairy_12:whatever::1992-10-20:US:F:none:sugerplumfairy_12
sugerplumfairy_3:babyboy12:superchick373@hotmail.com:1991-08-11:AU:F:59.101.70.96:Julia
sugerplumfairy_6_6_6:smiles1:hollabackgirl_2005@hotmail.co.uk:1993-04-11:GB:F:none:Mollie Woolnough-Rai
sugerplumfarie:ilikecody:imashortprincess@aol.com:1987-09-20:US:F:none:Ashley Marquis
sugerplumfarie101:graciebaby12:sugerplumfarie@hotmail.com:1991-04-28:US:F:none:Meggs montgomery
sugerplumfarie308:dreamy:krlarsen@sbcglobel.net:1990-08-18:US:F:none:Katie Katie
sugerplumfarie999:johmardan999:danielle999@btinternet.co.uk:1988-02-09:GB:F:none:danielle neal
sugerplumfaries:meglou12:p.e.n.landscaping@ntlworld.com:1990-10-03:GB:F:213.105.93.80:laura
sugerplumfarie_2:april19::1997-04-19:CA:F:204.244.96.74:Emily
sugerplumfariy:bieber23::2000-02-03:US:F:71.35.206.149:NULL
sugerplumfariy8:mummy::1993-09-18:GB:F:none:sugerplumfariy8
sugerplumfearie13:131313:scott@princetonusa.com:1986-06-04:US:F:none:Courtney Fair
