sughu9:garima17::1998-09-05:CA:F:99.227.210.81:sugandh
sughunnybunny:ilikeusm:blosoom15@aol.com:1988-08-24:US:F:none:Shonte Wilson
sughvf4eva98:pocoponi:chrisrm@austin.rr.com:1990-05-01:US:M:none:brooke  liptom
sughy407:sughygirl::1992-09-17:BR:F:none:Pricila Marcondes Gomes
sugi:babybaby2::1993-10-21:SG:F:none:sugi
sugi005:buster6:ivan_suheil@msn.com:1979-09-30:US:F:none:Suheil Sein
sugi007:sugi121:cloud_seph@hotmail.de:1997-01-21:CH:M:84.227.89.147:Michel
sugi03:benzo::1993-06-30:US:M:none:sugi03
sugi100:keijzers1::1994-04-01:AU:F:none:sugi100
sugi101:demi101::1993-08-09:CA:F:none:sugi101
sugi123456:sugeer::1991-07-31:CA:M:none:sugi123456
sugi1245:1192iikuni:sk128958@mx.scn.tv:1986-09-21:JP:M:none:ショウヤ スギモト
sugi1478997:1192iikuni:sugi1478@yahoo.co.jp:1988-01-01:JP:M:none:翔哉 杉本
sugi154:19900528:songsuk_songe@ybb.ne.jp:1990-05-28:JP:F:none:聖淑 李
sugi160240:19640::1992-05-25:CA:F:none:sugi160240
sugi20:198520:storangkimo@yahoo.com.tw:1985-01-03:TW:F:none:士倫 邱
sugi2005394:bigtop:pmoskaluk@hotmail.com:1946-08-08:CA:F:none:Pam Moskaluk
sugi2009:biggie11::2000-06-28:US:F:165.254.92.77:Olivia
sugi25:harrypotter::1993-08-08:US:M:none:sugi25
sugi260:panda::1992-05-12:JP:F:none:sugi260
sugi272:sugar:www.adrielgowan@comcast.net:1980-07-27:US:F:none:alyssa gowan
sugi274:gu gu gaga::1992-06-12:VI:M:none:sugi274
sugi29:sugi43:doj@dib.com:1993-05-15:US:M:none:joush kiy
sugi31_31:310982::1986-07-26:CA:M:Acceptance:karn kaboy koolboy kaboy
sugi335:shenne::1991-01-10:CA:M:none:Sugi Thevan
sugi36:chimp::1993-06-18:GB:F:none:sugi36
sugi3600:chimp36:maddy3636@hotmail.com:1990-06-18:GB:F:81.104.40.193:madeleine bryant
sugi3732:sugi2822:sugi.sugi.2822@s3.dion.ne.jp:1967-03-27:JP:F:none:sugi eik
sugi3melon:sugiepoo:krabeemaro@yahoo.com:1987-10-26:US:F:none:ashley chen
sugi3mich:lesingechocolat90:sugi3mich@comcast.net:1995-06-16:US:F:71.205.38.133:NULL
sugi500:keijzers1::1994-04-01:AU:F:none:sugi500
sugi55:teamkris88!:chanerschan88@hotmail.com:1988-03-07:US:F:68.230.36.54:i have no name
sugi5594:55945594:rush4prez@hotmail.com:1993-05-05:US:F:none:haley neeley
sugi560:dylan1:stfuorillblowupyourhouse@hotmail.com:1989-10-31:CA:M:none:eric carson
sugi632:sujata45::2000-10-14:NZ:F:202.74.218.56:sujata
sugi666666160:66666666::1992-12-06:SG:F:218.186.11.3:sugi666666160
sugi69:gibbler69:super-star_maranda@hotmail.com:1994-02-24:CA:F:74.214.135.69:Maranda
sugi716:poteto:ymftm636@ybb.ne.jp:1988-07-16:JP:F:none:ナカムラ マリ
sugi75:cat00:all@l-asc.co.jp:1966-03-16:JP:M:none:ko sugiura
sugi8:football08:noemail@coolmail.com:1955-01-21:US:M:69.204.205.230:rocky
Sugi83:godzilla83::1998-12-03::F:97.107.193.49:NULL
sugi87654321:teddyfairy:yellie87654321@yahoo.com:1986-10-28:SG:F:none:Sugi .
sugi89:890609:dozsaszandi@freemail.hu:1989-06-09:HU:F:none:Alexandra Dózsa
sugi91:sugi15::1992-01-10:LK:M:none:sugi91
sugi93:shanmugathasan1:sugunthan_sugi@hotmail.com:1989-05-24:CA:M:none:sugunthan shan
sugi942_8_8:rusty13::1993-08-25:US:F:none:sugi942_8_8
sugi99:koakoakoa99::1999-11-29::M:98.155.163.92:NULL
sugi9_:november1992:sugisugenya@live.com:1992-11-09:CA:F:192.75.71.135:sugi
sugi9_3:bama1084:sugi_lankangirl@hotmail.com:1989-06-20:CA:F:99.253.176.49:Sugi
sugiai:12080::1993-12-08:JP:F:none:sugiai
sugiamichiboy:poobreath23:eddrichang@yahoo.com:1988-10-27:PH:M:124.106.141.71:Eddrich
sugian:akieri2:sugian_ss@yahoo.co.jp:1969-01-11:JP:F:none:成美 杉山
sugiandme:elendil!:sugi_eb@hotmail.com:1989-08-18:CH:M:none:Sugi B
sugiangel14:Hampers:sugiangel@shaw.ca:1988-02-08:CA:F:none:Maddy H
sugiann:toniann11:stew-d4o@hotmail.com:1990-07-17:JM:F:72.252.109.248:ann
sugianto:12545::1998-06-06:US:M:none:sugianto
sugianto777:766986:sugiant0@hotmail.com:1979-09-03:SG:M:116.197.237.74:sugianto
sugiantom:mejikuhibiniu:sugiantom@hotmail.com:1982-07-05:AU:M:none:ad man
sugiantos:brians::1994-02-02:NZ:M:none:sugiantos
sugiarta:39tobal:Asugiarta@hotmail.com:1986-04-16:CA:M:70.81.138.21:Wisang
sugiarto:adipala::1993-06-15:EN:M:NULL:NULL
sugiarto_90879718:81432267:lm_eehui@yahoo.com.sg:1988-10-01:SG:M:none:lim  ee hui
sugiatio:lowrider00::1998-12-12:ID:M:180.246.230.52:NULL
sugiatu:atusi@:atusi0813@hotmail.co.jp:1992-08-13:JP:M:211.1.122.39:篤 杉崎
sugia_coichet:rod144cry516:gaucon040691@yahoo.ca:1991-06-04:VN:F:none:Thanh Thao  Huynh
sugia_hoabinh:hoabinhmuonnam:dh_h01589@yahoo.com:1989-05-01:VN:M:none:Brunce Dean
sugibabe:sugar66:martinebickoff@aol.com:1988-09-11:US:F:none:Celine Bickoff
sugibabes:sugar66:la_allison@msn.com:1985-09-11:US:F:none:Celine Bickoff
sugiban:120119921445:ganstarboy-92@hotmail.com:1992-01-12:DK:M:89.243.63.121:sugiban
sugibaski:chellam:artistbaskar@yahoo.com:1974-10-08:SG:M:none:k. baskar
sugibear:sugi09::2001-07-06:US:F:96.46.127.13:D&#x27;laney
sugibear11:12june::1993-06-12:AU:F:none:sugibear11
sugibear8146:telephone::1981-08-22:US:F:none:Amber O
sugiber:060106:sugi_bermeo@hotmail.com:1982-12-18:ES:F:88.26.111.107:sugi
sugibi:sirineben13:ebrar_ozlem_12@hotmail.com:1995-05-24:TR:F:78.186.210.94:ÖsLeM
sugibolli:sugibolli12::1997-03-08:US:F:89.247.237.234:kim
sugibolly:sugibolly12:www.sveti@web.de:1987-03-03:HU:F:84.189.125.160:sveti
sugibubi:ramon el guapo 23::1999-09-25:MX:M:189.235.185.115:sugibubi
sugibuddha:36homo89:garasuembryo@aol.com:1987-08-04:US:F:none:Mandy Boop
sugibuggi:jesse:jesse1111@comcast.net:1988-07-28:US:F:none:jesse smith
sugibugifatsofugi:hpr8m8g3:sugibugifatsofugi13@yahoo.com:1995-06-13:US:F:69.89.242.76:Jessica
sugibugifugi:samboob10:sugibugifatsofugi13@yahoo.com:1990-06-13:US:F:none:Sugibugi Lee
sugibugsugerbug:singer::1991-02-05:US:F:none:sugibugsugerbug
sugibugxoxo:nunya:luvs2talk9294@aol.com:1990-12-13:US:F:none:hannah jones
sugica:191228::1998-12-28:CL:F:190.8.65.51:sugica
sugice:margaretanne428:angel_voice11@hotmail.com:1991-06-11:CA:F:142.46.8.22:Mav Em
sugice2221:iluvsugice::1992-02-19:US:F:none:sugice2221
sugicetwins:2sugiceluv::1992-02-23:US:F:none:sugicetwins
sugice_11:elane12::1999-03-22:US:F:71.50.63.14:caibrae
sugichan:sugemoto10:chansugichan@yahoo.com:1986-05-08:BR:M:none:vitor sugimoto
sugichan1989:eagle7:sugichan@gmx.net:1989-12-22:DE:F:217.88.144.136:Juliane J. Bleul
sugichan55:kris88:beautiful_mind21@hotmail.com:1988-03-07:US:F:76.114.222.64:kristina
sugichan88:kchan88:beautiful_mind21@hotmail.com:1988-03-07:US:F:none:k s
SugiChanChan:pepper24:lilth@live.ca:1995-03-28:CA:M:99.192.52.135:NULL
sugichibizakura:062216s:true-one-cherry@nifty.com:1992-12-17:JP:F:none:杉山 桜子
sugick:xsw21qaz::1999-11-24:US:F:76.114.162.160:Jayden
sugicloud:unlimited12:x_alive_piano@hotmail.com:1985-10-15:AR:M:201.235.254.34:Marco
sugicraig:bela2000:craig.a.hylton@gmail.com:1979-05-05:US:M:68.1.31.72:craig
sugidog6451yo:BOOGIEWOOGIE:littlebit306@sbcglobal.net:1990-03-06:US:F:none:DANIELLE MARTINEZ
sugie001:spice:tsk1170@sbcglobal.net:1958-07-12:US:F:none:kendra kilbarger
sugie01:ashley07::2000-06-27:US:F:98.113.110.155:Ashley
sugie0133:neopets12::2000-06-27:US:F:96.224.183.70:ashley
sugie09:charlotte09:Sugie96@gmail.com:1996-06-22:US:F:75.65.58.253:Elizabeth
sugie1:sugie11:roxygurl1985@embarqmail.com:1985-12-11:US:F:74.4.216.150:keeley
sugie10122:lisa14::2000-01-05:US:F:72.40.84.68:veronyca
sugie1019:bugie342::2001-06-15::F:72.135.22.110:NULL
sugie110:neopet11::2000-06-27:US:F:71.55.189.167:ashley
sugie1196:dogs10::1996-06-23:US:F:75.65.58.253:Elizabeth
sugie11__83:kipsie11::1998-02-07:US:F:71.156.82.73:grace
sugie1248:ilovesugie247::2000-09-15:US:F:76.112.12.229:sugie
sugie12994:cinnomon::1994-01-29:US:F:none:sugie12994
Sugie13:charlotte09:sugie96@gmail.com:1996-06-23:US:F:76.107.28.165:NULL
sugie151:ashley07::2000-06-27:US:F:24.136.55.110:ashley
sugie164:baby17:sweetthing16@att.net:1986-03-08:US:F:none:tj chavez
sugie19:ashley07::2000-06-27:US:F:64.12.116.75:emily
sugie1992:1million:sugie1993@aol.com:1988-08-08:US:F:none:olivia barton
sugie1993:tonight::1993-08-08:US:F:none:sugie1993
sugie2:jenny::1994-03-14:US:F:none:sugie2
sugie2001:cisaly2010::2001-12-09:US:F:76.187.54.165:NULL
sugie2003:farts:titusmaniax0369@hotmail.com:1988-12-17:US:F:none:jamie lopez
sugie2003__53:aleyna2003::2003-04-17:US:F:68.62.239.141:aleyna
sugie215:Creative215:total_chaos32@yahoo.com:1970-02-15:US:M:none:John Laycox
sugie22:4325724::1999-05-22::F:69.55.115.23:NULL
sugie25:sasa92:sselvarasah@aol.com:1992-07-25:GB:F:none:Suganya selvarasah
sugie333:spurge32::1998-04-18:GB:F:97.86.2.69:Alley
sugie34:nicholas012503:rdwhite33@hotmail.com:1967-04-14:US:F:74.5.197.178:ChelleWhite
sugie35:kalyn101:pretynails@yahoo.com:1990-07-04:US:F:75.88.202.223:sugie
sugie456:jean456:scarneck5@aol.com:1995-02-14:US:F:72.153.138.91:Lindsey
sugie457:bobb1:flaggirl210@sbcglobal.net:1992-01-07:US:F:none:chelsie womack
sugie479:sugar::1993-08-26:US:F:none:sugie479
sugie52:sugie1325::1991-05-18:US:F:none:sugie52
sugie520:803964:s906532002@yahoo.com.tw:1988-01-09:CN:F:118.170.3.89:sugie
sugie548:purpleprincess85::2003-10-09:US:F:68.0.246.191:Jadyn
sugie60332:sugie60107:sugie60332@kimo.com:1990-04-07:CA:M:59.126.208.99:游睿全
sugie7248:tj724:jordanicarroll@sbcglobal.net:1990-07-15:US:F:none:jordan carroll
sugie786:wasawere1:snaqvi81@hotmail.com:1981-11-27:US:F:none:Sugie N
sugie8:sugie08::2002-07-22::F:70.161.105.177:NULL
sugie9:queenie::1993-05-06:CA:F:none:sugie9
sugie95__pp_7:b@byp:sugiepw@yahoo.com:1986-01-01:US:F:none:sugie mildred
sugieandbubz:lickle!:tesh_5@hotmail.com:1988-09-11:GB:M:none:pritesh kapdee
sugiebabe35:prettyhun:tjjp4ever@netzero.net:1991-06-15:US:F:none:Paige Blankenship
sugiebabie04:ngc2008:sugiebabie2004@excite.com:1986-08-10:US:F:none:Lauren Stanley
sugiebear01:cacheek01::2000-04-10:US:M:74.245.181.196:neal
sugiebear420:dakota81:sugiebear05@verizon.net:1981-08-25:US:F:none:Nicole Vavra
Sugiebear5:booboo55::2003-12-29:US:F:174.22.220.95:NULL
sugiebear700:gabriel10::2000-6-22:US:M:70.237.194.27:Gabriel
sugiebear70010:gabriel10::2000-06-22:US:M:70.230.172.4:gabriel
sugiebears2003:aleyna2003::2003-04-17:US:F:68.62.239.141:aleyna
sugieboo170:starface01::1997-12-07:US:F:74.241.1.244:Jenny
sugieboogie:1017023:hisfeistyfairie@yahoo.com:1989-03-17:US:F:70.161.159.176:Holly
sugieboogie54:TayBug54:kpuckett3@woh.rr.com:1988-04-23:US:F:none:Taylor Chiles
sugiebopper95:katrina:sugarbooger95@hotmail.com:1991-06-11:US:F:none:Germaine
sugiebugie:marble16:piejennie@yahoo.com:1978-06-16:US:F:70.243.12.152:Jeanette
sugiebugie11111:swink::1992-11-08:US:F:none:sugiebugie11111
sugiebugie112:boombox::1992-08-30:US:F:none:sugiebugie112
sugiebugie73:sugar:myhorsesugar@aol.com:1987-09-09:US:F:none:Ambie..?
sugiebugs24:butter:sugiebugs@yahoo.com:1991-02-24:US:F:none:Ceara Cuthbert
sugiebugs35:NICOB::1991-07-19:US:F:none:sugiebugs35
sugiechicutie:#joannie::1993-09-05:SG:F:none:sugiechicutie
sugiecool_9:!%#$*::1993-04-03:US:F:none:sugiecool_9
sugiecrazy:tyson58:tyson.14@netzero.com:1990-06-08:US:M:none:i have no name
sugiedeee:madisson:mpg12@sbcglobal.net:1989-09-17:US:F:none:M P
sugiedoo:momma18::2006-07-11::M:76.188.23.204:NULL
sugiedumps0605:*7323:sugiedumps92@aol.com:1992-06-05:US:F:none:rachel berninger
sugiedumps92:*7323:sugiedumps92@aol.com:1992-06-05:US:F:69.141.175.163:rachel berninger
sugiejo:515253:joannacheng@live.com:1979-11-14:SG:F:175.156.132.240:ihavenoname
sugiekay:champie1:sugiekay16@wmconnect.com:1959-06-16:US:F:67.234.66.106:Kathy campbell
sugielandluver:stanna20:ssteck20@speednet.com:1988-10-01:US:F:12.158.3.254:meghan
sugielover2:angel37:sugielover@hotmail.com:1989-01-26:US:M:none:Joss Andrew
sugieman:geoman12::2001-8-22:US:M:24.3.104.206:shane bracey
sugiemonster:tigger715:leslienbohanon@sbcglobal.net:1980-07-15:US:F:76.198.250.64:Butterfly
sugienik125:abbott13::2003-01-25:US:F:65.60.169.166:NULL
sugiepie1:shadow16::2001-03-16::F:71.68.105.250:NULL
sugiepie102:pinky555:junk@thehomeschoolmom.com:1984-01-27:US:F:none:abby pain
sugiepie247:jaquelyne247::2000-09-15:US:F:76.112.12.229:jaqui
sugiepie411:sugiepie247::2000-09-15::F:174.126.77.138:NULL
sugiepluff:peaches*:cutebubbles90@hotmail.com:1989-12-14:AW:F:166.77.103.133:Awie
sugiepop:aysiaw10::1996-04-16:US:F:70.228.93.23:sugiepop
sugier:mickey54:dania.garnica@yahoo.com:1980-08-13:US:F:72.199.69.176:dania
sugiery:gameinformer12::1997-11-05:US:M:69.249.18.214:Elijah
sugiery_9:gameinformer12::1997-11-05:US:M:173.59.93.220:Elijah
sugiescalamity:august14:loofballons@aol.com:1992-08-14:GB:F:206.113.136.253:Sugie
sugieskyepie:kar1ann1:skyeflyingcamels@aol.com:1994-02-17:US:F:71.229.175.108:Skye
sugiesug:sugiesug25::2003-06-25:US:F:173.27.188.248:annalise
sugiesugaxox:1flipflop1:jasberry922@aol.com:1988-09-22:US:F:68.193.60.34:Jazmin
sugiesweet2:iloveax0x0:sugiecool@houston.rr.com:1987-01-31:AF:F:24.27.114.57:sugie
sugiesweetiepie:cogfoc12:ms.andrea-lynee_berry@hotmail.com:1990-09-30:US:F:165.155.128.132:Andrea
sugietoes:sugar:bratz98@qwest.net:1987-01-05:US:F:none:brandi cartwright
sugietoots:paige1234::2000-09-01::F:173.81.76.114:NULL
sugiez:refresh1::1993-12-29:AU:F:none:sugiez
sugie_:f507xd:ling_95q@yahoo.com.tw:1981-08-21:ID:M:61.224.207.92:sugie
sugie_2007:sugie:lilman_2010@yahoo.com:1985-01-26:US:M:Can I be your NeoFriend?:justin  brezeszack
sugie_3:foxrider3:lil_punker31179@hotmail.com:1993-05-18:US:F:none:Jamie Chandler
sugie_31605:you31605:burch44@bellsouth.com:1945-04-27:US:F:none:sugie o.
sugie_48:6760215:sugie_48@yahoo.com:1951-12-18::F:67.55.245.75:NULL
sugie_baby:duststorm1202:brittney_swaim@hotmail.com:1979-02-03:US:F:68.51.6.83:Brittney Swaim
sugie_bearie:lililollypoppy:valery_peng65@hotmail.com:1986-04-07:SG:F:none:snow
sugie_bear_28:1710850:sugiebear28@yahoo.com:1988-01-28:US:F:none:Cheryl Portorsnok
sugie_bogie:Coquil17::1999-07-01:US:F:99.144.135.200:Keeley
sugie_cookie:coco56:gingerpie100@yahoo.com:1997-11-30:US:F:67.250.7.146:NULL
sugie_cool_1999:singer09::1999-12-27:US:F:98.111.53.114:Macy
sugie_fann:92706726::1993-05-06:SG:F:none:sugie_fann
sugie_glider:carruthers1:kanucas4@aol.com:1987-10-08:US:F:none:Kiki Littlefish
sugie_is_sweet:laugh*:wowing888@yahoo.com:1982-09-13:US:F:none:Rachel Pass
sugie_ok97:19970706:sonyjwx@hotmail.com:1997-07-06:MY:F:60.53.171.243:tan jia jia
sugie_plum_muffin:sophiesroka44::2002-09-06:GB:F:82.35.124.187:NULL
sugie_rocks:sugey12@::1998-09-10:US:F:156.99.55.125:sugey
sugie_white_05:sonic:shinhwa_05@hotmail.com:1990-06-05:CA:F:Acceptance:AGGIE KIM
sugiflare:sapatilla11:eduardoyamaneko@hotmail.com:1991-01-25:PE:M:64.76.71.162:Eduardo Zuta
sugifriky:arcticmonkeys1::1994-03-17:ES:M:none:sugifriky
sugigaku:07080704:andy09271219@yam.com:1985-03-04:TW:F:none:李 惠琪
sugigato:2160809:sarita_queen_1@hotmail.com:1994-10-21:MX:F:200.66.63.50:eliezer sarahi orozco ontiveros
sugiggles:sophia97::1997-09-15:US:F:68.4.203.11:Max
Sugigi:832000::2000-02-08:CZ:F:90.183.120.1:NULL
sugigill:310982::1990-07-26:CA:M:none:none
sugigirl9:morg9::1993-08-09:US:F:70.101.85.153:sugigirl9
sugigirlx:kengwen99::1999-02-20:SG:F:218.186.9.234:Cheng
sugih:1234NMC56789:sugih@web.de:1993-12-26:DE:F:80.132.141.84:Su
Sugih7220:7220Sugih:j.e.remi.ah.w.rig.h.t23@gmail.com:1987-11-05:US:M:98.210.179.22:NULL
sugihalaba:sugihala:florasugizo@qianlong.com:1987-09-16:CN:F:Mail from theneopetsteam:sugizo sugizo
sugihara:jesusb::1983-03-29::F::Sugi Liebe
sugihara23:nashville23::1999-10-15::M:174.52.71.133:NULL
sugiharawasupaa:sugizo1:spiritual.prayer@gmail.com:1988-05-25:JP:F:none:yune sugihara
sugiharayuusyou:sasa34rp:ksugi222@yahoo.co.jp:1993-01-03:JP:F:none:ボブ ブラウン
sugihara_manami:chobits:manami__sugihara@hotmail.com:1984-02-29:JP:F:none:sugihara manami
sugiharra:jishke#:prettykittyjmr@yahoo.com:1992-04-30:US:F:none:Jessica Raven
sugiharso:Neo pets12::2000-04-12:ID:M:125.161.56.77:Sugiharso
Sugiharso000:Petpetpark00::2000-04-12::M:110.138.31.94:NULL
Sugiharso100:Facebook123::2000-04-12:ID:M:110.138.31.94:NULL
sugiharso3:Sugiharso12::2000-04-12:ID:M:120.29.152.134:Sugi
SugiharsoWijaya:Sugiharso_000::2000-09-12:US:M:125.161.65.134:NULL
SugiharsoWijaya_000:petpetpark_000::2000-04-12:US:M:125.161.65.134:NULL
sugiharso_000:Sugiharso 000::2000-04-12:ID:M:110.138.31.94:Sugiharso
sugiharso_onggo:Onggo12::2000-04-12:ID:M:125.161.64.75:Sugiharso onggo
sugiharso_wijaya:Neo pets12::2000-04-12:ID:M:125.161.56.92:sugiharso
sugiharto1:naruto:sugihartowiyono@hotmail.com:1985-01-01:US:M:none:sugiharto
sugihawk:santacla0:sugiharto_keren@yahoo.com:1988-10-10:ID:M:none:sugi harto
sugihiro:741953:su_gi_hi@hotmail.co.jp:1980-11-10:JP:M:none:スギ ヒロ
sugih_wijaya:lince120505:sugih_wijaya@hotmail.com:1984-09-29:ID:M:202.70.51.31:Sugih Wijaya
sugii:sungtahoon@:suginakata@yahoo.com:1990-04-25:US:F:none:Sugii Nakata
sugii12:pedro12345::1998-03-31:BR:M:187.23.37.129:NULL
sugiichirota:zyokou:rhymeflowboy@yahoo.co.jp:1989-08-23:JP:M:none:杉 一郎太
sugiie:suthan19:sug_05@hotmail.com:1990-11-05:AU:F:114.77.92.157:sugiie sive
sugiii:kinderzimmer34::1999-04-17:DE:F:79.205.191.42:Alina
sugiisin:samsam125:sugipuppy@yahoo.com:1991-12-03:US:F:none:Shannon Yang
sugiiya:Foolboi19!!!:Dead_In_Ditches@live.com:1992-02-10:US:M:67.173.80.176:Sugii Cakes
sugii_:deadstar13:nyxphetamine@hotmail.co.uk:1991-11-20:GB:F:82.10.88.233:Yasuhiro Sugihara
sugii_loka:joda123:agus_ks_97@hotmail.com:1991-03-31:AR:F:24.232.228.145:Agus
Sugii_PuLa:sina123::2000-02-27:DE:M:91.20.81.177:NULL
sugijiang:705515:world_in_crisis@yahoo.com:1980-07-05:ID:M:Mail from ahfong23:sugi jiang
sugik:160985:desy_soege@yahoo.com.au:1984-09-16:ID:F:none:desy sugik
sugika:sugi261:foxly37172@aol.com:1985-07-26:US:F:173.104.86.88:N3V3RMOR3
sugikalilica:180901::2001-09-18:BR:F:201.83.210.119:Gigika*
sugikalilica_1_2_3_4:180901::2001-09-18:BR:F:201.6.214.33:sugikalilica 1 2 3 4
sugika_261:chimpyjoejoe:sharilin37172@aol.com:1981-07-26:JP:F:Mail from tarantulady22:Sugika Taramiru
sugiken:88348650:76817751@qq.com:1908-06-22:JP:M:123.217.138.20:Ai-尐雨點
sugikid:dckid::1991-05-10:CA:F:none:sugikid
sugikid25:dumdum25:eksugi@yahoo.com:1993-12-27:US:F:none:dum dum
sugiko:Tempel91:T.Thurau@gmx.net:1991-09-09:DE:F:84.138.113.67:Shira
sugikougra:wh1teraeven:dsoper2000@yahoo.com:1981-10-07:US:F:none:Diana Soper
sugikungennki:sugiko:sugiko@rapid.ocn.ne.jp:1930-11-24:JP:F:none:sugiko gennki
sugikusari:ferret1:cassiewolf_60@hotmail.com:1988-05-15:US:F:none:Sugi Kusari
sugikz:sfg19:quoc.ndo@gmail.com:1980-08-11:AU:F:none:Quoc Do
sugilan03:lovebanumathi:sugilan03@yahoo.com:1989-12-09:MY:M:none:sugilan muthusamy
sugilark:fqoueh!:sugilite@gmail.com:1979-03-17:CA:F:99.225.90.92:Jacki
sugilark2:fqoueh!:jackiw7@neomail.com:1981-04-16:CA:F:99.225.90.92:Jacki Whiteley
sugilark3:fqoueh11:jackiw@gmail.com:1981-04-16:CA:F:99.225.90.92:Jacki
sugilber:papeleralokaa41:sugilber15@hotmail.com:1980-02-15:VE:F:200.8.26.16:sugilber
sugileo:sugileo98:sugileo@ibest.com.br:1996-09-08:BR:M:189.18.208.80:leco
sugiles:popcorn:sugiles@earthlink.net:1973-03-15:US:F:none:Susanna Giles
sugili:sinnosuke:smstt@tbg.t-com.ne.jp:1990-06-23:JP:M:Mail from theneopetsteam:杉山 慎之助
sugilight:karlissa1:wishfull_dreams0@yahoo.com:1984-09-05:US:F:12.29.2.172:sara simple
sugilite:united:dovevalley@xtra.co.nz:1964-10-16:NZ:F:none:Sandra Cooper
sugilite_:sapphire4:sugilite3@aol.com:1989-06-30:GB:F:none:azalea
sugilith:SchaTTen0pal:schattenopal@web.de:1989-01-25:DE:F:none:Feueropal
sugilolo:december221982::1999-05-07:US:F:216.19.58.43:Catherine
sugilove:sugi101:rucha101@hotmail.com:1995-03-19:CA:F:99.225.126.179:rucha
sugim2250:jojojojo@:shyangel0708@yahoo.com:1989-07-08:US:F:75.108.239.153:sydney evans
sugima:sports:speedybird1507@hotmail.com:1990-11-02:US:F:none:stefanie parrott
sugima1001:shishi0:tabaray@hotmail.com:1992-01-15:US:F:none:Raylene
sugimairo:sushi123:kia_bb@msn.com:1989-11-29:GB:F:none:kira chan
sugimajin:sugima1121:sugima1121@kih.biglobe.ne.jp:1964-11-21:JP:M:210.147.141.91:杉本　真人
sugiman:150496::1996-04-15:SG:M:116.197.225.245:addison pang
sugiman88:kohei:sugiman88@hotmail.com:1960-02-04:AU:M:none:Kohei Sugimoto
sugimari:729unfqz22:unaware@crapmail.com:1990-06-01:US:F:none:Hapster Sugimari
sugimarto:iam#1:jollyjunk_1234132@hotmail.com:1991-06-28:AU:M:none:joshua sugiyanto
sugimaru:earthsea10:lil_red_rider@yahoo.com:1993-08-11:US:F:69.178.54.73:Anna
sugimaru_hiroki:tombraider:sugimaru_hiroki@hotmail.com:1985-06-15:BE:M:none:Hiroki Sugimaru
sugimaster27:princess27:lysswong@yahoo.com:1991-09-27:MY:F:60.48.204.155:aly wg
sugimausi:5zBhJ3n1998:laura-chiara@hotmail.de:1970-06-06:DE:F:89.245.39.14:Laura
sugimei:A2021985:sweetiamy@hotmail.com:1985-02-02:TW:F:none:amy lai
sugimi:asoaso:fangusugimi@hotmail.co.jp:1992-05-12:JP:M:none:杉ミ ＴＨＥ！Ｘ
sugimita:sugijijo141814:susankids12@hotmail.com:1991-11-05:PE:F:201.230.194.157:susan giovanna  avila torres
sugimizuki:19920915::1992-09-15:KR:F:none:sugimizuki
sugimno:satochan33:sugimot3@msu.edu:1969-07-23:JP:F:35.11.36.232:nobuko sugimoto
sugimori:gamaliel::1988-04-14:US:M:none:Jack
Sugimori_23:23hachiko:v.niner@yahoo.com:1994-04-17:US:F:71.218.60.114:Jay
sugimori_daemun:duron:rious987@hotmail.com:1971-05-03:US:M:none:Never mind
sugimoti:katumi42:ktsugita@d1.dion.ne.jp:1954-02-22:JP:F:125.54.28.58:登美子 杉田
sugimoto:60316031:kamekame_house_0306@yahoo.co.jp:1971-07-16:JP:F:219.27.42.32:杉元 葵衣
sugimoto1:tyler11:sushi644@yahoo.com:1995-05-22:US:M:66.220.121.137:tyler
sugimoto222:sugimoto0120:littleyuuta@hotmail.com:1990-11-30:JP:M:none:杉本 佑太
sugimoto326:sugimoto0120:littleyuuta@hotmail.com:1990-11-30:JP:M:none:杉本 佑太
sugimoto4:skippy::1994-01-28:US:M:none:sugimoto4
sugimoto4u:the12kingdoms:mayya4ever@yahoo.com:1993-04-21:US:F:none:Mayya Agapova
sugimoto5402:lillian:sugimoto-5402@yahoo.com.tw:1981-03-21:US:F:140.109.48.148:lily liu
sugimoto566:wangliang:qy0054@163.com:1987-06-11:CN:M:none:亮 王
sugimotodannodoragon:aiueo::1993-03-07:JP:M:none:sugimotodannodoragon
sugimotomishima:ksenia1234:comprido@o2.pl:1990-05-19:PL:M:87.205.39.250:comprido
sugimotomoya:ishitomo::1992-05-14:JP:F:none:sugimotomoya
sugimotovera:f29752315::1998-01-21:JP:F:118.165.168.230:陳又瑄
sugimotoyukino0903:19930903::1993-09-03:JP:F:none:sugimotoyukino0903
sugimoto_:014725810::1997-09-08::F:201.74.150.2:NULL
Sugimugi:6938loka:yolanda7242@gmail.com:1991-11-25:ES:F:87.223.233.227:Yoly
sugimura06:saku123:black_fire_0@hotmail.com:1990-05-04:AR:M:none:saku cardenas
sugimurahirokikun:yukke:sugimurahiroki18@yahoo.com:1986-10-18:US:M:none:Hiroki Sugimura
sugimuras:ta3l1n:babeegurl_2008@hotmail.com:1990-04-27:US:F:72.253.81.237:wynona
sugimura_takahiko:takahiko98::1998-04-07:SG:M:220.255.0.44:NULL
sugimuri:lolitoon31:tsukamoto-san@hotmail.fr:1993-06-21:FR:F:92.134.72.31:loli
sugimy:school714::2003-02-02:US:M:98.117.20.62:NULL
sugin:sungtahoon!!:suginakata@yahoo.com:1990-09-06:US:F:none:Sugi Nakata
sugin0805:03300805:sugin0805@finesil.com.tw:1982-08-05:TW:F:none:sugin sugin
sugin13:ashli::1992-08-06:US:F:none:sugin13
sugin14:sugin14sugin:cartoonbll@yahoo.com:1991-07-19:US:M:71.226.141.202:derrick
sugin362:sigma247:s@a.ca:1990-01-03:CA:M:none:d j
sugin41:zatch14:cartoonbll@aol.com:1991-07-19:US:F:none:derrick beeson
sugin592:pandas459:a@g.ca:1992-01-02:CA:M:none:a a
sugina:asaya511::1992-05-11:JP:F:none:sugina
suginah:9125957::1991-07-17:SG:F:210.193.45.202:suginah
suginarusan:naru5224::1993-02-24:JP:F:none:suginarusan
suginashi:kolopo90:ddwegd@msn.com:1995-11-20:CR:F:190.10.5.236:sheila samuesl mckenzie
suginator:phoenix98::1998-05-04:US:F:75.109.53.220:Jessica
suginbao:ferret182:sarahalombardo@yahoo.com:1986-04-13:US:F:none:sarah lombardo
suginekk:123abcde:bruno.adt@gmail.com:1996-05-01:BR:M:189.56.165.154:Bruno
suginfire:mothers123:bebelove245us@yahoo.com:1988-01-14:US:F:none:alexandra duran
suginha:SSSUGA23::1998-10-20:PT:M:85.242.135.117:HUGO
suginho:000123::2002-06-17:BR:M:189.58.102.45:vitor
sugininn:3768215::1992-09-13:JP:F:none:sugininn
sugino:Dmytri$::1987-12-25:US:M:none:Kolton Harris
sugino12:tyouzi::1994-01-01:JP:M:Mail from theneopetsteam:sugino12
sugino123:coco12::2000-10-11:BR:M:201.94.167.125:NULL
sugino2:sugino07::2001-01-18:BR:M:189.115.187.60:NULL
sugino345:mamodo45::2001-10-26::M:66.25.152.194:NULL
sugino45:juron45:cgarvalia@yahoo.com:1994-01-04:US:M:68.159.35.123:Austin
suginoemi5:sho1301:mickey-sugino@k7.dion.ne.jp:1996-09-13:JP:F:59.143.120.80:suginoemi5
suginov:indriana:sugimut@yahoo.com.au:1979-05-14:ID:M:125.163.16.106:snsn
sugino_blue:876127:doorbellkimo@yahoo.com.tw:1986-05-06:TW:F:none:部 諏訪
sugino_haru:sugino1:sugino@msn.com:1988-05-24:US:M:none:m m
sugino_plant:030698::1998-06-03:BR:M:189.81.125.51:Edjair Aguiar Gomes Filho
suginte:280298::1998-02-27:BR:M:201.13.196.39:
suginto:pnzamientos+:kazenokizu_nanoha@hotmail.com:1993-08-20:MX:F:200.57.201.62:alcira tamayo
sugintoo:c1n4r4:sekmeths@hotmail.com:1991-01-04:KP:F:201.80.244.21:cinara
sugintou210:Rose12:xuukov9160@sbcglobal.net:1994-01-10:US:F:71.107.17.93:Mercedes
sugintou23:Nguyen22:noirneko23@yahoo.com:1995-08-08:US:F:174.26.178.103:Van
sugintou57:Nguyen22:tomoyo2626@yahoo.com:1995-08-07:US:F:68.230.3.102:Van
sugintou_hibari:sugintou135:pauloca_tenten@hotmail.com:1992-09-01:JP:F:201.215.34.81:sugintou
sugintou_maden:zeredain15:sousei_seki_chibbi@hotmail.com:1995-08-30:MX:F:201.163.205.158:hanniel hasadias gallardo islas
sugintuo:anna520:lorymimi@yahoo.com:1994-03-03:US:F:99.170.144.210:Lory
sugioka:10192001::2001-10-19::M:67.125.135.198:NULL
sugiokawaii:i hacked you:puccalove_nz@hotmail.com:1988-05-12:JP:F:Item:Ayumi Hamasaki
sugion:jose104::1999-03-14:PA:M:190.140.177.36:andi
sugione:d0dgec0::1998-03-31:US:F:71.205.38.133:donna
sugions:baseball12::1998-03-24:GB:F:90.220.252.2:emily
sugion_12:sugion12::1996-12-31:PE:M:201.230.169.159:max
sugiounfreak13:sword:anihnic@yahoo.com:1987-10-01:US:M:none:Alex Tran
sugiovanni08:chivas02:supergiovanni08@hotmail.com:1990-07-21:MX:M:201.130.247.165:supergiovanni08
sugio_chan:1whitwhit1::2000-10-29:US:F:72.24.253.104:Sugio chan
sugio_xxx:spiffy11::1997-04-22:IE:F:84.201.189.77:Sarah
sugipar2006:iloveadam14:sugipar2006@yahoo.com:1989-08-05:US:F:74.234.224.96:Sara  Teague
sugipula:astonia:dcisoldier@hotmail.com:1985-01-11:US:M:none:Austin Morgan
sugipula123:987654321:barbie_iulia7@yahoo.com:1910-05-04::M:89.123.167.43:NULL
sugira:depressedgrl666:ruronialida@aol.com:1988-06-21:US:F:none:Alexandra Tedder
sugirah:mamily*:bru_flaira2003@hotmail.com:1988-06-26:BR:F:none:bruna oliveira
sugiravin:015256:sugi_83@hotmail.com:1983-12-27:MY:F:none:Sugitha Ravindhran
sugirbabie170:angel17:sugirbabie170@netscape.com:1986-01-17:US:F:none:Bronwyn Laurence
sugirbaby:puppy12:emmilia@everythinggirls.com:1994-04-04:US:F:64.81.246.125:emily
sugired121_9_9:lovexoxo12:lovexoxo@aol.com:1988-03-26:HK:F:207.200.116.130:miami
sugired17:lovexoxo17::1997-05-28:US:F:72.132.170.36:i-no tags here-3peace
sugiri:yenny:angelinamiranda83@yahoo.com.sg:1967-02-24:BM:F:Item:yenny anastasia
sugirl:l00sehead:angel_girl_1996@hotmail.co.uk:1991-10-15:GB:F:84.66.244.164:Rachel
sugirl12396:thomas12396::1996-12-03:US:F:24.58.243.202:Christina
sugirl13776:farima1:nusaiba97@hotmail.com:1991-03-04:CA:F:none:Sumaya Nur
sugirl19:Collegegirl19:kjleamon2009@my.twcnet.edu:1991-05-15:US:F:69.246.151.156:Kimberly
sugirl1991:nusaiba:sugirl12@yahoo.ca:1991-07-09:CA:F:none:Sumaya Nur
sugirl1998:2534569:benjaminecastill@bellsouth.net:1988-12-08:US:F:65.9.81.59:yaya
sugirl1998_1:4594570::1998-01-29:HK:F:219.77.65.69:miki
sugirl54:sports54:beautifulblondie097@hotmail.com:1985-01-01:US:F:128.230.35.87:KaYlA
sugirl55:cococandy55:LTLion26@aim.com:1985-12-01:US:F:128.230.35.83:leanna
sugirlck:987654321:jingting922@hotmail.com:1985-02-01:SG:F:none:J T
sugirlie009:fecfec:kp90191@aol.com:1959-06-05:US:F:none:katie dfghksgjfhgj
sugirliesgeraldo:tasha:kp90191@aol.com:1975-09-06:US:F:none:baby spice
sugirlsugal:kittens::1993-05-05:US:F:none:sugirlsugal
sugirl_1:so real:tonerh@shaw.ca:1976-10-27:CA:M:none:ozy mayor
sugirma:zxcvbn12::1995-05-10:KM:F:200.75.64.159:susana
sugiro:sugiroa@:harrypotter@btinternet.com:1992-02-23:ES:F:none:Harry  Potter
sugiro10:bleach10::2000-01-04:BR:M:189.27.63.246:NULL
sugiro1__x_x_4_z28:gstv7411:jackline31@hotmail.com:1995-06-11:BR:M:204.245.32.85:NULL
sugiro75:0917436146:wherelovesugiro@yahoo.com.tw:1984-01-02:TW:M:none:王 信
sugirokechupe:vit947:vitorkelloggs@hotmail.com:1986-06-12:CR:M:189.83.203.73:jacinto
sugirom:jimbo@:brysonyates@yahoo.com:1992-06-16:US:F:none:baylee yates
sugirpyhunybun:emmadog124:soccerdrama013@aim.com:1992-09-14:US:F:98.194.89.235:Kate
sugirtha:response@:sally-ann@hotmail.com:1990-02-09:AU:F:none:Sally Ann
sugirtha93270:211294::1992-12-21:FR:F:none:sugirtha vicknessvaran
sugirthan:vvrrs::1989-08-21:CA:M:none:none
sugiru:kase12:nat-nat92@blueyonder.co.uk:1992-05-30:GB:F:82.45.47.200:Natalie
sugiryu:690708:zhengshan68@yahoo.com.cn:1981-02-13:CN:F:none:珊 郑
sugis17:amigass17:cindycardona03@gmail.com:1993-6-3:HN:F:200.59.28.73:cindy
Sugisaka:76.171.141.117:isisw006@yahoo.com:1996-06-03:US:F:68.109.126.224:I
sugisaki:j76m4k:jule_janine@yahoo.de:1991-11-26:DE:F:89.57.206.68:Janine Buchholz
sugisaki204:dark&&&&::1993-09-12:US:M:none:sugisaki204
sugisakichan:goland:animemyachan@gmail.com:1989-01-01:US:F:none:Sugisaki
sugisaki__39:migiwa0611:saiyuki_bus_wild@yahoo.co.jp:1994-09-28:JP:F:123.225.255.251:杉崎 隆也
sugisama:atusi@:atusi0813@hotmail.co.jp:1992-08-13:JP:M:none:篤 杉崎
sugisan1119323:robin:carakira@jcom.home.ne.jp:1990-12-07:JP:F:none:藤原 フラン
sugisan133396:17971:sugisan145@hotmail.com:1982-11-10:US:M:none:matt s.
sugiscute1221:otis (562)::1994-05-06:US:F:none:sugiscute1221
:::::::
sugisdabomb:zancudo50:gusinator5@gmail.com:1976-09-08:US:M:209.31.168.237:Sug
sugish101:27131004900785:so_maly_1@hotmail.com:1990-03-08:CA:M:192.30.202.21:sugish
sugishakya:sushakya45::2000-10-14:NZ:F:202.74.218.56:sujata
sugishakya632:lovegirlangel56::2000-10-14::F:121.98.212.7:NULL
sugishio:SANNRAIBA::1992-09-18:JP:F:none:sugishio
sugisho:sachi:ssugiyama@beckett.com:1951-08-15:US:M:none:Sugiyama Shoichi
sugish_1:ratna66:lil_gangsta_s@hotmail.com:1980-03-08:CA:M:65.95.149.104:sugish
sugish_6:01333:lil_gangsta.s@hotmail.com:1980-03-08:CA:M:192.30.202.20:sugish
sugish_8:01333:lil_gangsta.s@hotmail.com:1980-03-08:CA:M:192.30.202.20:sugish
sugish_s:27131018055246:so_maly_1@hotmail.com:1990-03-08:CA:M:192.30.202.29:Sugish
sugisitaukyou:kameyamakaoru45:kabeyaf@nifty.com:1994-07-08:JP:M:210.131.3.148:壁谷耕平
sugismimi:lilred43:chrismallard@alltel.net:1963-01-04:US:F:none:mimi porter
sugismunda:POLIANA1997gremioaht:polianafrare@hotmail.com:1997-2-2:BR:F:189.30.65.149:pooli
sugismundo:sugismundo123:gallotiano@hotmail.com:1993-06-12:BR:M:189.102.163.95:leo
sugisotou:yugimotou:snackbardad@aol.com:1991-07-06:US:F:Acceptance:Sugi Sotou
sugisou0514:kazuyaoosima:ymjr@rabbit.livedoor.com:1988-05-14:JP:F:none:junko yamamoto
sugistar:mariel10:jennakon@brandeis.edu:1988-10-07:US:F:69.114.3.149:Sugi
sugisuge_1445:password44:jasminewong99@hotmail.com:1927-12-03:FR:F:24.64.223.205:Betty Cooper
sugisugi310:kyohina:kyohina310.ryusho310@docomo.ne.jp:1971-01-22:JP:M:none:sa sugi
sugisugi777:takataka7373:sugi-sao777@nifty.com:1975-05-17:JP:M:none:taka chin
sugisugisuki:sugisugi:erina0321@msn.com:1991-03-21:JP:F:neofriend:о・∀・о ｅｒｉｎａ
sugis_cool:tiffany::1994-04-05:GB:F:none:sugis_cool
sugita:thores1225:thoressama@yahoo.com.cn:1987-12-25:CN:F:111.227.246.222:Sugita
sugita0112:0112sugita:yone@lily.freemail.ne.jp:1986-01-12:JP:F:none:杉田
sugita1016:kekela0539:813902304@qq.com:1983-4-4:CN:M:60.194.176.198:小宴
sugita7:olegario23::1996-12-12:AR:F:200.127.246.195:agus
sugitaka:sasa23::1994-01-31:JP:M:none:sugitaka
sugitaka5:5takasugi::1994-03-31:JP:M:none:sugitaka5
sugitani:sgtn1202:sugichan@ab.auone-net.jp:1994-12-02:JP:F:222.0.236.46:NULL
sugitapanic:19820914:ron24@brown.plala.or.jp:1982-09-14:JP:F:none:美雨 涼宮
sugitazero:meimeimei3:raira_mei@yahoo.co.jp:1991-03-18:JP:F:none:杉太　零
sugita_96:40017514::1996-10-22:AR:F:190.50.99.20:Agustina
sugita_ga2:genghis_khan:chikage_cd_hot@hotmail.com:1901-01-20:VI:F:none:SugitaChikage
sugita_s:96agussuga:suga_maii@hotmail.com:1994-10-22:AR:F:190.190.232.91:Agustina
sugitha98:2wert6::1998-06-04:SG:F:124.197.113.236:sugitha
sugithu:drama865:sugithu@yahoo.com:1982-11-05:US:F:none:susan githu
sugitisu:bolagol12::2000-07-01:BR:M:189.61.143.58:lucas
sugito:n9uvcluu::1993-09-13:JP:F:none:sugito
sugiton:serena95:daniloebruna@tele2.it:1995-03-07:IT:F:87.14.245.183:Serena
sugito__aa:myriamysamuel34::1996-08-16:MX:F:200.95.224.93:mimib
sugitt:sex234:huhu@h.u:1985-12-27:AR:F:75.4.196.80:huhk
SUGIT_2010:BASEBALL11::1998-08-31:US:M:174.100.114.59:NULL
sugiunthan:canada:shanmugathasan@hotmail.com:1991-05-24:CA:M:none:sugi shanmugathasan
sugiura:ajcipp:sbxam@m04.itscom.net:1988-12-23:JP:F:none:杉浦 克
sugiura2009:naomi2009::2000-09-20:BR:F:189.6.181.160:NULL
sugiuraayane:ayane:ay0904@yahoo.co.jp:1988-09-04:JP:F:none:水谷 楓
sugiuraayumu:digimon123:theballgoesbuzz@yahoo.com:1996-03-09:US:F:74.37.82.133:Grace
sugiurakouta_:9290122::1993-08-01:JP:M:60.44.241.16:kouta sugiura
sugiurakouta__:9290122:yawata27@bridge.ocn.ne.jp:1993-08-02:JP:M:none:kouta sugiura
sugiurata93:19911018333::1991-10-18:JP:M:none:sugiurata93
sugiurata93199110183:19911018333::1991-10-18:JP:M:none:sugiurata93199110183
sugiuratakumi:8yate::1991-10-18:JP:M:none:sugiuratakumi
sugiura_kei:87girennji:badteam163mina@yahoo.co.jp:1994-03-16:JP:F:58.138.54.218:杉浦　慧
sugiura_keke:yamadataro_9:conmeoduoixu@yahoo.fr:1990-11-06:VN:F:none:Vanness Wu
sugive:250694popo:tazzywazzywizwoz@hotmail.co.uk:1992-06-25:GB:M:none:Neb Draof
sugiwarier59:600777:sweetbubblez24@yahoo.com:1989-04-18:US:M:173.0.2.133:Ryan Miller
sugiwarier60:511888:sweetbubblez24@yahoo.com:1987-04-18:US:M:173.0.2.133:i dont  have one
sugix0r:trustno1:sugix0r@hotmail.com:1971-05-15::F:none:sugi x0r
sugiya:oro689dyqwa:glassjaw7@hotmail.com:1994-10-20:CA:M:207.161.44.102:Ethan
Sugiyama:noriaki12:caine@buchou.org:1976-03-09:JP:M:218.186.8.234:NULL
sugiyama1216:sugiyama:tyurii.chie21@nifty.com:1989-12-16:JP:M:neofriend:杉山 剛史
sugiyama1998:haven11::1998-10-29:US:F:98.24.128.242:haven
sugiyama3031:gonnza:yoshichika-5956@r3.dion.ne.jp:1955-03-11:JP:M:none:sugiyma tadasi
sugiyama305:Sachi::1993-05-18:US:F:none:sugiyama305
sugiyamaaika:hotamidori1104:sugiyamaaika@yahoo.co.jp:1995-11-04:JP:M:210.48.132.13:柳奄
sugiyamacute:136108:sugiyama542004@yahoo.com:1988-06-29:PH:F:124.107.71.58:mary grele senining
sugiyamajunko:zhishi93:huanying519@hotmail.com:1992-06-28:CN:F:none:润子 杉山
sugiyamakaren0824:rannma1992:poruno_lovev@yahoo.co.jp:1992-08-24:JP:F:218.179.102.113:lamune
sugiyamasan:kumasan:ssugiyama@beckett.com:1951-08-15:JP:M:none:昇一 杉山
sugiyamayurie:sakura224::1993-02-24:JP:F:Offer Made on Lot:sugiyamayurie
sugiyama_980:surfer12::2007-04-14::M:72.253.0.64:NULL
sugiyama_inari:n134993.:inari_sushi_fox@yahoo.com:1993-11-18:JP:F:76.251.148.160:Inari
sugiyama_sunset:truemind:p_rainbow_123@yahoo.co.jp:1989-07-10:JP:F:none:川越 カヲリ
sugiyama__55:keito1:sugyama.keito.3502@ezweb.ne.jp:1992-07-02:JP:M:none:カイト クララ
sugiyan:3847174:forever_shetianbeng@yahoo.com.sg:1989-10-26:SG:F:none:lee yan
sugiyang:shannon::1991-12-03:US:F:none:none
sugiyaya:russia41:eve700810@hotmail.com:1939-06-27:TW:M:218.165.37.100:艾利
sugiyin:thugst90::2000-05-08:VE:M:200.93.6.29:sugiyi
sugiyoshi:jahlove:maxsugihara@hotmail.com:1975-06-09:US:M:none:Charles Sugihara
sugiyou:sugizo:yan198518@yahoo.com.tw:1983-06-21:TW:F:Item:sugi nako
sugizaki:191930661:masai718@hotmail.com:1989-07-18:CA:M:24.87.34.36:嚣张
sugizo:megami223:roboteu@yahoo.com:1990-02-15:US:F:67.165.16.142:<b>Britt</b>
sugizo03:monalisa::1979-06-07:US:F:none:sheean yuuki
