sugrbaby106:andrew106:sugardear44@sbcglobal.net:1953-12-20:US:F:none:Ramona Turner
sugrbaby123:sugarpie::1993-06-29:US:F:none:sugrbaby123
sugrbaby612:freedom:carolc@warwick.net:1987-06-12:US:F:none:Carol C
sugrbaby76:enoetuc:ltllisaann@aol.com:1976-09-04:US:F:none:Lisa
sugrbaby789:fghjk89::2000-08-08::F:65.1.107.165:NULL
sugrbaby87:alexis::1992-12-05:GB:F:none:sugrbaby87
sugrbaby90:prance65:tazmyname13@aol.com:1990-06-11:US:F:Mail from sassydog234102:Brittany Cato
sugrbaby91:orangewonder12:smartgirl11929@yahoo.com:1992-03-12:US:F:173.71.97.97:deresha
sugrbabyluvsmusicxox:keithbrian373:sugrbabyluvsmu6xo@yahoo.com:1990-10-05:US:F:68.38.89.177:Heather
sugrbb:jelinda90:www.jili@gmail.com:1993-07-23:US:F:24.218.57.166:lili
sugrbby1:012494:sugrbby26@msn.com:1975-04-12:US:F:none:Anna Johnson
sugrbear0316:jessem:sugar_bear0316@hotmail.com:1988-07-25:US:F:none:Sidney  Kerr
sugrbear1:1kittycat2::1995-12-23:US:F:76.89.163.79:Nitie
sugrbear2:1kittycat2:nataliestanziano@yahoo.com:1994-12-23:US:F:98.112.47.2:Natalie
sugrbear223:(^^)::(^^):(^^):(^^):(^^):(^^)
^):(^^)::(^^):(^^):(^^):(^^):(^^)
:::::::
sugrbear321:fishes4u2:sugrbear321@yahoo.com:1969-03-08:US:F:166.214.205.98:cindy smith
sugrbear321369:fishes:sugrbear321@yahoo.com:1969-03-08:US:F:none:cindy carr
sugrbear3319:alimur91:sugrbear391@aol.com:1991-01-31:US:F:none:Marissa Jones
sugrbear4180:sabertan45::2002-04-18::F:173.16.24.37:NULL
sugrbear88:piglet88:bunnie_froggie679@hotmail.com:1992-07-24:CA:F:66.244.202.69:rachel harris
sugrbear92:kristyn::1992-10-07:US:F:none:sugrbear92
sugrbear98:mojoe98::1998-06-24::F:71.15.121.12:NULL
sugrber69:cocacola:sgrber69@yahoo.com:1979-12-29:US:F:none:kathryn meadow
sugrbo0gr:summer!:dumdirtieblond92@aol.com:1992-09-29:US:F:none:Taylor Aabts
sugrboogr180:bailey:alberico@adelphia.net:1990-05-20:US:M:none:Noah  Alberico
sugrbritches247:dawn61:kimbewavn@aol.com:1961-04-20:US:F:none:Kimberly Parsons
sugrbtrfly12345673:georgia:sugrbtrfly101@aim.com:1986-01-01:US:F:none:ja net
sugrbugr:poopoo::1993-10-04:US:F:none:sugrbugr
sugrbugr_8:babygirl20:ciaraconger@suddenlink.net:1993-12-17:US:F:168.216.32.82:Ciara conger
sugrbuns2:devinmaree98::1998-09-12:US:F:71.241.16.35:DEVIN
sugrbutterfly:tombrady:fieldhockeyplyr12@hotmail.com:1987-06-02:US:F:none:Amanda Passos
sugrbuz:hlk9435:hl943@hotmail.com:1993-08-20:US:F:70.20.162.48:Kelly
sugrbuz34:hlk9435::1999-08-20:US:F:151.197.92.138:Kelly
sugrbuzzzz:27184::1993-09-03:US:F:none:sugrbuzzzz
sugrbuzz_a17:yamaha67::1996-06-02:US:F:205.208.230.225:madeline meza
sugrc0atdlies:account22:sugrc0atdlies@gmail.com:1981-04-04:US:F:184.166.75.8:Adrian
sugrc0ated:2752581:babyfairy2001@hotmail.com:1978-06-12:US:F:none:Lola Steep
sugrcane:abdala19:sosweetimmelting@yahoo.com:1985-10-22:US:F:70.56.195.63:Tara
sugrcat:carmenkass::1991-04-08:EE:F:Mail from theneopetsteam:sugrcat
sugrcbe:qtptuti::1993-07-26:US:F:Battledome Challenge:sugrcbe
sugrcbe16:justin:starrie_nights@hotmail.com:1986-05-11:US:F:Trade Closed:Kris s
sugrcbeluv:bballbabe:ksbballbabe@hotmail.com:1985-10-10:US:F:none:Kara Stefani
sugrchik:gct@246:chaoticsugarchik@yahoo.com:1992-02-21:US:F:none:Lisa Le
sugrcloudluv:freedom:carolc@warwick.net:1987-06-12:US:F:none:Carol Crespo
sugrcoatdclvers:mbg123:kiwi_sweet_cheeks@yahoo.com:1988-03-17:US:F:none:Marie Gaura
sugrcoatdsweeti:2smellygoat:sugrcoatdsweeti@yahoo.com:1991-04-27:US:F:none:samantha osbiure
sugrcoatdsweeti44187:ahoy78:sugrcoatdsweeti@yahoo.com:1991-07-23:US:F:none:samantha osborne
sugrcoated:olivia94:mabelbabe94@aol.com:1994-04-10:US:F:68.32.19.214:Olivia
sugrcoated9:olivia94:sugrcoated9@aol.com:1992-04-10:US:F:71.225.74.6:Olivia
sugrcoated94:angel94:sugrcoated9@aol.com:1989-04-10:US:F:68.83.143.201:Livi
sugrcookie:telefono56:ninadominicana58@aim.com:1990-12-06:US:F:24.45.43.103:karla
sugrcookie2289:pennydog:sugrcookie22@aol.com:1989-10-15:US:F:none:Jessica Plunkett
sugrcookie8:wishes2:gotcookiez04@aol.com:1990-10-13:US:F:none:vanessa fando
sugrcookie_6:sugrcookie26::2000-04-27:US:F:72.174.213.21:blake
sugrcrazy772:gregory:nina.greg@comcast.net:1979-09-16:AQ:F:none:Hanna Andersen
sugrcub12345:cheer101::1993-09-03:US:F:none:sugrcub12345
sugrcub3:111189:luckydumpling@sbcglobal.net:1989-11-11:US:F:70.165.40.174:christine
sugrcube:kp4784::1994-03-04:US:F:none:none
sugrcube100699:hollywood100699::1999-10-06::F:72.49.157.106:NULL
sugrcube90:starwars:jellybelley1990@yahoo.com:1990-10-10:US:F:none:aj c
sugrcubelover:barbiedoll101:malllover1067@aol.com:1992-06-14:US:F:none:Sarah Gilford
sugrcult_luvr:1q2w3e4r5t:sk8er_chik123456@hotmail.com:1987-04-04:US:F:none:Jasmine Porter
sugrcup123457810:trinity1234510::2002-09-26::F:76.114.9.234:NULL
sugrcute:2cute:laraperinet@comcast.net:1987-05-27:US:F:none:Chloe Been
sugrdaddey81594:kakamanaka:sugrdaddey@aol.com:1982-08-29:US:M:none:BubckaPenius
sugrdadysrck:sergeant7:grmnshprd7@yahoo.com:1992-06-16:US:F:none:rachael desousa
sugrdancer:armor41:s_gonzalez227@yahoo.com:1986-02-27:US:F:68.122.48.107:Anya
sugrdashes2ashes:*sugar:ashesdecoy@hotmail.com:1987-04-07:US:F:68.0.224.32:Rachel snider
sugrdawlxox:spiderman:kelz106@att.net:1986-08-28:US:F:Mail from crisdawn:Kellie Cusick
sugrdevil31:anteater31:teradamayumi@hotmail.com:1987-03-01:US:F:99.191.38.54:mayumi terada
sugrdoll:butterfly92:cornishdolphin@hotmail.co.uk:1992-11-25:GB:F:92.17.247.255:Gemma
Sugrdrp:KLWchjmp89::1999-4-14:US:F:209.234.252.38:Emmy
sugrdude:midnight12:patricia_musgrove@yahoo.com:1990-01-24:US:F:70.58.135.225:patricia
sugrdumpln9:kasey:bigflirt9@earthlink.net:1989-04-16:US:F:none:Kristin Schroyer
sugre21:biteme:skatepark6@aol.com:1991-06-15:US:F:none:Leanna Robe
sugreangel_66779:sugreangel:sugrechik_6@hotmail.com:1989-09-24:CA:F:none:Britt-b kokpl
sugrebabe2000:sugerbabe2000::1992-04-29:ER:F:none:sugrebabe2000
sugrechik66:sugrechik::1993-09-20:CA:F:Mail from contest_judge:sugrechik66
sugredkorn:dalegrib76:nancygrib@gmail.com:1982-03-26:US:F:205.197.202.246:Nancy
sugreen:81522:su.green@msa.hinet.net:1980-08-01:TW:F:none:倩誼 蘇
sugreet01:sugreet@:sunshine@email.wsps.tyc.edu.tw:1968-06-13:TW:M:219.85.251.201:su
sugref:fer1998::1998-07-22:GB:M:82.31.52.30:poo
sugref1sugref1:skatefreak12:Fergus@meridencot.freeserve.co.uk:1992-10-16:GB:M:81.79.245.196:Fergus
sugref2:fer1998::1997-01-03:GB:M:82.4.85.204:sug
sugref360:ski4life::1994-04-27:CA:M:none:sugref360
sugref72:matrix10::1994-03-14:AU:M:none:sugref72
sugref72yahoo:matrix10::1994-03-14:AU:M:58.106.39.69:sugref72yahoo
sugrel8nut:peanut:b.gulmon@att.net:1987-09-15:US:M:none:matthew Dude
sugremista:diegorc1:suelenmramos@hotmail.com:1989-03-29:BR:F:none:Suelen Moraes Ramos
sugreplum:mari2000:colourgal2002@aol.com:1984-12-10:GB:F:none:jenny stokes
sugreplumfairy12006:sug92f:raindroppriness@hotmail.com:1993-08-15:CA:F:205.200.32.162:chantel
sugrer78:presleyt95::1999-11-18:US:F:66.76.143.169:Presley Gregg
sugreray:rayray98::2002-08-02:US:F:108.75.130.68:NULL
sugrer_plum_23:starla12::2000-02-13:US:F:72.204.113.124:emma
sugret::::::67.61.104.101:NULL
sugrey:buddy123::2002-01-09:HK:M:119.237.140.21:Tom
sugrforever1238:sallyann:danirules74@hotmail.com:1988-08-14:US:F:none:Danielle N.
sugrfreak920:sheba123:sugrfreak950@yahoo.com:1987-02-27:US:F:75.100.109.42:Laurama
sugrfreek:hyper::1993-07-14:US:M:none:sugrfreek
sugrfrk:anime7::1991-09-02:US:F:none:sugrfrk
sugrfrk13:chocolate:cheerios52111@aol.com:1986-04-01:AL:F:none:A B
sugrgal100:suger::1990-11-20:US:F:none:sugrgal100
sugrgal26:yellpink:stacyrox@hotmail.com:1985-04-24:US:F:none:Stacey Clemant
sugrgal92:cassie::1992-08-08:US:F:none:katelyn berkner
sugrgeisha:907470:sugrgeisha@hotmail.com:1983-01-16:US:F:24.253.129.129:Sato Itazura
sugrgl:450990:kimberly_2193@hotmail.com:1987-11-21:MY:F:none:kim soo
sugrgrl:SHIRANBAR6:shiranbar6@walla.co.il:1991-08-29:IL:F:none:SHIRAN BAR
sugrgrl330:jadelyz:guppiee@aol.com:1989-04-11:US:F:none:Christal Carpenick
sugrgrl331:kman575:sugrgrl33@aol.com:1989-04-11:US:F:none:christal carpenick
sugrgrl893:kittens:w.searle@comcast.net:1992-05-28:US:F:none:Daveny Searleman
sugrgurl87:snowma:sugrgurl87@yahoo.com:1987-02-08:US:F:none:clare smith
sugrgurlie:5294daisuKI:sugrgurlie@yahoo.com:1986-01-01:US:F:none:apple jax
sugrgurly:potter00:yadybug1@aol.com:1995-06-23:AU:F:71.221.98.9:Sandra
sugrguy10:poptarts1:dreyyoungerbutter@yahoo.com:1992-10-23:US:M:none:Drey Drey
sugrhellokittypup:849402:neopetfreakyleaky@icamail.com:1996-05-28:US:F:none:sugrhellokittypup
sugrhi22:universal:sugrhi22@netscape.net:1983-08-25:US:F:none:larisa lakhman
sugrhiblond:iloveducky:sugarhiblond@yahoo.com:1990-08-07:US:F:none:joelene foley
sugrhigh20723:mymelody:original_gator@hotmail.com:1988-11-11:US:F:69.140.143.22:Jessica Raymond
sugrhighbaby:charlie123:iliveevil@yahoo.com:1994-05-02:US:F:75.84.34.184:Missy
sugrhighsquirrel:ew2007:sugrhighsquirrel@aol.com:1989-08-30:US:F:Item:Hana Carey
sugrhnyicdtea:baby3694:the-rose-among-the-weeds@hotmail.com:1994-06-03:MY:F:121.120.197.210:Alexis
sugrholik_rocker:marie:cassiem1992@yahoo.com:1992-05-22:US:F:none:sugrholik_rocker blahblahblah
sugrhoneygurl:bibiana123:sugrhoneygurl@yahoo.com:1992-10-05:US:F:none:Azaria  Gresham-Tognetti
sugrhuny12:lemonade12:lizziek@rochester.rr.com:1987-02-14:US:F:none:Roxy Carson
sugrhunybear:mischief:vanessaburke1991@hotmail.com:1991-10-26:AU:F:none:Vanessa Burke
sugriesweet16:521c#457:sugriesweet2006@yahoo.com:1988-09-17:US:F:67.149.145.200:Sugrie
sugrilos:210397:lucasfreitas36@hotmail.com:1997-3-21:BR:F:189.29.220.50:Beatriz Bezerra 
sugrim11:cube1:stephan_ic3@hotmail.com:1990-01-31:CA:F:none:stephan sugrim
sugrimkumarram:soviram1:skr2508@yahoo.co.in:1984-06-01:IN:M:none:sugrim ram
sugrimlove:october16:gtownfox@hotmail.com:1980-10-16:CA:F:none:Christina Sugrim
sugrindcre13169:grindin:lollipop5303@aol.com:1989-06-16:US:F:none:cristina zimmerhanzel
sugrint:lulhier14:menin_grace@hotmail.com:1996-02-05:BR:F:200.203.59.23:Suélen
Sugrio:nikki11:Maxwellwise@hotmail.com:1996-08-11:US:M:72.91.172.54:Maxwell
sugriumi:oceangirl:pichachokml@aol.com:1987-09-24:US:F:none:Elizabeth  Parker
sugrjunke7:z3r00n3:sugrjunke7@aol.com:1985-01-30:US:M:12.48.220.130:JonMorin
sugrjunke72:369852:mastercalculater@aol.com:1975-01-30:US:M:none:Jon Morin
sugrkake:peeches::1993-03-28:US:F:none:sugrkake
sugrkandy18:estatic:sugrnspice18@comcast.net:1991-08-17:US:F:none:kayla gonzalez
sugrkane32:1071296::1991-09-17:US:M:none:sugrkane32
sugrkis4u:sh77707:kissesfromsammy@aol.com:1993-06-30:US:F:216.63.107.23:Samantha Hawkins
sugrkiss:royce:wolfgarraness@hotmail.com:1988-03-03:CA:F:none:Mia Stella
sugrkiss12130:bmgcd12:shadow76432@aol.com:1989-08-06:US:F:none:Angela Porter
sugrkisses_foru:hello95:rent_luvur2006@hotmail.com:1988-03-06:US:F:none:ASHLEY
sugrkittyn99:meow99:sugrkittyn99@aol.com:1978-12-14:US:F:none:Nichole Farmer
sugrkooki4eva21:30784:sugrkooki4eva21@yahoo.com:1992-02-13:US:F:none:Brittni Holland
sugrkool:tubby:crazykoala93@aol.com:1987-01-26:US:F:none:madeleine zatkoff
sugrlicious:valeria!::1993-10-20:US:F:68.249.184.172:valerie h
sugrlicious7:sweet:tryrobin@hotmail.com:1984-01-01:US:F:Item:susie short
sugrlimeangel4:mom09:pretygrl017@aol.com:1990-12-22:US:F:none:jane port
sugrlips:carmel200::1993-05-11:US:F:none:sugrlips
sugrlips_96:dana10::1993-09-09:CA:F:none:sugrlips_96
sugrlipz:mini12:montsepadilla@msn.com:1990-10-11:US:F:71.35.16.159:montserrat
sugrlove1411:141111:mamapit316@yahoo.com:1989-12-31:US:F:68.103.142.252:NULL
sugrlover:disco_luv::1993-02-07:NZ:F:none:sugrlover
sugrlover546:yoyogrr:mctutt@bellsouth.net:1989-11-12:US:F:none:Mary tutt
sugrloverchica:mct321:chica_11_12@yahoo.com:1992-11-12:US:F:none:Mary  Tutt
sugrloves:chiodo89:amfst20@mail.rmu.edu:1987-06-29:US:F:205.146.53.16:Anna
sugrlugzzz:family08:krystleshannon@hotmail.com:1982-12-08:US:F:none:krystle shannon
sugrluv22:abram22:sugrluv@Hotmail.com:1984-05-22:US:F:76.113.47.251:Monica
sugrluver220:sheba123:hyprchic27@aol.com:1987-07-06:US:F:96.60.180.12:sugr luver
sugrluvr_01:SA BUGY77:sugarluvr@hotmail.com:1993-03-21:US:F:76.232.104.117:Kyz Heehee
sugrmags:password:californiasundeck@rogers.com:1970-08-02:CA:F:74.104.190.123:nancy gearey
sugrmakzmegocraz:funny::1992-10-01:US:F:none:Amanda Azula
sugrmama:abby12::2001-01-05:US:F:66.188.250.104:kayla
sugrmama858:christian:pbrantley@tampabay.rr.com:1943-01-19:US:F:none:Patricia Brantley
sugrmartini:armor41:stacie_gonzalez@csumb.edu:1986-02-27:US:F:207.62.137.31:Anya
sugrmgnlia:imagine08:lanie008@hotmail.com:1974-06-08:US:F:216.235.145.98:Lanie
sugrmoma:breezy:sugrmaria@aol.com:1968-06-25:US:F:none:maria richards
sugrmunky:candyman:sugarmonkey92@prodigy.net:1987-07-19:US:0:Warning from The Neopets Team:Levi Ford
sugrncrack129:capdance:tigress80129@excite.com:1988-12-09:US:F:none:Emily Salkind
sugrnhunny30:190569gh:sugrnhunny@aol.com:1986-12-23:US:F:none:Melissa Wegel
sugrnspc1:stef222::1992-02-22:US:F:none:sugrnspc1
sugrnspc311:ktycat:sugrnspc311@aol.com:1963-04-11:US:F:none:WHY SHOULD I  TELL YOU?
sugrnspce07:hotchick:daisygurl943@yahoo.com:1987-05-05:US:F:none:Anna Ehgrinsberger
sugrnspic77:spice:kimberlybailey24@hotmail.com:1988-07-14:US:F:none:Jordin Higgs
sugrnspice:pepper:dizzledots@yahoo.com:1990-08-12:US:F:none:Amanda Hohbach
sugrnspice000003:juliam::1993-03-23:US:F:none:sugrnspice000003
sugrnspice00439:cheeseit55:sugrnspice439@netscape.net:1989-02-13:US:F:none:Mia  Anderson
sugrnspice007:spicy::1991-03-28:US:F:none:sugrnspice007
sugrnspice014:massage:sugrnspice014@bellsouth.net:1986-07-26:US:F:none:blaire walker
sugrnspice016:11massage:sugrnspice014@yahoo.com:1986-07-26:US:F:none:carmen walker
sugrnspice022:bubbles::1994-03-22:US:F:none:sugrnspice022
sugrnspice0591:hearts1:turtleluvr100@yahoo.com:1985-10-16:US:F:none:Kelly Balough
sugrnspice1116:lrkapk:cheernchant17@aol.com:1989-11-16:US:F:none:Lauren Klahold
sugrnspice13:sexypoe:dumbbrunette58ss@aol.com:1991-11-12:US:F:none:stephanie ?
sugrnspice15x3:sexybrie44:frontier1023@aim.com:1994-03-24:US:F:72.75.227.239:brieann
sugrnspice2008:jesus7:blondqt4christ@hotmail.com:1990-03-25:US:F:none:Laura Egstad
sugrnspice2088:joycec2088:samhoudek@ccu.edu:1988-08-20:US:F:none:Sam Houdek
sugrnspice222:Mernic22:3200smith@sbcglobal.net:1994-08-17:US:F:70.233.129.198:Alecia
sugrnspice2261:garrett:sugrnspice22691@aol.com:1983-09-25:US:F:none:christy bergemann
sugrnspice273:chiachild::1992-12-18:US:F:none:sugrnspice273
sugrnspice737:angel246:sugrnspice737@aol.com:1987-05-25:US:F:none:jackie mountel
sugrnspice786:misty3:sunshinebabie288@aol.com:1990-07-03:US:F:none:Katie Rosendahl
sugrnspice82254:jackson:dramamama1990@yahoo.com:1990-05-04:US:F:none:Stephanie kaps
sugrnspice84:poopie::1993-01-07:US:F:none:sugrnspice84
sugrnspice987:8thgrade8:mvlafreedom2@yahoo.com:1985-10-12:EC:F:190.10.185.130:Torie
sugrnspicebear69:milk4u:sugrnspicebear69@aol.com:1986-08-27:US:F:75.164.233.252:Sabrina Cundiff
sugrnspicechiki:brianna00:dancingstarrz@yahoo.com:1991-03-18:US:F:76.169.220.185:Brie
sugrnspicegrl:dolphin:megan5213@aol.com:1992-02-29:US:F:none:MeganChrismer
sugrnspiceoflife1:joeandy1:sugrnspiceoflife@yahoo.com:1987-11-08:US:F:none:Jenn Meyer
sugrnspicesgirl91:6689057:soccerfan8778@aim.com:1991-12-24:US:F:24.14.99.182:Ray
sugrnspice__94:rosi1005::1995-10-05:US:F:72.220.75.230:rosa
sugrnspiicex0:orlando13:orlandoluvr4ever13@yahoo.com:1990-10-05:US:F:67.175.62.196:lauren
sugrnspis118:ranch:tennischic40l@hotmail.com:1981-01-18:US:F:none:Sarah HMMM
sugrnsps346:42332372:earthangel02468@yahoo.com:1989-02-11:US:F:none:Kelly Mosley
sugrnsteph77:catwalk11:stephanie.greenwood@asu.edu:1988-08-19:US:F:68.98.41.213:Stephanie Paige
sugrobabe321:ashorina123:ashorhanna@hotmail.com:1964-07-24:NL:F:none:ashorina hanna
sugroch:ehs144:rochelleprescott@tesco.com:1988-03-30:GB2:F:neofriend:Rochelle Prescott
sugroosugrboo:pennyp:sweetemz813@aol.com:1990-05-29:US:F:none:Emily Askew
sugroosugroo:pennyp:sweetemz813@aol.com:1990-05-29:US:F:none:Emily Askew
sugror:droppen12:sandra_girl_me@hotmail.com:1993-10-09:SE:F:90.227.20.117:sandra
sugrpie:celia::1993-01-20:US:F:none:sugrpie
sugrpie11:jesus11:sugrpie4u11@aim.com:1991-01-06:US:F:none:Misty Rogers
sugrpie278:246798:sugrpie278@aim.com:1995-01-04:US:F:72.88.127.229:brittany
sugrpie4768:christy12::1998-06-02:US:F:64.92.14.136:katie
sugrpie6:pride::1993-05-07:US:F:none:sugrpie6
sugrpie911:colleen:sugrpie911@aol.com:1985-11-15:US:F:none:Kelsey  Nichols
sugrpie987:alyssa::1988-05-30:US:F:none:none
sugrpiehnybnch86:paperclip:cocopuff086@aol.com:1986-08-17:US:F:68.196.112.2:kristin d
sugrpiehunibabe:o50791:longhornladi3@sbcglobal.net:1988-02-16:US:F:none:kristen culver
sugrpie_hunnybnch:purplepanda63:thekaratehottie@gmail.com:1992-11-14:US:F:71.163.23.71:Amanda
sugrpihnybnch3:softball:lilbyrne3@yahoo.com:1991-09-27:US:F:none:Caitlin  Burne
sugrpihunnybnch:twinkles12:llamalove123@gmail.com:1994-05-12:FR:F:71.204.175.77:Suzie Q.
sugrpine21:banana21::1999-11-30:US:F:74.206.24.88:amanda
sugrplm:Plummy:sugrplm@u.washington.edu:1975-11-10:US:F:none:jessica Connerton
sugrplm0026:milesj:greetings@aol.com:1975-12-19:AU:F:none:blah gfhggh
sugrplmfaery:taylor1690:jthemail@cox.net:1990-05-16:US:F:70.190.24.61:sweetie S
sugrplmfairry:grady246:laffytaffee@aol.com:1986-04-05:US:F:none:daliah omalley
sugrplmfairy:boxandirby13:gnzwck1@gmail.com:1991-09-11:US:F:69.141.126.159:Francis
sugrplmfairy05:Icequeen2927:sugrplmfairy05@yahoo.com:1987-05-08:US:F:none:Lynoor Roberts
sugrplmfairy1:82267:truthslie@optonline.net:1988-02-03:US:F:69.122.158.242:Layne Staley
sugrplmprnces4:november24:urhighness66@netscape.net:1988-11-24:US:F:71.108.104.170:Katinka Smith
sugrplum01:icyflame07:kaitlinholt2001@gmail.com:1991-11-05:US:F:74.171.210.228:Kaitlin
sugrplum178:swim4evr:sugrplum1788@comcast.net:1990-06-17:US:F:none:Gertrude Hoss
sugrplum2005:102685:ceh2003@aol.com:1985-10-26:US:F:none:cheri hampton
sugrplum25:Gizm0:xenhalo@yahoo.com:1981-08-13:US:F:none:cammy b
sugrplum3:12384:swtrthnsugr23@earthlink.net:1984-01-23:US:F:Mail from sugrplum3:Stefanie Markley
sugrplum31:77916::1991-07-07:US:F:none:sugrplum31
sugrplum321:i hate you:sprungalung_26@hotmail.com:1980-04-16:CA:F:none:sara apperley
sugrplum41:77916:wilaminawiner@aol.com:1990-07-07:US:F:none:cortney jackson
sugrplum499:499brianne:sugrplum499@yahoo.com:1979-03-23:US:F:Acceptance:H P
sugrplum514:nothin:sprungalung_26@hotmail.com:1980-04-16:CA:F:none:sara apperley
sugrplum72:012579:sugrplum72@aol.com:1986-10-01:US:F:none:Nicole Caceres
sugrplum90:bwff1:sophw90@hotmail.co.uk:1990-03-03:GB:F:86.0.91.61:Sophie
sugrplumbfarii04:jackpot:swiminater04@yahoo.com:1990-02-04:US:F:none:Olivia Rodriguez
sugrplumfaerie04:studly:swiminater04@yahoo.com:1985-02-04:US:F:none:Heidi  Lefaunte
sugrplumfairy099:dance:brbgirl102@aol.com:1990-01-27:US:F:none:Trixie Stery
sugrplumfairy984:alyssa:eavpusa@hotmail.com:1989-02-14:US:F:none:Beth Penney
sugrplumfairyj3:passion:sugrplumfairyj3@aol.com:1990-12-22:US:F:none:jackie igbokwe
sugrplumfiry:summer@11:dancing.diva-1994@hotmail.com:1993-04-13:GB:F:none:linzi dunham
sugrplummm:lovemonsterhigh11::2002-01-27:GB:F:81.153.121.131:NULL
sugrplum_princess7:lionking::2005-01-01:AU:F:none:Cadence Daniels
sugrpossible_90:Sierra_40:Hubschf@aol.com:1988-03-05:US:F:64.12.116.13:Sierra
sugrprincese:hannah11::1995-11-11:CA:F:142.161.162.13:Hannah
sugrprincess94:ymca24::1999-08-28:US:F:69.108.118.132:fallon
sugrpuff1994:@769999:emmajayne10@hotmail.co.uk:1990-10-27:GB:F:none:EMMA SMITH
sugrpuff88:635035:fluffernuget@hotmail.com:1988-07-06:US:F:none:tiffany white
sugrpup:pink123::2001-01-24::F:99.25.51.48:NULL
sugrqueen1994:baking_:sugrqueen1994@aim.com:1992-10-19:US:F:69.231.163.78:Christina Lugo
sugrqueen444:libby!:magpieministries@aol.com:1979-02-20:US:F:205.188.116.198:sally waliton
sugrr:1t5d4r3:sugrrgrl@hotmail.com:1980-02-12:CA:F:72.39.48.158:khriss
sugrrbaby1:050996:sugrrfairy9@aol.com:1994-05-09:US:F:71.101.84.115:Celine
sugrrfreek:drool2me:sugrrfreek@hotmail.com:1983-08-10:CA:F:none:Cheyanne Desnomie
sugrrfrriek:143501444637:sugarfreakdumdum@yahoo.com:1987-12-04:US:F:none:sugrr  frriek
sugrrnnnspiice:14maine:sugrrnspiice@att.net:1988-04-15:US:F:none:Marielle kopasz
sugrrnspice1989_2004:becca:bboo1102@aol.com:1989-02-24:US:F:Mail from theneopetsteam:Laquisha Natata
sugrrnspiice:luvender22:SwtSensuality@aol.com:1976-09-08:US:F:71.156.38.6:Christine
sugrrplmfaerie:mikenike::1988-05-28:US:F:none:Margaret Wei
sugrrr411:buddycat1::1993-06-12:US:F:63.192.124.227:sugrrr411
sugrrrharrrt:20621055:sparkey2z@msn.com:1987-12-22:US:F:none:Tianna j
sugrrrush216:lulu216:magpieministries@aol.com:1989-02-05:GB1:F:75.55.223.80:haley
sugrrush1:cavie:sugrrush1@aol.com:1981-06-05:US:F:207.225.79.170:Erica Edwards
sugrrush1121:brittany!:got2dance1121@netscape.net:1989-12-18:US:F:none:*Britt*
sugrrush510:murphy1:sjtarnoff@comcast.net:1992-05-12:US:F:none:j tarnoff
sugrrxsweatt:32145:xobubblegumm@aim.com:1983-10-27:US:F:none:Kirsti Byer
sugrr_high:cryslee:xx0sugrnspice0xx@aol.com:1985-12-08:US:F:none:Crystal
sugrr_huggsz_09:logan:dfxduckie22@aol.com:1991-07-15:US:F:none:Ally Snyder
sugrr_pii4evr:hellokitty:x_missing_piece_x@yahoo.ca:1990-04-12:CA:F:none:MandiiSolvero
sugrr_plum_princess:stickychook:sugrr_plum_princess@hotmail.com:1989-04-04:AU:F:none:sum  girl
sugrr_were_goin_down:falloutboy5:pearlearring78@direcway.com:1992-01-08:US:F:none:lacey whitmore
sugrsistr128:charlie:sugrsistr128@comcast.net:1990-12-08:US:F:none:Dottie Smith
sugrskier420:beebranch15::1993-04-20:US:F:none:sugrskier420
sugrspicbtnt2nic:dance:emangel7544@hotmail.com:1990-10-09:US:F:none:Alexis Beck
sugrspicenalldatznyc:moppet2:anglofalenstrz@hotmail.com:1989-01-27:US:F:none:Danielle mca
sugrspicevrythngnice:powerpuff:ilurveneopets@yahoo.com:1978-12-29:US:F:none:powerpuff gurls
sugrspicnevrythinic:connor::1991-12-20:US:F:none:lori seidler
sugrspicnnothinnice:candy22:Whitekitten96@aol.com:1993-03-22:US:F:71.106.183.229:Phoebe
sugrstix:babyhayes516:sugrstix@aim.com:1978-10-19:US:F:24.123.215.71:Lola
sugrstix1207:boylover:rdbgoofy5@msn.com:1985-04-10:US:F:none:kathrin bueche
sugrstrawbs:codelyoko88:hkppg888@optonline.net:1994-02-25::F:67.84.10.169:NULL
sugrsweet:rose14::1985-11-11:US:F:96.35.232.111:Kelli Greene
sugrsweet16:maxregan::1992-05-15:US:F:none:sugrsweet16
sugrsweet19:maxregan::1992-05-15:US:F:none:sugrsweet19
sugrsweet23468:sweet::1994-02-11:IN:F:none:sugrsweet23468
sugrsweet30:ang09angela::1991-07-30:US:F:none:sugrsweet30
sugrsweet65:aerdna09:sugrsweet65@aol.com:1987-06-04:US:F:none:Ilana Irace
sugrsweet88:ducky2:misspiggy47256@aol.com:1975-01-11:US:F:none:emily schneider
sugrsweetangel92:asdfjkl23:i_am_the_car_dealer@yahoo.com:1990-04-28:US:F:none:kaka ulikata
sugrsweetbabi:playful17:sugrsweetbabi@hotmail.com:1990-04-17:US:F:71.61.211.207:shara kenny
sugrsweetbaybee:polomm::1992-10-09:US:F:none:sugrsweetbaybee
sugrsweetchic:alyson::1993-03-27:US:F:none:sugrsweetchic
sugrsweetcutie123:number2:sidruns@aol.com:1990-03-22:US:F:none:Ashley McMahon
sugrsweetie:volleyball:sugrsweetie221@hotmail.com:1989-10-30:US:F:none:Mallory Woods
sugrsweetz88:angelcat:angelcat92@hotmail.com:1988-03-28:US:F:none:Stephanie Gomez
sugrt:they024core322:sdfsfd@hotmail.com:1989-01-01:VI:F:none:r g
sugrtangerine:mjandjj7:frankiepntbttr91@aol.com:1991-10-28:US:F:none:Francine Straubell
sugru15267:165789:admarill103@sbcglobal.net:1984-01-01:US:M:none:Jason Allstot
sugrue425:howdy4:tiggerlover96@hotmail.com:1905-06-30:CA:F:none:casey sugrue
sugrue425409:skidder1:tiggerlover96@hotmail.com:1988-06-30:CA:F:none:casey sugrue
sugrueman:rie11931::1997-02-22:US:M:24.186.213.193:luke
sugruerules:Merlin101::1999-11-23:US:M:72.74.212.231:Sean
sugruewalrath:13tillyforever:ivysugruewalrath@yahoo.com:1996-05-23:US:F:74.79.45.123:Ivy
sugruls99:sugaroxmysox:sarahponypal@aol.com:1990-06-24:US:F:none:Brooke Luis
sugrups02:hannah202::2002-08-22:US:F:99.174.169.7:NULL
sugrush014:crappy:hotjerzeygrl@aol.com:1991-10-14:US:F:none:Britt contrera
sugrushh:noperz:sallygilbane@yahoo.com:1983-06-07:US:F:none:Uhmm... Yeah..
sugrweregoindown:!!seagull:chocolatepolkadot@hotmail.com:1987-05-20:US:F:none:Helen Potter
sugrwergoindown:alisa13:littlkittl@aol.com:1991-04-12:US:F:none:sugar down
sugrwergoindwn321:parishilton2:alexcassell321@yahoo.com:1992-07-13:US:F:none:Alex Cassell
sugrwitstrawbriz:candy7:blondbrrunette@hotmail.com:1955-05-07:US:F:none:mOrGaN MaGnEt
sugrx04:victoria::1994-02-01:US:F:none:sugrx04
sugrx05:victoria::1994-02-01:US:F:Mail from sugrx05:none
sugrx06:sausages:rachers_16@yahoo.com:1986-06-01:US:F:none:Rachel High
sugrxangl:pickles6842:swtdreamz21@hotmail.com:1980-01-30:US:F:none:aileen kao
sugrxsweetie221:sugar:sugrsweetie221@hotmail.com:1989-10-30:US:F:none:Mallory Woods
sugrymnky74:11kjt17:sugrymnky74@yahoo.com:1988-11-11:US:F:none:Katie T
sugrypiegirly:849402::2001-08-04:US:F:none:sugrypiegirly
sugrypuff:sasha123::2000-12-15:AU:F:114.76.178.234:NULL
sugrysweet910310:AKRISTY2::1992-05-04:US:F:none:sugrysweet910310
sugry_plum:wonkey9:silvery_mist@hotmail.com:1988-02-04:AU:F:60.225.154.245:Melody
sugry_zahra:hajrah:zahrarahman7@hotmail.co.uk:1991-11-09:GB:F:none:zahra rahman
sugr_babey059:giovanna:sugr_babey059@hotmail.com:1983-09-05:US:F:none:hi hi
sugr_baby99:minae99::1996-02-14:US:F:24.175.109.155:Elizabeth
sugr_baby_15:christine12128931839:sparklequeen98@hotmail.com:1988-05-31:CA:F:216.197.175.196:y should i tell u ???!?!??!?!
sugr_bb:girly::1992-08-12:US:F:none:sugr_bb
sugr_bb216:angl44:glasskt@hotmail.com:1990-08-12:US:F:none:BUB
sugr_bby:puppies11:truman101696@aim.com:1991-01-01:US:F:75.45.75.238:Sugr
sugr_bunni:sugar:hilarious_vonni@hotmail.com:1988-07-17:AU:F:none:Debbie Clem
sugr_cooki:sammydoodles:sbear4325@aol.com:1989-06-10:US:F:none:Emily Johnson
sugr_cookie222:yummy::1994-03-22:US:F:none:sugr_cookie222
sugr_cookys_4me:sweetie@:shakagrl93@aol.com:1992-03-13:US:F:none:har m
sugr_freak:marylew01:iheartpenguins2008@yahoo.com:1993-07-08:US:F:96.18.173.195:mary
sugr_freak_yo:marylew01:iheartpenguins2008@yahoo.com:1994-05-09:US:F:96.18.173.195:mary
sugr_glidr_luvr2012:foods::1992-07-28:US:M:none:Josiah  Taylor
sugr_hi:elmonster315:katobsessed@netscape.net:1989-03-15:US:F:130.245.195.194:elmo
sugr_kane69:kirsten69:missmurder.69@sbcglobal.net:1969-03-30:US:F:75.42.151.89:Kirsten
sugr_kooki13:meghan13:sunset.ah@knology.net:1992-01-30:US:F:none:Meghan Conrad
sugr_kookyxp:jamba:lilsugrswti22@yahoo.com:1984-04-19:US:F:none:emily chen
sugr_lips:sugary1:sugr-lips@hotmail.com:1992-10-18:US:F:69.47.136.243:Jenny Drew
sugr_lips22245:smacker:lil_miss_popstar358@hotmail.com:1991-01-28:AU:F:none:madiandclare
sugr_lump:lonsdale24:sugr_lump@hotmail.co.uk:1993-09-07:ES:F:none:Lauren S
sugr_n_spce:boysarestupid12:blondhairblueeyeslove@yahoo.com:1990-02-24:US:F:78.176.93.82:You Wish You Knew
sugr_n_spice101:mg0108:12sissy@embarqmail.com:1993-08-01:US:F:70.60.0.224:athena
sugr_n_spice2005:jacobsmith::1991-08-31:US:F:none:Camille Barker
sugr_n_spice2009:cowgirl2009:sugr_n_spice2009@yahoo.com:1991-11-23:US:F:none:sarah macie
sugr_n_spice77:turkey:jessylynn89@hotmail.com:1987-09-04:US:F:66.8.169.35:Jessica  Hackler
sugr_n_spice_9:lauchlin:saitins_lil_angel911@hotmail.com:1980-06-15:US:F:none:Holly Robinson
sugr_n_spice_is_nice:badgerpaper1::1991-03-01:US:F:none:monkey
sugr_n_spiice:malmarie1:prettyxiinxpynk@aol.com:1989-12-19:US:F:none:Mallory Paddie
sugr_pie12906:savannah::1993-06-27:JP:F:none:sugr_pie12906
sugr_pie_honey_bunns:u_know_that_i_luv_u:hot_chickitie33@hotmail.com:1987-01-01:US:F:acceptance:sugar pie
sugr_pie_hunny_bun12:kiki3222:shesombodyshero@aol.com:1991-04-24:US:F:none:Jumbo Dog
sugr_pink_ichigo:thriller123::1994-01-08:AU:F:none:sugr_pink_ichigo
sugr_pi_0507:embs79:kristen_hope09@hotmail.com:1993-05-07:US:F:75.206.160.31:Polkadot Lover
sugr_plum:peanut:brownie1322@hotmail.com:1987-10-13:US:F:none:Jen  Jung
sugr_plum_faerie:seamus:hammerette_hunni@hotmail.com:1988-09-23:GB:F:none:fern engdahl
sugr_plum_fairy_01:tweety1:5122@aquinas.qld.edu.au:1988-10-12:AU:F:none:suzanne vanwegberg
sugr_princess1:mya1234::2000-10-10:US:F:207.192.254.14:mya
sugr_qt20:sept11:pinkpanth3r20@aol.com:1985-08-19:US:F:none:megan johnson
sugr_rocksrm530:dorito:bubbliesaxmafone@aol.com:1989-04-01:US:M:none:SPENCER BRESLIN
sugr_shannice:sugr123::1998-02-27:GB:F:90.192.156.236:shannice
sugr_sparklz:musgrove18:patricia_musgrove@yahoomail.com:1990-01-24:US:F:70.58.135.225:patricia
sugr_spice:dreamm::1993-04-16:KH:F:none:sugr_spice
sugr_spic_vrytin_nic:RAnlET:barton111@msn.com:1990-03-05:US:F:none:Samantha Rules
sugr_spyc:poppy::1991-09-25:US:F:none:sugr_spyc
sugr_swet_nezz:d12321:xzalieona_ivey@yahoo.com:1989-06-06:US:F:none:dddddddddddaaa aaaaaaaaaaaaaaaa
sugr_were_goin_down1:fall out boy:bexmyxescape1@aim.com:1992-07-23:US:F:none:noelle zanfardino
sugs:POWER:crazy_monkey100@hotmail.com:1996-02-22:CA:M:99.251.162.222:sugs
sugs007:pavilion::1994-02-25:GB:F:none:sugs007
sugs07:111401::2001-11-14:US:F:71.66.241.82:kirsten
sugs101:dyson101:tom_a_sugden@hotmail.com:1991-04-04:GB:M:77.44.123.210:Tom
sugs123:hanna123::1998-02-18::F:75.27.52.172:NULL
sugs1234:solosss1992:aimeewilson@direcway.com:1992-02-02:US:F:71.110.107.196:aimee
sugs13128:bigsis:uncle13@netwurx.net:1984-10-06:US:F:none:MeganFlood
sugs15:stmichael03::2003-06-15::F:90.206.101.79:NULL
sugs1582:kirby:gusgus_18@hotmail.com:1990-04-22:US:F:none:heather phil
sugs1582316:gusgus::1992-04-22:US:F:none:sugs1582316
sugs2000:camera@3:drmommzw@aol.com:1961-11-06:US:M:none:maryann wolf
sugs280:SUGSS:kittyfantastico@spunwebs.net:1987-12-10:GB:F:none:steffie healey
sugs318:catcity:sugs318@hotmail.com:1986-03-01:US:F:none:Whitney Samson
Sugs41:Ben105::2003-11-02:GB:M:2.122.52.75:NULL
sugs47812:onetwothree123:joe@bloe.com:1908-01-01:CA:M:99.235.160.194:bloe
sugs713:butterball123::1997-07-13:US:F:99.92.141.146:Sarah
sugs81:gussug::1992-04-22:US:F:none:sugs81
sugsar:romeo::1993-01-05:CA:F:none:sugsar
sugsbabe1314:hairball:helenaxton1314@hotmail.com:1987-09-19:GB:F:none:hel a
sugsbabe_007:cxcgrl:girlybug234@hotmail.com:1990-10-10:AU:F:none:charlie brown
sugsbaby:princess123::2000-01-04::F:72.23.78.6:NULL
sugsbee:12365:hengry9396@hotmail.com:1974-07-30:US:F:none:Jo Ann Long
sugscott:glovers1:gus@thescottstudio.com:1991-11-15:GB:M:none:Gus Scott
sugshi123:xtc3353:j3ssica@bellsouth.net:1985-08-21:US:F:66.21.159.57:Jess
sugsie:sugar::1993-01-19:US:F:none:sugsie
sugsikor:458912::2004-01-19:ID:F:125.162.56.196:NULL
sugsk2468:sugar::1994-01-18:US:F:none:none
sugslilone:mommy01::1997-11-12:US:F:71.60.2.113:haley
sugslover:kodala239ophelia:ldevriesandstrawb@hotmail.com:1987-01-05:US:F:none:luna
sugsmalugs:kasperowicz123::2000-05-02:US:F:72.66.47.27:Georgia
sugsmine:1sleepy1::2003-01-16:US:F:68.126.4.188:Sierra
sugsmycat:4poodleblues4::1999-05-03:US:F:69.254.34.82:NULL
sugsofly22:pugster22::2002-03-21:US:F:74.193.249.63:NULL
sugspec:warriors:sarac593@earthlink.net:1990-05-28:US:F:76.1.80.20:SarahColdwell
sugspice:bunbun11::2000-08-30:US:F:96.228.103.11:Alexis
sugspice101_3:bunbun22:alex015@verizon.net:1994-05-06:US:F:71.164.105.230:Lexy
sugspice123456:sugsug12:nataliea@jonathanstock.co.uk:1993-10-05:GB:F:90.207.86.71:natalie
sugspice19872005:burrito2005:sugspice872005@hotmail.com:1986-10-02:US:M:98.28.203.54:cheese
sugspice2000:bunbun101::2000-08-30:US:F:72.226.107.220:Lexy
sugspice22:loveyou:mauh_baby@hotmail.com:1991-03-31:CA:F:none:Kristin
sugspice842005:burrito2005:sugspice842005@yahoo.com:1986-10-02:US:F:70.91.162.109:ashley tipton
sugspice862005:burrito2005:sugspice842005@yahoo.com:1986-10-02:US:F:98.28.203.54:ash tipton
sugspicem908:bunbun101::1998-08-06:US:F:71.164.120.54:lexy
sugsprincess:ike1944:heavenzdevil17@yahoo.com:1983-07-23:US:F:69.132.181.64:Brandi Sugrue
sugspy101:raven101:sallydoll101@hotmail.com:1987-05-30:CA:F:173.238.40.195:RikiLee
sugsrberry:jazzygirl78::1998-06-07:US:F:75.81.103.55:Tangela
sugsrbsbbies:isaiah:sugardaddiesbaby143@yahoo.com:1978-09-07:US:F:none:tasha dynes
sugsrho0111122:urata13:tina-1@hotmail.co.uk:1966-10-30:GB2:F:none:tina shala
sugsrplum74:Star745$::1998-04-01::F:68.28.168.227:NULL
sugsrpussss:Abillabong::1994-03-14:AU:F:none:sugsrpussss
sugsrsweet29:012990:sugsrsweet29@aol.com:1990-01-29:US:F:none:alyssa  eubanks
sugsrush:211293:colleen6@fsmail.net:1992-12-21:GB:F:none:Colleen Haggerty
sugssis45:yahoom34::2003-12-06:US:M:70.44.228.255:NULL
sugssuga_90:nisisin:sweetcharity111@yahoo.com:1990-05-02:US:F:none:Charity Harris
sugst893:8288593:stephen_sugrue@hotmail.com:1982-10-09:NZ:M:none:steve sugrue
sugstar_me:veronica:foxychick_indahouse@hotmail.com:1989-11-05:AU:F:none:Suganya Sivashambu
sugsta_92:yourwrong92:sugsta_92@hotmail.com:1992-01-25:AU:M:124.184.24.172:Kevin
sugster123456789:sugster:tonfany@earthlink.net:1973-09-21:US:M:none:tony bowers
sugster12346:sugster:tonfany@earthlink.net:1963-09-21:US:M:none:tony bowers
sugster87:sugster::1992-09-21:US:M:none:sugster87
sugster874:sugster::1992-09-21:US:M:none:sugster874
sugster89:unodos:sugster89@yahoo.com:1991-06-30:US:M:none:Eric Sugimoto
sugsudg_99:Max1_99:rock-hero_99@hotmail.com:1995-02-01:DK:M:189.193.67.63:daniel salazar ponce
sugsug:aurora2003::2003-01-09:US:F:76.226.17.139:NULL
sugsug110:bubba110:k.lynnie_4@yahoo.com:1992-12-02:US:F:71.61.78.186:Kayla
sugsug123:samantha123::1999-10-12::F:72.39.207.40:NULL
sugsug18:cowboy23:meme1972@alltel.com:1918-12-11:US:M:75.89.19.109:joshua
sugsug321:Jesus!::1998-10-11:US:F:98.223.0.165:sugsug321
sugsug45:samsam13:corrinedillon@bellsouth.com:1994-09-15:US:F:216.226.241.41:molly
sugsug4545:samsam14:homeschooler44@yahoo.com:1994-09-11:US:F:38.103.85.75:miley
sugsug7000:softball rules!::1993-09-15:US:F:none:Brooke Brown
sugsug783:softball101::1993-09-15:US:F:75.132.33.244:sugsug783
sugsug98:sweetiepie::1993-07-19:US:F:none:sugsug98
sugsugarfoot25:phillip25:sugsugarfoot25@aol.com:1962-07-11:US:F:205.188.117.9:laurie
sugsugistaken:devan2000::2000-07-03:US:M:68.185.206.84:Devan
sugsugpie:Muffin24:Kanternkoni@aim.com:1994-03-07:US:F:68.106.124.5:Alfalfa
sugsugpuppup:123puppup123:oklahomaou@yahoo.com:1989-07-28:US:F:none:Katy Laty
sugsugrun:choco12:Teddy.lo@utoronto.ca:1966-01-06:GB:F:99.229.188.35:chocolate
sugsugs:rammstein:limpbizkid5555@aol.com:1986-08-21:GB:F:none:Ria Yearley
sugsugs19:hermit09:sugsugs69@yahoo.com:1987-09-29:US:F:68.73.52.130:maria
sugsugsug:bailey12:ecory1@charter.net:1948-05-18:US:F:68.118.59.92:su
sugsug_101:22pepper:ckarp@optonline.net:1961-02-05::F:69.122.236.118:NULL
sugsug_2040:hummer9::1993-06-29:AT:F:none:sugsug_2040
sugsweet:91092:may_grant@hotmail.co.uk:1992-03-28:GB:F:none:kate flear
sugswiuhd:wwssxxeeddcc12::2000-04-10:US:F:69.251.104.198:willow
sugswtluv19:countrygal12:onedarkangel_no1@hotmail.com:1983-09-15:US:F:69.40.169.59:Lisa C
sugsy:bullardfulham1:t.mcdow@yahoo.co.uk:1990-11-30:GB:M:78.146.105.159:Tom Mcdowell
sugsy77:101077:Secretwishes19@hotmail.com:1981-06-27:US:F:99.7.36.80:Syreeta  Ikhimokpa
sugsykat73:letmein:kass01245@hotmail.com:1990-08-21:GB:F:none:Sugar Kat
sugs_05:asshole1:binkie_2005@yahoo.com:1987-05-03:US:F:none:Hanna Harker
sugs_buga_buga16:mateo16:Cheetahgal760@aol.com:1991-10-22:US:F:71.102.33.133:Courtney
sugs_peptodoc:rappe909:primanka@hotmail.de:1950-1-1:CH:F:83.78.80.237:
sugs_suger:johnston:sugerprinsess@hehe.com:1982-09-09:GB:F:none:suger prinsess
sugt31:fatty::1991-07-23:US:M:none:sugt31
sugt987:tessers11::2005-05-05::F:66.233.213.77:NULL
sugt987_11:tessers11::2005-05-05::F:66.233.213.77:NULL
sugtab:dogworld::1991-06-19:US:F:70.100.195.156:none
sugteugf:starry00:silversky@aol.com:1979-03-29:US:F:71.124.119.112:fkugbo
sugthar555:pizza636:nathes@kateprobiz.com:1987-05-31:US:M:none:spencer nathe
sugthy:gaz483:dot.punto@hotmail.com:1992-01-10:MX:F:189.189.105.94:SuG
sugtug:loveu34:cribbsnatie@yahoo.com:1993-02-10:US:F:72.174.44.133:natie
Sugty65:easyto98::1999-07-02::F:140.226.5.77:NULL
sugtyty:suggie55::2000-09-20::F:76.177.172.235:NULL
sugu09:sugu1997::1997-11-09:SG:M:202.156.10.225:sugumaran
sugu225:bnmv14:knot177975464@aol.com:1993-02-23:GB:M:none:welly totsik
sugu23:pokemon23:abartels@terrafirma.com.au:1980-12-03:AU:M:121.44.255.127:jack bartels
sugu26:s1145::1991-08-14:CA:M:none:none
sugu32:Panda::1996-05-13:US:M:Mail from multiplayer_setup:sugu32
sugu771:soron112::1997-02-15:US:M:24.9.57.146:Soryn
sugu8:bergkamp:iceberg_85@hotmail.com:1984-03-06:SG:M:none:Sugu Maran
sugu839:080807::1993-09-04:US:F:none:sugu839
sugu90:0123959019:sunilsugandha1@yahoo.com:1990-09-13:MY:F:59.94.189.101:Sugandha  Gupta
sugua1:asdfg1123:realindianking06@aol.com:1980-01-27:US:F:69.123.246.213:jfjdjdjfjfjdjdjfjfjdjjdf
suguab:justinbaugus12690::1987-12-06:US:M:Mail from zunise:none
suguababie_05:babie:meshell_oliver@yahoo.com:1991-05-16:US:F:none:nikiki williams
suguacamo:lupita01::1997-01-04:MX:F:189.129.92.37:NULL
suguae:scenic14::1996-05-08:ES:F:85.54.156.128:sandra
suguamama:beautiful::1993-10-14:US:F:none:suguamama
suguan:geraldine14:erickjoel_45@hotmail.com:1990-08-03:PE:M:200.121.162.133:ErIcK
suguang:199887:xuchang1976080708@yahoo.com:1976-08-07:CN:M:none:光 苏
suguangquan:20040728::2004-09-12:CN:M:220.201.192.209:苏广泉
