suiciniv_10:lopioco10::1998-06-12:BR:M:201.42.197.168:vinicius
suiciniv_21:vini21@:viniguedessartorato@hotmail.com:1996-11-21:BR:M:201.83.95.5:suiciniv
suiciniv_29:291196::1996-11-29:BR:M:189.68.163.205:vinicius reato
suiciniv_33:897305::1999-03-29:BR:M:189.81.46.53:suiciniv
suiciniv_34:96034122::2000-06-12:BR:M:187.14.8.112:vinicius
suiciniv_5:gato2008::1997-09-11:BR:M:189.70.225.155:vinicius
suiciniv_666:153759:vinicius_rodrigues1010@hotmail.com:1980-10-27:BR:M:201.20.228.131:vinicius
suiciniv_7:32253097::1999-06-10:BR:M:200.96.205.11:nico lau
suiciniv_7_7:99330478::1999-04-20:BR:M:201.94.201.203:vinicius
suiciniv_96034122:520810::1998-04-13:BR:M:201.51.106.17:ditto
suiciniv_9_9:vini456:vinicius_aurelio12@hotmail.com:1994-02-27:BR:M:201.79.219.153:vinicius
suiciniv_aobsil:310596::1996-05-31:BR:M:189.104.100.191:vinicius lisboa da silva
suiciniv__85:thai22:vinicius-pelemg@hotmail.com:1989-04-10:BR:M:200.97.84.98:vinicius
suiciniw:wwbbmmoo22::1998-03-21:BN:M:189.41.65.109:winicius
suicinv:1vinicius1:pauloviniciusrbd@hotmail.com:1994-12-03:BR:M:189.15.133.202:Vinicius
suicinvi:23468:claudiaforcato@ig.com.br:1993-06-28:BR:M:none:claudia claudia
suicipeola:celular08:sweetdulcedulce@hotmail.com:1974-12-31:BW:M:201.213.146.71:Laura
suicireturnx:imrules1993:sicotyc@hotmail.com:1993-11-03:GP:M:186.104.98.15:ugh
suicither:0::Qryst:F:1995-04-07:0:If you really want to know it
suicity:51875187:pintarola.k@hotmail.com:1993-05-06:PT:F:188.81.216.17:Suicity
suicivapis:tampon45:IngaSipavicius@comcast.net:1988-05-01:US:F:71.228.39.41:Inga
suicivekla:weedsea199:bellethebunny@yahoo.com:1990-06-24:US:F:24.12.91.217:suicivekla
suicivinik_vucinic:532691:Liniker_vs@hotmail.com:1993-08-29:HR:M:201.29.167.103:Liniker Vinícius da Silva
Suicix:g0g0g0:scratchedxsoul@gmail.com:1997-04-12:GB:F:92.19.107.186:Phoebe
suiciya:Fay3Agn3s:Suiciya_uzari@yahoo.com:1980-07-15:US:M:72.199.22.179:Nick
suici_:500996:brandy_byers@yahoo.com:1986-01-26:DE:F:Mail from multiplayer_setup:Brandy Byers
suici_suici_4_4_4:1vi2ra:viniciusmasone@yahoo.com.br:1990-04-17:AF:F:201.13.87.61:vinicius
suicks:dadmom12::1997-03-14:US:F:98.209.99.136:brianna
suiclara:y4202056::1993-12-30:AU:F:none:suiclara
suicma77983:orange545263:cute_10531@yahoo.com.tw:1995-01-20:TW:F:118.168.210.253:羅翎
suicmar:9512959:laprincesa_5@msn.com:1989-03-11:VE:F:190.72.235.88:suicmar
suicne:funnyboy00::1995-08-29:BE:M:81.165.47.169:kenneth
suico0025:514199456:jopherbasag@yahoo.com:1997-05-03:PH:M:112.201.8.22:NULL
suicococho:35432284:chancoco309@hotmail.com:1973-04-23:HK:F:none:suet mui chen
suicocojoe:35432284:chancoco309@hotmail.com:1973-04-23:HK:F:125.59.33.87:sui
suicojas:350350:jaspersuico@yahoo.com:1990-10-27:PH:M:202.137.124.51:jasper
suicojasper:3504725:jaspersuico@yahoo.com:1992-10-27:PH:M:202.137.124.51:jasper
suicojasper_1:09272348095:suico_jasper@yahoo.com:1982-10-27:PH:M:122.144.118.185:jasper
suicom02:0878827561:pramote_jr@hotmail.com:1977-09-15:TH:M:118.173.129.174:suicom
suicon:zachary::1994-01-11:US:M:none:suicon
suicon111:zachary::1994-01-11:GB:M:none:suicon111
suicon1929:drumline::1994-04-29:US:M:none:suicon1929
suicon211:zachary::1994-01-11:US:M:none:suicon211
suicon278:zachary::1994-01-11:US:M:none:suicon278
suicon298:zachary::1994-01-11:US:M:none:suicon298
suicon311:zachary::1994-01-11:US:M:none:suicon311
suicone:maldini12:tancredi_1998_865@hotmail.com:1988-02-26:VE:M:201.248.236.101:jose-gabriel
suicone115:gliger:deniskill@hotmail.com:1991-07-05:ES:M:none:Denis Jurado Villar
Suicone1997:1997_diogo:reymisterio_cenoura@hotmail.com:1997-06-03:PT:M:178.166.14.85:NULL
suicone_1:031274:jo_felipe9@hotmail.com:1991-01-02:BR:M:189.97.120.4:joao321
suicone_3:ramon123::1997-05-20:BR:M:201.50.14.122:Ramon
suicone_rayquaza:reading:suicone_rocks@hotmail.com:1987-12-10:US:F:none:celebi nintendo
suicone_rocks:reading:suicone_rocks@hotmailc.com:1987-12-10:US:F:none:celebi nintendo
suiconi:pokemon05::1998-05-05:BR:M:200.96.37.10:pedro vinicius ignacio oliveira
suiconic:angela05:minnie_mousie@hotmail.com:1989-02-02:CA:F:99.236.64.90:xX.V.N.G.Xx
suiconmaster111308:zachary::1994-01-11:US:M:none:suiconmaster111308
suicon_10:SUICON 10::2007-09-20:HK:M:189.160.149.212:SUICON 10
suicoo:mykitty:jafbball88@hotmail.com:1988-10-19:CA:F:Item:Jomie Fronck
suicool20:lol20:louis1234@hotmail.com:1987-02-20:CA:F:none:Perreault Marie-Ève
Suicoon:lugia98:tej0107@yahoo.com:1998-01-07:US:F:206.220.40.51:NULL
suicoon456:re55too::1996-04-14:CA:F:99.250.237.212:alexis
suicoon97:Pikachu55:suicoon97@yahoo.com:1993-02-04:US:F:70.243.202.31:Katelyn
suicoone:inkeeflash:inkeeb@hotmail.com:1987-10-31:VI:M:Mail from thecrazyhouse:Zafara Main
suicos:sapo45::2000-06-22:BR:M:200.209.171.166:eduardo  filho
suicoted:nistmada86:suicoted@hotmail.com:1962-12-23:CA:M:174.6.45.136:Adam T
suicotsu:super:ragh_pb@hotmail.com:1988-05-23:CL:M:none:ramon fuentes
suicoune95:luis45::1995-12-09:MX:M:189.133.84.69:luis enrique
suicovannight:442555:suicovannight@yahoo.com:1993-09-25:US:F:66.87.7.239:Suico
suico_franz:ysabelle:franz_suico@yahoo.com:1988-11-19:PH:M:none:franz suico
suico_suico_8:add68674:chumbitho@yahoo.com.br:1972-12-12:BR:M:201.8.185.184:bernardo
suicso:mama123:angello_hidalgo@hotmail.com:1995-09-08:VE:M:190.206.235.47:NULL
suicu:jessie:jessjes1@aol.com:1985-02-28:US:F:none:ihavenoname
suicu245:24524:luv_pokemon@hotmail.com:1987-07-21:SG:M:Acceptance:kayau ko
suicua:zorra24:pincesa_49@hotmail.com:1994-08-30:PE:M:206.220.40.51:victor jose alvarez
Suicua1:Zorra24:victor_30_08_94@hotmail.com:1994-08-30:US:M:74.98.189.46:NULL
suicua14:huesos14:suicua@hotmail.com:1994-08-30:PE:M:200.106.124.128:victor jose alvarez
suicua24:zorra24:suicua@hotmail.com:1993-01-30:PE:M:200.106.124.128:victor
suicuapalk:klapaucius66:diana_doida6@hotmail.com:1992-01-24:PT:F:77.54.121.199:diana
suicuazul:y3T_w54::1992-11-22:FI:F:none:Suicu Azul
suicua_2:suicua24:dark.cry.46@hotmail.com:1994-08-30:US:M:74.98.190.147:NULL
suicueneisis:1029384756:summerdaizey@yahoo.com:1990-01-07:AU:M:none:Curtis Chantelle
suicuin:fire30:antonyruiz09@yahoo.com:1993-06-03:US:M:76.174.64.55:antony
suicuin1378:riachu::1992-12-25:US:M:Mail from theneopetsteam:none
suicuin13789:Riachu::1992-12-25:US:M:none:suicuin13789
suicuin137898:Riachu::1992-12-25:US:M:none:suicuin137898
suicuine198:cooled::1991-12-14:CA:F:none:suicuine198
suicuine_guilherme:guigui12:rick22@hotmail.com:1985-08-22:BR:M:200.178.181.146:guilherme
suiculilip:15698:chunlanfang@msn.com:1992-04-25:US:F:none:Aya Nakano
suiculucius:iloveu:lucius_chou@yahoo.com:1986-01-08:MY:M:neofriend:Lucius Chou
suicun:ihateu:veronikavh@msn.com:1987-12-26:MY:F:none:Sonnet Starlight
suicun123:Raikou123::1997-10-10:CA:M:67.70.8.184:Michael
suicun25:squirtle25::2000-02-04:MX:M:70.57.101.42:carlos
suicun2_20:scott20:coga_massiel@hotmail.com:1994-02-02:MX:F:201.152.201.46:massiel
suicun3xd:modifi@::1993-10-22:PE:M:none:suicun3xd
suicun5:werti789::2000-10-16:CL:M:201.239.82.105:felipe
suicun546:anakin:southpark_998@hotmail.com:1991-12-16:CL:F:124.177.28.16:Felipe Barriga
suicun547:starwars:southpark_998@hotmail.com:1990-12-16:CL:M:124.177.28.16:Felipe Barriga
suicun9:america:i_a_ruiz@yahoo.com:1986-02-15:MX:M:none:A R
suicun99:sui99:erick_rayados_9@hotmail.com:1993-08-26:MX:F:none:Suicun Rodriguez
suicuna:nachtara1995::1995-10-01:DE:F:84.151.60.25:Sarah
suicune:0pt0gal:wolvespaws@gmail.com:1995-11-07:US:F:96.227.74.123:Devin
suicune001:Mewxmewtwo:misty99_2000@telus.net:1988-10-14:CA:F:Can I be your NeoFriend?:Brittany Boychuk
suicune007:kiss97::2000-8-10:IT:F:151.48.12.56:ilaria
suicune007292:alexb:blackwelderj@bellsouth.net:1958-09-23:US:F:none:Inuyasha Person
suicune0123:ana0123::2000-01-16:BR:F:189.70.213.69:NULL
suicune03_01:T0112366H::2001-03-29:SG:M:218.186.9.246:Jeremy
suicune05:10494:jpordie@yahoo.com:1964-10-04:US:F:none:Jordan Dyer
suicune06:RED06:suicune06@hotmail.com:1987-04-01:US:F:99.66.208.212:sappire ruby
suicune076:hamed01:hahdi.mirza@gmail.com:1983-04-24:US:M:136.244.224.98:Momo
suicune09:tyranitar20::1997-09-18:BR:M:189.78.199.48:deoxis
suicune1:northwind00:Gessie1992@bvunet.net:1992-07-22:US:F:69.27.75.145:Suicune
suicune10:luizinho10::1999-08-09:BR:M:201.43.160.47:NULL
suicune100:latias21::2001-04-15:US:F:76.91.77.222:dragon
suicune1000:flamengo10::1998-05-25:BR:M:187.89.97.210:hugo
suicune10000:pichu:suicune10000@yahoo.com:1987-10-05:US:M:none:Darnell Anderson
suicune1000_jess:espion:suicune1000@yahoo.com.au:1989-08-15:AU:F:124.185.197.101:jess_aka_Rei
suicune1000_rei:espion:neopets_user_signup2@hotmail.com:1991-08-09:AU:F:none:Chaya Jade
suicune1000_sonji:trinity:neopets_user_signup2@hotmail.com:1991-01-16:AU:F:none:cgzdfgsdf gfdhgfhdfh
suicune1002:ROXY01:bridgetier@live.ca:1990-01-02:CA:M:142.161.201.220:Fred
suicune1005:suicune23::2000-10-13::M:173.77.120.62:NULL
suicune100_99:pokemon100::1999-05-09:PT:M:87.196.28.97:suicune100
suicune1010:seesee55::1999-04-15:US:M:98.251.176.99:James
suicune1010203:pichu::1994-04-23:GB:F:none:suicune1010203
suicune1012:sona1002::1998-10-02:US:F:64.53.232.198:Sona
suicune1015:martin9crush9talie::1988-12-02:US:F:70.137.172.57:Suicune of Power
suicune1016:martin9crush9talie:rxl1201@yahoo.com:1988-01-01:US:F:70.137.172.57:You dont need to know
suicune1017:martin9crush9talie:majesticwands@gmail.com:1988-03-22:US:M:none:Tobias Winters
suicune1023:draco.23:suicune102319@yahoo.com:1990-10-23::M:99.19.17.202:NULL
suicune102319:draco.23:matthew.n1023@yahoo.com:1990-10-23:US:M:99.73.17.48:MatthewN
suicune103:vomit1234::2001-12-08:US:F:72.235.45.80:NULL
suicune108:legendarygurl108::1998-10-01:US:F:108.0.198.161:NULL
suicune1080:Water::1986-12-09:CA:M:none:suicune Legend
suicune109:rayquaza12::1998-09-21::F:75.201.152.77:NULL
suicune11:LegendaryDogs11::1997-02-07:US:M:69.253.112.70:noah
suicune111:tekken12:pirate.jake@hotmail.com:1994-09-07:AU:M:210.50.254.197:jake
suicune1111:bball4::1992-02-28:US:M:none:none
suicune114:jou123:joubertegato@hotmail.com:1988-01-10:BR:M:189.13.254.191:jouberte
suicune117:11717669::2001-03-16:US:F:69.151.226.109:meaghan
suicune11800218:talon::1993-08-10:GB:F:none:suicune11800218
suicune11800886:talon::1993-08-10:GB:M:none:suicune11800886
suicune119:danielle:leoscorpion10@aol.com:1983-04-05:US:F:none:Danielle Leeras
suicune12:mandy-moore:suicune23@yahoo.com:1987-04-23:US:F:none:sophia jones
suicune120:d3mon110::1996-06-26:CA:M:74.216.27.178:dodo
Suicune120_666:darkness33::2000-10-13::M:173.77.120.62:NULL
suicune121:madcow424:supagolfer1991@yahoo.com:1945-11-04:US:M:71.206.117.168:cody or code red
suicune122996:james122996::1996-12-29:US:M:69.237.76.155:suicune122996
suicune123:suicune000:lightcast4k@yahoo.com:1993-07-20:US:M:152.163.100.14:eric
suicune123123:mommy123123:bberlixx@yahoo.ca:1993-06-21:CA:F:none:Sarah Gallant
suicune12321:cune22:bbiorxx@yahoo.com:1993-06-21:CA:F:none:Sarah Gallant
suicune123316:12356:jc_melo@uol.com.br:1987-09-21:BR:M:none:Bernardo Gomes
suicune12332:rocky!:samseb@hotmail.com:1988-05-13:US:M:none:sebastian  bidegain
suicune123322:sharonlu:kai39@google.com:1901-11-27:CN:F:none:Kaiyeena Tashi
Suicune1234:tofyboy26::2005-04-26:US:M:124.170.0.60:NULL
suicune12345:superman132::1999-04-06:ZW:M:71.243.63.123:jr
suicune123456789:lolipop92::2002-08-23:US:F:99.106.240.174:NULL
suicune12345678910:16jimmy19::1999-10-23:US:M:24.22.19.198:Jimmy
suicune1235:dylan*:joecote@snet.net:1989-05-23:US:F:69.119.6.249:JackieGriffin
suicune12398:charlie23::1998-01-23:US:F:65.7.147.198:Sarah
suicune123_2:totodile1::1994-01-19:AU:M:210.49.16.128:suicune123_2
suicune124313:haylee3::1994-12-15:AU:F:none:suicune124313
suicune124535:pokemon12::1998-03-05:US:F:69.14.37.148:Alicia
suicune1250:sweetlove1280::2001-05-29:US:F:68.47.26.108:NULL
suicune1256:celebi61::2001-05-29:US:F:68.47.26.108:NULL
suicune129:alligator1::1991-08-20:US:F:none:none
Suicune12_0:darkness33::2000-9-13:US:M:173.77.120.62:Sirazum
suicune12_276:sweetlove12::2001-05-29::F:68.47.26.33:NULL
suicune12_831:sweetlove12::2001-05-29::F:68.47.120.238:NULL
suicune12__23:sweetlove97::2001-05-29:US:F:68.47.120.238:Chloe
suicune13:yhnujm12:jdasnowman@tconl.com:1986-05-09:US:M:98.145.143.234:nunya  business
Suicune13076:5143211:gorgonzola65@yahoo.com:1994-07-07:US:M:173.64.116.67:NULL
suicune1347:32314772:yasmintavares@terra.com.br:1992-08-19:BR:F:none:Yasmin Ribeiro Tavares
suicune141:fushigiyuugi14:higirl410@yahoo.com:1993-04-10:US:F:68.61.153.187:Allison
suicune144:tropius781:m123ew@aol.com:1985-01-01:US:F:98.216.191.177:Adrianne
suicune145:slash:jetboardrider@gmail.com:1992-01-10:US:M:none:samir baz
suicune15:pokemon06:piggy_27_38@hotmail.com:1985-04-19:CA:F:70.78.84.109:karly
suicune151415:amanda151415:amanda151415@hotmail.com:1997-04-14:ES:F:81.34.81.159:NULL
suicune15_18:Solidsnake15:Hllctv@yahoo.com:1992-09-22:US:F:67.38.242.240:Octavia Hall
suicune16:dexterkain:dexterkain@hotmail.com:1982-08-08:CA:M:none:Suicune Sixteen
Suicune1617:sandy17::2002-10-17:CA:M:67.70.19.242:NULL
suicune162:pokemon654::1993-08-05:KP:F:none:none
suicune16941:water64:atrumlevitas@hotmail.com:1992-11-19:US:M:69.236.171.173:none
Suicune170:sandy17::2002-10-17:CA:M:67.70.19.242:NULL
suicune1712:cameron13:cam.rox@hotmail.co.uk:1995-12-17:GB:M:87.114.154.87:cameron
suicune178:entei::1990-07-30:FI:F:none:Suicune
suicune1824:unown2:craftygirl@stny.rr.com:1985-11-24:US:F:none:Mary Pan
suicune1870:beedrill29::2000-09-18:PH:F:124.107.159.173:elyza
suicune18ice:black836snowflower35:suicune18ice@yahoo.com:1984-07-23:US:F:72.12.91.29:Tisnotfortheetoknow!
suicune192:raikou50::2001-10-12:US:M:68.117.248.160:NULL
suicune1982:musick:dega4003@yaoo.com:1982-08-14:US:M::Joshua Musick
suicune198304:asias:pokemonfan1995@yahoo.com:1991-04-06:US:F:Challenge Accepted:alex fox
suicune199:mickey12::2000-03-28:US:F:72.78.120.25:NULL
Suicune1991:susi1991:suicune90@gmx.net:1991-11-26:DE:F:78.50.204.20:NULL
suicune19912:19912:lefunt@comcast.net:1981-08-05:US:F:none:Nichole Jarvis
suicune1993:zaxzax1:min1993@hotmail.com:1979-02-04:SG:F:none:suicune
suicune1993719:Entei123::1993-06-03:AU:F:none:suicune1993719
suicune1994223:phantom13::1994-03-11:US:F:none:suicune1994223
suicune1994444:charizard!:ricardo_rucho@hotmail.com:1987-03-14:BR:M:none:Ricardo Arruda
suicune1995:cameron13:cam.rox@hotmail.co.uk:1995-12-17:GB:M:87.115.21.125:cameron
suicune1998:felipe98:mecherdz@hotmail.com:1980-05-24:MX:M:189.129.152.149:suicune1998
suicune1999:school99:adoptiondog99@gmail.com:1989-7-28:US:F:64.136.237.26:Shadow
suicune1o:vanessahudgens12::1999-05-19:VN:F:217.224.114.136:Xuyen
suicune1_3_3:mommy1212:turbo24v@telusplanet.net:1993-06-21:CA:F:none:Sarah Gallant
suicune2:cosmonwanda0912::1927-01-01:US:F:70.181.168.148:Micki
suicune20:ball10::2004-05-16:GB:M:92.12.115.94:NULL
suicune200:celebi82:britt_dolphin_lover@yahoo.com:1994-12-04:US:F:66.53.210.44:brittany
suicune20000:raikou:amyunwin@gmail.com:1986-10-28:GB:F:none:Amy deary
suicune2001:IaMmE!!!:suicune2000@yahoo.com:1983-09-19:US:F:67.176.160.247:ChaosBriefs
suicune200423:exitdial:formule1fan12@hotmail.com:1991-03-05:NL:M:none:Robin van Willigen
suicune2006:imadoki12:blaziken_sphere@yahoo.com:1988-01-07:ID:M:114.58.124.159:Suicune
suicune2007:lugia2007::1995-07-17:US:F:66.69.30.158:H
suicune2020:plusile332::2000-10-28:US:M:70.253.229.33:jarryd
suicune20619:sceptile32::2003-07-31:US:M:74.242.202.26:NULL
suicune20ice:12angel12:suicune20ice@yahoo.com:1984-07-23:US:F:216.195.154.245:Nottoknow
suicune2124:2121994:milkyshake2124@yahoo.com:1994-02-12:PH:F:125.60.241.6:ashley
suicune215:marill33:natalyabuchwald@gmail.com:1996-02-15:US:F:68.109.196.54:NULL
Suicune22:CAIDEN34::2001-06-18::M:64.53.246.162:NULL
suicune2213:goku3::1993-10-23:US:M:none:suicune2213
Suicune22134:articuno2025::2002-6-4:PH:M:64.253.7.118:geryk
Suicune2213425:torrtera2025::2002-06-04::M:64.253.7.118:NULL
suicune2222:kim1428:arkendall@pacbell.net:1991-09-22:US:F:75.6.226.236:totoro
suicune23:duel87:poolkid_10@yahoo.com:1991-01-14:US:M:none:uknown blank
suicune2328:flags2:lukejrskywalker@yahoo.com:1990-02-15:US:M:none:Bobby Sheen
suicune234:lugia:kccatsrule@aol.com:1989-07-28:DZ:F:none:Sakura Cooper
suicune2341:danka12:suicune23_danka@yahoo.com:1997-01-07:US:M:96.19.10.181:vincent
suicune2345:yuyuyu:alex.j.chang@cox.net:1975-07-21:AR:M:none:tyler gaines
suicune2397:quah231997:quahxz@hotmail.com:1996-07-23:SG:M:220.255.2.139:suicune2397
suicune24:qtpie16::1998-11-16:AU:F:203.214.103.156:NULL
suicune2424:black2::1993-04-11:US:F:none:suicune2424
suicune2433:trout190:guyman2433@gmail.com:1995-04-16:US:F:66.188.137.180:NULL
suicune2449:nyron:indylynch@yahoo.com:1991-03-19:US:M:BattleDome Opponent Waiting:Matt  Cooper
suicune245:Kyogre::1993-06-07:AU:M:none:suicune245
suicune24680:dvcfkq67::1998-10-22:CA:F:69.157.124.147:Emily
suicune2499:chyanne24::1999-02-24:US:M:67.11.56.254:Cyrus
suicune25:water11:blue_water1010@yahoo.com:1990-05-10:PH:M:124.104.195.24:Anthony Joshua
suicune251:biel2510::1999-10-25:BR:M:186.205.37.153:NULL
suicune253:kitkat42::1997-04-22:US:M:209.30.250.197:john
suicune2552:diana:kimhimes@sbcglobal.net:1989-04-05:US:F:none:Diana Himes
suicune2570:12358132134:pokemonuser2570@yahoo.com:1991-03-05:US:M:none:J. S.
suicune258:123456789159753:ednaldoazevedo@hotmail.com:1971-12-06:BR:M:none:lucas azevedo
suicune2588:120000:jonathansepulchre@sympatico.ca:1986-08-05:CA:M:174.91.222.157:Jonathan Sepulchre
suicune26:Goten::1992-03-27:NZ:M:none:none
suicune268:ourworld12::2000-05-15:AU:M:121.222.187.138:NULL
suicune269161:plush1:tallicafreek90210@yahoo.com:1987-07-31:US:M:none:Brett Paulson
suicune2698:ly72294:yangluyan@msn.com:1990-07-22:CA:F:99.245.52.193:Lulu
suicune273:houndoom::1993-06-13:CA:M:none:none
suicune275:p0k3m0n:viperguardluvr@yahoo.com:1991-04-06:US:F:74.161.23.152:suicune275
suicune279:lo9!r4Tv::1992-08-31:US:M:none:suicune279
suicune2794330:dragon101:samuelt330@gmail.com:1990-03-02:US:M:71.95.234.58:Sam
suicune28:Kameron09!::2001-05-22:US:M:66.87.7.173:NULL
suicune2810:maarkus2810:PinkDragonia@aol.com:1995-10-28:DE:F:87.168.60.52:Michelle
suicune284:johnc::1986-08-27:US:M:98.68.0.44:john campbell
suicune285:johnson::1991-02-12:CA:M:none:suicune285
suicune288:woofy:dangerous_beans1@hotmail.com:1988-05-17:GB:F:90.242.171.94:Frances S
suicune2888:pikachu::1988-11-28:US:M:none:none
suicune28_10:Maarkus2810:PinkDragonia2810@aol.com:1995-01-28:DE:F:78.54.169.234:Michelle
suicune291:lugia:jalaniz@hotmail.com:1988-12-04:US:M:Can I be your NeoFriend?:alex joel
suicune298509:5678io::1993-11-29:US:M:none:suicune298509
suicune2k4:charzard12::1997-09-26:US:M:75.69.149.147:Zack
suicune2_ice:aquajewl:suicune2_ice@yahoomail.com:1990-03-16:US:F:Can I be your NeoFriend?:hana smith
suicune3:0179basti.D:schlauerfuchs97@aol.com:1994-10-05:DE:M:77.135.160.207:sebastian
suicune3004:1012532::1991-08-18:US:F:128.54.146.164:none
suicune31342:puppies::1992-03-13:US:F:none:none
suicune321:huzzah543:black_angel1674@hotmail.com:1985-01-10:MY:M:123.253.126.238:suicune
suicune32199:dublin99::1999-03-21::M:209.252.111.206:NULL
Suicune325_52:Thundercune325::1999-8-22:GB:F:92.15.64.38:Faith
suicune3311:bubble:sportsstar3311@hotmail.com:1991-05-10:BR:F:24.141.164.136:none
suicune3333333333333:nathalie11:naosba111@gmail.com:1994-02-15:CL:F:81.52.130.151:fffffffffff
Suicune3386:champ12::1998-10-16:US:M:68.193.185.174:NULL
suicune34423:suicune123::1993-10-29:AU:F:none:suicune34423
suicune345397:coltsrule::1993-11-13:US:F:none:suicune345397
suicune35:Dylan!::1994-04-11:US:F:none:suicune35
suicune350:emerald:hyperknux556@hotmail.com:1990-01-14:BS:M:65.75.104.175:Marcus Hanna
suicune35_1_1:pokemon34::1999-06-02:VU:F:72.86.135.75:RILEE
suicune361:zac361:sirzman@comcast.net:1990-10-05:US:M:none:Zac Coghill
suicune366:legendary33::1998-05-08:US:M:66.26.68.70:Brandon
Suicune37:pokemon56::2000-04-06::F:76.108.2.235:NULL
suicune378:pikapika:marofmartin@aim.com:1992-08-31:US:M:68.45.65.207:suicune378
suicune385:pachirisu4854z::2000-11-10:CL:F:190.161.93.191:NULL
suicune386:soccerboy14:muayad_25@hotmail.com:1993-05-25:CA:M:72.12.132.32:Muayad
suicune4:cherry8000::1991-04-23:CA:F:none:none
suicune400:pokemon100::1999-04-22:US:F:96.248.166.133:abby
suicune401:pokemon100::1999-04-22:US:F:96.248.166.133:abigail
suicune404:captainblue246:pooperratzi@yahoo.com:1994-01-16:US:M:173.71.17.104:Andrew
suicune40_8:dragon567:raikou7779@hotmail.com:1990-10-02:US:M:68.231.19.102:Mante Ground
suicune412:lugia::1994-03-16:SG:F:210.24.93.160:suicune412
suicune415:lupes123:jpordie@yahoo.com:1984-04-11:US:F:none:unknown
suicune4152:7961us:westchase@clearsurfusa.com:1991-10-04:US:F:acceptance:jordan dyer
suicune42:cooltricks45::2001-04-15:US:M:66.57.120.64:Sharif
suicune4202:iluvd0gs4::2000-05-02:US:F:76.205.143.240:NULL
suicune43210:ruby4321:suicune4321@yahoo.com:1987-11-26:US:M:none:gh hg
suicune433:raik1::1993-08-19:BR:F:none:suicune433
suicune434:PGA2007:susan64MI@aol.com:1986-04-21:US:F:71.206.117.70:suzie
suicune437:sHARON:mlu@yahoo.com:1983-04-02:JP:F:none:kiayeena tashi
suicune444:wolfs7:sararosser777@aol.com:1993-08-16:US:F:none:sara rosser
suicune44467:wolfs7:sararosser777@aol.com:1993-08-16:US:F:none:sara rosser
suicune444674356:wolfs7:sararosser777@aol.com:1993-08-16:US:F:none:sara rosser
suicune445:100fource:suicune@gmx.de:1992-06-19:DE:F:none:sarah klubis
Suicune4455:pikachu4455::2002-4-7:US:M:70.139.238.68:Steven
suicune44_6_6_6:ninja11::2000-08-25:BR:M:189.64.96.225:lucas ferreira araujo fernandes da silva
suicune45:monster34:amabananas@gmail.com:1994-12-20:US:F:24.35.4.9:anna
suicune451:pikachu::1992-12-08:US:F:none:suicune451
suicune455:student78::2000-02-23:US:F:75.25.137.136:Michelle
suicune456:storm:sandaru7@hotmail.com:1979-03-25:AU:M:none:sandaru kamalasuriya
suicune4562000:19567:suicune4562000@yahoo.com.hk:1992-05-21:HK:M:none:simon chan
suicune45678:pencil12:jiawen_gai@hotmail.com:1996-3-19:CA:M:66.49.242.106:kevin
suicune462:LUCARIO462:RUSHTONHICKS@GMAIL.COM:1996-01-01:US:M:70.152.124.8:RUSH
Suicune47:Empoleon80::1999-03-07:US:F:76.232.176.222:NULL
suicune4700:crystal97::1997-05-24:US:M:24.99.172.229:philip
suicune474:1236985:gabrielflipemacedo@hotmail.com:1990-08-31:BR:M:none:gabriel felipe andrade
suicune4764:waterfalls47:rachelschief@yahoo.com:1991-07-28:US:F:71.54.208.210:rachel
suicune48:Entei:peanut-91@attbi.com:1980-12-27:US:F:none:No Name
suicune48703275:pokemon100:wrigley1995@yahoo.com:1988-10-20:US:F:none:bridget jefferson
suicune4890:040890:suicune4890@yahoo.com:1990-04-08:US:F:70.144.88.212:Kendra Lewis
suicune49120:sharonlu:kia39@yahoo.com:1980-04-02:JP:F:none:Kiayeena Tashi
suicune4942004:Suicune rules::1994-04-11:US:F:none:suicune4942004
suicune4charmander:suicunerocks01!::1997-02-23:GB:F:90.221.230.158:Emily
suicune4eva:tbonejr12:Gmutza_alice@comcast.net:1994-01-15:US:F:68.62.61.98:suicune
suicune4ever:celebi123::1998-12-04::F:75.3.203.162:NULL
suicune4misty:gh0st:anime4life4ever@yahoo.com:1987-05-28:MY:F:none:Prayer Jesus
suicune50:mondo::1985-07-09:US:F:none:K8e Not telling
suicune500:articuno::1986-03-23:US:F:none:Nina Venokishi
suicune5000:minblesss44:taekwondogokid@yahoo.com:1989-01-16:US:M:71.38.145.35:andrew
suicune502:12245668:djvipr@yahoo.com:1987-10-04:US:F:70.250.172.130:Jordan
suicune5063:yu-gi-oh:kyubimon@hotmail.com:1974-11-28:CA:F:none:cathy zhu
suicune510:causa:phmqa@hotmail.com:1991-12-26:BR:M:none:paulo Araujo
suicune5152:upidsta123:westchase@westchasechurch.org:1976-04-11:US:F:none:dont know
suicune516:renamon::1992-10-04:US:F:none:Who Cares
suicune517:lex07:lex_0717@yahoo.com.ph:1991-07-17:PH:F:none:Carmel Barrairo
suicune520:91037539:felipegustavo20@hotmail.com:1965-10-29:BR:M:none:Felipe Gustavo
suicune521:8scoobydoo8::1990-01-01:US:F:216.128.102.110:i have no name
suicune528:lionheart528:verbeek_jurgen@hotmail.com:1987-05-07:BE:M:none:euh ik dan
suicune5289:mmmmmimamamemima11:naosba11@gmail.com:1994-02-15:CO:F:190.248.80.66:nansn
suicune531:nanny1:mavis_chij@hotmail.com:1965-02-05:US:F:none:Dun Try 2 Find Out
SUICUNE53__i_i:23@@@SUICUNE::2000-07-13:ES:F:95.120.165.139:NULL
suicune541:xboxlive::1995-08-23:US:M:none:suicune541
suicune55:LUPEY::1994-04-11:US:F:none:suicune55
suicune552:bert13:rcjm@shaw.ca:1975-10-22:CA:M:none:justin
suicune553:pebbles15::1997-03-25:AU:F:124.171.173.2:Gabby
suicune5566:charizard1::1994-02-21:MY:F:60.50.39.32:suicune5566
suicune558:ihgyzgry::1992-11-07:SG:F:Battledome Challenge:suicune558
suicune558nike558:Barbie5:suicune558_cool@hotmail.com:1992-03-07:SG:F:none:Daphne Tan
suicune567431:kachu99:spellerjennifer@yahoo.co.uk:1988-05-19:GB:F:none:Jenn Speller
suicune5678:celibe10:rafaelvieira9@yahoo.com.br:1993-03-01:BR:M:none:rafael vieira
suicune5741:dudes5741:greenthumb1@hotmail.com:1980-09-11:US:M:71.136.81.148:rughreug
suicune576:london57::2001-10-20:US:M:69.22.179.111:Ted
suicune578:suicune99:mummy992@yahoo.com:1992-03-13:US:F:65.184.60.57:suicune
suicune588:fleech:schwarzeseele@gmx.ch:1989-02-23:CH:F:none:suicune schmid
suicune5954:mouseflameplay888:midnitezzsnak@hotmail.com:1991-10-03:AQ:M:none:suicune5954
suicune5954_storage:superman8:midnitezzsnak@hotmail.com:1980-01-01:CA:M:none:suicune 5954
suicune5955:maxentei::1990-10-03:CA:M:none:none
suicune5956:metabee::1986-05-21:CA:M:none:scott kcaz
suicune611:digimon:suicune511@sbcglobal.net:1987-06-17:US:M:none:Alex Chang
suicune624:stormy624:stormy_the_kitty@hotmail.com:1987-06-24:US:F:none:Christian JenningsBrown
suicune626:1qaz2wsx:Sasuke7198@yahoo.com.ph:1990-11-14:PH:M:124.217.14.204:Ron-Miguel
suicune632:13852::1994-02-10:CA:F:none:suicune632
suicune635_9:hongkong99::2000-02-28:US:M:68.127.95.64:devan
suicune639:rapidash::1994-03-16:SG:F:none:suicune639
suicune64122:11597:teri_mccellan@hotmail.com:1987-09-01:US:F:none:Shay McClain
suicune65:ENTEI655::1995-08-11:CA:M:199.126.50.23:Austin
suicune66:rafalu66::1999-12-23:BR:M:187.113.68.116:NULL
suicune671:swoosh:stevns@comcast.net:1984-06-22:US:F:Can I be your NeoFriend?:PokemonWizard
suicune673:zigur:xzarcodea@myway.com:1990-10-31:EG:F:24.151.125.132:Sui
suicune683:fishtail::1993-01-12:US:F:none:suicune683
suicune697:entei00:blueswablu@yahoo.ca:1993-01-23:CA:F:none:erica aguete
suicune7:luke12:philip.embley@btinternet.com:1992-09-22:GB:M:86.151.125.15:Luke
suicune7000:131199::1999-11-13:MX:M:201.173.211.10:david
suicune707:water39dog::2000-10-04:US:M:68.99.240.160:NULL
suicune716:kyogre:chloe.favero@voila.fr:1991-07-04:FR:F:none:chloe favero
suicune75:iluvmarkie233:suicune65@yahoo.com:1985-12-28:US:F:96.235.182.217:bayleef
suicune76_5:SELENAGOMEZ76::2000-01-19::M:69.225.252.103:NULL
suicune77:spiderman888::1998-04-03:CA:M:24.66.94.142:nicholas
suicune770_ii:thunder2:twin.tornados@verizon.net:1990-03-19:US:M:none:don\\ ask
suicune777:eradicate::1992-03-15:US:M:none:none
suicune777444:fire12:DMACNDZUS@TELUS.NET:1988-06-15:CA:M:154.20.242.45:sasha
suicune778:vegeta:spiritpaw@att.net:1989-10-12:US:M:Mail from ultradude160:Mark Summers
suicune7796:poke33::2000-10-07:US:M:71.3.92.138:Arturo
suicune780:student34::2000-02-23:US:F:75.25.137.136:Michelle
suicune784:hlvj1:barbara_pitty1@hotmail.com:1992-03-11:BR:F:none:heranto junior
suicune788:230393hoong::1993-03-23:MY:M:116.206.57.58:suicune788
suicune7888:241169:regiceex@yahoo.com:1993-03-23:MY:M:none:Zhi Hoong Chong
suicune79:suicune111::1997-03-09:US:M:64.53.4.254:Dylan
suicune7974:sharonlu:kia39@yahoo.com:1987-02-28:JP:F:none:Kaiyeena Tashi
suicune8:dierbaar88:roosjelovergirl@hotmail.com:1993-01-26:NL:F:83.128.21.159:Rosa
suicune80:kangaroo:dantheman533@hotmail.com:1990-08-01:US:M:none:none
suicune852:raikouentei852::1993-03-31:US:M:none:suicune852
suicune868:kanto1234::1993-10-12:PH:M:none:suicune868
Suicune87:casey8978:c_mashaney@ymail.com:1995-07-28:US:M:69.149.214.111:NULL
suicune887:22295:remyneher@yahoo.com:1982-02-23:US:F:neofriend:U don\\ need 2 know
suicune888:flygon88::1998-08-20:CA:F:64.59.144.85:Jessica
suicune888888:HYDROg3n::1992-07-23:SG:F:none:Armin
suicune8899:Milotic88::1997-02-10:FR:F:69.158.127.94:Alexis
suicune8910:Hook1Cool::1993-10-13:US:F:none:suicune8910
suicune8912310:pika8912310:pc.wong@yahoo.ca:1994-07-01:CA:M:216.58.118.93:NULL
suicune894:sparky894:sparky8popcorn@yahoo.com:1992-03-07:US:F:168.11.117.39:Inieu
suicune8_8_8:benben88::1999-08-06:GB:M:195.93.21.37:ellis
suicune9000:bonjovi:tobeyxandxme@msn.co.uk:1990-05-04:GB:F:none:chloe banks
suicune9000000:oreo33:ken_henderson@comcast.net:1986-06-03:US:F:none:Amanda Henderson
suicune90210:molly219::1997-03-21:US:F:75.4.69.183:Elizabeth
suicune908:hydro::1994-04-09:US:M:none:suicune908
suicune909:leuck01:simpsonsrule1994@aol.com:1988-06-09:US:F:none:Emma L
suicune91:memo91:mehemet_okan@hotmail.com:1994-04-01:NL:M:62.194.193.147:mehmet
suicune917:serebi:n_hedgecoth@hotmail.com:1978-01-20:US:F:none:Rachel Hedgecoth
suicune922:monkey92:dpenn2292@yahoo.com:1992-05-08:US:M:12.106.161.176:hyper hulk
suicune926:matthew123::1998-12-12:US:M:69.110.17.162:Matthew
suicune930618:huanggai:cao_cao_vs_lubu@yahoo.com:1980-06-18:MY:M:none:happy day
suicune93169:mitzie::1993-09-16:US:F:none:suicune93169
suicune933:666539:deandre_penn@hotmail.com:1991-05-08:US:M:none:deandre penn
suicune94:juan94:juanrs94@hotmail.com:1994-03-08:CR:M:201.204.19.134:juan
suicune95:Anna1995::1995-11-11:DE:F:85.181.112.105:Anna
suicune957:Gold9::1990-09-09:US:F:none:suicune957
suicune961:9614379::1998-03-03:PH:M:12.127.51.82:ethan
suicune962:marieclaude::1993-08-14:CA:M:none:suicune962
suicune97:horohoro97:arka-sokaklar-berk@hotmail.com:1990-01-09::M:78.173.209.217:NULL
suicune9731:SuIcUnE1:diddlina9731@excite.it:1987-04-10:IT:F:none:federica lulla
suicune975:pokemon::1991-11-20:US:M:71.86.183.117:suicune975
suicune987:pokemon11::2001-06-23:DE:M:87.144.93.4:edi
suicune987raikou:pokepoke:kenzansu_v2@yahoo.com:1991-03-20:US:M:acceptance:bleh heh
suicune989:markh:merunningdeer@aol.com:1987-03-11:US:M:none:mark hodges
suicune99:4879248632:gracie@spaforhome.com:1987-01-01:CO:M:none:Alexander Mcphail
suicune9909:articuno99::1978-01-04:US:M:71.125.25.39:harold
suicune99163:raikou999::1993-07-10:GB:F:none:suicune99163
suicune992:yingshi91::1992-10-07:AU:M:none:none
suicune99227:slush::1990-12-14:US:F:none:Lukien
suicune997:weber_:niseweber@aol.com:1987-05-17:DE:F:none:eilleen weber
suicune998:horseshoes33:coriunicorn@yahoo.com:1995-09-27:US:F:24.130.176.71:suicune998
suicune999678:nature820:suicune999678_1@hotmail.com:1993-06-11:US:M:173.73.77.101:Ryan
suicune9999:suicune11::1998-08-13:SG:M:165.21.155.108:suicune
suicune99999:suicune11::1998-08-13:SG:M:220.255.7.144:entei
suicune999_29:243244245a:pokemon291996@aol.com:1996-8-29:US:F:98.249.195.195:amanda
suicune99_:shopping99::1999-7-2:US:F:70.135.112.239:lauren
suicune99_6_6_6:ninja99::2000-11-01:BR:M:189.64.45.205:lucas
suicune99_as:190799::1999-07-19:IT:F:93.69.46.174:antonia
suicuneandeusine000:CERVANTESDELEON::1993-07-05:US:F:none:suicuneandeusine000
suicuneandlugia:water10::1999-02-25:GB:F:90.216.177.181:Eva
suicunebabe:raikou:amyunwin@hotmail.com:1983-10-28:GB:F:none:Suicune ****
suicunebaby:dogchild13:kemuriumi@aol.com:1989-03-06:US:F:172.131.208.151:Suicune
suicunebg29:suicune29::1995-10-31:MX:M:189.174.160.9:alejandro barraza gomez
suicuneblast:silence::1993-04-02:US:M:Mail from theneopetsteam:suicuneblast
suicuneblue:123000:samanthasmith24242424@gmail.com:1989-02-24:US:F:205.166.218.69:sam
suicuneblue_33:123000::1999-05-24::M:205.166.218.71:NULL
suicunechild:waterstone11:TwoOtterPups@gmail.com:1995-07-21:IS:F:76.21.89.134:Sapphire
suicunedark:6c5gk5:turkem74@hotmail.fr:1993-09-08:FR:M:none:.......... ..........
suicuneds:dragons22:coolsk8erboi1988@yahoo.com:1988-06-27:US:M:71.1.100.248:Fire Starter
suicunedude:suicuner2:bealerboys207@direcway.com:1989-01-02:US:M:none:Francis Bealer
suicunee432:suicune432::2000-12-02:US:F:80.12.97.148:NULL
suicuneeeee:assdxc12:suicunepokemon@hotmail.com:1992-01-02:BR:M:189.13.155.135:suicuneeee
suicuneeeeee:211092:M_ANGEL_92@HOTMAIL.COM:1993-10-21:CL:M:190.46.109.9:MIGUEL ANGEL CARRIZO DONOSO
suicuneenteilugia:legends!!:baltolightfoothoof_990@hotmail.com:1990-06-29:US:F:none:Rosemane Clouddancer
suicuneenteiraikou_2:Pokemaniac_21:Diego.Tandoc@Gmail.com:1970-08-24:AU:M:58.105.185.137:Diego
suicuneentierikue:cainine10670:he10670@students.nebo.edu:1992-08-10:US:F:none:marlanex cansan
suicuneer:suicune:dominicsexton@blueyonder.co.uk:1980-10-11:GB:M:none:Suicune Suicune
suicuneex:LUGIA456:kerprymon456@hotmail.com:1975-04-05:SG:F:none:latias latios
suicuneex100__xx:fun27:sunnyherman@sbcglobal.net:1992-12-11:US:F:none:sunny herman
suicuneex1996:13579:eidmar@zaz.com.br:1992-02-02:BR:F:none:Ana Neri
suicunefan:1quotient2::1995-12-21:DE:M:91.62.108.89:Tristan
suicunefan1861:jordan1234:Spiderpig1861@gmail.com:1995-02-05:US:F:24.159.184.76:Jordan
suicunefan321:Gage12:pbrashears@bellsouth.net:1985-06-18:US:F:70.153.118.73:Crystal suicune
suicunefer:pika10::1997-02-16:BR:M:201.69.99.18:Suicune Fernando
suicunefire:lucario462:rushtonhicks@gmail.com:1996-2-15:US:M:97.119.209.164:rushton
suicunefreak:X995an2z:tashke_@hotmail.com:1990-06-07:BE:F:81.164.147.158:Riyu
suicunefreak2190:4221996:archer2190@hotmail.com:1990-04-22:AU:M:none:Thomas Le
suicunefrost:masterball:missysuicune@yahoo.com:1990-11-06:US:F:none:Suicune Frost
suicunegaran:garojo12:lois-gabrielmartin@hotmail.com:1990-04-03:BR:M:200.228.76.55:Gabriel
suicunegirl:ejml1998::1998-08-16:TO:F:58.251.100.229:Emily
suicunegirl245:suicune445:sugarkitty323@aim.com:1995-01-23:US:F:204.210.206.198:Erin
suicunegoddess:gosselin:tinyhorselover@hotmail.com:1985-12-02:AW:F:none:Jazmine Wolfington
suicunehannah:kitty1813::1994-01-23:US:F:none:suicunehannah
suicuneice:chickie::1992-07-25:US:F:none:suicuneice
suicuneicecluster:Ancient Mew:magicianforce2@aol.com:1988-02-02:US:M:Mail from prettygirl2004192:Matt Redquarry
suicuneicestar:kaena:joyster@gte.net:1987-02-19:US:F:none:.....
suicuneicewolf:entei1:suicunewolf@hotmail.fr:1992-07-04:FR:F:none:suicune wolf
suicunejotho:4175410::1997-05-21:PH:M:222.127.223.73:simon
suicunekai:kaikai:theilse@hotmail.com:1983-07-10:NL:M:none:kai nijen twilhaar
suicunekid2:kasper12:goofbi@hotmail.com:1992-09-14:US:M:72.80.242.86:jeremy
suicunekiller123:suicunekiller123::1998-07-12:GB:M:86.161.1.15:stephen
suicunelegend:northwind60::1997-10-07:US:F:75.74.252.2:Suicune
suicunelissa:39000:dottychao@hellokitty.com:1961-12-25:US:F:none:Larissa Oshima
suicunelissa9:39000:dottychao@hellokitty.com:1961-12-25:US:F:none:Larissa Oshima
suicunelkc3__yy:lkc33aa:emihurt@showme.net:1988-06-23:US:F:204.8.190.148:kelly
suicunelover:cats55:jamiethecat4ever@yahoo.com:1993-06-02:US:F:75.18.226.201:Jamie
suicunelover0001:sonicx!:blue_blur_01@yahoo.com:1991-06-18:US:F:none:sonic hedgehog
suicunelover101:ninetails::1993-10-13:US:F:none:suicunelover101
suicunelover12:muffins14:kyokoxx@hotmail.com:1993-09-26:BH:F:99.85.13.59:Your mom
suicunelover123:sewrocks!:sbrashears@bellsouth.net:1990-06-09:US:F:none:crystal brashears
suicunelover13:rayquaza12:felician123@gmail.com:1998-09-21:US:F:75.202.169.37:crystal
suicunelover141:totodilemew141:opal_suikun@hotmail.co.uk:1991-10-20:GB:F:none:Opal Pacey
suicunelover22:pokemon22:raikou_master22@hotmail.com:1990-09-05:US:F:67.35.116.225:ashley
suicunelover440209:wpaway99:Koriw95@comcast.net:1982-05-02:US:F:76.112.99.14:Loverina
suicunelover555:Neopetsrule56:patty1956_@hotmail.com:1995-03-08:US:F:76.198.248.242:Stefunee
Suicunelover600:keper90::1998-10-06::F:99.189.187.64:NULL
suicunelover6000:keper90::1998-10-06:US:F:99.189.187.64:Sienna
suicunelover93:drake:suicunelover93@yahoo.com:1991-03-17:US:F:none:shaysomething
suicunelover_28634:wetseal08::1998-05-15:US:F:75.61.90.157:Kylie
suicunelovesespeon:espeon1:dark1starr@aol.com:1977-01-17:US:F:none:Robin White
suicuneluffer:avalace123:SuicuneLuffer@aol.com:1990-11-14:US:F:65.185.188.134:Pickle
suicunelugia:332518540:IjuinEnzan_SuicuneLugia@hotmail.com:1991-07-09:HK:F:219.78.198.179:Ijuin Enzan
suicuneluna:Secret ;)::Secret ;):Secret ;):Secret ;):Secret ;):Secret ;)
:::::::
suicunelupecarnivor:shaggymisha:paul_ina_1994@hotmail.com:1990-11-23:PL:M:none:suicune gorbryczek
suicuneluva:121294::1993-12-12:AU:F:203.134.189.105:Suicune
