sukineko9:c1over2::1997-04-20:US:F:71.111.88.159:ralu
sukinekocat:tsumi911:sk8ercat3000@gmail.com:1993-08-23::F:70.153.245.252:NULL
sukinekoinlove:escaflowne:ilovejohnforlife@yahoo.com:1991-11-20:US:F:none:Frances Liu
sukinekokun:BNSP17012310:orca@evc.net:1989-12-14:FX:M:none:Neko Kuroi
sukinekosama:666bub:werepeach@hotmail.com:1989-01-27:US:F:none:Mandi Rossi
sukinelle:rarara_:yukaxmusic@yahoo.co.jp:1991-12-24:JP:F:none:Ｕｋａ Nakamoto
sukinelpeto:uglyashley:daboy420@hotmail.com:1969-02-25:DK:M:Acceptance:jared jared
sukineneo:kayla345::2001-05-05:US:F:24.251.196.144:teresa
sukineo:sukineopet21::1998-02-17:US:F:70.156.233.98:sarah
sukineo0305:jjbjneo:is-net@sbcglobal.net:1991-03-05:US:F:none:Jihye Kim
sukineopeo:japan12212:rabiya0618@yahoo.com:1975-06-27:US:F:174.65.29.185:Suki Otto
sukinexus:020772591:babyblue_tabey_1@hotmail.co.uk:1991-05-02:GB:F:81.174.250.221:Suki
suking:dabaichi@:suking883@sina.com.cn:1986-03-06:CN:F:61.135.214.52:suking wang
suking1997:970311::1997-03-11:CN:F:203.218.126.104:suking1997
suking19970311:ngszeki12::2008-01-28:HK:F:203.218.126.104:NULL
suking1998:cindyng1998::1999-01-01:HK:F:202.55.59.21:cindy
suking200401925:1992214:suking200409125@hotmail.com:1992-02-14:HK:F:222.167.71.55:NG Wing Lam
suking5555555:19980928::1998-09-28:CN:M:61.238.67.114:suki
suking883:dabaichi@:shizhi883@sohu.com:1986-03-06:CN:F:none:suking wang
sukingai:KeiKei28::1997-02-08:CN:F:221.127.66.110:魏書琪
sukingau:60565020:yojo_xbg@yahoo.com.hk:1982-09-15:HK:F:61.18.253.73:嘉嘉嘉...
sukingdawgs:420420:smokingfatbluntz@yahoo.com:1960-04-20:US:F:none:budz bluntz
sukingincharge:dabaichi@:suking@mail.nankai.edu.cn:1985-02-04:CN:F:none:susu LEE
sukingincharge883:dabaichi@:suking@mail.nankai.edu.cn:1990-03-06:CN:F:none:mail chen
sukingss:00220022:shadowofmylive@hotmail.com:1988-01-28:DO:F:66.98.40.233:teresa
sukingsuking:dabaichi@:suking@mail.nankai.edu.cn:1990-03-06:CN:F:none:mail chen
sukingwinglam:200409125:suking200409125@yahoo.com.hk:1992-02-14:HK:F:203.83.115.132:ng wing lam
suking_58:qwert12::1998-05-27:NL:M:83.81.244.86:Suleiman
sukinha:2007su:suki-mia@bol.com.br:1988-04-27:BR:F:200.102.107.160:Suki
sukinha123:37960826:silvia.buzi@hotmail.com:1980-03-21:BR:F:189.60.27.254:silvia
sukinha14:aclear14:rbd11-acucena@hotmail.com:1995-05-29:BR:F:187.41.177.165:Açucena
sukinha22:gatinha:sukinh@hotmail.com:1985-08-22:BR:F:none:Suelen *
sukinha252:325100:sophiasd_95@hotmail.com:1983-04-07:BR:F:none:sophia  sonza
sukinha422:14725:pituchad@hotmail.com:1986-05-14:BR:F:none:luiza dadalto
sukinha94:deusefiel94:manasusi@yahoo.com.br:1994-06-06:BR:F:201.35.180.51:Susana Pinto
sukinhaa:163664:suelenlokita@hotmail.com:1990-09-04:BR:F:189.62.28.46:suka
sukinhaaa:ca0604::1997-10-17:BR:F:187.89.112.158:Gabih
sukinhah:kcp131:sakurinhaaaaaaaaaa@hotmail.com:1985-06-10:BR:F:none:Patricia Oliveira
sukinhah618:fran1:francielemolina@yahoo.com.br:1992-05-18:BR:F:none:Franciele Molina
sukinhahello:dulce271293:sukinharbd@yahoo.com.br:1993-12-27:BR:F:none:suelen semeler
sukinhamarques:030400:gatinhasuca@yahoo.com.br:1993-01-04:BR:F:189.25.214.222:Suellen
sukinhasilva:bruno*:zaninh@hotmail.com:1990-07-02:BR:F:189.6.56.160:Suzana SIlva
sukinha_:monike87:moniqueneves@gmail.com:1987-01-07:BR:F:201.51.242.136:Monique
sukinha_08201:familia28:guto_map@hotmail.com:1992-04-19:BR:M:189.115.248.141:sukinha_08201
sukinha_1:87243077::1996-07-10:BR:F:200.223.62.182:Suelen Naiane
sukinha_13:susuka13::1996-07-27:BR:F:189.35.56.202:Suka
sukinha_15:carolzinha19:xxdoidinhabrxx@hotmail.com:1992-11-15:US:F:24.60.61.14:Lorrane Patricio
sukinha_1998:euclides1998::1998-02-19:BR:F:189.114.194.125:súh
sukinha_30:sammantalove18:sammantanunes11@ymail.com:1990-11-30:BR:F:187.64.57.37:Suendy
sukinha_9:rockstar21:suka_pets@yahoo.com:1993-09-17:BR:F:189.46.178.43:suilan isidoro de souza
sukinha_a36:jun1994:juliadubi@hotmail.com:1994-06-23:BR:F:189.83.157.224:julia alvarenga barbosa
sukinha_dbn_:edilson123:suka_malukinha_@hotmail.com:1991-12-20:CN:F:200.206.194.145:kathleen
sukinha_jo:suzana802802:caionissei@hotmail.com:1992-01-20:BR:F:189.115.254.121:sukinha_jo
sukinha__90:lorena123456:jana_qv@hotmail.com:1985-04-19:BR:F:189.87.21.169:sukinha_90
sukinho97:gabriel07:dennamacena2009@hotmail.com:1980-09-26:BR:M:189.46.248.142:gabriel
sukinho99771377:99156480::1995-10-04:BR:M:189.4.46.241:Matheus
sukinholo:pinkluvr05:nicolecunanan@yahoo.com:1995-07-05:US:F:67.167.219.140:Nicole
sukinhookn:rsqqqy96:yahyahut@yahoo.com.br:1978-01-01:NF:M:114.4.12.16:Mydlened
Sukinhow:koori21:sukinhow_uchiha@hotmail.com:1993-10-21:US:M:189.46.74.137:NULL
sukinho_101:suelem22::2000-04-09:BR:F:209.234.252.28:suelem
sukinho_15:susu123:suelen_jss@hotmail.com:1994-07-01:BR:F:201.75.129.13:Suellen
sukinho_de_amora:10101996:siter.10@hotmail.com:1989-10-10:BR:F:201.51.68.250:mirela caroline
sukinho_suelem_250:suelem250::1999-04-09:BR:F:201.89.150.158:Suelem
sukinhu_09:35651361:suelen_yamanaka@hotmail.com:1996-03-01:BR:F:201.92.67.182:suelen
sukini:troll1111:sukie@embarqmail.com:1978-11-17:US:F:65.41.189.107:Suzy Register
sukini2:sukini4705470::1999-04-06:AR:M:186.59.136.245:bingo
sukini23:siep23:niektaalman@live.nl:1990-05-30:NL:M:81.207.237.194:niek
sukini97:jazmin1997:jaz-lp@hotmail.com:1993-03-03:AR:F:209.107.209.100:jazmin
sukinichi:janixnedamo21::1999-04-22:PH:F:112.203.113.213:Janix Nedamo
sukinico0915:niki1001:q_niki@yahoo.com.tw:1992-06-03:TW:F:58.115.157.100:緒 小
sukinim:u2look2thesky::1997-05-11::F:76.110.188.138:NULL
sukinita:king97:ana_la_loca97@hotmail.com:1990-04-18:AR:F:206.57.29.54:Anabel
sukiniwa:hinata27:dfirerose@yahoo.com:1994-06-25:US:M:96.8.28.16:Darian
sukini_1:2812823::2001-10-29:EC:F:186.66.87.4:emily
sukini_97:sukini97_:jaz_yolp@hotmail.com:1996-02-06:AR:F:201.255.74.243:jazmin
sukini_no_yume:scar3scar3:sukini-no-yume@hotmail.co.uk:1995-03-21:GB:F:81.99.60.239:NULL
sukini_yume:scar3scar3:sukini-no-yume@hotmail.co.uk:1995-03-21:GB:F:81.99.60.239:NULL
sukinka:ursoman12:enzog12.00@hotmail.com:1993-06-16:BR:F:186.212.25.73:Hana
sukinkhi:abcdefgh10:gabriiel.tomaz@bol.com.br:1987-07-03:BR:F:189.122.48.183:suzi
sukinni:cococo97:mamboo_party@hotmail.com:1997-01-08:CL:F:190.21.97.20:NULL
sukino89:axecsius30:angie_sweet30@hotmail.com:1989-08-30:MX:F:189.208.1.219:angie
sukinohime:sukino11:kawaiixkira@live.com:1996-09-03:US:F:75.83.95.58:Suki
sukinomaxwell:duochan1:the.girl.sukino@gmail.com:1984-11-19:US:F:75.84.42.203:Sukino
sukinome:paulinha15:randomgirl-vip@hotmail.com:1991-10-09:CN:F:201.59.94.127:NULL
sukinomoto:serenaydarien15:epilef.siul@hotmail.com:1993-05-06:CL:M:190.108.144.120:suki
sukinookamihade:puppies12:sukinookamihade@hotmail.com:1996-06-03:CA:M:173.212.118.112:Austin
sukino_13:anto25::1997-08-11:CL:F:190.196.26.166:sukino_13
sukino_94:62593419:hinolio@yahoo.com:1994-04-13:MY:F:118.101.11.129:triela
sukino_serene:sukino15serene::1999-07-31:MX:F:201.130.156.71:sukino serene
sukinpibbles2010:smellysocks2010!::2000-02-29:WF:F:86.3.155.59:Pibbles
sukinsnext:56213874:mentholnext@yahoo.com.hk:1993-07-22:HK:M:221.127.229.232:偉仔RICKY
sukintu:dragongundam:huyanl@hotmail.com:1984-12-18:CA:M:none:bobby jones
sukinu:patrocks11:cherylswanberg@rocketmail.com:1997-05-09:US:F:71.231.34.57:Cheryl
sukinya:sukinya12::2000-08-23:US:F:76.89.89.63:Ichigo.Not really.Victoria.
sukinyappy:morgan13:morgan__huff@hotmail.com:1993-03-20:US:F:75.15.131.139:Morgan
sukinyo:gata2108:kirei_desu_ne@hotmail.com:1982-03-24:CL:F:none:paulina saavedra
sukin_5000:fangpi35::1997-11-09:US:M:209.213.222.210:Alex Wong
sukin_koshatoma:night_89:SukinaKoshatoma@yahoo.com:1989-10-03:US:M:68.58.187.225:Sukin
sukio:racani25:x_zayk_x@hotmail.com:1990-10-07::M:190.75.35.40:olý
sukio0:13245768:sukistephanie@yahoo.com.hk:1988-07-23:HK:F:none:Suki Wong
sukio1196:silver1196:silverwind77@yahoo.com:1993-11-15:US:F:165.248.247.134:Sally
sukio12:purple12::1995-07-29:MX:F:189.154.71.123:Bertha
sukio44:route66:pentacleproductions@hotmail.com:1990-11-28:GB:F:82.0.175.101:
sukio444:pentacle5:sukio444@hotmail.co.uk:1990-11-28:GB:F:none:charlotte parfitt
sukio4444:parfitt::1990-11-28:GB:F:none:sukio4444
sukio90:sunio1::1994-02-24:US:F:none:sukio90
sukio9002:plums::1994-02-24:US:F:none:sukio9002
sukioa:12345b:dezireebarr@hotmail.com:1993-07-14:CA:F:63.135.8.13:dez
sukiobai:dylan77:annakcow@bellsouth.net:1988-09-16:US:F:72.145.255.185:Anna
sukiocot:21120007864359::1997-06-01:US:F:75.169.203.157:Jacklyn
SukioDarkmane:a1ph0ns3kun:lilwhitemage@gmail.com:1983-04-05:US:F:166.216.160.75:NULL
sukioden:sakura15:nia2ash4@gmail.com:1993-01-26:US:F:74.143.208.252:NULL
sukiofca:shayne::1993-04-22:US:F:none:sukiofca
sukiofmericourt:kalbskopf14:SukiofMericout@gmail.com:1994-04-04:US:F:24.255.124.207:Suki
sukiohikary:20856561:sam_._14@hotmail.com:1992-08-06:VE:F:200.71.162.1:Sam
sukiokami:snowwolf::1993-01-29:US:F:none:sukiokami
sukiokiconrad123:cuddles12::1996-12-14:CA:F:96.30.165.21:Tiffany
sukiomi:been425glib927:lis016@hotmail.com:1985-08-04:CO:F:157.253.251.28:Dayanna Sánchez
sukiomi893:inuyasha27:rubberducky01@sbcglobal.net:1980-06-21:US:F:70.255.183.141:anne
sukiomiku:addidas22:Taiku_chu@yahoo.ca:1992-03-28:CA:F:68.148.178.249:Taiku
sukiomi_:inuyasha1200:klaugalis@comcast.net:1992-05-05:US:F:67.163.53.254:Tara
sukiomi_13:emina:inukashimisa_27@hotmail.com:1991-10-27:CL:F:none:pia varas
sukiomi_15:Naruto15:charmcaster_15@yahoo.com:1990-10-31:US:F:none:Sukiomi Hatake
sukiomi_3:inuyasha 17::1998-08-13:US:F:68.104.33.51:christina
sukiomi_5:cat12:i_love_animalcrossing@hotmail.com:1992-01-07:CA:F:24.137.68.164:shelby neil
sukiomi_anita:musa12345::1978-12-26:MX:F:none:sukiomi minamoto minamoto
sukiomi_kikio:nanik::1984-12-26:MX:F:none:ana cristina garcia  franco
sukiomi_kinomoto:musa12345:lucia_curama@hotmail.com:1976-04-04:MX:F:none:sukiomi kinomoto
sukiomi_minamoto:chopis123::1991-12-18:MX:F:none:Sukiomi Minamoto
sukiomi_n_n:k93aes16::1993-10-16:AR:F:190.51.43.134:Kªt
sukiomi_rock_lee123:sukirocklove12:cpberthafranco@hotmail.com:1977-12-26:MX:F:201.132.254.31:sukiomi takenouchi
sukiomi_shacha:golfos::1987-12-26:MX:F:none:sukiomi minamoto
sukiomi_takarai:87779:andreina_troncone@hotmail.com:1987-11-13:VE:F:200.109.147.144:andreina troncone
sukiomy:perritos2:daniqj@gmail.com:1992-11-22:CL:F:none:Daniela Quiñones
sukiomy_belen:14038462::1997-10-15:AR:F:190.174.214.69:belen
sukiomy_belu:14038462::1997-10-15:AR:F:190.174.203.38:Suky
sukiomy_chan:14038462::1997-10-15:AR:F:190.174.205.116:Youki
sukioneo:989883:anime2118@yahoo.com:1982-12-05:US:M:none:gary sukio
sukionlineforever_gl:49755420::1999-06-25:BR:F:201.74.35.32:sueli
sukiono:Shikibu10:desousasuki@yahoo.com:1979-02-22:US:F:96.233.7.92:Sonia
sukionon:1910819::1991-08-19:HK:F:none:sukionon
sukionsnext:26910519:ricky_3377804@hotmail.com:1993-07-22:HK:M:113.255.3.154:偉仔RICKY
sukioo:suki92::2000-10-31:HK:F:219.78.178.26:suki
sukioooo:081008:iamevachu@hotmail.com:1991-08-10:CA:F:154.20.170.79:suki
sukioop:45618635::1997-12-07:HK:F:219.79.230.67:玖
sukiorangelove:0528ai:love_dogs_orange@yahoo.co.jp:1992-05-28:JP:F:none:おれんじ さきいわ
sukiori:pinkdragon318:pinkdragon318@hotmail.com:1988-03-18:US:F:none:Kitty Lowhorn
sukioro:m4rshm4LL0w:rebeccca@live.com.au:1992-03-08:AU:F:122.104.131.6:Suki
sukios:loverain^^:suekios@yahoo.com.hk:1987-08-13:HK:F:none:淺紫妹
sukioshi:beagle16:christine.buswell@yahoo.com:1991-05-30:US:F:71.50.6.91:Suki
sukiotama:deanna6:beccaap@cox.net:1981-11-18:US:F:68.97.168.199:I forgot
sukiove:003100213::1996-08-25:HK:F:14.198.245.56:NULL
sukiowari:cmg1989:sailormoon206382@yahoo.com:1989-06-25:US:F:76.202.83.219:cristel
sukioyobikirai:Al0h0m0ra:chlorinecrazie@yahoo.com:1991-04-09:US:F:12.152.38.234:Vala
sukioyobikiraii:Al0h0m0ra:chlorinecrazie@yahoo.com:1991-04-22:US:F:none:boo bee
sukioyoyo:zaq1xsw2:metal_devil99@hotmail.com:1990-01-01:CA:F:99.224.21.237:NULL
sukio_bibi:222444:curry_1314@hotmail.com:1992-05-26:HK:F:none:aR 哩
sukio_kiki_1:mew123:cj_822@hotmail.com:1994-05-06:US:F:64.135.92.186:makenzie
sukipaaa:car_pool00:dont_flatten_my_cat@hotmail.com:1990-11-26:GB:F:none:cate mwahzeeemwahmwah
sukipanda:574912:pumkin941@yahoo.com:1995-01-09:US:F:71.103.32.70:Melinda
sukipang:559959:sukipang0726@yahoo.com.hk:1985-07-26:MO:F:none:＠魔法仙子＠ ＠魔法仙子＠
sukipapol13:carta::1992-08-28:ES:F:none:sukipapol13
sukipardy94:suki94:pardysophie@yahoo.co.uk:1994-01-06:GB:F:none:Sophie Pardy
sukipatrick:96771342::2005-08-01:HK:M:113.252.2.110:NULL
sukipatrick777:suki77::1997-10-06:GB:M:86.139.181.108:patrick
sukipaz:33pazamor:paz.suzana@hotmail.com:1974-08-22:BR:F:189.1.27.210:Suzana Paz
sukipe:baleia12::2001-01-22:BR:M:189.27.60.19:pedro lucas
sukipeace:lallasuki12:sjaidi@gmail.com:1996-03-28:US:F:76.237.122.19:Sukayna
sukipeets1027:mad222::2000-06-20:CN:F:38.116.192.95:vivian
sukipei:suki1:hunter1896@hotmail.com:1992-08-25:CA:M:none:christian mosher
sukipeighton:peightonsuki44::2004-12-08:US:F:96.227.89.88:peighton
SukiPenghin:x294688:32texans@earthlink.net:1996-07-11::F:71.234.67.239:NULL
sukipenghin_1:x294688:32texans@earthlink.net:1977-07-11:US:F:71.234.67.239:Elyssa
sukipet:d27m06::2000-06-27:BR:F:201.47.161.3:Mariana Sayuri
sukipet1:258pop::1996-03-16:US:F:72.178.102.91:meagan
sukipetogachi:sweets36::1999-11-17:US:F:76.199.123.224:katera
sukipfister:3565858::2000-08-15:US:F:76.242.49.67:suki
sukipiano:207788:tongkh1127@hotmail.com:1991-11-27:HK:F:none:Yuen Yan Chan
sukipiarrate:2darling:what_is_fashionable@yahoo.com:1987-12-04:US:F:none:Suki Pirate
sukipie8:lolissokoolio813:sukipie4@gmail.com:1993-11-04:US:F:24.4.195.172:becky
sukipirate:2devious:your_crimson_corruption@yahoo.com:1985-04-25:US:F:none:Suki Pirate
sukipk:33416:gigisuki10@yahoo.com.hk:1990-09-02:HK:F:none:晴 晴
sukipo:megaman44::1998-12-25:MX:M:189.140.103.96:erik
sukipolly:27964769:polly20050617@yahoo.com.hk:1991-10-10:HK:F:none:polly suki
sukipoo:cj623:oobabiegurl17oo@aol.com:1985-12-17:US:F:none:Jessica Vazquez
sukipooh:sukipooh516:sczfarag@hotmail.com:1961-05-16::F:98.119.138.88:NULL
sukipoonsw:25643130:sukipoonsw@yahoo.com:1985-12-05:HK:F:222.166.160.196:suki poon
sukipoo_7_7_7:sukipookers 12::2000-04-25:US:M:24.130.107.110:Jason
sukipop:acesusan!:suzie_is_around@hotmail.co.uk:1991-01-18:GB:F:none:susan harrison
sukipoppy:poppy::1992-10-18:GB:F:none:sukipoppy
sukipowder__aa:coolcat34::2000-09-07:AU:F:121.218.44.88:alayna
sukippaa:yumemizakuranokinosi:oozasa-h@m41.sanuki.ne.jp:1986-06-18:JP:F:Mail from theneopetsteam:茜
sukipper:13232221:skipper940@jcom.home.ne.jp:1991-06-02:JP:F:none:ゆき とよだ
sukiprincess:520520:zhoumo9754@hotmail.com:1992-05-07:KR:F:none:suki .
sukiprincess86:991314:sukigirlqq@hotmail.com:1986-08-22:US:F:202.151.203.28:suki
sukipri_mau:alita3345::2008-12-07:CL:F:186.105.148.48:NULL
sukipt:agonia20:vhagonia@hotmail.com:1983-10-19:PT:M:none:Valdir Agonia
sukipu:97844123::2000-07-09:MY:M:60.50.38.97:OO XIN ZHE
sukipu2812:28121998::2001-07-09:MY:M:203.82.92.7:NULL
sukipug:speedy32:pugreefer@yahoo.com:1975-02-17:US:M:none:R E
sukipui76:199376::1993-06-09:HK:F:none:sukipui76
sukipuki:babychambum:sweatpea79792553@aol.com:1989-07-20:US:F:none:stephanie caunt
sukipuki10:vancas10:lil_gymnast_0987@hotmail.com:1971-10-09:CA:F:none:vanessa orgera
sukipuki3000:tricia123:funkyrose61@hotmail.com:1993-05-09:CA:F:none:melonie klay
sukipup:peter42::1997-07-30:AU:F:121.210.181.111:lucy
sukipuppy1:SABRINA02::2001-01-17:US:F:69.204.165.122:Bailey
sukipuss:one23:heebeejeebees@coolgoose.com:1991-12-29:GB:F:none:han c
sukiputi_a0:7281159:cocoamonkie2002@yahoo.com:1992-04-29:US:F:24.167.114.137:Sarah
sukipuy:98763969741::1998-08-27:HK:F:221.127.43.231:NULL
sukipu_6_5_7:12sukipu::2000-07-09:BH:M:203.82.87.8:xin zhe
sukip_angel:lllll:fanitcie@yahoo.com:1979-07-10:CN:F:206.126.92.118:Linda Hu
sukiqb:b19921223:qqb19951223@hotmail.com:1988-12-23:HK:F:none:qqbs chan
sukiqqng:nsk36%:hellosuki_26@hotmail.com:1990-08-26:MY:F:118.101.69.202:ng sut kian
sukiqqqq:91253762:sukiqqqoo@yahoo.com.hk:1979-12-05:HK:F:none:Wong Pik  Han
sukiqueen:151515::1993-09-15:HK:F:none:sukiqueen
sukiqueenie:64143070:260577520@qq.com:1995-06-09:CN:F:124.78.211.73:曹玥
sukiqw:777777::1999-12-14::F:62.90.143.160:NULL
sukiqwer:1a2s3d4f5g6h7j8k9l0::1998-05-06:GB:F:80.229.2.16:mollie
sukir:poopoo1:sorarikuding@yahoo.com:1993-06-21:US:F:none:aaron radison
sukir0s3:krazy4eva:aimee_barrett94@hotmail.co.uk:1988-04-14:GB:F:82.44.210.63:Suki Rose
sukir1:qazwsdf11::2005-11-12::M:98.169.113.188:NULL
sukir18:qwert567::1997-04-18:US:M:71.74.192.141:evan
sukira:ninny:jlcrvns@aol.com:1987-02-05:US:F:none:Sasha Rin
sukira00:scarletsaya11:h.so61@yahoo.com:1993-05-20:US:F:67.33.135.93:hannah
sukira08:mz520123:Akira_shihara@yahoo.com:1992-09-28:PH:M:124.217.119.65:Leomer
sukira1:kraaien12::1997-08-10:NL:F:195.241.126.102:NULL
sukira1010:1998palol::1998-09-29:MX:F:189.243.63.29:Paulina
sukira3:ranna10::1996-08-12:BR:F:189.12.254.66:ranna
sukira345:28842800::1998-02-11:HK:F:222.166.181.32:鄭愷嫣
sukira567:saleema10::1998-02-09:CA:F:64.228.203.192:Mariam
sukira78:6262008::2000-06-26:US:F:24.94.86.239:kamakana
sukira9382:(miko)::(miko):(miko):(miko):(miko):(miko)
:::::::
sukiracha:ellen17:kitty_klein777@hotmail.com:1991-10-09:BR:F:201.86.142.66:Ellen
sukiradio:sukisiu@:sukisiu_903radio@yahoo.com.hk:1988-04-08:HK:F:221.126.121.12:chan chan
sukirae:barbiegirl:choking_lamb@hotmail.com:1985-06-21:US:F:none:Suki Rae
sukirai:normal:everaftergirl17@aol.com:1984-03-20:US:F:Item:Rae Lynn
sukirain:1c2a3d4b5c:sukirain1991@yahoo.com.hk:1991-08-26:HK:F:221.127.15.190:ho wing yi
sukiralayoutz:abackk26:sukiralayouts@yahoo.com:1991-02-06:US:F:none:Kim Rillera
sukiran103:beyblade:denisha@hotmail.com:1961-02-01:CA:M:none:sajeen sri
sukiranoshiro11:iluvu22::1998-08-17::F:75.91.54.60:NULL
sukiraru:1230sa:sarindokue@yahoo.com:1994-12-30:US:M:67.232.136.4:Skylar
sukirastar:STARESTRELA29larissa:wilson.cicero@ig.com.br:1994-05-29:BR:F:189.33.36.89:Larissa
sukirat675:pablo675:sukiratsingh675@hotmail.com:1989-06-20:AU:M:none:Pablo Singh
sukirat__25:disco22:Sukiratsteel@hotmail.com:1994-03-20:CA:M:99.244.109.46:sukhraj
sukiraul:1314521:breezecloud2000@yahoo.com.cn:1977-05-22:CN:F:none:hou suki
SukiRavencloth:celinda712:silvacelinda@yahoo.com:1994-04-23::F:67.9.69.198:NULL
sukirawaf:321654987:susa_raiaku@hotmail.com:1990-06-28:BR:F:189.16.43.37:Suka Uka
sukiray24:rkh14:yukitenshino@hotmail.com:1989-11-27:US:F:none:rachael herrera
sukirayearth:japans::1993-08-15:US:F:none:sukirayearth
sukira_21:111222:ana.ana.sulkiranabintiaziz@gmail.com:1987-09-11:MY:F:60.50.227.188:sulkirana bte aziz
sukira_kimoto:stars:pnapple@hanmail.net:1968-04-15:KR:F:none:Sue  Cho
sukira__87:belono56::1999-07-11:PE:F:200.121.233.114:aby
sukire:791382465:nanita_en@hotmail.com:1995-12-13:CO:F:190.84.189.15:nana
sukired:louise1990:suki-red@hotmail.com:1990-09-03:GB:F:95.147.175.88:suki
sukirei:frogita:malobabi@hotmail.com:1990-10-03:AU:F:none:mandaR ^^
sukirei_6:REISEI123789::1999-02-16:JP:M:125.30.122.174:丹沢黎星
sukirer:diego1:diegogrgerman@hotmail.com:1990-07-10:US:M:74.254.16.83:Diego
sukireynolds::::::90.211.238.22:NULL
sukire_kanami:starchi12:Jsherpa575@yahoo.com:1985-07-03:US:F:66.75.56.201:Sukire
sukiri:carmen96:carmen.96311@gmail.com:1987-03-11:MY:F:124.82.56.191:Wong
sukiri297:ewcreepy297:sukiribishi@hotmail.com:1991-12-02:US:F:71.38.242.174:Sukiri
sukiri77343:89590:maria1580@sbcglobal.net:1990-10-28:US:F:none:Joana Sanchez
sukiriffic:banana:suki@babiestastegood.com:1986-06-04:US:F:74.75.123.205:Suki
sukiriku:leci89:eleciaharris@gmail.com:1989-12-17:US:F:78.89.133.6:Suki Hurtado
sukirin:dwy3589857d:dreamingsakura94@hotmail.com:1994-01-17:NZ:F:222.155.167.244:云无忧
sukirina_300:147258369987::2000-07-03:CO:F:190.156.235.3:isabella
sukirinoa:sam00n::1993-10-23:AU:F:none:sukirinoa
sukiris:96jc0216:crazysuki1992512@yahoo.com.hk:1992-05-12:CN:F:none:sukiris xxxxxxx
sukiritch:GLENECHO::1992-12-04:GB6:F:none:sukiritch
sukirno:enjoy::1973-04-15:EN:M:NULL:NULL
sukiro:pokemon10:german85400@hotmail.com:1994-02-09:US:M:70.181.28.192:german
sukiro13:bissara:sukiro_chan@yahoo.fr:1990-06-17:MA:F:81.192.111.81:Dodge Viper
sukiro2003:panchita12::2003-08-31:CL:F:201.241.64.200:sofia
sukirobin:kaelfier1:eunice40mary14@aol.com:1990-09-26:US:F:none:Mary  K
sukirobinho:robinho11:hnicotines@yahoo.com:1965-01-02:US:M:64.69.108.254:nu
sukirock:cole98::1998-8-1:US:F:75.212.139.92:hope
sukirocks:sukiel96:mariopower221@hotmail.com:1993-02-28:DO:F:200.88.118.155:elisa
sukirocks13:whatever013:suki-is-cool@yahoo.com:1993-10-14:US:F:none:Phelan Archuleta
sukirocks202:kaylaho64::2002-02-03:US:F:69.226.235.219:Kayla
sukirocks22:funpet1999::1999-04-22:US:F:69.226.235.219:taylor
sukirockslol9:taylorho99::1999-04-22:US:F:69.226.248.213:taylor
sukirocksomg:sukiho101::1999-04-22:US:F:69.226.248.213:Taylor
sukirojas:159852::1996-03-22:VE:F:200.93.4.46:genesys
sukirose:laracroft:laracroftaventuriere@hotmail.com:1989-11-07:DO:F:none:lara croft
SukiRoseEssence:ozzie99elephant:sukirose@hotmail.co.uk:1996-03-16:GB:F:86.140.42.28:Suki
sukirosepop3:sn0wman123::1998-03-03:AU:F:122.108.187.53:sonja downs
sukiroshiro:azulao23:sukiroshi@hotmail.com:1979-05-17:BR:M:none:Sukiro Shi
sukiroxmehsox89:imsuki:brandnewrox89@yahoo.com:1991-07-05:US:F:none:suki none
sukiroze:Welcome2008:Pretty-eyes-Jones@hotmail.com:1991-09-24:US:F:98.16.120.81:Danielle
sukiro_shikari:bleep123:rune_soldier_tyrene@yahoo.com:1988-09-29:US:F:68.62.55.252:Sukiro Shikari
sukiro_shiroi:skywise1:d.white7464@sbcglobal.net:1988-12-19:US:F:none:Sukiro Shiroi
sukirrari:208.00::1998-03-13:BR:M:189.104.162.206:sukirrari
sukirrari1:jamilson12::1998-03-13:BR:M:189.104.174.118:sukirrari
sukirsa:Severus12:ZaaraSlytherin@gmx.de:1985-02-26:DE:F:217.225.174.72:Eva
sukirtha14:THIEVIEYA::1993-08-10:CA:F:none:sukirtha14
sukirthi_sashvath:sashvath2000:sukirthi.elangovan@gmail.com:1996-02-19:IN:F:59.92.28.181:Sukirthi
sukirthi_sashvath_1:sashvath2000:sukirthi.elangovan@gmail.com:1996-02-19:IN:F:115.242.206.99:sukirthi
sukirti:sukirti19:sukirtiverma@gmail.com:1988-10-19:IS:F:59.180.97.53:sukirti
sukirti_singh:disdain19:sukirtis@gmail.com:1990-05-19:IN:F:none:Sukirti Singh
Sukiru:hakai00:shardae_danica@yahoo.com:1995-10-21:US:F:209.173.188.118:NULL
sukiru13:baka1:kurobakaito@hotmail.co.jp:1992-09-08:JP:F:none:箕輪 スズ
sukiruiz:sukiruiz0502:ruthy225@yahoo.com:1995-05-02:US:F:64.53.153.240:elizabeth
sukirules:082493::1993-08-24:US:F:none:sukirules
sukirules70:dolphin::1993-08-24:US:F:none:sukirules70
sukirulesblones:pinkparakeet411:pinkparakeet@cox.net:1993-05-19:US:F:none:Catie Solor
sukirully15:rukilupegrl:annewhitlow428@yahoo.com:1982-10-19:US:F:Warning from The Neopets Team:no  one
sukirurouni:keikocat007:rabiddog13@aol.com:1988-10-22:US:F:none:miss kauru
sukirutan12:Aaaa12345::1998-12-16:JP:F:84.127.83.190:sukiru
sukiry:candadosycadenas12:ttdunan_8@hotmail.com:1994-06-12:AR:M:201.253.135.112:Tomas
sukiryan:suki33:sukipheobe@hotmail.com:1990-02-14:CA:M:68.150.164.225:ryan
sukiryu:haileyn:jabberwockie@insightbb.com:1981-02-26:US:F:none:i have no name
Sukiryu1994:hello!1234:jadinelevy@hotmail.co.uk:1994-03-09:GB:F:82.29.141.191:NULL
sukir_mague:youvas24:andy_hal@hotmail.com:1994-01-13:MX:M:187.198.187.56:andres
sukir_sukir_a84:12345::1999-01-08:EN:F:NULL:NULL
sukis:860213:jc_jeanching@hotmail.com:1986-02-13:MY:F:none:ooi sze ching
sukis2_dude:aoife12:mcnuggetys_father@yahoo.com:1989-01-10:US:M:70.105.83.221:Christian
sukis5:again12:piggychick96@btinternet.com:1993-05-23:GB:F:62.171.198.36:ami
sukis5a01:s5a0188::1992-01-29:CN:F:none:sukis5a01
sukis6a01:s6a0161:sukis4b03@yahoo.com.hk:1987-08-25:HK:F:acceptance:Sin Hiu Wong
sukisa:sasuke1:shimmery_glitter@hotmail.com:1987-12-26:US:F:none:Jessica
sukisaac:sofia90::2005-05-31:MX:M:201.140.72.254:isaac
sukisahn:smile1:kitten3000@mail2world.com:1993-02-18:US:F:none:deana cathcart
sukisahsa:8sashasuki:hick_chick@hotmail.com:1981-03-02:CA:F:none:lkj yrd
sukisai:redmoon1::1994-04-24:US:F:67.189.16.249:sukisai
sukisaiaana:saiaana12::2000-12-18:US:F:66.212.78.220:NULL
sukisaki:simon58:kainoaz@hotmail.com:1973-04-06:US:F:173.242.118.31:Kainoa Sukisaki
sukisakrau88:03162001::2001-03-16::F:97.82.160.46:NULL
sukisakume:aiya19:ambern1@bellsouth.net:1988-03-30:US:F:none:suki sakume
sukisakura:msnmsn12:big_bajen_fan@hotmail.com:1992-02-19:SE:F:83.250.8.160:NULL
sukisakuralovers94:sakura94:girl100sakura@yahoo.com:1994-9-7:US:F:206.108.117.5:Sakura
sukisal:stinkbug11:yellow_dress85@hotmail.com:1993-07-14:US:F:69.144.186.190:Sallie
sukisalad:jelly:yuki_suki02@hotmail.com:1978-06-26:CA:F:none:suki salad
sukisally1:s03061s03061:luisiu921@yahoo.com.hk:1979-01-28:HK:M:221.125.255.240:hillhill
sukisally1989:53578260:may337337@yahoo.com.hk:1991-08-29:HK:F:218.190.0.127:NANA1010
sukisally1991:520131420::1992-08-29:HK:F:none:sukisally1991
sukisam1:sammss12::1997-08-28:GB:F:79.72.117.127:chloe
sukisam128:fcfcfc::1993-12-08:HK:F:none:sukisam128
sukisamscruffy:scruffy!:swh63@optusnet.com.au:1992-03-27:AU:F:none:samantha hopkins
sukisamy:whatisit1:suki_iamsam@hotmail.com:1987-01-01:US:F:none:suki d\\\\\\\angelo
sukisam_1:whatisit9:jennifer_ellen99@yahoo.com:1987-01-01:US:F:none:jennifer dangelo
sukisan:justin:pcm@ptd.net:1990-10-04:US:F:Mail from theneopetsteam:SukiMarue
sukisan1:simba92:donald65@hotmail.fr:1992-04-22:FR:F:none:Daphnée Morais
sukisan111590:y1247695::1990-11-15:HK:F:none:chan suki
sukisan17:sukikun:wolvgyrl1711@netscape.net:1988-05-17:US:F:none:Suki Yazawa
sukisan211:yoda!:dramamonkey211@yahoo.com:1989-02-11:US:F:none:Suki Mayor
sukisan23:mike23:americangirl182000@yahoo.com:1984-03-20:US:F:72.178.2.233:michelle
sukisanchez64:lasagne:natureboy80922@yahoo.com:1982-07-15:US:F:none:molly Tskino
sukisandwich:brady1234:mayzee_xx@hotmail.com:1991-04-13:AU:F:123.2.12.111:Suki
sukisandy:missman38:missman38@hotmail.com:1990-10-21:HK:F:218.103.234.54:Tsang
sukisandy38:missman38:missman729-man@yahoo.com.hk:1990-03-08:HK:F:218.103.218.85:Tsang Sze Wai
sukisanedrin:soktara28:hung_high76@yahoo.com:1992-12-19:US:F:67.181.124.123:Suki
sukisani:yikchoons_1_2:waterxinx@hotmail.com:1996-12-29:MY:F:118.101.83.116:Vanessa
sukisanygretisan:regina21::2001-08-15::F:189.152.119.133:NULL
sukisan_901115:y1247695:cheukkiu2005@hotmail.com:1990-11-15:HK:F:none:chan suki仔
sukisap:anyaangel100:clpp@lifeconsultingservices.com:1975-03-05:US:F:64.246.239.33:cathy  p maher
sukisaphira:green01:WhitneyL.Ingram@gmail.com:1996-05-06::F:98.184.142.13:NULL
sukisaphirasohma:green00::1996-05-06:US:F:68.97.145.23:Whitney
sukisara:kellett123:baremoon@yahoo.com:1990-09-27:GB:F:82.153.194.128:sara
sukisara200409125:1992214:suking200409125@yahoo.com.hk:1992-02-14:HK:F:none:ng wing lam
sukisarada:blahblahblah::1993-05-15:US:F:none:sukisarada
sukisas:Dragons123:spyrocynder@yahoo.com:1992-06-05:US:F:70.191.225.212:Sukisas
sukisasha08266:bathroom08266::1997-08-09:US:F:68.34.148.71:Ariel
sukisasha123:sashasuki1:soccer_girl-12345@hotmail.com:1988-02-04:CA:F:none:cool sweet
sukisativa:iloveme1:suki_sativa@yahoo.com:1987-12-01:CA:F:none:Sita Dumma
sukisato:4712eilir:victoriamolnar@gmail.com:1983-08-10:CA:F:70.74.213.235:Victoria
sukisato90:ashton03::2000-09-19:US:M:63.172.4.6:NULL
sukisatra:kittykat1993:kyliedavis1993@hotmail.com:1993-11-19:CA:F:24.150.184.187:ky
sukisaturn:207760:samar_balouch@hotmail.com:1989-10-26:US:M:71.180.197.68:SukiChan
sukisaurus:donsmalla7:donsmallo@yahoo.com:1993-06-07:US:F:none:Suki Sarah
SukiSayin:poop45:domosbff@gmail.com:1995-09-14:US:F:98.220.31.184:NULL
sukisaysmeow:anakit84:sukisaysmeow@aol.com:1984-05-12:US:F:none:christen weiss
sukisbaby:09091990:huynh.p@sbcglobal.net:1990-09-09:US:F:none:trang huynh
sukisback:taylorswift12:bobthemonkeywon@yahoo.com:1994-06-29:US:F:65.6.198.199:Cassie
sukisblue:sukis:sukisblue@yahoo.com.hk:1991-02-01:HK:F:58.152.149.115:Sukis blue
sukiscarlett:p00p0nu:katlvrs@aol.com:1992-05-17:US:F:68.49.199.189:kat
sukiscuties:mensrea04:rebecca.lamb@bellaliant.net:1976-07-17:CA:F:142.68.213.223:Suki
sukiseal:313131:77-house@yahoo.com.tw:1978-05-05:TW:F:none:陳 小月
sukisen:setembro09:smkisen@gmail.com:1973-09-25:BR:F:187.106.135.71:NULL
sukisensei:kekero:suki-sama@web.de:1990-04-14:DE:F:none:christina kempen
sukiseppina:  ssss:seppina_pink@yahoo.com.hk:1991-07-08:HK:F:none:cheung shi wai
sukisette:sukirox!::1994-04-23::F:none:sukisette
sukisgal:sukhjeet::1992-12-12:GB2:F:none:sukisgal
sukisgigi:hil123123123:sukigigi08@yahoo.com.hk:1988-08-22:HK:F:none:lau hiu  ching
sukish:family:sukrit@btinternet.com:1958-10-31:GB:M:none:SUK SOOD
sukishadow:moons91:SukiKamiko@yahoo.com:1991-03-07:US:F:75.175.238.72:Kris
sukishae:mint0re0s::2005-01-13:UA:F:72.72.143.41:NULL
sukisham:1126991935:sukisham1991@yahoo.com.hk:1991-02-28:HK:F:222.166.160.30:szeki sham
sukisham1991:919351:sukishamhello@hotmail.com:1992-02-28:HK:F:222.166.181.129:suki
sukisham2008:63090178:hotmail2006@msn.com:1979-01-01:HK:F:222.166.160.73:sukisham
sukisharansandy:dssexy::1992-01-01:SG:F:none:sukisharansandy
sukisharon:love4ever:sharonyam110@yahoo.com:1994-01-10:US:F:96.224.187.194:sukisharon
sukishi:adriana08:yojishimpo@hotmail.com:1990-06-06:BR:M:177.30.249.187:NULL
sukishiba:christian12::1997-11-10:US:F:96.250.110.97:cynthia
sukishiffer:ulquiorra04:sarah.peeples@yahoo.com:1991-12-22:US:F:69.40.72.93:Sarah
sukishio:cast14026:icecream199@hotmail.com:1991-10-20:MX:F:none:Eli Ch.
sukishion:misokura45::2000-02-06::F:98.112.221.95:NULL
sukishiro:89365:haru_same@hotmail.com:1989-05-20:US:F:189.158.89.165:Mokona Midoki
sukishirou:908491vld:ZERASU@GMAIL.COM:1989-06-16:CA:M:75.152.78.196:Hyuang
sukishirouni:1l0vestevenv:starburstbunnie@yahoo.com:1986-10-17:US:F:173.26.67.151:Ashley Keplinger
sukishisankneeichii:12sanshi:specialpika48@gmail.com:1995-11-04:US:F:24.20.57.136:Sora
sukishiyou:miaow:kodochafan@hotmail.com:1991-01-06:CA:F:none:Aiko you fools
sukisho:z6221395:polonium_babaa@yahoo.com.hk:1985-11-24:HK:M:219.78.203.98:i have no name
sukisho1:93xrocks::1998-12-01:US:F:184.8.38.234:NULL
sukisho10:m123456:rey4298@hotmail.com:1991-02-14:US:M:189.133.200.252:alex
sukisho1234:momo123:heron1357@hotmail.com:1994-02-14:CA:M:70.55.214.164:chouji
sukisho69:internet10:sukisho69@yahoo.com:1978-07-19:JP:M:none:Hiromi Osawa
sukisho816:kitty23:narutolover79@hotmail.com:1990-08-16:US:F:70.153.211.251:Elizabeth
sukisho903:naruto903:tiffanyhuyeh@yahoo.com:1990-09-03:US:F:63.198.128.9:Broken Spirit
sukisho92:trukid92:spritz206@yahoo.com:1992-05-25:US:F:207.200.116.130:Sharkyla
sukisholove:579513:Kiyashichan@yahoo.com:1989-04-15:US:F:24.238.206.185:Maggy
sukisholoveless2:evil13:sukisholoveless@yahoo.com:1993-05-28:EG:F:none:Lani
sukisho_33_3:fannyyneri22:fanny-rojas@hotmail.com:1992-05-15:MX:F:189.144.82.193:fanny
sukisho_gurl:azumanga12:ANGEL3773@AOL.COM:1990-07-31:JP:F:68.205.218.65:JESSICA
sukisho_kun:yamito1:animekit75@aol.com:1986-01-17:JP:F:none:Rin Hajime
sukisho_nao:last123:evisteensels@yahoo.de:1988-12-20:BE:F:80.137.133.4:shara baum
sukishu:vickyshu:vicky6shu@163.com:1981-10-17:CN:F:none:熠露 束
sukishum2005:24503367::1992-09-26:IT:F:none:蕙婷 沈
sukishum310:1997310::1997-03-10:HK:F:219.78.216.203:Shum Tung Yan
sukishunde:suki123456:luyanjunshunde@hotmail.com:1983-09-10:CA:F:74.116.178.126:suki
sukisil:142536::2002-9-9:PH:F:121.54.29.121:sophia
sukisilverdeath:1234567899:Sukina_Chan@hotmail.com:1992-09-03:VE:F:200.93.44.36:Silver
sukisin:868529:sukisin@ymail.com:1983-11-14:HK:F:58.152.238.157:NULL
sukisinki1997:19971128:joey_6235@yahoo.com.hk:1981-05-25:BZ:F:123.203.152.18:sinki
sukisis1762:S DOG::1993-07-17:GB:F:none:sukisis1762
sukisistersarah:unigirl::1996-07-21:US:F:71.178.15.120:sukisistersarah
sukiskf1128:sukilok28:loksuki@hotmail.com:1987-11-28:HK:F:none:歡樂小天使 so
sukiski:abcdeg2468::1997-02-02:AU:F:121.44.2.109:NULL
sukiskipsonthebeach:ashley11:ashley@kellytree.org:1991-05-14:US:F:24.3.190.49:Ashley
sukislittlefancyface:2390619:JanJohnson29@shaw.ca:1963-01-29:CA:F:24.64.121.179:Jan Johnson
sukism:920628:windy11120@yahoo.com.hk:1989-06-14:HK:F:none:Suki S.M.
sukism4:neorok#:sukibabysm4@hotmail.com:1992-11-05:IN:F:none:Sukriti Malhotra
sukismama:jonathan89:kellyjonesgibson@gmail.com:1988-09-19:US:F:68.230.164.143:NULL
sukismama131:harrypotter@:sukismama13@yahoo.com:1993-04-19:US:F:none:Breeonka Lizarraga
sukismiles:smilesa0743:smi06034@byui.edu:1986-12-17:US:F:97.121.169.172:Sam
sukismith:kathryn99::1998-11-05:US:F:71.208.237.210:sierra
sukismokey:1danniella1::1999-03-25:GB:F:188.221.219.228:NULL
sukismommy:!L@Hink5482:laura.hinkeldey@us.army.mil:1982-05-04:US:F:none:Laura Hinkeldey
sukismookie:gidget21:sweetlorali1621@yahoo.com:1984-10-16:US:F:none:Ericka Marengo
sukiso1996:59144262:sukiso25@yahoo.com.hk:1988-01-07:HK:F:none:潔瑩 蘇
sukiso225:43420024:sukiso225@yahoo.com.hk:1997-2-25:JP:F:219.78.67.102:So Yuet Ki
sukiso32:59144262:sukiso25@yahoo.com.hk:1992-01-07:HK:F:219.77.128.177:潔瑩 蘇
sukiso425:391900::2004-05-25:NL:F:123.203.131.229:suki
sukisoap:igbygoesdown!:billkarnovsky@yahoo.com:1985-01-01:US:F:74.133.90.108:Suki Sapperstein
sukisofea123:ramadan123::2003-03-08::F:203.82.80.55:NULL
sukisohma7842:sjmjskoneal116753:maria_moyers@yahoo.com:1993-07-10:US:F:4.152.246.135:Suki
sukisoki:sukisoki12::1998-05-17:US:F:24.23.9.73:Alex
sukisokka:avatar89:satinzevi@sbcglobal.net:1989-05-04:US:F:74.193.45.236:Savannah
sukisoma:cassie33:sukisoma@hotmail.fr:1993-12-16:FR:F:90.4.226.194:Maureen
Sukisome:ds123456:dsoukhaseum@gmail.com:1994-04-16:US:M:71.108.182.46:Dusty
sukison122:112497:pigboy122@hotmail.com:1992-01-12:US:M:69.4.149.181:Paul
sukisophie:chipmunk9::1993-07-25:US:F:none:sukisophie
sukisoro:havergal1451:misukisoro@hotmail.com:1994-06-27:CA:F:99.227.11.110:lina
sukisoukeina:241000:malackibn@hotmail.com:1984-10-24:ES:F:85.239.214.96:Fatima I
sukisownerfiona:suk10na::2001-1-29:US:F:66.167.244.19:
sukisoxz:timsbar:karlyn_stuart@hotmsil.com:1985-05-16:CA:F:none:suki soxz
sukispazz:sukibaby:mocosaflower@aol.com:1984-04-13:US:F:none:leighsa stevens
sukispeed:louiza22:lozercorp22@yahoo.com:1987-06-02:SG:F:none:l ll
sukispets:mensrea04:rebecca.lamb@bellaliant.net:1976-07-17:CA:F:142.68.213.223:Suki
sukiss:yuki111:darkdragon_yuki@hotmail.com:1990-01-11:MY:F:60.52.108.236:yvonne
sukisses:su7su16:su.kisses@hotmail.com:1989-05-14:BR:F:none:suelen geribola de lucena
sukissi:minhasenha123!@#::1998-07-20:BR:F:200.181.112.67:NULL
sukisson:19851226:sukisson@yahoo.com.tw:1985-12-26:TW:F:none:Lin pink
sukisss64:643875:sukisss64@yahoo.com:1985-08-29:US:F:none:Suki Chocler
sukissu:boba123:santaclausincognito@gmail.com:1993-09-15:US:F:none:Helen L.
sukissweetpets:mensrea04:rebecca.lamb@bellaliant.net:1976-07-17:CA:F:142.68.213.223:Suki
sukissy:shay16::1992-06-16:CA:F:Battledome Challenge:sukissy
sukist:niomar96::2002-06-07:VE:M:186.90.153.178:NULL
sukist544:sickey:sk26hmc@hotmail.com:1987-03-01:CA:M:none:dave gomori
sukist54452:ddddbb5:buddyboy1337@aim.com:1988-01-01:US:M:none:ddb ddb
sukista:benoven:sukista101@aol.com:1988-02-06:US:F:none:Sandra Casper
sukistar:798465132:loving00200@yahoo.com.hk:1987-02-01:HK:F:none:suki star
sukistar19:Button84Moon:ihavbeenchosen@hotmail.com:1984-06-29:GB:F:82.46.172.207:Lara
sukistar93:supersuki93:carekaho@yahoo.com:1993-11-05:US:F:76.22.97.41:becky
sukistarz:sp1gain0:sukixuu@live.com:1996-08-12:US:M:69.151.205.81:Hamaad Markhiani
sukistep:0135249:sukistep@hotmail.com:1988-07-23:HK:F:193.171.226.169:Suki Wong
sukister:xmaspuppy11:k_j_roth@yahoo.com:1991-04-02:US:F:76.226.153.249:Katherine
sukister444:xmaspuppy199:k_j_roth@yahoo.com:1991-04-02:US:F:76.226.97.195:NULL
sukistlg:252972:suki-toby@hotmail.com:1992-12-10:HK:F:219.77.115.248:suki-toby@hotmail.com
sukisu:youcitobebe12:katu_emili_forever@hotmail.com:1990-03-12:CL:F:186.10.67.67:NULL
sukisu17:r@ns0n:nerrisa@cox.net:1990-06-18:US:F:none:Ciara Braganza
sukisu2004:lauren:misspouiled3@yahoo.com:1981-01-01:US:F:none:Step -On Me
sukisu420:sarahjane:sukicards@aol.com:1958-07-04:GB:F:none:Carol Armitage
sukisucks:465699::1997-02-17:US:M:69.238.212.82:Baka
sukisue:peep99::1999-03-24:US:F:74.47.81.72:Mason
sukisue09:ilovemum22::1999-07-06:AU:F:121.223.83.5:Ellie
sukisue11:thebest:dippysue11@hotmail.com:1973-04-24:GB:F:Mail from crazy4250:susan hayes
sukisue1991:softballer:tumblebug@msn.com:1990-02-02:US:F:none:Billy Cable
sukisue22:sukisuebaloo4::1994-04-01:US:F:none:sukisue22
sukisue24:sukisue:squattybody13@aol.com:1987-04-01:US:F:none:Pam Betty
sukisue45:jesse20:songshe6@yahoo.com:1993-01-25:US:F:none:Jasmine Thompson
sukisue6767:suki123:samanthamizen@yahoo.com:1997-04-07:US:F:72.201.114.167:Samantha
sukisue764:wellies:dereknsusie@yahoo.co.uk:1960-12-27:AQ:F:none:susie smith
sukisuen:1987613:sukisuen@msn.com:1987-06-13:CN:F:acceptance:wai shan suen
sukisuen2006:sukisuen753951:suenmeilingmary@yahoo.com.hk:1994-01-31:HK:F:219.77.145.120:suki
sukisues:rebecca1:sukisues@aol.com:1981-04-12:GB:F:82.0.70.30:Suki Sues
sukisuet:SAMLEE:suki791010@yahoo.com.hk:1985-11-22:HK:F:none:suki ching
sukisuetyi:37aqkjo1::1993-05-15:HK:F:none:sukisuetyi
sukisuez:jacob1210:emma.winter-cook@ntlworld.com:1981-04-12:GB:F:82.11.239.208:emma
sukisugi:friends4ever::1993-10-29:US:F:none:sukisugi
