sukisugitebakamitai:sabrina12:sabrinaHodge9@hotmail.com:1995-09-12:AI:F:76.76.177.145:sabrina
sukisuishou:darkness123:sukisama1886@hotmail.com:1986-11-11:JP:F:none:Reita Suishou
sukisuka:rongtime123::2000-01-08:CA:F:64.180.85.168:jessica
sukisukara194:quigg123::1994-03-22:US:F:none:sukisukara194
sukisuke:naruto12:mathew1990_@live.com:1990-03-27:NZ:F:202.89.149.58:NULL
SukiSukey:suki12::1998-07-01::F:67.183.121.238:NULL
sukisuki:gamepass:isumi_daisuki@yahoo.com.tw:1981-09-14:MY:F:none:某 麗
sukisuki0201:Ruby6963:swhon2806@gmail.com:1991-08-18:HK:F:218.102.81.165:Suki
sukisuki03:tuki06::1999-06-22:AR:M:190.30.175.249:sukisuki03
sukisuki04:aolani:ginuwine_luvah@hotmail.com:1990-01-19:CA:F:none:nicole cayanan
sukisuki0723:011203:chan_hoi_ki2002hk@yahoo.com.hk:1992-07-23:HK:F:none:Fallen Wings From Dark Hell
sukisuki08:suki911:class_o8@yahoo.com:1990-01-14:US:F:Can I be your NeoFriend?:Amanda Chao
sukisuki0828:0828101101::2000-08-28:HK:F:112.118.159.21:suki
sukisuki1:april30::1997-04-30::M:98.127.16.243:NULL
sukisuki100:cocoa:bescms@aol.com:1989-01-30:US:F:Item:stacy
sukisuki10101010:jabari4yrsold:www.lildivachelsea1@aol.com:1991-07-22:US:F:none:chelsea jackson
sukisuki101300:rachandmonhadsyrup!:pinknblack524@yahoo.com:1988-05-24:US:F:none:Virginia Vergara
sukisuki106:060292:lovely_suki_106@yahoo.com.hk:1989-10-06:CN:F:none:suki suki
sukisuki110:magical:sukiriggs@hotmail.com:1986-07-10:GB:F:none:Suki Smith
sukisuki1102:26567231:suki11029148@hotmail.com:1987-02-02:HK:F:none:ho tsz ching
sukisuki111:995916:christypoon1994@yahoo.com.hk:1988-09-16:HK:F:none:suki poon
sukisuki118:64829752:sukisuki_118@hotmail.com:1994-01-18:HK:F:218.250.84.62:sukisuki
sukisuki12:hottie12:heylookitsliz09@aol.com:1991-01-01:US:F:74.131.132.20:bobby
sukisuki123:sukisuki123::2003-05-18:US:F:174.102.77.101:NULL
sukisuki12345:197552::1992-08-10:HK:F:none:Kin  Yan Chan
sukisuki12345667:toilet34::1992-09-19:CA:F:none:joely  elkins
sukisuki123456789:197552:tweetychong2002@yahoo.com.hk:1988-02-25:US:F:none:gndjgjcng gjkgnjbugj
sukisuki123978:abc345:yanyi2632@yahoo.com.hk:1986-09-15:HK:F:Mail from theneopetsteam:林欣宜 林
sukisuki123_1:29949673:sukisuki0909@yahoo.com.hk:1988-06-14:HK:F:61.238.107.246:yush sushdsuki
sukisuki13:staple12:www.Gangsta_whitegirl13@yahoo.com:1990-11-17:US:F:70.248.213.226:Sarah
sukisuki1314:95250440:sukisuki917@yahoo.com.hk:1990-09-12:HK:F:none:suki suki
sukisuki15:sukisuki69:fitz2640@hotmail.com:1990-04-15:AU:M:121.223.66.191:Alex
sukisuki152:fosters::1992-12-01:AU:F:none:sukisuki152
sukisuki16854:98235026:chenghoiyan168@yahoo.com.hk:1987-06-08:HK:F:none:hoi yan cheng
sukisuki1919:96otika:kuroixyuki@hotmail.com:1991-09-23:CA:M:24.72.35.130:yuki
sukisuki1995:0123456789000:poonsuki2002@yahoo.com.hk:1987-09-24:HK:F:none:suki poon
sukisuki1998:53578260:szenal@yahoo.com.hk:1991-08-29:HK:F:218.190.0.127:NANA
sukisuki20:keiyuet20:yukyuk150550@yahoo.com.hk:1992-02-15:HK:F:none:suki yuet
sukisuki2005:s41267:andrewfan123@yaoo.com:1987-09-28:HK:M:none:suki cheng
sukisuki2120:abcdefg:aklyleeee01@yahoo.com.hk:1987-08-06:HK:F:none:law wing yan
sukisuki22:0123456789000:poonsuki2002@yahoo.com.hk:1987-06-27:HK:F:none:suki poon
sukisuki226:alfonso:theforgotten21@hotmail.com:1983-11-21:US:M:none:alfonso lara
sukisuki25620725:suki0725:suki25622005@hotmail.com:1981-07-25:HK:F:none:Cheuk Ting Chan
sukisuki28:sukiyumi28::1999-05-31:US:F:76.167.138.249:Cindy
sukisuki3:sukisuki33:akcmal123@yahoo.com:1990-09-26:US:M:67.184.233.229:Bob
sukisuki30:desmond:rb7475@yahoo.com:1974-12-26:US:F:none:R Brown
sukisuki365:sukisuki13:bellaxprincipessa_ox@hotmail.com:1993-07-11:US:F:24.213.81.30:bonta
sukisuki38:suki199438:missman729-man@yahoo.com.hk:1990-03-08:HK:F:none:Tsang Sze Wai
sukisuki422:04220103:sukilok@yahoo.com.hk:1987-01-03:HK:F:none:lok wai man
sukisuki429:seiyu:oonumaemi@hotmail.com:1975-03-01:JP:F:none:由里絵 仮名
sukisuki47:kristi:twistykp8@aol.com:1991-05-18:US:F:none:Kristy Peyton
sukisuki477:960821:sukisuki477@yahoo.com.hk:1996-08-21:HK:F:61.18.170.92:sukisuki477
sukisuki54321:084n54:tweetychong2002@yahoo.com.hk:1960-02-27:US:F:none:uughhh nhvjvjj hvjjmb
sukisuki562:tauch562:mo_suki@yahoo.com:1989-08-20:US:M:none:Mo Suki
sukisuki589:731731:lenfonghk2000@yahoo.com.hk:1990-03-24:HK:F:none:suki kan
sukisuki710:458912::1993-07-10:HK:F:none:sukisuki710
sukisuki7475:747574755201314::2004-07-22:HK:F:113.254.223.68:7475
sukisuki749:shoyru::1993-09-16:CA:F:none:sukisuki749
sukisuki7562:75627562::1996-01-02:HK:F:61.18.170.1:suki
sukisuki777:26592846::1993-09-19:MC:F:none:sukisuki777
sukisuki8:12thomas:mlm@bway.net:1958-02-24:US:M:68.38.16.254:tom
sukisuki912:95250440:sukisuki917@yahoo.com.hk:1989-09-12:HK:F:none:suki leung
sukisuki91221:35930698::1993-09-12:HK:F:none:sukisuki91221
sukisuki917:61265080::1994-09-12:HK:F:203.218.224.85:sukisuki917
sukisuki92:law318:lsksuki96318@hotmail.com:1992-08-31:HK:F:none:SUHKAIUN LEAUWNG
sukisuki932:820223:sukisuki223@yahoo.com.hk:1982-02-23:HK:F:none:suki suki
sukisuki938:bitchs!:iknowwhereulive999@hotmail.com:1988-05-07:CA:M:none:k a
sukisuki94912:35930698:sukisuki917@yahoo.com.hk:1990-09-12:HK:F:none:雪微 梁
sukisuki99:neoneo99::1999-07-31::M:99.70.121.158:NULL
sukisuki999:02137854:mable1993@yahoo.com.hk:1992-05-21:HK:F:none:suki lee
sukisukib:lemon:02patelk@northfleetgirls.kent.sch.uk:1988-12-08:GB:F:none:suki b
sukisukiboi:diablo::1993-01-27:US:M:none:sukisukiboi
sukisukicat:tippy1:jinjongin86@yahoo.com:1987-07-09:US:F:none:Kat XxXxXxXx
sukisukicat1:tippy:www.jinjongin86@yahoo.com:1987-08-08:US:F:none:Pauline VvVvVvVV
sukisukicc:aaaaa20::2001-10-08:HK:F:116.48.37.54:tungtung
sukisukichoi:19981220::1998-12-20:CN:F:218.102.184.59:choi ngo sze
sukisukidesu:crapap99:jingtan1@hotmail.com:1992-06-24:SG:M:218.186.13.254:tan
sukisukigigi:gg35101:szeszegigi@yahoo.com:1983-01-05:HK:F:neofriend:abc abc
sukisukigoshushi:123147:common_cookies@kuririnmail.com:1982-06-11:AT:F:70.120.91.22:Jennifer
sukisukii:nacho!:wndrwomn59@yahoo.com:1990-08-03:US:F:none:janean harvey
sukisukijp:rnsytbk6:yuki_t_b_y@ybb.ne.jp:1989-11-17:JP:F:none:さむちゃ
sukisukikaatan:19680421:alohamyu@jcom.home.ne.jp:1968-04-21:JP:F:59.171.13.156:松並　美由紀
sukisukikwokkwok:132837::1995-09-28:HK:F:none:sukisukikwokkwok
sukisukilady13:ilovemax1327:snowbunny1388@yahoo.com:1988-04-06:US:F:72.213.47.193:nicole
sukisukilala:lalaho:lalaho0060@yahoo.com.hk:1988-11-22:HK:F:none:chan wing hang
sukisukilamlam:lam1487:sukilambws@yahoo.com.hk:1983-10-16:HK:F:218.253.100.4:sukilamlam
sukisukimimi:mimi123:www.sandaly1@yahoo.com.hk:1987-08-13:HK:F:none:ciki SukiSuki
sukisukimy:960821::1996-08-21:HK:F:218.252.107.245:sukisukimy
sukisukina:o0max0o:gabiwelle@hotmail.com:1992-09-30:CA:F:75.152.82.76:tigab
sukisukinituvoiiiii:tuvio:benjaminsilva9@hotmail.com:1990-04-28:BY:M:none:fernan lores
sukisukinow:princess253:shesshaniel@yahoo.com:1989-03-28:US:F:67.168.151.116:Eren
sukisukisuki:161314:suki3162000@yahoo.com.hk:1986-03-16:HK:F:none:suki chak
sukisukisuki0921:09210921:sukiyuen13579@yahoo.com.hk:1990-09-21:HK:F:none:yuen onon
sukisukisuki168:sukisuki:theforgotten21@hotmail.com:1983-11-21:US:M:none:alfonso lara
sukisukisukisukis:buzzy:porterchase@hotmail.com:1979-11-12:CA:M:none:ahflkj asdgh
sukisukisukisukisuki:sukisukisuki:j_j_2001@hotmail.com:1979-11-12:CA:M:Acceptance:Your Momma
sukisukisukitoro:781020:sukisukisukitoro@yahoo.com.tw:1989-10-20:TW:F:none:黃 文林
sukisukisuki_2005:227926:sukimyhome@yahoo.com.hk:1987-02-27:HK:F:none:詠彤 黃
sukisukisuki_5_5:suki77:suki.77@live.hk:1990-11-11:CN:F:218.190.117.123:陳詠妍
sukisukiya:941219:sukisukiyaya2000@yahoo.com.hk:1960-12-28:HK:F:none:suki suki
sukisukiyaki:M3RMMDWRVA:abcsuki@hotmail.com:1988-03-22:KR:F:none:suki lai
sukisukiyan:suki20:chenghoiyan168@hotmail.com:1992-06-08:HK:F:61.244.118.199:ChenG hoI yaN
sukisukiyan_0608:1294087141::::1992-06-08:inesreis__:1048576:suKi*
sukisukiyan_8:24694996:chenghoiyan168@hotmail.com:1988-06-08:HK:F:none:Hoi Yan cheng
sukisukiyin:369963:sukisukiyin@yahoo.com.hk:1992-08-10:HK:F:none:陳 可琪
sukisuki_09:princesita1997::1997-03-03:MX:F:189.181.214.28:jeimy
sukisuki_0902:sukihui:sukisuki0902@hotmail.com:1991-09-02:HK:F:none:嘉樂 許
sukisuki_1:april30:kkkonner@hotmail.com:1996-04-30:US:M:72.175.116.147:Jade
sukisuki_2:april30:kkkonner@hotmail.com:1996-04-30:US:F:72.175.116.147:Vamp
sukisuki_2002:sukisuki22:poonsuki2002@yahoo.com.hk:1992-09-16:HK:F:none:suki poon
sukisuki_6_6:2112249911::1998-02-02:HK:F:58.177.251.225:pool
sukisuki_9:hk1998me::1998-08-12:HK:F:219.77.103.26:suki
sukisuki_aa:shiloh12::1997-03-02:US:F:76.186.56.234:Tori
sukisuki_moeko:m0ek0:virgo_5268@yahoo.com:1991-09-13:US:F:70.160.76.61:Shanice M B
sukisuki_x:russia647:liseymarie@gmail.com:1986-07-20:US:F:65.175.207.173:Lisa
sukisuko:21110011:sukisuko_2005@yahoo.com.hk:1985-04-17:HK:F:none:sa sa
sukisuko_2006:20063417:suey_3417@hotmail.com:1993-04-17:HK:F:none:suey yeung
sukisum:suki24::1991-11-03:HK:F:Mail from multiplayer_setup:sukisum
sukisum2005:suki20052005::1993-09-19:TR:F:none:sukisum2005
sukisum277:26592846::1993-09-19:HK:F:none:sukisum277
sukisumi4ever:rosethe72:rlgatenby72@hotmail.com:1994-06-17:CA:F:64.201.52.93:rosie
sukisumsukisum:26592846::1993-09-19:KE:F:none:sukisumsukisum
sukisumsum:189189189::1995-07-02:HK:F:210.6.207.218:sukisumsum
sukisun:savala:shorty_waz_here2003@yahoo.com:1988-08-18:US:F:none:monique  savala
sukisun125:764879:suki4562001@yahoo.com.hk:1986-01-25:MO:F:none:sun suki
sukisung2007:83265:suki20072007@yahoo.com.hk:1905-12-31:HK:F:none:suki suki
sukisung287:27950866::1992-06-07:CN:F:none:sukisung287
sukisun_9:05080628:akichans21@ybb.co.jp:1991-09-29:JP:F:58.190.5.41:真理
sukisurfer92:cookoo98::1992-01-19:US:F:none:sukisurfer92
sukisurfer9292:cookoo92::1992-01-19:US:F:none:sukisurfer9292
sukisurmer:lavagirl@!::1994-03-05:CA:F:142.217.229.83:sukisurmer
sukisurmer2:lav33::1994-03-05:CA:F:none:sukisurmer2
sukisuse:miner:rsmeisner@lewiston.com:1964-06-10:US:F:none:Susan  Meisner
sukisushi:8er56df::1999-11-27:US:F:96.235.141.31:moses
sukisushi027:qwerty1234567:surferboybry123@yahoo.com:1983-03-02:US:M:none:ur mom
sukisusie:passionfruit:suki@guy1991.fsnet.co.uk:1967-11-15:GB:F:90.240.84.200:sue hoad
sukisussuki:suki12::1996-09-10:HN:F:200.186.130.2:Suki
sukisut:26658953::1993-12-25:HK:F:218.253.234.241:sukisut
sukisuya:ryu_suki:dragon_wing1269@yahoo.com:1992-08-11:US:F:none:K\lynn G
sukisu_2:chocolate10:suki.su@hotmail.com:1987-08-09:BR:F:189.110.134.216:sueny crisne da s. frazão
sukisvily:35662076:gigilau822@yahoo.com.hk:1985-08-22:HK:F:none:ho Suet man
sukisy456:131159:stellastellaslf@yahoo.com.hk:1961-09-27:HK:F:none:ying oi Lee
sukisyao:gangsta:girlzrule491@hotmail.com:1985-08-05:NZ:F:none:Sakura Kinomoto
sukisylaw:510050:sukisylaw@yahoo.com.hk:1987-09-23:HK:F:218.254.48.33:suet ying Law
sukisylaw123:510050:sukisylaw@yahoo.con.hk:1988-09-23:HK:F:none:wai ying lee
sukisylaw1234:510050:sukisylaw@yahoo.con.hk:1988-09-23:HK:F:none:wai ying lee
sukisyo:2843x14:tru.prophet@gmail.com:1989-04-01:CA:M:69.157.32.61:Jonathan
sukisyo1:water12:kibafang4@gmail.com:1990-09-15:US:F:8.14.105.31:Koji
sukisyo116:27409971:chowniuying@hotmail.com:1990-01-16:HK:F:none:sukisyo116
sukisyo161:tennis:nani_baka67@hotmail.com:1990-05-04:SG:F:none:val chio
sukisyo1773:axpt416:sukisyo1773@yahoo.com.tw:1989-08-05:CN:M:none:闇 憶
sukisyo2004:qq791105:sukisyo2009@yahoo.com.tw:1992-12-25:TW:F:114.46.57.243:月夜
sukisyo2009:s811225:sukisyo2004@pchome.com.tw:1982-12-25:TW:F:none:林 琇婉
sukisyo30:830643:sukisyo30@hotmail.com:1989-08-30:TW:F:none:維芳 許
sukisyo332:27409971:chowniuying@hotmail.com.hk:1990-01-16:HK:F:none:miu ying yfidyi
sukisyoair:gravitation::1992-10-02:US:F:none:sukisyoair
sukisyolike:227067392:thediecity@yahoo.com.tw:1989-02-06:TW:F:118.169.210.97:伍 翼都
sukisyolover_:obsession3467:kiaraa2@gmail.com:1989-03-10:US:M:24.145.248.91:Seiko
sukisyosu:tom11070718:sukisyo_su@hotmail.com:1985-11-07:TW:F:none:su Li
sukisyosu12:su159su:mist_find@yahoo.com.tw:1985-11-07:TW:F:1.175.72.140:Lisuhui
sukisyo_:jadzia:xexpired_lifex@yahoo.com:1990-06-30::F:none:Sukisyo X
sukisyo_07:dreams1:iluvblink182stom@aol.com:1988-06-08:US:F:none:Tiffany Smith
sukisyo_2007:dreams1:iluvblink182stom@aol.com:1988-07-18:US:F:none:Tifani Smith
sukisyo_fan:bob123:cooldude56789@comcast.net:1997-03-21:US:F:24.218.62.107:Sora
sukisyo_hking:1542003::1992-01-11:TW:F:none:sukisyo_hking
sukisyo_love:4517733::1992-01-11:TW:F:none:sukisyo_love
sukisyo_lover:kerri27:vicstar27@sbcglobal.net:1989-03-18:US:F:none:Yuni
sukisyo_nao:sukisho22:angelxo@charter.com:1993-06-25:US:F:24.231.167.230:kelli
sukisyo_quoll:pop950rod535:sukisyo_qvoll@pchome.com.tw:1988-03-19:TW:F:acceptance:殘風 孤影
sukisyo_yaoi_hott:kagome1:igivecandytostrangers14@hotmail.com:1991-07-14:US:F:none:Shannon Bell
sukisyo_yoru:esponja00:espoonjaa_@hotmail.com:1997-09-15:CL:F:190.44.109.233:NULL
sukisyo__:snickers123:soma047@hotmail.com:1992-01-24:US:F:70.146.127.239:Yoru
sukisyo__13:hithit005:popo.cool.r@wanadoo.fr:1992-06-15:FR:F:none:pauline raoulx
sukiszeto:13091998:raymond_070794@yahoo.com.hk:1986-09-13:HK:F:121.203.201.218:suki szeto
sukisze__ll:963852741:chanszenga2005v@yahoo.com.hk:1988-01-31:HK:F:none:陳 詩雅
sukis_13:687339526:sukys_13@hotmail.com:1992-03-28:ES:F:none:sukis asc
sukis_2:130539:susuka_22@hotmail.com:1988-09-22:BR:F:none:suellen costa
sukis_lab:asmo3382:mindlesscezzie@hotmail.com:1985-10-30:US:F:none:Suki Kuromori
sukis_mukis:sookie96:eiram.benitz@gmail.com:1991-12-22:US:F:64.186.111.32:Cami
sukis_s:24418428::1998-05-03:HK:F:218.191.32.166:suki  chow
sukis_star:manchas1234::1997-11-08:MX:F:189.209.67.149:lupita
sukis_s_s:24418428:sukis_s@hotmail.com:1909-01-01:CN:F:61.238.203.191:Xxy
sukis_s_s_s:24418428::1998-05-03:HK:F:119.246.53.216:周姵如
sukis_z:90836958::1997-11-10:CN:F:61.18.170.145:琳琳
sukit:mimosin85:asukitta@hotmail.com:1985-06-25:ES:F:81.203.227.174:estefania
sukit1:sanghera16::1993-10-17:IN:M:none:sukit1
sukit101:93cool:johnleia@hotmail.com:1993-06-01:CA:M:142.59.150.41:Mike Hunt
sukit111111:1111aaaa::1998-10-05:US:M:68.39.149.99:NULL
sukit2mex:gubgub:xorgan_hunterx@yahoo.com:1991-08-31:US:M:none:Ren
SuKit325:pirates123:gtadman@hotmail.co.nz:1991-01-01:NZ:M:124.197.23.237:NULL
sukit4:hanson:lesukita@hotmail.com:1988-08-28:BR:F:none:Letícia Ribeiro
sukit717:bergerson:max_brown_@hotmail.com:1991-04-04:US:M:Can I be your NeoFriend?:Saba Bergerson
sukit97:dylan2010:gabriellehickey24@hotmail.com:1987-02-24:CA:F:70.48.149.227:Gabrielle
sukit99:9ridin9:wowman99@aim.com:1993-04-10:US:M:98.220.24.206:Tyler
sukita:honeywater3909:mitsuki.toyama@gmail.com:1993-02-13:US:F:108.202.177.43:Mitsuki
sukita007:98162688:henrique_rick_rick@hotmail.com:1994-09-22:US:M:189.77.61.24:Henriique
Sukita01:123456su::1998-08-06::F:201.13.155.33:NULL
sukita0905:lucas0905::2002-05-09:BR:M:186.220.32.223:NULL
sukita10:220995:thebestlucas@hotmail.com:1990-03-22:BR:M:201.78.121.121:Lucas
Sukita100:ajpqa43::1997-06-07:BR:F:24.143.194.100:NULL
sukita10000:basquete123:l.m.semaan@gmail.com:1909-01-01:BR:M:187.58.246.254:sukita10000
sukita10Grunge:12346587milena::1997-09-21:BR:M:201.9.245.248:NULL
sukita11000:basquete123:l.m.semaan@gemail.com:1909-01-01:BR:M:201.22.36.179:sukita11000
sukita117:teresita1:areusa1986@hotmail.com:1986-07-11:ES:F:none:Teresa G.
sukita12:toto96::1996-10-30:VE:F:186.24.18.1:july
sukita123:athgb562:joaopedrofeijao2@hotmail.com:1990-09-23:BR:M:201.45.188.155:sukita¹²³
sukita1234:153456745:lucasstecher@hotmail.com:1986-02-13:BR:M:189.72.173.2:lucas
Sukita13:sukita13:thais_imw@hotmail.com:1982-01-24:BR:F:200.220.240.191:NULL
sukita132:griffen1::1993-09-12:US:M:none:sukita132
sukita1512:nick16::2001-01-01:BR:F:200.162.80.114:NULL
sukita16:daph1212:daphne.rose@bol.com.br:1988-12-12:BR:F:201.79.150.149:Daphne Gonçalves
sukita17:87810421:babimuniz.purple@hotmail.com:1993-11-16:BR:F:200.199.16.94:NULL
sukita18:japa18::1992-11-10:BR:M:none:Leonardo Anversi Ukita
sukita181:97137261::1993-05-11:BR:M:none:sukita181
sukita19:110200::2000-02-11:CL:F:201.215.59.180:NULL
sukita1_may:mayra.14:mayra.may@terra.com.br:1994-07-24:BR:F:189.46.225.116:Mayra Pires dos Santos
sukita2004:136145936:bigsukita@hotmail.com:1991-02-14:BR:F:none:Curvello Franco
sukita2008:32351166:nanda_vsj@hotmail.com:1984-02-04:BR:F:201.95.92.114:fernanda da silva
sukita2009:rosadita18:x_kamii_x@hotmail.es:1994-06-18:CL:F:190.161.40.189:camila
sukita20121998:tubarao12::2007-03-21:BR:F:200.181.193.227:NULL
sukita3:sukit@16::2001-03-15:DE:F:200.162.80.114:NULL
sukita34:sukita43::1995-10-15:BR:F:201.52.135.190:carolina bellotti
sukita360:sd4ab:02debnams@highworth.sch.kent.uk:1991-05-17:GB:F:none:sian debnam
sukita4:sukita.lokix22::1998-11-02:BR:M:189.78.218.138:lucas
sukita49:sulake495::1998-11-02:BR:M:189.78.218.138:lucas
sukita495:bom_dia11::1998-03-25:BR:M:189.78.246.169:sukita495
sukita5000:qwertyuiop123:l.m.semman@gmail.com:1909-01-01:BR:M:189.58.7.136:sukita5000
sukita6:brazil2006:lucket007@hotmail.com:1988-05-15:BR:M:none:Lucas Lima
sukita7:sukita77:nani_peradeles@hotmail.com:1978-09-23:BR:F:200.96.164.102:clara
sukita77:antunes10:manoel.antunes06@hotmail.com:1996-03-11:BR:M:187.42.62.158:manoel antuness
sukita852:rafael852:ra.finha.gremio@hotmail.com:1982-08-24:BR:M:200.96.241.13:christian
sukita92:suki!:suki-ta@hotmail.com:1992-12-07:EC:F:none:belen jaramillo
sukita93:suka11:marusia_alves@hotmail.com:1988-09-15:BR:F:none:marusia   alves
sukita96:toto96:july_sukita@yahoo.com:1992-10-30:VE:F:190.72.146.21:julia
sukita98:050198050198::1998-01-05:BR:M:189.25.108.1:Jean Alberto Souza da SIlva
Sukita99:sukita99::1999-01-05:ES:F:79.153.159.211:NULL
sukitaa:animax123:luiz_paulo_cg@hotmail.com:1990-07-31:BR:M:201.58.32.61:Luiz Paulo
sukitaah:neuzaeamy22:barbie_girl_rbd@hotmail.com:1990-07-22:BR:F:189.105.215.89:Suélen
sukitaalves:tatu11:alessandraalvesrosas@hotmail.com:1985-03-16:BR:M:none:Lucas Costa
sukitabibi:123abc456d::2001-03-27:BR:F:187.74.229.91:beatriz
sukitabibi19:nibibi193::2001-03-27:BR:F:189.103.194.171:sukitabibi19
sukitabibinini:nicolas19::2005-03-27:BR:F:189.103.194.171:sukitanini
sukitaboom:1flaviaiam1:fladocinho@yahoo.com.br:1992-08-03:BR:F:201.51.12.67:Ainhé?! o_o
sukitacephas:sukita01:sukitacephas@gmail.com:1986-09-07:BR:M:none:lcs s
sukitachan:klapaucios10:iuriteios@yahoo.com.br:1990-10-10:BR:F:189.104.83.35:iuri
sukitachu:210472::1996-09-10:US:F:98.20.193.142:christen
sukitadoida:vinicius::1992-11-19:BR:F:none:sukitadoida
SukiTaemin:bananas10:inusong@verizon.net:1995-09-27:US:F:108.0.250.84:NULL
sukitafanta:senhaduda123::1998-12-20:BR:F:201.15.26.226:NULL
sukitafl:071207:julianaflorida@hotmail.com:1985-12-20:BR:F:none:Juliana  Reis
sukitah1:9753784:neopets__lover1@hotmail.com:1980-09-13:VG:F:24.47.80.237:suki
sukitahalls:cel96695378:jeeh.halls@hotmail.com:1991-05-23:BR:F:189.46.35.99:Jessica
sukitahh:230891:ale_sukitahh@hotmail.com:1991-08-23:BR:F:200.186.180.186:Alessandra Karklin
sukitah_:hsmhsmgenial12:estimado_clienta@hotmail.com:1979-10-25:CO:F:190.70.48.152:mi nombre es un secreto xD
sukitah_1:nath21:fake.203@hotmail.com:1991-05-19:BR:F:201.74.124.73:Sukitáh
sukitah_colmillo:petsneo13:huskywolfs@hotmail.com:1988-01-01:JP:F:189.149.126.112:am...2 personas xD
sukitai:suki26:carolchan@gmail.com:1988-05-22:HK:F:61.238.112.92:mingming
sukitailoveyou:sukitagata12:sukitailoveyou12@hotmail.com:1980-09-20:BR:F:200.219.87.185:jessyca c.
sukitaio:julie123:icediva600@aol.com:1988-08-24:US:F:none:D
sukitairo:Ronja23:historical_gsm@live.nl:1993-12-27:NL:F:83.86.88.32:Ann-lee :]
sukitak:zsukita98:zsukita@hotmail.com:1987-07-10:BR:M:200.185.232.161:zac suki
sukitakahashi:freaky_creepy16:suki.takahashi@hotmail.com:1992-07-13:CA:F:207.195.68.71:charmaine
sukitakashi:kitty12:this_ismycurse@hotmail.com:1994-06-27:CA:F:64.228.37.159:Meagan
sukitaker:suki2009:crissiekitty@yahoo.com:1988-12-29::F:68.46.217.126:NULL
sukitakit:tsabar1972:sjyonas@yahoo.com:1951-06-08:US:F:99.157.225.122:Suki Takit
sukital31days:codyiscool247:cody.hinrichs@yahoo.com:1909-03-03:US:M:64.12.116.144:very sxci
sukitalah:penelopy11:lahrodriguespereira@hotmail.com:1992-11-15:BR:F:201.48.227.6:Laura
sukitalaranja:amanda12345::1998-04-05:BR:F:189.81.224.224:amanda
sukitalerman:borzoi25:sukita_lerman@hotmail.com:1993-04-25:MX:F:201.160.42.42:Mich
SukiTalksToMuch:asdf123::2000-01-27:US:F:108.12.80.160:NULL
sukitaloirah:96990485:sukitadolife@gmail.com:1993-01-27:BR:F:200.168.153.133:Loirah
sukitalukinhas:88863996:sukita_lukinhas@hotmail.com:1994-09-07:BR:M:201.21.183.199:Lucas
sukitam:3523295329495000:cinnamonllmiki2005@yahoo.com.hk:1988-05-05:HK:F:none:Suki Tam
sukitam1229:041117::1995-12-29:HK:F:222.166.160.174:sukitam1229
sukitam501288:89889:sukitam501@yahoo.com.hk:1993-05-03:HK:F:none:lika tam
sukitama:lms262:lschmail-spiele@yahoo.de:1981-05-07:US:F:75.30.178.238:Laura Zunge
sukitamg:190291:franciscobrunoaraujo@yahoo.com.br:1991-02-19:BR:M:201.9.12.212:bruno
sukitaminha:sukita12:camis--@hotmail.com:1993-08-05:BR:F:187.7.205.71:camila
sukitamishi:kitty12:Meagan_g13@hotmail.com:1994-06-27:CA:F:64.228.37.154:Meagan
sukitamita:luis diego148::1997-01-11:CR:F:190.10.100.163:Daniela
sukitamono:790531:sukitamono@gmail.com:1979-05-31:HK:F:218.103.160.76:sukitamono mono
sukitam_4a26:sukitam_197::1998-09-26:CN:F:202.64.221.182:譚琦騰
sukitan1994:suki123::1994-02-24:SG:F:165.21.155.9:sukitan1994
sukitana:5102XC:super-kat-figaro@home.nl:1996-02-16:NL:F:84.31.200.55:suki
sukitang1996:960604::1996-06-04:CN:F:58.153.71.121:sukitang1996
sukitang_1987:s2k1314:hkching1995_2_2@yahoo.com.hk:1987-02-02:CN:F:218.254.220.129:紫靜 鄧
sukitaniayama:vietluv98118:vietnguyenlover@aim.com:1995-02-24:US:F:173.25.53.56:Suki
sukitao:sukitao12::1997-11-21:BR:F:189.11.235.199:nicole
sukitapom:macarena11:caroltiara@hotmail.com:1994-11-08:CL:F:200.120.240.129:macarena
sukitaq:illuminati00:sukix@msn.com:1994-01-20:BR:F:201.27.94.119:suzana
sukitarisas:miperritorexito0202:sysy_onlygirls@hotmail.com:1996-06-13:ES:F:85.55.61.107:sara
SukitaRock:nemeusei157::1996-09-21:BR:F:189.110.132.87:NULL
sukitarosa:joaquimm14:barbarakilsem@hotmail.com:1995-05-08:BR:F:189.61.150.54:feiurinhagay
sukitasexy:92990485:sukitadolife@gmail.com:1993-01-27:BR:F:201.27.58.225:fernanda
sukitashio:bradon14:i_r_2_hawt_4_yew@hotmail.com:1991-02-14:US:F:76.22.109.32:Mimi
sukitaskywalker:slipknot20:sukita_trash@hotmail.com:1988-07-22:BR:F:none:Nathalia Catherine Afonso
sukitasz:99027320lh:LUCIAHELENADR@HOTMAIL.COM:1992-12-09:BR:F:189.53.31.225:lucia Helena dias ribeiro
sukitas_456:suka_12::1995-07-13:BR:F:189.105.143.7:Aya_12
sukitata08:terra:mandynw@msn.com:1990-05-03:US:F:none:mandy w
sukitatatona:gradulita32::2001-03-19:CO:M:190.3.210.244:juan josé
sukitatop10:solsukitascoby12:camiladaltro@hotmail.com:1995-05-07:BR:F:189.104.169.62:camila
sukitau:followsthelord99:BeachBumb541@yahoo.com:1994-04-20:US:F:71.205.177.204:Abby
sukitaum:elijah1:meninadasukita@hotmail.com:1989-03-08:BR:F:189.25.106.217:bRuna aLcântaRa
sukitavid:3625410789::1997-03-07:BR:M:200.96.129.172:Guilherme vid
sukitaxd:315983290:d2.claudio@hotmail.com:1994-08-25:BR:M:201.29.109.69:SukitaxD
sukitazin:LUCAS123:lucassalarolli_7@hotmail.com:1983-04-23:BR:M:201.79.246.252:lucas
sukita_00:LARA1234::2001-07-03:BR:F:201.92.7.154:Lara Caltabiano
sukita_02:lucimar11:ouniversoanimal@hotmail.com:1995-03-02:BR:F:200.140.68.243:Luria
sukita_06:amovc06:erika.fernandas@gmail.com:1994-10-20:BR:F:201.92.197.138:Suki_06
sukita_09:81010118::2000-03-02:BR:F:201.53.99.224:geovanna
sukita_10:30254435:sueoyamada@hotmail.com:1980-12-12:BR:F:none:suely komatsuzaki
sukita_152:bruno1523:bruno.221@hotmail.com:1995-02-25:BR:M:201.88.31.245:pedro
sukita_19:suane19::1996-10-10:BR:F:189.49.152.213:Suane
sukita_2:22043478:sukitapinto@hotmail.com:1991-12-08:BR:M:none:Alexandre Pinto
sukita_21:isabella22:belle_rock27@hotmail.com:1995-06-27:BR:F:201.47.121.236:Isabella
sukita_2511:25112511bia::1997-11-25:BR:F:187.14.22.187:Beatriz
sukita_27:suellen12::1999-06-17:BR:F:201.75.129.200:suellen
sukita_35:mokona_35:rockixta_299@yahoo.com:1990-07-22:PH:F:121.97.210.29:alix
sukita_3a:8561728::1998-03-04:BR:M:187.78.121.208:sydney
sukita_3_3:lokaiane12::1996-09-17:BR:F:189.78.204.75:juju
sukita_4:miguel20:rozineves@hotmail.com:1961-02-09:BR:F:200.143.121.132:Raquel
SUKITA_45:909014::2000-06-21:BR:F:187.34.104.93:CAROLINA
sukita_5:321123::2001-08-09:BR:M:189.46.234.180:fofucho
sukita_5_9:321123::2001-08-09:BR:F:201.27.202.148:bianca
sukita_6:22636613:bru_gatinhadeps@hotmail.com:1994-10-17:BR:F:201.8.46.137:Bruna
sukita_7:safira77:lucasmitsudo@hotmail.com:1927-10-31:BR:M:200.207.157.42:lucas
sukita_7_4:europa030701::2001-07-03:BR:F:201.42.187.178:sukita_7_4
sukita_7_7:28101998::2005-01-20:BR:M:189.81.22.82:sukita_7_7
sukita_8:@@ker::1994-02-28:VE:F:none:sukita_8
sukita_80:africa25::2001-07-03:AF:F:189.68.10.17:Sukita_80
sukita_9:suisida_9::1993-10-31:BR:M:none:sukita_9
sukita_98:sukita98::1998-02-22:AR:F:190.50.112.211:azul
sukita_9_9:369874:lucas.demedeiros@hotmail.com:1980-05-11:BR:M:189.102.47.102:lucas
sukita_a7x:986541:carol_the_distillers@yahoo.com.br:1993-10-12:BR:F:201.50.248.8:Caroline Almeida
sukita_bonita:cofcof22:magical_muffi_nelf@hotmail.com:1990-02-18:MX:F:148.240.150.126:mishi
sukita_bpf:Kinder90:sukita_bpf@hotmail.com:1987-11-16:BR:F:none:Sukita Lopes
sukita_br:gregorio22:greg_spfc@hotmail.com:1993-02-12:BR:M:201.81.166.154:Greg
sukita_ce:jujuba::2008-02-10:BR:F:200.233.69.90:NULL
sukita_chang:toto23:july_sukita@yahoo.com.mx:1988-10-30:VE:F:190.72.148.213:julia cedeno
sukita_dany:+sukiyaki+:danymonte_inuyasha@hotmail.com:1992-03-02:CL:F:none:Daniela Monte Luz
sukita_fs:30928288:sukita_fs@hotmail.com:1992-03-06:BR:M:201.22.163.100:Lucas
Sukita_gls:mari231296::1996-12-23:BR:F:189.70.128.81:NULL
sukita_icce:thebestdamn159753426::1997-11-30:BR:F:200.158.196.175:Mendy Willis
sukita_jady:sukita_jady1995:jady_sukita@hotmail.com:1995-02-18:BR:F:201.95.148.177:Jady
sukita_louca:332015:sukita_louca@hotmail.com:1986-08-05:BR:F:189.54.48.138:Silvia
sukita_love:_ninasp_:suelen1911@gmail.com:1987-11-19:BR:F:none:Suelen Souza
sukita_moranga:32923506::1998-03-25:BR:F:187.13.6.67:Jéssyca
sukita_my:sukita12::1996-12-04:BR:F:201.92.176.90:Luiza Myrella
sukita_O:lenl_1994:sukita.lucas@hotmail.com:1994-4-24:BR:M:201.26.106.36:Lucas
sukita_oi:sukita01::2008-06-19:BR:F:201.73.15.57:Sukita_oi
sukita_paula:apaixonada15973:sukita100@gmail.com:1995-06-18:BR:F:200.168.153.228:suelen
sukita_p_s:suelen14321:ueda.mayara@yahoo.com:1995-06-18:BR:F:187.27.241.119:Suélen
sukita_refri_vick:vick15::1997-02-15:BR:F:201.95.28.158:Vick
sukita_sjb:nani123:nanoka_sjb@hotmail.com:1990-12-30:BR:F:189.75.5.249:ariani souza
sukita_suka:suka27:lopes.suzane@ig.com.br:1989-06-19:BR:F:201.50.126.15:Suzane dos santos
sukita_sukita:suki98::1998-02-22:AR:F:190.50.102.167:suki
sukita_sukitel:suzyanne12:suzy_pereira_t@hotmail.com:1993-06-06:BR:F:201.4.223.111:suzyanne
sukita_susu:951235:prbarbosa04@terra.com.br:1988-09-08:BR:F:none:suelen fernandes
sukita_theus:theusdebh12:sukita_x@yahoo.com:1996-10-19:BR:M:187.43.108.190:Sukita
sukita_tutii:estrelinha123::1998-05-07:BR:F:189.101.171.61:Sukitaah . Tutii
Sukita_Wave:paulistano15::1997-10-24:BR:M:189.71.223.40:NULL
sukita_x3:58417915:neopetsmelhor@hotmail.com:1994-01-01:BR:F:189.18.165.98:Hiol
sukita_xb:0::XxRangxX:M:1995-01-02:0:
sukita_xrl:qazokm9173:lucaskita@hotmail.com:1995-06-14:BR:M:200.232.123.210:lucas
sukita__:renata maldonado:princesinha_renatinha_cmr@hotmail.com:1991-08-31:BR:F:none:Renata Maldonado
sukita__12:35311107::2000-05-22:BR:M:200.222.206.233:lucas
sukita__13:sukita22:sukita_crazy@hotmail.com:1928-12-31:AZ:M:200.140.205.100:kinkin lingling benben
sukita__17:40515157:lucas_rabelo_mafra@hotmail.com:1994-03-27:BR:M:189.79.89.143:Lucas Rabelo
sukita__45:96054766:gabinhorodrigues@hotmail.com:1960-05-20:BR:F:189.77.12.61:suely
sukita__70:fanta123::2003-02-01:BR:M:201.53.213.44:redbull
sukita__92:050597::1997-05-05:GB7:F:189.18.124.69:sukita
sukita__96:sususu96::2007-04-17:US:F:201.1.142.230:sukita
sukita__aa:alfabeto78::1997-07-23:BR:F:201.1.25.245:Bianca
sukita__lucas:luna12:didibili@hotmail.com:1979-01-02:AQ:M:200.100.77.117:lucas vinicius neves matos
sukitblu:sr71abllm::2005-01-01:AT:M:none:******** ********
sukitcha:@docinhodmel@:kyzi10@hotmail.com:1990-04-02:BR:F:none:Suely Xavier
sukitchi679:klutz171::1991-12-05:CA:F:none:sukitchi679
sukitchi_679:klutz1712::1991-12-05:CA:F:none:sukitchi_679
sukitcho:capanga:sukitcho@hotmail.com:1986-01-17:BR:M:none:Fernando Caçador
sukitdry:zmeekerson:timmah6707@aol.com:1980-05-09:US:M:none:Zach Meeker
Sukite:1234hotypiez**:cowzrkute@yahoo.com:1992-06-10:US:F:72.181.247.231:Hello Jello
sukiteeko:DARYL:corycdot@yahoo.com:1991-03-24:US:M:Acceptance:BillyBob McBob
sukiteen:semantics:sukiteen@aol.com:1984-03-20:US:M:none:sean miller
SukiTellechea:katy123::2004-11-12:US:M:68.105.103.152:NULL
sukiten:battlebottletop01:kyliediorio@gmail.com:1987-09-13:US:F:174.22.196.115:Suki
sukiteo0625:colleen0213:pinkmoon-0213@hotmail.com:1994-02-13:MY:F:124.82.70.187:wawa
sukitet:mydylan:sukifromtheblock@yahoo.co.uk:1965-10-21:GB:F:none:susan tetlow
sukitet10:mydylan99:nickytetlow@yahoo.co.uk:1960-10-21:GB:F:172.214.139.2:susan
sukitet21:mydylan08:tellfromthetoon@yahoo.co.uk:1959-10-21:GB:M:172.206.1.224:dylan
sukitet47:lovedylan7:sukifromtheblock@yahoo.com:1959-10-21:GB:F:none:susan tetlow
sukitet59:lovedylan99:tellfromthetoon@yahoo.co.uk:1970-10-18:GB:F:172.141.76.179:susan
sukitetlow:lovedylan21:tellfromthetoon@yahoo.co.uk:1960-10-10:GB:F:92.30.11.242:susan
sukitha:suka77:s.vitoria@yahoo.com.br:1993-01-07:BR:F:189.25.157.122:suellen
sukitha98:thanuja2009::2000-05-25:CA:F:70.52.222.169:Sukitha
sukithaah:36037549suk:suellenvitoria@yahoo.com.br:1993-01-07:BR:F:189.24.76.232:suellen
sukithanu6688:cousinbox86::2000-05-25:CA:F:99.226.185.52:sukitha
sukithard:poop101:leo_leguizamon@yahoo.com:1993-03-28:US:M:96.233.99.52:leonardo
sukithas2:suka77:s.vitoria@yahoo.com.br:1993-01-07:BR:F:189.24.169.158:suellen
sukitha_2_2:sukita11::1998-10-19:CL:F:200.111.114.52:acara_linda_11
sukitha_88:sukitha88:babu29@live.ca:1996-11-20:CA:F:74.12.66.44:thanuja
sukitha_k:ilovelove*::1992-08-13:AU:F:none:Suki K
sukitha_n:LOVELAISS15:javiera.javitah9719@gmail.com:1993-05-02:US:F:200.74.127.178:javiera muños
sukithearchfiend:suki36:angelsongyuna@yahoo.com.tw:1990-03-06:TW:F:none:suki XD
sukithebest:doogie:bainsangel1@hotmail.com:1978-08-26:GB:F:none:sally james
sukithebored:neopets123456:enchanted_rainbow_skullz@hotmail.com:1992-03-16:CA:F:76.67.112.27:Suki
sukithecat:sukinp123:carinao567@gmail.com:1995-05-30:US:F:24.147.50.190:carina
sukithegoddess:killer12::1998-10-15::F:68.14.28.82:NULL
sukithegreat:sac000297:suki0394@live.com:1994-03-26:US:F:67.210.154.20:Suki
sukithegreat11:petz16:Marfaisdabomb@aol.com:1982-04-25:US:F:64.12.116.142:Helen
sukithegreatandmight:sukilou:ihatecats.com@aol.com:1991-02-05:US:F:none:blue bird
sukithekat:cassidy88:reddchiq@aim.com:1990-07-12:US:F:96.240.20.71:Jae
SukitheLion:samson22:lovin_sushi@hotmail.com:1994-11-16:US:F:24.206.254.12:NULL
sukitherhino:stephen35:ljl32016@yahoo.com:1980-06-29:TC:F:204.10.217.82:Amanda
sukithesaluki:dilly!:megan_craggs@hotmail.com:1991-12-07:GB:F:none:megan craggs
sukitheshiba:kendithepup14:lukescoffee14@comcast.net:1994-10-14:US:F:68.42.73.117:Leah
sukitheskinnysumo:doggie12:spongebobcullenpants@yahoo.com:1990-03-30:US:M:74.65.171.176:Caleb
sukithestar:hudson:x_jmee_x@hotmail.com:1973-11-10:GB:F:Mail from botman378:nicole ???
sukithestar99102:sexychick:perfect_pout69@hotmail.com:1984-11-23:GB:F:Mail from silverfox3612:xxxxxxxxx
SukiTheWarrior:minihorse1998:wolfchic98@gmail.com:1986-06-02:US:F:209.234.252.28:NULL
sukithewitch:pickaxe:chocciecookie@aol.com:1986-11-23:GB:F:none:Ellie Scott
sukithinha:26256943suk:susuka_ferreira@hotmail.com:1993-01-07:BR:F:206.220.40.51:NULL
sukithree:angels*:SusieQkitty2@aol.com:1986-09-10:US:F:none:Susie Mulholland
sukiti:123tisuki::2002-06-01:MY:F:121.121.147.86:ti
sukitien:Marie0420:xtainix@yahoo.com:1986-04-20:US:F:69.244.8.244:Shea
sukitiffany:tiffanysuki:hangabc123@yahoo.com.hk:1977-12-26:HK:F:none:yunip sukitiffany
sukitiki:eregon22:sukitiki2@yahoo.com:1993-12-03:TR:M:75.25.131.46:kobe
sukitingz:3342999:chan_suk_ting@hotmail.com:1984-04-09:BN:F:none:Suki yaki
sukitinha:cainho:titasilveira_silva@hotmail.com:1990-07-12:BR:F:none:Cynthia Silveira
sukitinha21:povoxato52:rbd_duleucker@hotmail.com:1994-05-29:BR:F:200.164.174.242:lana
sukitinha7:81152202:biancafofinha10@hotmail.com:1996-12-01:BR:F:189.51.151.227:Bianca dos Santos Gomes
sukitinhaa:81554181:suka.sol@hotmail.com:1993-02-21:BR:F:189.104.146.249:suele
sukitinhah:lucas:lovechihiro@hotmail.com:1954-02-18:BR:F:none:luiza lopes
sukitinhanjinha:654123:sukitinhaaa@hotmail.com:1988-04-07:BR:F:none:Luciana Simioni
Sukitinha_05:samia025::1997-08-06:BR:F:201.9.246.28:Sâmia
sukitinha_10:europa2906:juju.caltabiano@hotmail.com:1995-06-29:BR:F:200.207.230.139:Júlia Caltabiano
sukitinha_2:ladrilho30:suka_andrade@hotmail.com:1995-02-13:BR:F:201.5.237.132:Suellen
sukitinha_8:skcb007:sukitacombatatafrita@hotmail.com:1985-07-07:BR:M:200.187.224.41:lucas
sukitinha_9:wesley10::1997-04-10:BR:F:24.29.138.14:Grazi
sukitinha_naty:asd123.:brunex_power@hotmail.com:1991-08-19:BR:F:201.82.134.161:naty
sukitinho:amanda12::1999-07-15:BR:M:189.55.52.67:Sukito
sukitinkerbell:_lovematt:sukisukilady13@yahoo.com:1988-04-06:US:F:none:Nicole xxxxxx
sukitis:29291998::1998-08-05:BR:F:189.98.163.185:sukita
Sukitita:laikinha27:sukitita.81@hotmail.com:1981-05-17:BR:F:201.89.196.248:NULL
sukitje:lulamae007::1998-02-06:BE:F:78.22.176.34:suki
sukitju:papaenmama:suki_666@hotmail.com:1983-07-07:NL:F:none:Suki Lau
sukitloosa:hotstuff2497::1997-11-24:US:M:98.164.227.118:colby
sukitmothatrucka:soccerfreak80:ValGalGoesRAWWR@aol.com:1996-11-08:US:F:68.192.173.192:YoMamma
sukitnow:war40k:tom_dougall@hotmail.com:1990-08-04:GB:M:92.232.235.11:Tom
sukito:mewmew::1994-04-28:US:F:96.233.250.91:sukito
sukito15000:685185720083103:israel_peres_@hotmail.com:1990-12-31:BR:M:200.247.95.203:bryant
sukito18:bnhjyu67:brianegro@live.com.mx:1990-02-19:MX:F:189.158.42.159:monserrat
sukito2:ronaldo23::1998-12-21:US:M:189.19.28.149:gabriel henrique silva giollo
sukito289:DHQ289:sukito298@yahoo.com:1993-12-21:JP:F:70.251.129.25:Sukito
sukito298:DHQ298:Sukito289@yahoo.com:1993-12-21:JP:F:70.251.110.1:Sukito
sukito50:5026338::2001-03-29::M:173.88.141.71:NULL
sukito5000:qwertyuiop123:kaka.mac.semaan@gmail.com:1909-01-01:BR:M:201.22.36.179:sukito5000
sukito600:lucas010203::1999-12-05:BR:M:201.89.154.32:NULL
sukito95:poemalindo95:jaguis95@gmail.com:1995-06-08:CL:F:186.11.238.180:javiera
sukitobisha:trplove:steelangelsuki@yahoo.com:1990-12-14:US:F:64.136.26.226:Mimi Dang
sukitocool:i1love2robbie:suki.to.cool@hotmail.com:1990-09-10:AU:F:58.163.148.52:suki
sukitoes:O N A123:sukifeet@yahoo.com:1990-01-01:US:F:68.121.250.67:Ariko
sukitoma:water:peachesandonions@hotmail.com:1988-02-29:CA:F:none:Sabrina Whyatt
sukitome:62327881:ying6b16@yahoo.com.hk:1990-07-10:HK:F:none:lam chuaping
sukitomo:shampoo1:is_not_emo@yahoo.com:1986-06-08:US:F:none:Yuki Yamamoto
sukitom_3:catarina1998::1998-06-01:PT:F:89.181.113.153:ana
sukitong:91006945::1994-02-17:HK:F:none:sukitong
sukitong19940315:suki0315:suki19940315@yahoo.com.hk:1992-03-15:HK:F:none:阮曉彤
sukitong97:1997616::1997-06-16:HK:F:222.166.160.121:suki
sukitongsk:91006945::1994-02-17:CN:F:none:sukitongsk
sukitony:413049::1993-04-13:HK:F:none:sukitony
sukitony2007:iloveu110:tam_suki2007@yahoo.com.hk:1988-07-11:HK:F:61.15.226.170:Suki Tam
sukitooo:caramelo123:dulce-sita00@hotmail.com:1988-12-06:MX:M:189.173.96.239:sukitooo
sukitoph:bratkartoffeln12:hananici@web.de:1994-05-05:EG:F:87.185.68.19:ve
sukitoph16:sasori17:tophtijiyo16@ymail.com:1995-03-30::F:98.114.74.187:NULL
sukitoph74:lenora74::2004-03-06:US:F:72.94.175.182:NULL
sukitora:wolfpup33:nayzomi@yahoo.com:1992-10-26:US:F:72.147.235.100:Izzy
sukitoromo:GRINGO:sukitoromo@yahoo.com:1991-07-09:MY:F:none:YAP SIEW FONG
sukitos2:99897154:marialpatrao@gmail.com:1996-02-25:BR:F:201.79.133.85:Maria Luiza
sukitoshi:LIZARD13:sukitoshi@hotmail.com:1990-01-07:US:F:12.109.52.60:Suki Toshi
sukitox:vfg511:zapser2001@hotmail.com:1984-12-22:AR:M:none:Sergio Cocca
sukito_12:diana123:almendrita34@hotmail.com:1990-12-13:CL:F:201.241.201.142:Daniela
sukito_23:feb2317:sukito_crb@hotmail.com:1993-02-23:PE:F:190.43.139.54:Sukito
sukito_t_t:diana123::1996-12-13:CL:F:163.247.56.51:Manta-chan
sukito__14:27129200:sukodiko@yahoo.com.br:1987-10-11:BR:M:200.139.78.202:João
sukitrela:13121512:fernanda.trelosa@hotmail.com:1990-03-24:BR:F:189.93.15.87:fernanda
sukitrela13:13121512:fernanda.trelosa@hotmail.com:1981-08-12:BR:F:189.92.233.162:fernanda
sukits:terra23::1992-11-23:BR:F:none:sukits
sukitsang:suki38:suki199438@yahoo.com.hk:1990-03-08:HK:F:Battledome Challenge:曾 思蕙
sukitsang1992:19920209::1992-02-09:HK:F:Mail from theneopetsteam:sukitsang1992
sukitsang199229:suki6:tsangshuki788@yahoo.com.hk:1992-02-09:HK:F:none:suki tsang
sukitsang201:no10612::1993-04-13:HK:F:none:sukitsang201
sukitsang999:31565870::1994-04-19:HK:F:none:sukitsang999
sukitse:29540931::1998-03-22:HK:F:222.166.160.161:SUKI
sukitsu:cloud303:cobaltwind@cox.net:1991-12-15:US:F:none:Jenna H
sukitsui:4708235::1995-11-13:HK:F:219.79.167.137:KAISUKI
sukitsumoni:1kittin1:kitty_love0811@hotmail.com:1990-08-07:US:F:69.131.155.52:Suki
sukitsuu:v3nsith3w:keiiplz@yahoo.com:1993-07-28:US:F:71.63.188.204:Keii
sukitsu_42:you12:juan@juanso.com:1994-02-23:US:F:4.159.98.119:Dana Chorley
sukitsy:sukitam14:candytam1314@hotmail.com:1992-01-12:CN:F:61.238.165.114:Candy
sukitta:2sukitta2::2007-10-09:BR:F:200.149.187.5:sukitta
