sulaymanahmed:sa32572::1998-04-17:GB:M:81.151.137.113:sulayman
sulaymanites_madz54:keanuting)::1994-01-11:PH:F:none:sulaymanites_madz54
:::::::
sulaymanlover:HAvo10::1994-03-10:AW:F:none:sulaymanlover
sulaymann:kamenrider02:sulaymannzaidi@yahoo.com:1990-01-27:MY:M:175.138.164.113:NULL
sulaymanrap:7045609022::2000-04-18::M:75.176.3.115:NULL
sulaymanto:7045609022::2000-04-18:US:M:75.176.90.57:NULL
sulaymantoyoho:7045609022::2000-04-18:US:M:75.176.90.57:NULL
sulaymanyo:7045609022::2000-04-18::M:75.176.3.115:NULL
sulayman_:spinyshell23:sevdasulayman@hotmail.com:1995-01-23:CA:F:70.79.146.248:sevda
sulayman_7:sally123:manchin1@streamyx.com:1966-06-24:US:M:168.70.47.35:SulaymanChinAbdullah
sulayman_786:sulayman786::1999-11-21:GB:M:82.39.176.157:sulayman
sulayman_master:meuftp12:fabiotheophilo@gmail.com:1994-04-27:BR:M:201.9.165.40:Fábio Marques Theophilo
sulayman__76:SULAYMAN99:nasresy6@aol.com:1979-02-27:US:M:75.22.236.143:sulayman
sulayma_15:jimos15:sulayma.casillas@yahoo.com:1993-09-16::F:99.27.181.30:NULL
sulaymon:nunu317::1999-03-17:US:F:71.177.62.165:NULL
sulaynatalia:9a0b749bc::2001-05-21:CO:F:190.240.46.238:linda
sulayne:150906::1993-09-15:BR:F:none:sulayne
sulayne11:peeper11::1997-02-11:US:F:68.97.82.187:Caralissa
sulayne12:peeper12::1997-02-11:US:F:68.97.82.187:Caralissa
Sulayne13:loljkjk13:Sulayne15@yahoo.com:1997-02-11::F:68.97.95.134:NULL
sulayne15:peeper15::1997-02-11:US:F:68.97.82.187:caralissa
sulaynie16:iwuvyou16::1998-02-16:US:F:76.108.111.174:sulaynie
sulayras:NASCAR1:sulayras4444@yahoo.com:1988-03-04:PH:F:124.106.191.108:Ras Sulay
sulay_55555555555555:nadeem12::1999-10-18:GB:M:90.209.69.184:sulaiman
sulay_56:kuky56:acoa_92@hotmail.com:1992-04-12:DO:F:96.232.206.206:sulay brea
sulay_bin_rahmad:cilone39::1995-10-22:ID:M:121.101.184.162:sulay
sulay_castellanos:050520::1998-4-5:CO:F:186.28.198.239:sulay castellanos
sulay_sulay_8:sulinha31:KMUCOSTA@HOTMAIL.COM:1977-02-27:BR:M:189.124.168.119:fert
sulay_sulay_a33:lupe25:Sulaybs21@hotmail.com:1983-10-21:CO:F:190.13.6.81:Myriam
sulay_yanez:12346::1988-07-10:EN:M:NULL:NULL
sulazar:surayafaruk12:suraya-@live.nl:1993-09-05:NL:M:82.168.220.138:sulazar
sulaze_and_zanetia:gryphiemcspiff:calaciyra@yahoo.ca:1990-10-06:CA:F:none:Zanetia & Sulaze
sulazili:arualmf23::2000-11-16:BR:F:189.113.62.206:NULL
sulazi_00:susuazi200:bawagodesulloh@yahoo.com:1986-02-26:NG:M:41.206.11.12:NULL
Sulazuja:lebedeinleben96:danias.erdbeertorte@hotmail.de:1992-07-15:US:F:178.27.0.113:NULL
sulazzzz0:04385438a:hiphop012016@yahoo.com.tw:1985-10-08:TW:M:none:昨晚不是我 sula
sula_0302:sula0302:nn.xjhSJk@HOTMAIL.COM:1991-10-07:BR:F:189.29.87.17:lola
sula_12:23242729:sueli.matos@ig.com.br:1967-05-23:BR:F:189.121.68.89:sula_12
sula_120:jaime200mio:jaime_chido99@hotmail.com:1979-04-16:MX:M:189.182.6.188:picachu
sula_123:01051998::1990-01-28:DO:F:200.88.217.10:sulamita javier
sula_1235:ariel15::1999-01-28:DO:F:190.80.133.170:Sulamita
sula_123_3:WeRtY123:kasurasu@hotmail.com:1995-06-18:FI:M:195.197.175.22:leo
sula_14:1994043012:garabatobarche@hotmail.com:1994-04-30:MX:M:201.167.94.166:saul baez
sula_2:sula2::1993-08-17:BR:F:none:sula_2
sula_21:34320964::1999-12-21:BR:M:187.77.21.40:Sulamita
sula_22:thornton:sula_22@hotmail.com:1984-02-03:GB:F:none:sula u
sula_2_2:olodum1:su.silveira@hotmail.com:1969-12-12:BR:F:none:Sula Silveira
sula_331:778899123:sula-147@hotmail.com:1990-04-14:BR:F:189.78.121.169:Suh
sula_4:dream9:jennacleland@hotmail.co.uk:1993-03-26:GB:F:none:jenna cleland
sula_56:Katie123:Stripes_Of_Gray@yahoo.com:1992-04-24:US:F:24.16.228.135:Jekaterina
sula_67:amiza12::1999-09-26:BR:F:201.78.122.68:Sula
sula_88:neunkirchen88:sulanorried@yahoo.de:1997-03-30:DE:F:80.187.106.6:sula
sula_9211:921102:cherie21182003@yahoo.com.hk:1989-01-04:CN:F:none:Kwan Ching Leung
sula_a:jeje88::2008-01-01:US:F:81.83.50.109:sula-a
sula_bula:38313:sula_bula029@yahoo.com:1980-05-11:US:F:none:Sula Hitzeman
sula_c_stars:merlin:krisiceca@yahoo.com:1989-10-15:US:F:none:iceca sanders
sula_danks:dansksusuda:s_dansk@hotmail.com:1956-09-09:BR:F:none:Sula Danowski
sula_e_ma:vida66::2000-02-02:BR:M:201.93.234.20:Fred
sula_flor:sulamita12::1997-06-26:BR:F:201.1.216.96:sulamita
sula_flor_9:sula123:sularosa@hotmail.com:1997-6-26:BR:F:201.1.219.157:sulinha
sula_gomes:subaluba!:sulagomes_@hotmail.com:1991-08-01:BR:F:201.51.231.52:Ursula Gomes
sula_hula:hulas::1992-12-09:AU:F:none:Lulu Nich
sula_jane:jellybaby03:little_girl_inside@hotmail.com:1988-06-03:GB:F:81.97.252.208:Fliss
sula_kta:36772450:sulamitalanzieriferraz@hotmail.com:1988-03-30:BR:F:none:Sulamita Lanzieri Ferraz
sula_lindinha:matheus!:sdutrachagas@hotmail.com:1984-05-15:BR:F:none:sulamita chagas
sula_lol:neunkirchen88:sulanorried@gmx.de:1997-03-30:DE:F:88.134.65.41:sula
sula_lula:sulalula22:suelencezar@hotmail.com:1996-06-10:BR:F:189.63.133.55:Meggie Monroe
sula_moura:sulany123:sulamsnunes@yahoo.com.br:1993-01-18:BR:F:200.96.253.182:Sulany
sula_nasr:millie55:sulanasr0706@hotmail.com:1954-06-07:BR:F:201.68.231.173:Sueli Nasr
sula_nebouxii:1m@Bel1ndas:sula_nebouxii@yahoo.com.au:1956-08-29:AU:F:203.214.37.66:SulaNebouxii
sula_noriko:gaara12:Kamikaze-kathi@web.de:1991-05-17:DE:F:84.172.152.226:Katharina
sula_ok:sula94:rayanemfregona@gmail.com:1992-09-07:BR:F:201.79.17.78:Rayane
Sula_Rigon:sula24:angelita.rigon@danna.com.br:1987-03-05:BR:F:187.71.31.192:NULL
sula_sm:84053940:smsoares1@hotmail.com:1990-08-17:BR:F:201.15.209.131:solange
sula_sou_eu:sula16:suelen_snds@hotmail.com:1990-07-16:BR:F:200.161.83.24:Suelen Naiara
sula_sv__09:sula2011::2003-09-02:BR:F:201.93.235.133:NULL
Sula_XD:shadowleggy12::2002-11-24:US:F:166.70.222.242:NULL
sula_xlus:coniylasu89::1998-03-06:PE:F:190.232.172.39:ursula
sula__21:34320964::1998-12-21:BR:F:187.77.21.40:Sulamita
sulb92:tommyboi92:qtpie22@verizon.net:1992-04-13:US:F:72.198.19.96:shelby
sulba00:631999::1999-03-06:MX:M:189.132.212.187:chito
sulba12:123258789:sasuke_akatzuki@hotmail.com:1992-09-19:VE:M:190.204.14.149:kevin
sulba123:susu88:piomenegat@hotmail.com:1981-01-09:BR:M:201.79.46.45:seli
sulbar:mugged22:tom1990@live.ca:1995-08-03:CA:M:64.201.212.251:mat
sulbaran3342:6930292::1996-06-10:VE:M:200.93.19.36:The_Shadow_3342
sulba_007:631999::1999-03-06:MX:M:189.133.130.192:erick
sulbear:sulley05:bearmont2007@yahoo.com:1992-04-07:US:F:68.6.197.67:Megan
sulbeey:nmnmnm:life_is_that_way@hotmail.com:1979-03-21:BT:F:Mail from miscandybee:df  fdg
sulberg:StacieU93:s.ulberg@gmail.com:1993-01-04:US:F:none:Stacie Ulberg
sulbert123:hanra:sigs@hot.ee:1922-10-12:EE:M:none:hanno Soo
sulbester:noenoe12:noeanthony@yahoo.com:1993-12-10::M:173.89.78.10:NULL
sulbeth:legolas:rosewhip7@hotmail.com:1990-05-26:US:F:none:Chelsea S
sulbic:imsexy:zeetlock@wowway.com:1987-03-02:US:M:none:mike randall
sulbija:pimp69::1993-06-15:CA:F:none:sulbija
sulbith:chinedu99::1997-06-28:NG:M:41.221.174.148:chinedu
sulbi_2099:alexei20::1999-02-20:GT:M:190.148.97.160:Alexei
sulblaker:god456456:reannonkiller@yahoo.com.au:1990-03-07:AU:M:none:Daniel  leung
Sulbolba:c00nhound:redneck.head.hunter@hotmail.com:1990-07-22:CA:M:209.213.235.84:NULL
sulbul:123654789:only4game@gmail.com:1985-09-07:VN:M:203.210.209.216:Sang Chau
sulburna:the14u:bombmi@hotmail.com:1986-11-03:AU:M:211.30.242.215:Jason
sulc:chacha::1992-06-03:US:F:none:sulc
sulca:chicaso:su_ferreira@hotmail.com:1985-02-26:BR:F:189.27.40.220:Suzana Ferreira
sulcalen:dungeons2006:vdallos@hotmail.com:1980-10-02:CO:M:none:Victor Dallos
sulcalman:159753:genecallaway@aol.com:1990-07-16:US:M:none:sul cal
sulcan:tate22::1999-04-22:AR:F:201.252.206.153:minus
sulcani:gepart12::1999-06-17:EG:M:80.218.21.172:haki
sulcano159:fidodido10:fanta_bamboocha_123@hotmail.com:1992-07-30:BO:M:200.87.191.218:miguel
sulcapre:alfredo12::1997-04-24:PE:M:190.233.57.210:alfredo
sulcar:cheetah88::2000-01-01:CA:M:99.227.6.187:lucas
sulcar85:cheetah85::1997-01-01:CA:M:99.243.58.114:wali
sulcarlo:kikalopio:varod_9@hotmail.com:1988-07-08:VE:M:none:carlos sulvaran
sulcarter95:cengiz95:ebtmad@aol.com:1992-01-10:GB:M:172.188.43.34:john
sulcat:#1snowcat::1993-06-12:US:M:71.38.248.159:sulcat
sulcat12345:juandiego20:bobby_sullivan7@hotmail.com:1993-06-12:US:M:97.117.113.118:Sully
sulcata:pepsi1290:sulcata99@hotmail.com:1980-02-29:US:M:71.66.111.29:Sulcata Ninty Nine
sulcata1:2410160190:cool_chiguawa@yahoo.com:1992-05-22:US:M:98.164.229.58:steve sandoval
sulcata10:12pieman::1998-01-16:US:M:99.28.216.109:tyler
sulcata1963:Daisy73701:tortugasulcata1@yahoo.com:1963-09-27:US:F:204.56.135.2:Connie Allen
sulcata33:ll23ll:gorzugi33@aol.com:1981-11-11:US:M:none:Colin H.
sulcataboi101:FEDEX:foleyage5@optium.net:1990-10-06:US:M:none:TIMOTHY FOLEY
sulcatas:sulcata66::1999-04-07:US:M:24.21.205.93:cameron
sulcatasagira:Columbia38401:brendaeakes@yahoo.com:1967-06-15:US:F:75.216.154.176:Sagira
sulcatatortoises1993:110193:willettjudith@hotmail.com:1993-11-01:US:F:65.41.247.131:Dana
sulcataturtle13:pets13::2000-04-08:US:F:205.188.116.78:grace
sulcata_lover:lildavid1:fbvgbkdifbubnfgu@yahoo.com:1989-12-05:US:F:71.103.100.130:a d
sulcata_lover__21807:simonrocks34:marietess.horserider@gmail.com:1993-03-10:US:F:76.174.134.20:Ann Chovie
sulce:carole:carole@freesurf.ch:1990-06-09:CH:F:none:carole högger
sulcenepomuk:carole:sulce@freesurf.ch:1990-06-09:CH:F:212.117.127.37:carole högger
sulch:manjaban1::1992-10-14:US:F:71.162.31.39:Food Eater 5000
sulcha:yagnoz12:assaf.ab@gmail.com:1992-02-06:IL:M:89.139.39.67:charachiko
sulchan:korean:azn_foo11@yahoo.com:1991-10-16:US:M:none:hannah yoon
sulchan1016:korean:azn_foo11@yahoo.com:1991-10-16:US:M:none:sulchan yoon
sulchan16:korean123:koreanfoo11@gmail.com:1992-10-16:US:M:68.0.32.192:sulchan
sulchi007:savannah:skays01@yahoo.com:1988-04-08:US:0:acceptance:Savannah Smith
sulchicks:angel24:kittykatangel24@hotmail.com:1992-11-30:CA:F:none:Renee Ouellette
sulchin:illidan!:lord_jean2@hotmail.com:1992-06-25:BE:M:none:hatchu blabla
sulchin11:townsend11:sulchin1@hotmail.com:1927-01-03:US:M:24.119.186.114:cody
sulchin5:townsend11:rosehunter1@hotmail.com:1980-10-03:US:M:24.117.4.108:cody
sulchris:dragondrive77::2001-09-08:GB:M:2.99.74.243:NULL
sulchudii:eskimo01:sulchudi@gmail.com:1982-08-10:US:F:99.48.250.77:MANDY
sulch_nina:1screwyou1:nina_sulch@hotmail.co.uk:1992-10-14:CA:F:64.59.144.87:Nina
sulci:brush:sulci@superficial.nu:1985-03-30:CA:F:none:Sulci Corrie
sulcidalxd:7539510:sulcidalxd@hotmail.com:1989-03-29:US:M:none:danny ..
sulcidalxd2:7539510:sulcidalxd@hotmail.com:1989-04-26:US:M:none:danny ..
sulcies:monkey12:darktaylorret.@hotmail.com:1995-03-07:US:M:75.140.13.148:elait
sulcklamanga:suna123:michel_rock_lee@hotmail.com:1980-04-25:BR:M:201.62.214.101:Sulck
sulcks:134512:samantha_vitela2000@yahoo.com:1990-11-14:US:F:24.32.244.48:samantha
sulco100000:26dejulio::1999-07-26:AR:M:186.136.50.108:NULL
sulco26:26dejulio26dejulio::1999-07-26:AR:M:186.136.50.108:?
sulcolenta:kyrakyra15::1999-08-13:NL:F:82.171.68.219:kyra
sulcollin:lol@@:collin.van.der.molen@pcbs-librije.nl:1980-06-01:AN:M:none:collin van der molen
sulcool:elto12:sulsystem@hotmail.com:1987-06-18:JP:M:none:sal la[pou
sulcoot:franc2:sulcot77@hotmail.com:1980-11-27:CL:M:none:Ricky m
sulcoreano:50vdlk:andreczanin@hotmail.com:1981-06-19:BR:M:201.58.128.208:André
sulcoski_storage_acc:*@nutmeg@*74:maries4274@aol.com:1974-04-02:US:F:98.111.63.56:Tararizin
sulco_3:juano19:kozac@hotmail.com:1995-08-19:ES:M:216.246.75.150:?
sulcs69:brewster:bmsulcs@bigpond.com:1989-08-24:AU:M:Battledome Challenge:Mat Smith
sulculwer:!@#$56:dantebuni@hotmail.com:1995-04-09:MX:F:201.160.137.25:sergio
sulcune:lugia12::1999-01-04:US:M:96.229.179.87:elvis
sulcus:iamkalin12:pickledpetz@gmail.com:1912-07-08:US:F:108.25.18.16:Kalin
sulcy9876:buster12::2000-02-19:GB:M:94.15.202.52:NULL
sulczi:graga37::1992-11-16:EN:M:NULL:NULL
sulczinski:012345pt:findship-dark@bol.com.br:1995-01-23:BR:M:201.67.214.179:johann
suldabl:Ninja_92:beetle63@online.no:1991-07-27:GB:F:none:kimichan Lee
suldag:950922:luciano_alves03@hotmail.com:1986-07-06:BR:M:201.43.97.220:Luciano
suldalb:Ninja_92:peny@hotmail.com:1992-07-27:GB:F:none:Amy Onatrio
suldan1:suldan11::1996-10-19:DE:M:79.199.81.249:klinger
suldan11:987poi::2001-03-25:GB:M:78.144.29.41:osman
suldan207:ass an::1993-12-07:DK:M:none:suldan207
suldanaka:ilyas123::1996-09-24:US:M:89.242.98.51:NULL
suldan_hh:Internet:suldan_hh@hotmail.com:1980-01-01:CA:M:none:aaa aaa
suldan_summer:suldan17:summer_suldan@yahoo.com:1993-08-17:US:F:66.189.180.165:summer
suldan_summer_2:ashlee17::1998-08-17:US:F:24.113.106.202:summer
suldar:tripp01::2003-02-23:US:M:74.178.192.18:tripp
suldar_langsamtod:cheri69:mystiqq_@hotmail.com:1993-01-01:US:M:68.101.236.87:Suldar
suldat:jienmalti92:juliancatania92@hotmail.com:1992-08-08:MT:M:80.77.201.56:Fregon
suldat_dbest:bubbles11:go.johnny.go.man@gmail.com:1997-01-01:MT:M:78.133.87.108:Matthew
suldee:111298:suldee_jamsran@yahoo.com:1995-04-03::M:99.21.67.106:NULL
suldek:tako_64::1996-02-12:MX:M:189.228.161.41:miguel angel lopez
suldek666:bebe2000::1996-02-12:MX:M:189.139.149.22:miguel
suldek_12:suldek_666::1996-04-12:MX:M:189.139.162.24:miguel angel lopez pimentel
sulder8:Wackyseed12:tylernewell@nycap.rr.com:1994-05-29::M:74.70.96.62:NULL
suldi:224466:suldi14@hotmail.com:1992-09-20:NL:F:none:pipi langkous
suldieem333:abdullas10:suldieem333@hotmail.com:1977-11-03:YE:M:none:Abdulla Aldieem
suldin:halo45::1996-07-18:US:M:74.36.234.185:josh
suldm:k5h60::1993-04-21:US:M:none:suldm
suldo55:jasmine22::1997-04-26:US:M:69.116.34.133:dante
suldog42:whatsup42:tjgirl1@charter.net:1992-09-02:US:F:24.151.116.36:Katherine
suldog63:mckinley1216:aandspamperedchef@comcast.com:1979-11-14:US:M:66.30.214.219:NULL
suldor1:windland57:skgurl5@yahoo.com:1982-10-04:US:F:66.82.9.103:Steph
suldrick:08102005:sd_frogs@hotmail.com:1982-09-27:US:F:204.116.232.177:Shawna
suldrun__:kizkur:suldrun__@hotmail.com:1977-05-23:ES:F:none:P Isasi
sulduggery:animals12::1998-11-03:GB:F:81.96.56.218:esther
sulduggery_:scruffy12::1998-11-03:GB:F:80.2.18.141:esther
suldur:coredraco:idairanuez@msn.com:1988-03-03:JP:F:none:carla tona
suldurion:coredraco12:yaizanalta@hotmail.com:1988-04-18:ES:M:85.136.160.172:No lo se
suldwg:nicco33:patsfan5077@cooltoad.com:1980-01-01:US:M:71.184.81.229:Ryan
sule01:besiktas01:sulez80@gmail.com:1991-02-23:AU:F:211.28.39.106:sule
sule02:kaplan02::1999-04-01::F:115.64.94.40:NULL
sule04:9694312:sule92@hotmail.com:1992-07-04:PE:F:none:susan leticia dueñas lopez
sule08:packardbell08:sulemansabir@gmail.com:1988-04-04:GB:M:88.109.56.143:Naw
sule09:fuckinghell2eggs9::1999-05-20:GB2:M:82.36.45.188:suleman
sule102:chulita1:suramys25@yahoo.es:1991-10-28:PR:F:none:suleidy sosa
sule10_xx:yilmaz10::1997-09-17:NL:F:81.71.173.212:sule
sule11:zika05:zsustran@yahoo.com:1993-04-04:SI:M:80.93.254.8:Zika
sule111:wachtwoord2:yildizlikeziban@hotmail.com:1986-11-29:BE:F:none:sule yildizli
sule11_xx:yilmaz11::1997-09-17:NL:F:81.71.173.212:sule
sule12:bosna12::2000-04-12:BR:M:74.137.21.80:sule
sule12123:pokemon12::1999-11-09:US:F:72.73.200.58:suleitha
sule123123123:hakiganteng00::2000-09-12:ID:M:222.124.36.75:baihaki
sule12_811:sleketep12:naufaltito@yahoo.co.id:1945-05-03::F:110.139.62.91:NULL
sule13:24689::1992-07-08:DK:M:none:sule13
sule131994:hadziavdicsuad11:suadje@hotmail.com:1994-11-29:NL:M:85.147.24.247:Suad
sule177:friendsforever:sulemawi@web.de:1990-07-11:DE:F:none:Sule Mawi
sule18:salih18::1997-04-17:TR:F:84.31.161.218:sule
sule195:packardbell:sulemansabir@gmail.com:1987-02-03:GB:M:none:Sule Man
sule1993:ikke12::1993-05-20:AN:F:none:sule1993
sule1999:tiger12:sule_b2@hotmail.com:1994-09-20:TT:M:190.213.46.193:sule
sule20:sule1994:sule_cetebasi@msn.com:1994-07-08:DK:F:90.185.101.157:Sule
sule20001:!2000sule::2000-11-27:NL:F:82.171.169.190:NULL
sule2009:nawpal09:sulemansabir@gmail.com:1988-02-03:GB:M:78.149.75.137:Suleman
sule2020:mascota12::2003-01-23:US:F:67.166.87.192:suleika
sule22:pokemon12::1999-11-09:US:F:72.73.193.245:sule
sule2214:asdfgh123:ta31333@yahoo.com.tw:1988-02-15:TW:F:163.30.19.103:吳吳
sule23:pokemon23::1999-11-09:US:F:72.73.240.222:sule
sule23_4:pokemon23::1999-11-09:US:F:72.73.217.250:sule
sule2567:2567sule:she0938345191@yahoo.com.tw:1938-09-05:CN:M:180.177.178.24:NULL
sule28:azer28:deli_kiz_du_67@hotmail.fr:1987-09-23:FR:F:none:sule yilmaz
sule345:patrick20::2000-05-23:ID:M:110.136.154.30:NULL
sule45:sule123::1996-01-11:VG:M:83.255.18.251:suleyman
sule510:myname:sulerasheed1@yahoo.com:1986-05-07:NG:M:none:rasheed abiodun
sule511:bobbkat1234:ethurmond@darlingtonschool.org:1991-06-24:US:F:67.166.206.14:tracy
sule605:spiedy605::2001-05-25:TR:F:84.81.120.27:sule
sule68:pokemon12:jontiex@hotmail.com:1975-11-09:US:F:68.80.78.101:sule
sule70:suleutar70:emre70@live.nl:1990-10-01:NL:F:84.87.37.148:Sule
sule707:santo2710domingo:sulenny@hotmail.com:1984-07-17:ES:F:88.14.144.131:sulenny
sule70_3:sasha70:emre70@live.nl:1989-07-22:TR:F:84.87.37.148:sule
sule786:323323::2000-01-01:US:M:24.184.33.186:aang
sule7866:sulemaan786:sulemaan_rules@hotmail.co.uk:1995-01-17::M:90.214.27.29:NULL
sule808:sule88:berak.boker@gmail.com:1990-05-06:ID:M:125.161.159.95:Sule
sule820815:sefdxv815:sule82501@yahoo.com.tw:1993-09-30:TW:F:122.120.10.15:徐宛芝
sule903:FDSFDS::1991-03-15:US:M:none:sule903
sule97:486486:hepsi1__1997@hotmail.com:1997-02-10:TR:F:88.232.93.222:yasmın97
sulea101:asg3121::1997-04-10:US:F:75.51.89.187:serina
suleamn:cloud98:sul3man@yahoo.com:1983-01-21:US:M:173.67.178.119:Suleman
suleamy:ohana::1993-04-18:US:F:none:suleamy
sulean83:830624::1994-01-01:TW:F:none:sulean83
suleana:piglet26:xgrandebabyx@yahoo.com:1994-02-26:US:F:72.209.45.68:suleana
suleanafufu:dori2::1994-02-26:US:F:none:suleanafufu
suleana_grande:suleana20101:carmensjwc@yahoo.com:1994-02-26:US:F:72.209.44.227:Suleana
suleanik:kitty101::2000-05-13:US:F:184.36.123.40:NULL
suleanka:dzidka::1994-02-14:PL:F:83.20.113.12:suleanka
sulebasar__:sule123::1998-02-05:NL:F:84.29.50.184:sule
sulebereaux12345:tiger1234:zakiyabereaux@hotmail.com:1992-09-20:TT:M:none:sule bereaux
suleca:amoneo11:neopets_10@hotmail.com:1992-01-01:CF:F:201.79.168.83:suleca
suleca14:280495:ursulabarbosa@ig.com.br:1995-04-28:BR:F:189.60.236.37:Ana
suleca2:1235813:www@SuelydosSantosLima.com.br:1973-05-16:BR:F:201.27.63.222:Suely dos Santos Lima
sulecielo:64871088:sulecielo@hotmail.com:1978-11-26:VE:F:none:Suleikys Acosta
sulecita:emogirl14:more_abril@hotmail.com:1995-04-07:MX:F:189.136.224.164:suleyma
sulecki:13austin:austnslck@aol.com:1995-03-17::M:76.205.79.212:NULL
sulecoskun:sule5::1993-01-01:NL:F:none:sulecoskun
suled45:fa689p::1997-06-03:US:F:76.98.48.4:Sulee
suledale:katherine!:eilidhsuledale@fsmail.net:1993-01-02:GB:F:none:Eilidh Wright
suledblaxx:(elena)::1993-12-17:TT:M:none:suledblaxx
:::::::
suledhel_neithan:amparo:suledhel@hotmail.com:1981-10-31:ES:M:none:Neithan Sûledhel
suledidem:19951996:suledidemsekban@hotmail.com:1985-08-17:BE:F:84.192.85.89:sule sekban
sulee:741753::1992-11-22:US:F:none:sulee
sulee007:bliss07:www.kearney410@hotmail.com:1990-07-15:AU:F:Acceptance:Cindy 2004
sulee07:sulee7::1991-07-15:AU:F:none:sulee07
sulee101r:a1456321:sulee101r@yahoo.com.tw:1992-11-03:TW:F:none:佩純 陳
sulee13:651200::1999-12-07:AU:F:114.77.195.188:sophie
sulee130:sulee::1991-07-15:AU:F:none:sulee130
sulee1988:hotice23:sunlee88@yahoo.com:1988-07-11:US:F:125.141.73.49:Sun
sulee219:120456::1993-02-19:KR:F:121.147.246.116:sulee219
sulee2828:diamond:sulee@adelphia.net:1975-08-20:US:F:66.176.0.158:susan enloe
sulee70:pologne:sulee70@aol.com:1986-08-25:FR:F:none:clementine nardin
sulee74:111364:kimmyra109@gmail.com:1993-02-07:US:F:76.15.181.229:sulee
suleee:gatita13::1997-06-30:US:F:70.243.208.69:Olenka
suleee_098:43675579::1999-04-27:AR:F:190.51.187.59:suulee
suleei:qazwsx12:meow._.kung@hotmail.com:1990-03-20:CA:F:173.33.70.250:Suleei
suleek:kt9256:keelustaylor@gmail.com:1993-10-01:US:M:69.171.160.218:keelus
suleekha:clubpeguin12::2001-05-07:CA:F:99.227.236.176:NULL
suleekha_7:sweet22::1993-09-08:CA:F:none:suleekha_7
suleekha_788:hirsi123::1999-05-11:US:F:99.227.234.126:NULL
suleekin:ekin2002::2002-09-17:TR:M:78.175.73.46:NULL
suleeleecker:8501papa:rtmfam@peoplepc.com:1989-08-28:US:F:4.225.95.151:Meg
suleeli:lilakiko67:unicorndog@hotmail.com:1980-04-27:MY:F:58.41.80.211:ygyy
suleen:apple12::1994-07-21:GB:F:85.49.75.188:suleen
suleen0x0:vicky10:vickychristian97@yahoo.com:1988-03-01:US:F:68.221.78.62:suleen
suleen89:020789:tsh_lucas86@yahoo.com:1989-07-02:MY:F:202.186.16.35:suleen
suleena243:anim09::2002-08-26:US:F:99.179.169.93:NULL
suleenaa:selena11:selena---x@hotmail.com:1993-10-31:NL:F:193.173.202.146:Selena
suleenflower:flower33::2003-08-30::F:69.138.39.53:NULL
suleer:700362::2007-04-16::M:68.111.228.232:NULL
sulee_12:julia123:sulamitastaroverova@yahoo.com:1994-10-01:RU:F:97.113.177.235:sulee
sulee_17:170680:limsulee@gmail.com:1980-06-17:MY:F:202.156.12.10:Su Lee Lim
sulee_abdi:sulee123:suleqasaid@hotmail.com:1969-07-11:GB:F:none:suleega abdi
sulee_and_jun_3:bunny001:Sulee2010@hotmail.com:1991-09-10:US:F:71.217.80.18:Sulee Soriano
sulee_haung:dragon07::2005-10-16:US:F:72.79.185.197:Su Lee Giberson
sulegal:su12345::1999-01-22:BR:F:201.3.126.248:Suellen
sulegasaid:sureeya12:power-gril@hotmail.com:1990-12-11:GB:F:79.75.209.239:summaya
sulegen:041250:ana__@hotmail.com:1987-05-08:VE:F:200.84.127.133:ANA
sulegna:1a1a1a1q1q:sulegna2008@gmail.com:1992-08-18:BR:F:200.140.59.89:Sulegna
sulegna23:mnbvcxz45567885:yenianjuliro325884@hotmail.com:1985-04-23:US:F:99.56.129.239:yeni
sulego:kaamila12::1997-06-19:GB:F:79.77.207.45:terra
sulegunes:yesim188::2001-07-15:US:F:141.153.182.32:sule
suleh:ramish:xbloomsx@hotmail.com:1991-01-05:US:F:none:Suleh
suleh222:suleh:natzz94@aol.com:1983-07-04:US:F:none:gymnast bars
sulehika:25puppy:sulehika0925@yahoo.com:1992-10-25:US:F:71.207.222.203:sulehika
sulehika25:25puppy:sanchezsulehika@yahoo.com:1992-09-24:US:F:99.130.220.215:sulehika
sulei0001:4832823:lsu@szjm.edu.cn:1984-05-23:CN:M:none:雷 苏
sulei110:5380834:sulei79077@126.com:1981-10-24:CN:M:119.183.164.164:Eddy
sulei199:h5n1den2k4:keokren101@hotmail.com:1989-04-10:SG:M:220.255.7.208:chee ren
sulei2010:nastro10::2000-10-18:AT:F:80.121.28.243:sulei10
sulei25::::::75.83.22.115:NULL
sulei41:samir::1993-03-30:CA:M:none:sulei41
suleia:martona2::1993-11-16:ES:F:none:suleia
suleica1313:ZAIK1010::1993-07-24:CL:F:none:suleica1313
suleica1417:babygirl14:lola18@yahoo.com:1964-08-03:US:F:69.47.250.139:suleica
suleica77:julia77::2007-08-26:BR:F:189.55.212.48:suleica77
suleica987:babygirl98:suleica1417@yahoo.com:1981-06-27:US:F:64.53.189.80:suleica
suleica_11:1suleica1::1998-12-01::F:99.35.133.126:NULL
suleickanievesrosalo:suly24:suleickanieves@yahoo.com:1991-11-10:US:F:70.17.128.70:suleicka
suleida:suleida10:suleidazayas@yahoo.com:1990-05-27:PR:F:76.99.183.240:suli
suleidazayas:princessasuli23::1996-05-27:PR:F:63.246.167.235:suli
suleida_brown3:london300:cierra12_boo@yahoo.com:1994-03-06:PR:F:76.99.186.216:jennifer
suleide_321:susu321:susuzinha@hotmail.com:1991-02-21:GP:F:187.39.55.159:suleide fiorenti
suleidi124:choco124:suleidi12@hotmail.com:1995-10-12:DO:F:186.120.196.221:NULL
SuleiDiaz:sulei1025::2002-10-25::M:96.251.42.130:NULL
suleidimar202:lilo22::1995-09-10:VE:F:190.79.28.139:Cristal202
suleidy:daughter52:Chilindrinita32@yahoo.com:1989-02-21:US:F:72.189.105.67:Suleidy
suleidy01:suleidy08::2001-09-14:US:F:74.241.43.106:NULL
suleidy102:chulita1:suleidy102@hotmail.com:1988-05-25:PR:F:65.23.216.24:suleidy sosa
suleidy105:jp3544::1998-08-28:US:F:69.86.7.66:jazmin
suleidy8:sisisi08::2001-09-14::F:74.241.43.242:NULL
suleigh:watcher:suleigh@hotmail.com:1955-10-25:US:F:none:susan petty
suleighh:88190915:suleigh_@hotmail.com:1996-05-24:AU:F:124.171.252.88:Suleigh
suleighhuang:88190915:glitter_bluebell@hotmail.com:1988-05-24:AU:F:none:suleigh huang
suleigh_1:suleigh12:silly_gal0123@Hotmail.com:1986-05-24:AU:F:122.106.88.195:Suleigh
suleigh_adores_yooh:suleigh11:silly_gal0123@Hotmail.com:1980-05-24:AU:F:122.106.43.149:Suleigh
suleiha:march24:suleihabi@hotmail.com:1960-03-24:SG:F:165.21.154.70:suleiha
suleiheivy0915:babygirl16::1993-09-15:US:F:none:suleiheivy0915
suleii:jeremy11:lalokshaine_11@hotmail.com:1982-05-26:PR:F:70.45.172.184:shaine
suleiika:limonade*:angel_flipzuske@hotmail.com:1992-01-12:BE:F:none:Suleika Van Crombrugghe
suleika1001:lalaland100::2001-05-29:US:F:71.105.112.69:NULL
suleika115274:123456789101112::2006-08-11::F:98.237.94.145:NULL
suleika129:Rohid11::1993-12-24:NL:F:none:suleika129
suleika14:123456789s::2008-07-14::F:98.237.94.145:NULL
suleika1583:VANESSA1583:nani1583@hotmail.com:1983-07-15:CR:F:200.122.134.6:VANESSA
suleika1995:suleika123:laetitia-nees@gmx.de:1994-03-12:DE:F:84.163.79.215:laetitia
suleika23:alexandra22::2001-08-09:DE:F:217.246.36.196:NULL
suleika25:soraya25:aeijke@zeelandnet.nl:1975-06-03:NL:F:62.238.166.149:regina eijke
suleika28:199728::1997-05-28:PA:F:201.220.32.10:wendy sánchez
suleika4:290592:mail2derya@yahoo.de:1992-05-29:DE:F:none:Suleika A
suleika444:nmdcdnv2:suleika73@virgilio.it:1973-11-22:IT:F:none:daniela asso
suleika50:alfred2009:ann-kathrin.arlinck94@gmx.de:1994-09-27:DE:F:88.67.71.226:NULL
suleika500:s1993::1993-10-31:PE:F:none:suleika500
suleika54:suraya54::1998-04-24:BE:F:81.164.243.188:suleika
suleika678:canada67::2002-01-31::F:98.92.158.23:NULL
suleika68:stachel68:heike_kruse@freenet.de:1968-03-08:DE:F:77.183.32.138:Heike
suleika83:Werry97:suleika83@web.de:1983-03-13:DE:F:89.246.202.219:N K
suleika890:panama12::2002-01-31::F:24.99.137.28:NULL
suleika99:sportygirl99::1993-10-20:US:F:none:suleika99
suleikabravo400:19935::1993-10-31:PE:F:none:suleikabravo400
suleikaelhaddi:arabier11:Suleika_hvj_4evah@hotmail.com:1994-08-05:NL:F:77.164.242.237:Robin
suleikalovesmarcel:mrs3sj5!:suleikahartjemarcel@hotmail.com:1989-01-23:NL:F:84.24.18.154:Suleika Gommers
suleikamarie:zoraida45:s6uly07@aol.com:1991-10-27:US:F:68.51.214.207:suly
suleikax3:neopetsxxx33::1998-01-01:DE:F:84.173.218.6:Suleika
suleika_10__aa:sule18::1998-12-25:PE:F:190.187.20.90:suleika  diaz cruz
suleika_1115:11151997::1997-11-15::F:67.82.253.23:NULL
suleika_22:suli1512:suli105@hotmail.com:1993-10-31:PE:F:190.43.145.177:SuLeiiKaa
Suleika_245:petparkrocks12::2001-05-29::F:71.105.134.60:NULL
Suleika_254:petparkrocks!12::2001-05-29::F:71.105.134.60:NULL
suleika_3:suleika33::1996-12-17:DE:F:194.113.40.62:lilly
suleika_5:suleika2009:goytortu_2009@hotmail.com:1992-08-06:MX:F:189.211.0.18:suleika
suleika_54:suraya54::1998-04-24:BE:F:209.234.252.38:NULL
suleika_die_groe:12345r:sweetwolf@kabelnet.at:1992-08-02:AT:F:none:Ekaterina Fomina
suleika_love:se24011997::1997-01-24:AN:F:83.98.245.185:suleika
suleika_schatzi:sophie95:jmmax@gmx.net:1994-08-05:DE:F:76.7.41.254:Sophie
suleika_sss:rafael1:suli_onti@hotmail.com:1989-04-20:MX:F:none:Suleika Rodriguez
suleika_suleika:maxenmazzel09:suleika97@live.nl:1979-01-24:NL:F:82.173.223.24:suleika
suleika__aa:mehciz12::1998-11-15:NL:F:87.210.178.112:zoe
suleike:lohan123::2000-10-04:BR:M:200.167.72.57:Lohan  Vitor  Muniz   Teixeira
suleikita:122591:dominican_girl_04@yahoo.com:1991-12-25:US:F:67.83.172.202:minerva rodriguez
suleikita_:sulis_1103:lindis_bb@hotmail.com:1990-09-24:MX:F:201.143.175.180:aisha14
suleila:wilderose97::1997-10-19:DE:F:87.176.165.52:Linda
suleila_831:sule2001::2001-12-22::F:184.33.35.251:NULL
suleily:Monte104:ylielus_999@hotmail.com:1986-04-15:PR:F:none:Suleily González
suleima:Leentje12:c_singer_90@hotmail.com:1990-08-05:AW:F:201.229.47.243:lyslaine
suleima100:carl1::1993-04-15:US:F:none:suleima100
suleima123:winnie1:suleima026@hotmail.com:1990-07-26:MX:F:none:suleima martinez
suleima13385:miranda12:velasquez8@verizon.net:1995-04-02::F:72.94.125.11:NULL
suleima48:neopetsbd::1993-09-10:MX:F:none:suleima48
suleima694:noemia:suleimaolivares@yahoo.com:1990-04-15:US:F:Item:suleima olivares
suleima847:suleima847::2000-02-23:US:F:99.189.196.157:Priscila
suleimafariasb:91093::1993-09-10:US:F:none:suleimafariasb
suleiman000:suleiman54321::1997-12-06::M:82.7.58.56:NULL
suleiman06:farah11:saqa-022@hotmail.com:1995-07-07:CA:M:99.235.170.208:NULL
suleiman1:suleiman10::1999-05-13:US:M:70.255.173.228:suleiman
suleiman10:Bubby123::1999-01-08:US:M:76.183.177.220:Suleiman
suleiman107:passion88:suleiman2005@hotmail.com:1992-08-18:IL:F:none:suleiman ansari
suleiman11:Bubby123::1998-05-04:US:M:76.183.177.220:Suleiman
suleiman118:topgear12:Suleiman118@hotmail.co.uk:1908-07-29:GB:M:81.110.254.92:Suleiman
suleiman123:suleiman@:suleiman1234@hotmail.co.uk:1992-03-30:GB:M:none:suleiman said
suleiman123456789:petar1:abbeer99@hotmail.com:1992-03-30:AE:M:none:suleiman koblawi
suleiman162:miles:biobyfishe@yahoo.com:1901-08-11:US:M:none:suleiman karkoutli
suleiman17:zeekho17::2000-04-30:US:M:68.223.69.203:sabr
suleiman177:flame::1997-01-17:US:M:none:suleiman177
suleiman1993:sualim1993:idris_sualim@hotmail.com:1967-11-24:CA:M:none:bob dan
suleiman1999:adel10::2004-08-09:US:M:70.255.171.7:mohammad
suleiman2006:heinze27:gaida2005@hotmail.com:1989-02-28:GB2:M:none:chikinee paullo
suleiman22:sualim2:qaz_wsx_25@hotmail.com:1989-09-25:CA:M:none:dad bob
suleiman22_6:daniel123:basironov25@yahoo.com:1979-01-01:US:M:80.89.176.36:SULEIMAN BARAU
suleiman24680:sasa123::2001-09-29:CA:M:64.59.144.24:suleiman
suleiman24689:qazwsxedc12::2001-09-29:CA:M:64.59.144.23:suleiman
suleiman2k9:852456:simbaj1234@live.co.uk:1991-03-30:GB:M:82.45.242.187:suleiman
suleiman3:kingsacuud12::2001-10-10:CA:M:70.71.117.173:NULL
suleiman30000:goku30000::2000-10-11:US:M:184.97.162.200:goku30000
suleiman333:sualim333:aswqdfc@hotmail.com:1976-04-24:AW:M:none:dad bob
suleiman3811:password3811::2000-04-21:US:M:98.163.66.45:Suleiman
suleiman548:786786::1994-02-03:CA:M:none:suleiman548
suleiman69:abassid:suleimanabas@yahoo.ca:1989-02-18:CA:M:none:Suleiman Ahmed
suleiman9173:logitech12:xsuex0ox25@yahoo.com:1988-12-12:US:F:68.41.96.129:Suha
suleiman99:suleiman90:silo@hotmail.com:1989-06-10:AU:M:220.240.76.234:suleiman
suleimanluver:i love sulaman:mul94@hotmail.com:1990-07-07:GB:F:none:Katie Edwards
suleimanmomoniat22:smomo22:Suleiman.Momoniat@Gmail.com:1989-11-20:ZA:M:198.54.202.246:Suleiman
Suleimannasser:merdemerde12::1999-02-28:CA:M:173.176.232.6:NULL
suleimanov:345687::2001-09-14:US:M:74.73.61.247:fgh
suleimanrocks:ismail12::2001-09-17:GB:M:78.147.35.159:suleiman
suleimansalem:supermann2:dangerous_7000@hotmail.com:1970-03-24:US:M:none:suli salem
suleimanshakir00:relative20:suleimanboy007@yahoo.com:1977-02-15:GB:M:81.97.141.65:suleiman
suleimanzinho:745896:davidabu-gharbil@hotmail.com:1991-09-17:BR:M:none:David Suleiman
suleiman_1:124512::2001-10-12:NO:M:85.167.123.7:ecsen
suleiman_118:Suleiman118::2000-07-29:GB:M:91.107.142.35:Suleiman
suleiman_120320:120320:sul_mufc89@msn.com:1989-01-01:SG:M:none:suleiman 120320
suleiman_1999:suley19::1999-05-13:US:M:70.251.192.58:suleiman
suleiman_2:topgear78::2000-07-29:GB:M:82.0.179.222:SHussein
suleiman_2000:124512::2000-01-31:SA:M:83.108.130.28:suleimahassan
suleiman_2001:124512::2001-10-12:NO:M:83.108.130.28:suleiman
suleiman_5:salim::1929-12-31:EN:M:NULL:NULL
suleiman_786:suleiman12::1998-09-15:GB:M:82.5.140.17:suleiman
suleiman_8:younis12::1999-01-09:US:M:82.45.173.243:younis
suleiman_8_8_8:mankaura::1984-06-24:EN:M:NULL:NULL
suleiman_999:suleiman90:darkagebe@hotmail.com:1991-07-12:AU:M:220.240.89.152:suleimna
suleiman_kob1993:blake::1993-03-30:CA:F:none:suleiman_kob1993
suleiman__20:mymine49:timbulge@yahoo.co.uk:1989-01-26:GB:M:86.11.96.102:tim
suleiman__24:161198:gracemed@uol.com.br:1994-11-16:BR:F:189.72.237.63:camilla
suleiman__35_9:neopets12::1998-08-15:DE:M:88.77.250.211:suleiman
suleiman__80:01016655:sul_de_man_1995@hotmail.com:1992-03-02:NL:M:86.87.39.120:suleiman
suleimasr123:SAR12:fariasprinces@juno.com:1991-09-10:US:F:none:Suleima Farias
suleimawilliams:richard:suleima@dsl.pipex.com:1990-12-21:GB:F:none:suleima williams
suleimaymario:mario12345::1997-09-18:CO:F:190.67.216.112:blak-matius
suleima_387:wert44::1997-12-09::F:24.182.53.226:NULL
suleima_53:pekeysusu53:pe_ke53@hotmail.com:1994-02-06:MX:F:201.137.136.4:suleima rojas hernandez
suleima_98:neopets98::1998-09-28:US:F:99.74.148.9:Suleima
suleima_a79:CHULETA3000:suleimarojas_13@hotmail.com:1994-02-06:MX:F:201.137.135.225:SULEIMAROJAS
suleima_neftaly:qwerty78::1996-10-29:MX:F:189.161.98.228:suleima
suleima_olivar_2:azul17:www.suleimaolivares@yahoo.com:1988-04-15:US:F:207.63.43.49:suleima
suleima_soto:janette:puertorican_angel98@yahoo.com:1990-10-17:US:F:none:Suleima Soto
suleima_soto11:janette:puertorican_angel98@yahoo.com:1990-10-17:US:F:none:Suleima Soto
suleima__29:karen::1990-09-14:EN:F:NULL:NULL
suleima__aa:onchxz99:conga_1990@hotmail.com:1992-01-01:MX:F:201.171.56.119:suleima
suleimenova:remember15::2003-10-16:US:M:205.188.117.79:Justin
suleimi123:2315creston::2001-06-13:US:F:67.87.130.47:lismary
suleimom:elliot:suleimom@aol.com:1951-09-03:US:F:none:Judy Goucher
Suleimon:tiger24:Tashan2005@yahoo.com:1912-03-10::M:67.176.73.96:NULL
suleimy:babylove12:sujewls@aol.com:1991-01-17:US:F:24.42.86.133:suleimy
suleimy03:hottygirl03::1998-10-03:US:F:96.233.122.189:suleimy
suleimy123:david339::2008-02-17::F:76.15.153.164:NULL
suleimy1234:babylove12::2000-02-17::F:76.15.146.196:NULL
suleimy12345:babybash12::2000-02-17::F:76.15.146.196:NULL
suleimy12345678:babylove12::2000-02-17::F:76.15.146.196:NULL
suleimy21:doglover21:s21negron@hotmail.com:1980-08-21:PR:F:70.45.241.236:NULL
suleimy54321:babybash12::2000-02-17::F:76.15.146.196:NULL
suleimyhernandez:babylove12::2005-01-17::F:24.42.86.133:NULL
suleimy_8:angelo01:friver2@gmail.com:1982-06-23:PR:F:72.50.126.127:suleimy
suleimy__14:negri02:suleimy01@hotmail.com:1982-06-23:PR:F:none:suleimy  candelario
sulein:(anyi66):amy_gcg_10@hotmail.com:1988-06-10:DO:F:66.249.84.65:amalia  garcia
:::::::
sulein98:360272::1998-11-30:US:F:71.100.217.42:jacqueline
suleinis:luna1894::1989-12-12:EN:F:NULL:NULL
suleiny:somosunosolo25:suleiny-94@hotmail.com:1994-05-06:CO:F:166.238.135.255:Suly
suleiny_andrea:ANDREA0506:suleiny-94@hotmail.com:1994-05-06:CO:F:190.3.203.208:SULEINY
suleira:cafs850815:arielus07@hotmail.com:1985-08-15:MX:F:201.167.81.123:suleira
suleisitabebe_27:juberth27:suleisych@hotmail.com:1983-07-14:VE:F:186.88.182.155:suleisy
suleisy:juberth27:jeantoug@hotmail.com:1983-07-14:VE:F:186.88.182.155:suleisy
suleivani:suleivani888:laurine_888@hotmail.com:1982-02-20:NL:F:85.147.68.166:laurine
suleixa:SRN127865:suleika-01@gmx.net:1993-10-04:DE:F:88.77.203.222:Hanni
suleize:81340948:suxuka@hotmail.com:1992-01-16:BR:F:none:SULEIZE RODRIGUES
suleizealey:81340948:suxuka@hotmail.com:1992-01-16:BR:F:201.43.77.166:Suleize Aley
suleizes:81340948:suxuka@hotmail.com:1992-01-16:BR:F:none:suleize aley rodrigues
sulei_09:nastro10::2000-10-18:AT:F:80.121.50.57:sulei
sulei_20000:lucas!13::1993-10-28:BR:M:201.13.45.131:Lucas Farias Lopes
sulej:79512:jesse_mackartny@hotmail.com:1989-10-01:IT:M:74.97.234.200:haldi sulej
Suleje:chicken07:angels_hell666@hotmail.com:1986-04-14:NZ:F:121.74.254.23:Suleje
sulejerboy:angel22::2000-01-18:US:F:66.69.93.128:marissa
sulejma:mimmi12::1998-11-02::F:88.206.205.71:NULL
sulejman:semi1994::1994-06-15:BA:M:88.70.44.58:semi
