sultan__aa:sultan55:sul@14.hotmail:1994-02-05:AE:M:213.42.21.153:sultan
sultan__ii:malika123:inderjitbhinder@yahoo.com:1977-01-03:CA:M:74.107.31.174:harkanwal
sultan__ll:spr@y:mmezzaucella@rogers.com:1955-10-26:CA:F:none:ann mezza
sultao123:sargento12::2000-08-12:BR:M:189.26.52.222:sultao
sultao96:f7834f:rafa_el_69@hotmail.com:1996-10-11:PT:M:89.152.218.93:rafael
sultaogrjomi:tinna12:julia_krutt@hotmail.com:1993-02-04:IS:F:85.220.105.14:julia
sultaomurilo75:marcelinha10::2001-01-06:BR:M:189.19.121.105:murilo
sultao_cavalo:sultaocavalo12:aldinis_scs_@hotmail.com:1991-10-14:PT:F:89.155.112.70:alda
sultar13:522322i:atranox13@yahoo.com:1989-12-19:US:M:none:ivan torres
sultara:blade69:sultara69@yahoo.com:1986-05-28:US:F:68.14.248.151:Lena Magee
sultara69:Blade69:LenaDBerry@yahoo.com:1986-05-28:US:F:68.14.248.151:Lena
sultario:fab123:nigga-dw@hotmail.com:1995-06-29:PT:M:85.243.136.139:Fabio
sultarni:bubcaszenroc27:sultarnibanani@hotmail.com:1988-03-27:AU:F:none:tj aldrin
sultarnie:iloveyou::1991-04-27:AU:F:none:sultarnie
sultasa:sara0604::2001-04-09:NL:F:80.101.26.242:Sara
sultasina:sina99::1999-07-27:IS:F:85.220.39.122:jenny
sultatosdude947:doggydog1:saddlescout@yahoo.com:1985-09-01:US:F:none:grant sultatos
sultaturista:sultatu1412::2003-12-14::M:189.192.53.134:NULL
sultaum:191919p:lhi.amo@hotmail.com:1986-08-19:BR:M:187.87.69.63:snoop
sultaurohtar:3965myrddin:magicboi@aol.com:1977-09-01:US:M:none:Quiet Guy
sultay:nitro:esscom1@aol.com:1970-01-18:US:F:none:Dayle Taylor
sulta_89:895623784512:m.a.r.t.i.n.s.h@hotmail.com:1992-05-03:MX:M:189.168.86.15:NULL
sulta_gris:70bien:solcita777@hotmail.com:1988-08-12:CL:M:201.241.27.153:sebastian
sulte1592:horsechick1:cheerleaderc71@msn.com:1987-03-18:US:F:none:E M
sulteinna:m13j10v22:sulteinna02@hotmail.com:1988-01-19:US:F:69.146.62.200:maryjane
sulteinnamill37:sultanna:mjl@minme.com:1986-01-20:US:F:Item:mj l
sulten1:Talbotdolphin11::1997-06-15:AU:F:124.183.18.175:Jess
sulten333:pinkys9675:gremlin_333@hotmail.com:1975-06-09:AU:F:58.164.80.234:Linda
sulten44:sulter111:bamsemooms@live.no:1958-07-07:NO:F:80.202.161.99:SULT
sultenok:yunos61:man_dpt@yahoo.com:1993-10-15:MY:M:60.53.79.120:Etsuki
sulten_girl:ponygirl:pcoppell@blueyonder.com:1963-11-11:GB:F:Can I be your NeoFriend?:grace simpson
sultextil:lucasrzs17::1997-09-17:FR:M:200.225.148.70:lucas
sultfrany:bing08:stargazer8603@yahoo.com:1986-05-02:US:F:70.198.5.69:sultana r
sultgirl:e67db77a:OhmicElf@hotmail.com:1990-10-24:PT:F:85.240.0.219:andreia
sulthan:ji0071:sala_ji@hotmail.com:1979-06-07:MY:M:none:sala abu
sulthan10:megaman11::1999-09-06::M:125.161.128.223:NULL
sulthan108:gundam00:sulthanraspati@rocketmail.com:1997-09-06:ID:M:110.138.39.156:NULL
sulthan13:bextor13::1999-06-13:ID:M:118.137.204.102:sulthan
sulthan306:181098011299:sexo_a_domicilio@hotmail.com:1981-11-13:AR:M:none:carlos diaz
sulthan606:050104:sulthanhaikal@yahoo.com:1996-03-03:ID:M:118.136.45.112:NULL
sulthan791:god111:sala_ji@hotmail.com:1982-10-14:MY:M:none:sala abu
sulthanashifa:b4ucomegal:blue_anangel@hotmail.com:1993-02-01:AE:F:122.164.36.189:sulthana shifa
sulthan_3:muhammad13::1999-06-13:ID:M:118.137.204.234:sulthan
sulthan_606:050104:sulthanhaikal@yahoo.com:1978-03-01:ID:M:118.136.31.73:NULL
sulthan_72:05086109:dxarmy56@hotmail.com:1997-05-23::M:92.98.110.39:NULL
sulthan_arif:sa_chinchu:sulthan_arif@yahoo.co.in:1986-12-20:IN:M:none:arif sulthanul
sulthan_fatah_suryab:fatah23::2001-03-02:ID:M:118.136.115.235:igp
sulthan_ridansyah:300798:sulthanridansyah@hotmail.com:1990-07-30:ID:M:125.166.72.212:Sulthan
sulthan_wali:lebay123::1997-07-26:ID:M:125.161.252.16:sultli
sulthia:brownb88::1997-08-13:US:F:216.6.187.231:Hannah
sulthon:354313:goblok_geblek@yahoo.com:1990-10-03:ID:M:125.160.173.197:goblek
sulthonar:goblek354:goblek@yahoo.com:1990-10-03:ID:M:125.160.130.215:sulthon
sulthoni72:neopets72::1998-07-07:AU:M:61.69.128.51:Sulthoni
sulthor_of_fire:5802778:juan_lara_93@hotmail.com:1951-04-01:US:F:189.153.212.128:fdgdg
sulti:fabian6048:nahuel_grecchi@hotmail.com:1992-11-04:US:M:71.104.181.214:sulti
sulti12:cloun12::1993-05-18:EE:M:none:sulti12
sulti15:anita:sultisulti@hotmail.com:1991-07-05:CO:F:none:sultana cadosh
sulti19:hayden29:sultan.abbas786@yahoomail.com:1996-12-31:IN:M:122.174.69.19:NULL
sulti93:q46gHm9Xy:bacy93@yahoo.de:1993-03-27:AT:M:80.122.36.186:Patrick
sulti99:anita:sultisulti@hotmail.com:1991-07-05:CO:F:none:sultana  cadosch
sultiame9:neo10::1996-06-21:US:M:71.187.89.254:sultiame9
sultick:clubinho00:sturt.lirou@hotmail.com:1927-12-25:BR:M:201.79.168.198:Sultick
sultie:ccll01::2001-02-02:CL:F:85.155.119.75:Camila
sultim:271098:rom_sapo@netcabo.pt:1993-05-26:PT:M:85.244.39.236:rom
sultin:vampire11:hotchip111@hotmail.com:1995-06-06:US:F:71.204.163.147:rachel
sultin2345:arabiah6:c.hintz_2@hotmail.com:1985-09-05:CA:M:none:colton hintz
sultin980:arabiah7:c.hintz_2@hotmail.com:1984-06-07:CA:M:none:colton hintz
sultinala:romino:ebsimon@hotmail.com:1976-10-29:ES:F:none:sultinala sulti
sultingaskaulas:niam12:asesusuo@yahoo.com:1982-02-02:WS:F:78.60.144.224:Lena
sultinpetpetpark3:number26::2001-06-08::M:78.172.99.11:NULL
sultins_master:love6108::1997-02-13:US:F:72.128.47.61:Samantha
sultinys:sultinys22:gamulyte@gmail.com:1993-03-10:LT:F:78.61.45.59:kamile
sultin_5:baloney1:shadowp_uppet@yahoo.com.au:1906-03-25:AU:F:none:Pinko Perlino
sultipeti:neopet12:sultimulti@hotmail.de:1990-12-20:DE:F:85.176.244.23:sultan
sultisalem:monocastro01::2001-10-07:PA:M:190.140.98.34:NULL
sultisultan:snaro92:sulti-sultan@hotmail.com:1992-07-01:NL:M:none:Sultan Ali
sulti_sulti__63:sultan::1999-01-28:EN:M:NULL:NULL
sultje11:sulia1998::1998-10-09:NL:F:84.84.213.224:sulia
sultje123:kusjes123::1998-10-09::F:84.84.213.224:NULL
sultjekl:3171 hk:maikel.flooibooi@hotmail.com:1942-12-11:AN:M:none:maikel kramer
sultjekl_6_6:3171 hk:maikel.flooibooi@hotmail.com:1942-12-11:AN:M:none:maikel kramer
sultje_4_4:7531246:maikel.snooibooi@hotmail.com:1960-12-11:NC:M:none:maikel kramer
sultjj:0956210078:p97641@yahoo.com.tw:1994-12-15:TW:F:219.70.89.237:吳秉榮
sultjus:cgbcgb1997::1997-04-05:NL:F:81.71.178.25:Celine
sultman40:superman40::1996-07-31:US:M:24.190.111.60:sultan
sultmebigley:lovetig22:epeoples@windstream.net:1996-08-22:US:F:75.117.48.208:sultmebigley
sultna:ammy12::1999-07-30::F:173.56.139.6:NULL
sultnpiper:bull99:rcdbz10@gmail.com:1994-06-27:CX:M:122.164.71.38:sammy
sulto:cje i love you:marvrick_zero@hotmail.com:1989-04-02:CA:M:175.145.186.178:Marvrick Zero
sulto0on:sulto0on_dxb_99:shamasi_1997@hotmail.com:1988-11-19:AE:M:213.42.21.60:sultan
sulto0ony:90909098::2000-01-04::M:77.31.201.142:NULL
sulto89:akatsuki89:marvrick_zero@yahoo.com:1989-04-02:MY:M:175.145.193.155:NULL
sulton3:freeboy11:susan-k@charter.net:1991-03-15:US:M:75.128.82.184:jony
sultonac:03kids:tana7172@yahoo.com:1972-07-01:US:F:76.7.142.72:sultona
sultone34:bubblegum34::2004-01-01:US:F:72.237.58.21:Elaina
sultonflashback:argoflashback76:libbyplusargo@att.net:1994-02-10:US:F:68.165.185.147:libby
sultonmelani:80877328::2000-05-04::M:110.138.83.128:NULL
sultonmelanibin:80877328::2000-05-04::M:110.138.91.124:NULL
sultoon__rr:sultoo77:el_dabdoob@hotmail.com:1927-07-20:AE:M:195.229.241.182:zarooni
sultos:sana123456:sultan_gunay@live.nl:1995-09-02:NL:F:84.27.224.225:sultan
sultra:stefano27::2000-12-27:BO:M:190.186.182.198:stefano
sultra2006:angel1111:sultra2004@verizon.net:1975-12-11:US:F:72.228.114.237:i have no name
sultra_me:ajai_15:myheart_brighter@yahoo.com:1991-07-06:PH:M:none:king quenn
sultre:louied1234:groovyg@shaw.ca:1982-02-02:CA:M:70.69.42.65:David
sultreme:bronco:sultreme@aol.com:1959-10-16:US:F:none:Vicky Samuels
sultressrider:calvin_cat::1994-04-24:US:F:71.76.15.212:sultressrider
sultressy2k24:angelo1998:sultressy2k24@aol.com:1976-03-15:US:F:74.76.67.170:Elizabeth Calderwood
sultress_5:spike111:crazylilmofo@breakthru.com:1993-06-04:US:F:none:evan hamilton
sultress_of_skillet:sultan08:air_force_teen8908@hotmail.com:1989-10-12:US:F:none:Evelynn Smith
sultrex:tuti10:j3@hotmail.es:1996-7-20:CR:M:190.241.204.96:sultrex
sultron:sultron22::1998-09-24:US:M:71.233.167.22:brian
sultron9:chivas90:chivas.sul@hotmail.com:1909-01-22:MX:M:201.143.7.180:saul iosvany osuna mendoza
sultron__27:cobarde99:chivas.sul@hotmail.com:1987-01-22:MX:M:201.143.7.180:saul
sultrtre:123456h:miygb@hotmail.com:1990-03-13:CA:M:59.100.73.80:NULL
sultry1:2bad2sad:sultry1@cox.net:1979-07-31:US:F:none:Sultry Lennon
sultry1991:earth:ashley-v-law@lycos.co.uk:1991-03-01:GB:F:Mail from timmymac7:ash ash
sultry21:21221::1993-09-16:US:F:none:sultry21
sultry444:peek14me:mrd@shadowsource.net:1986-07-01:US:F:none:Diana haynes
sultry57:thunder57:sultry1957@yahoo.com:1957-06-09:US:F:65.92.220.229:Wanda
sultry71:sultryshadows71:gleer@magic-net.net:1979-12-30:US:F:none:Chelsea Lee
sultry88:marracu2191:sultry1991@catpost.co.uk:1991-01-01:GB:F:none:ash
sultrya:minibitch:st-ho_beach@hotmail.com:1990-05-30:CA:F:none:Maria Savard
sultryabyss:matt1007:superficial_starlight@hotmail.co.uk:1987-08-27:GB:F:82.34.18.207:sherri
sultryangel:pharaoh123:angelrose.xo@hotmail.com:1990-12-25:CA:F:72.38.184.175:Angel
sultryangel146:VictorianOry141:alexa133@hotmail.com:1969-02-17:US:F:216.18.242.213:alexa montgmory
sultryasianeyes:iixe506:marchelagianni@yahoo.com:1988-12-19:AU:F:58.165.20.58:Marchela
sultrybabe:relientk123:gloppysue@6barrs.com:1991-09-26:US:F:none:Anna Barr
sultrybleu:552303:552303@domstad.nl:1986-02-14:NL:F:84.86.244.117:Michelle
sultryboi:levi13::1996-12-13:AU:M:124.187.47.23:levi
sultryboyinne:austin:khavlat@binary.net:1961-02-24:US:M:none:Ken Havlat
sultrybrneyes:kitty69:drhoneykessler@aol.com:1962-08-24:US:F:172.129.21.34:Miranda
sultrycat:cath1234:mrscathycrinson@msn.com:1967-01-31:GB:F:none:cathy crinson
sultrychic:1995rose::1995-07-14:US:F:66.27.139.64:Olivia
sultrychica6:1qaz2wsx:sultrychica678@yahoo.com:1987-07-23:US:F:68.45.16.4:Izzie
sultrydame1:monkey36:zeroequals1@yahoo.com:1990-06-12:US:F:70.177.68.17:Jillian
sultrydoll:goddess:sultrydoll03@yahoo.com:1984-08-11:PH:M:none:D Haliwell
sultrydude:rick48:newfieone@hotmail.com:1959-10-26:CA:M:24.138.128.92:SultryOne
sultryeyes:piglett85:luckystar04@comcast.net:1985-07-13:US:F:69.139.114.241:Amanda
sultryfox:104255:leileisgotdasniffles@yahoo.com:1990-09-18:US:F:72.153.127.179:Leilani Perez
sultryfoxy:aries:esyzdek@elon.edu:1983-07-01:US:F:68.238.242.175:Emily Syzdek
sultrygirl93:gurl5:pjshin@netscape.net:1993-05-21:US:F:none:no not
sultrygoddess:blaiz99:katrinaandbrendanwedding@yahoo.com:1980-10-31:US:F:76.235.218.178:Kati Josuns
sultryichigo:(blank)::(blank):(blank):(blank):(blank):(blank)
lank):(blank)::(blank):(blank):(blank):(blank):(blank)
:::::::
sultryichigo13:jumi13:babystallion18@netscape.net:1993-05-21:US:F:24.214.152.27:Izzie
sultryinpink:kissing66:tigerstrikerawr@hotmail.com:1989-01-25:CA:F:74.14.5.151:Amerie
sultryish:12flower:carmun_003@hotmail.com:1992-01-30:CA:F:66.183.138.202:c p
sultryivy:loula333:mvsource@yahoo.com:1979-08-26:US:F:76.179.156.86:Mari
sultrykajira:passion2:chya_s@yahoo.com:1963-02-22:US:F:none:chya kajira
sultrykatie:peabeck:foxykatie@spymac.com:1987-04-14:GB:F:none:Katie Brown
sultrykitten:1bobbybird1:babydolldepot@hotmail.com:1959-08-19:US:F:98.209.7.141:sultry kitten
sultrykitten92:golden45::2003-11-05:US:F:24.8.4.170:NULL
sultrylady02:dogfood8:sultrylady02@comcast.net:1982-08-09:US:F:none:beth parker
sultrylocks:revolution000:sultryxbrown@hotmail.com:1987-03-13:CA:F:none:eva noneofyobizness
sultrymoi:jenidajs07:jenida.chan@gmail.com:1982-07-07:PH:F:202.78.103.23:Jenida
sultrymoon:shakethebear:ksnelson1@comcast.net:1988-08-07:US:F:none:SultryMoon
SultryMoonlessNight:feb1409:armybrat200895@yahoo.com:1995-03-08:US:F:64.184.0.173:NULL
sultryneomistress:gateway:karamelkandykane@aol.com:1989-06-29:US:F:none:Alisa Mejia
SultryNinja:dragonball12:miss_roush@yahoo.com:1988-06-09::F:71.193.240.57:NULL
sultrynsassy:cW1U9oS9:neoventures@hotmail.com:1990-03-30:BR:F:41.145.148.157:Lara
sultryone:meowmeow:mrbonkerssoul@yahoo.com:1986-12-20:US:M:none:Jack Enron
SultryPink:simplypink789:effie_ellysa@yahoo.com:1982-01-02:ID:F:111.95.158.170:Royal Account
sultrypixie:blaiz99:Katrina.Jameson@yahoo.com:1984-02-12:US:F:76.236.190.19:Katrina Jameson
sultryprincess321:marge:amanda_1544@hotmail.com:1991-04-26:CA:F:none:poo pee
sultryprincess_19:dreamcatcher:evil_sweetness_19@hotmail.com:1984-11-13:US:F:none:sarah connor
sultryraine:rc2629:sweetraine66@hotmail.com:1966-05-29:CA:F:24.138.128.92:Raine
sultryrick:rc2629:fozzzybear@hotmail.com:1980-10-26:CA:M:24.138.128.92:Rick
sultrysabi:criminal:sosabi2@hotmail.com:1983-05-09:GB2:F:81.107.165.159:sabina hanif
sultrysally:pepper11:kge_1705@hotmail.com:1994-05-17:AU:F:124.180.240.213:Georgia
sultrysaucysusi:winnietp:snitzel@scccd.org:1964-03-02:US:F:98.224.80.7:Susi N
sultrysavannah2003:over4343:sultrysavannah2003@yahoo.com:1972-02-22:US:F:none:S S
sultryscorpio:pokie:starangelforever@hotmail.com:1989-11-12:US:F:none:jordan etters
sultryscorpio08:purple08:starangelforever@hotmail.com:1989-11-12:US:F:none:jordan nicole
sultrysexywitch:southbeach:wicked_winter_kitten@hotmail.com:1972-08-19:US:F:Mail from amazon65:callia sunain
sultrysgirl12:SULTRYMOOD::1992-08-06:US:F:none:sultrysgirl12
sultrysgirl13:pablo159::1992-08-06:US:F:74.140.221.149:sultrysgirl13
sultryshamia:mustard3:geneva.n.zurich@gmail.com:1988-04-13:US:F:71.125.244.207:shamia haider
sultryshoebox:ethan310:sultryshoebox@yahoo.com:1989-08-14:US:F:76.107.168.115:Holli
sultrysins:willow86:karissalwiens@hotmail.com:1986-09-26:CA:F:68.146.190.58:Karissa
sultrysiren:40Books:JackiOrlando@hotmail.com:1988-10-31:US:F:209.56.12.153:Jacqueline
sultrysiren06:gra15575:pacific_faerie@hotmail.com:1988-09-17:US:F:none:stephanie also known as kekepania
sultrysista:august12:sweet_like_chocolate13@hotmail.co.uk:1988-08-12:GB:F:82.0.170.51:c p
SultrySisyphus:qwerty123:k.mckinstry@cox.net:1992-08-19:US:M:149.169.163.114:NULL
sultrysmurfette:alex114:fairyillusionist@aol.com:1985-11-04:US:F:none:Jamie J
sultrysnowwhite:whitera55it:withoutwarning@bigpond.com:1979-08-03:AU:F:203.134.161.54:SnowWhite
sultrysong:trustno1:luanshya@yahoo.com:1971-06-11:CA:F:216.239.69.161:H Juhl
sultrysoulfyre:000123:sultrysoulfyre32@yahoo.com:1973-12-20:US:F:none:Kimberly Peyton
sultrysquirrels:george8:crazygirl_171@hotmail.com:1986-05-28:US:F:24.116.40.71:Kasey O\Rourke
sultrystarchild:twinkle88:ethor_4@hotmail.com:1988-05-20:AU:F:none:Elyse Thornton
sultrysuccubus:broomhall5496:kbroomhall@gmail.com:1985-05-22:NZ:F:125.236.129.248:Kelly
sultrysuductess:Converse12:winterbabe1989@hotmail.com:1989-12-08:GB2:F:90.195.135.85:Hannah
sultrysultan:period44::1999-12-02:US:M:71.187.159.206:Sultry Sultan
sultrysummer:fl0r1da:lilcountrygirl1327@hotmail.com:1988-06-20:CA:F:209.52.202.147:Tamara
sultrysurfergirl:vampireslayer21:genevievemariej@gmail.com:1994-10-21:AU:F:76.116.244.102:NULL
sultrysyren:elliott04:sultry_syren@yahoo.com:1985-09-17:US:F:70.118.197.132:Aira
sultrytiger:Sugar16:lchudyk@hotmail.com:1989-09-17:CA:F:70.73.68.144:Lauren
sultryvixen:polska2008:alexkayyyy@aol.com:1993-04-20::F:75.97.64.117:NULL
sultryxxknife:08191952:hyperthought17@yahoo.com:1990-07-05:US:F:none:V Silent
sultry_ara:thisisit08:arisponferrada@live.com:1985-02-22:PH:M:203.153.15.12:Aris
sultry_babe:terra44:lil_demon_pixie@yahoo.com:1993-02-06:US:F:24.249.5.25:terra
sultry_bubble:bluebeast66:sultrybubble@gmail.com:1983-10-04:US:F:97.85.132.53:sandipants
sultry_butterfly:fatboy7:andreawilson_9@hotmail.com:1987-01-01:AU:F:none:Andrea Wilson
sultry_cat:monique19:aliciabme2002@yahoo.com:1984-09-02:US:F:none:Alicia Nielsen
sultry_chaos:paolo15:crystalized.halo@gmail.com:1989-10-15:PH:F:125.60.241.217:Belle Gomez
sultry_demon:flipper:sultry_demon@hotmail.com:1984-01-08:GB:F:none:tracey smith
sultry_diva:iloveboys:urbanangel_4@hotmail.com:1989-01-29:AU:F:Mail from ford_man261:Alyssa McRae
sultry_doll:acoaco16:maro_016@yahoo.com:1991-09-29:PH:M:203.215.120.152:Maro
sultry_eyes:iloveme00:xc33_c33_rox_ur_soxx@yahoo.com:1990-03-04:US:F:70.253.137.7:Collette
sultry_eyez:iloveme0:xc33_c33_rox_ur_soxx@yahoo.com:1990-03-04:US:F:none:Rohan Ellis
sultry_gaygay:vilia:vilialigaya@yahoo.com:1975-05-04:PH:F:none:vilialigaya
sultry_jesus:one234:dignified_flamingo@hotmail.com:1991-09-26:US:F:67.185.201.133:Meghan
sultry_katie:peabeck:sultry.katie@gmail.com:1986-04-14:GB:F:Mail from malevolentkatie:KatieBrown
sultry_lady:21212118:red_rose_tea@hotmail.com:1994-05-12:US:F:72.87.2.92:Niisa
sultry_minx:pixie21:spicy821@yahoo.com:1981-08-21:US:F:24.248.66.137:g g
sultry_nets:holjazz12:netscraft@rocketmail.com:1985-08-13:US:F:72.226.110.229:Jeanette
sultry_sataness:smith1:eplith@gmail.com:1990-10-28:AU:F:none:Ep Ly
sultry_scarlet:debbie1964:debbieshaw_3@msn.com:1964-12-19:GB:F:86.129.57.134:Alice Shaw
sultry_singer:ready for love:xoxo_simply_sweet_xoxo_@hotmail.com:1993-02-14:US:F:none:Yasmine Lee
sultry_siobhan:kelly_rai:sbcheekychick@homtail.com:1987-11-16:AU:F:Acceptance:Sarah  Butler
sultry_song_bird:shatzie16:goldiegurl@sbcglobal.net:1991-07-20:US:F:75.16.42.249:Amanda
sultry_sonya07:chocolate!:hail_sonya@hotmail.com:1986-11-07:AU:F:none:sonya fridolf
sultry_sorceress:maggy1656:life_in_revy@hotmail.com:1994-07-13:CA:F:207.6.21.156:Rachel
sultry_strawberry:sexbomb:best_ull_have@hotmail.com:1990-10-12::F:none:lulu warr
sultry_witch07:bleeding07:edema_bleed07@yahoo.com.ph:1987-05-15:PH:F:210.1.72.195:shaira
sultry_xoxo:121628:lexi_hernandez11@yahooo.com.ph:1989-03-16:AE:F:195.229.242.53:rosey
sultry__katie:peabeck:sultry.katie@gmail.com:1986-04-14:GB:F:Acceptance:KatieBrown
sults002:sults001:shirley.sultana@yahoo.com:1977-10-26:MT:F:213.217.213.94:shirley
sults856:bethel89:cwsult@comcast.com:1991-01-02:US:F:none:Emily lor
sultsike:hanna13:sultsike@hot.ee:1959-03-05:EE:F:84.50.161.243:Elle Mets
sultsina:akmakm4420:sultsina@city.fi:1983-03-21:FI:F:84.231.199.49:Kaisa
sulttedpeanut_9__17:kitties12::1998-07-07:US:F:24.179.161.40:Erica
sultubolla13:srhemo13:eyglomjoll@hotmail.com:1995-06-05:IS:F:194.144.10.218:hannah
sultuem1:jamaka69::2007-09-01:TV:M:81.182.95.224:james
sultukrukka:lollol:i_luv_him4eva@hotmail.com:1988-02-11:IS:M:none:Maggi Addi
sultukrukka250:grotta22:stefaniahanna94@gmail.com:1980-01-09:IS:F:213.213.136.144:Stefanía
sultuna:14121999::1999-12-14::F:82.166.21.28:NULL
sultunpepper:katcv91:viscountcoco@gmail.com:1991-09-29:US:M:70.246.98.113:NULL
sultus:felipe32::2003-07-19:BR:M:187.41.123.134:Felipe acelino
sulty117:neocare::1993-03-21:CA:M:none:sulty117
sulty1234:sharonko11::1998-10-20:AU:M:60.242.231.76:lachlan
sulty92:diamond100:soild_sulty@hotmail.com:1992-01-28:AU:M:123.100.137.226:b
sultybabe:sultan:funkybabysultybabe@hotmail.com:1990-01-15:JP:F:82.44.146.98:sul tan
SULTYCOOL:6645719::1999-09-04::M:188.50.91.36:NULL
sultydawg:seeeya02::2002-12-03:US:M:71.251.80.241:jereme
sultyfoofoo:sultyfootoo:sharina_hyman@hotmail.com:1987-10-04:CA:F:none:Sharina Hyman
sultyice:g2n7sqrp3:elmos_car@yahoo.com:1970-01-01:US:M:76.17.210.174:Monolopy Fred
sultynaturegirl:anmei4551:hadaway@tampabay.rr.com:1962-02-09:US:F:96.252.128.224:Susan
sultyrano:iwuzhere:sultyrano@yahoo.com:1986-09-25:US:M:none:Jesse Smith
sulty_love:10janneke::1996-06-27:NL:F:84.80.229.57:janneke
sulty_sultan:sultan123:katiecrazyhorse@bigpond.com:1990-04-16:AU:F:none:Kathrien  Carlton
sultz269:willis52:sharon.walsh6@btinternet.com:1969-11-14:GB:F:none:sharon walsh
sultzbaugha:hguabztlus::1992-05-15:US:M:none:sultzbaugha
sultzer:empa60:isultzer@yaho.com:1980-01-24:US:M:72.160.140.60:jack
sultzica:123zxc:anaana@home.ro:1983-08-18:RO:F:none:ion  ana
SULTZZ:sukita123:morro194@hotmail.com:1990-02-27:BR:M:216.246.75.230:NULL
Sulu10:coocoo123::2000-12-01::M:68.46.206.254:NULL
sulu100:boo boo boo::1992-12-26:US:M:none:sulu100
sulu1000:32560359:raisa_bruno@hotmail.com:1993-05-25:BR:F:209.18.39.87:sulu1000
sulu111:michael123::1997-08-14:US:M:67.84.3.221:michael
sulu1189:Baileysucks1189:Ms.Sky_Samu3l@live.com.au:1990-01-05:AU:F:202.168.105.129:Amelia
sulu11__12:Soccer19::1998-09-19:US:M:71.202.156.238:Andy
Sulu12:Lester13::2001-05-31::M:218.186.11.233:NULL
sulu123321:flubber16::1998-7-16:US:F:173.54.31.155:Selin
sulu123456:5121abc::1999-10-25:US:M:99.158.47.178:sulu
sulu123a:5121abc::1996-10-25:US:M:69.154.178.157:Sulu
sulu123_5:aaa111::1997-02-26:NL:M:189.106.159.67:gabriel
sulu123__05:mmeeaa12nn::2000-2-17:US:F:174.25.101.196:Elise
sulu14:nibbles20::2002-04-25::F:71.239.183.100:NULL
sulu14360:sulachya15::2000-06-29:SG:F:220.255.1.38:NULL
sulu15:galinha10::1998-12-25:BR:F:187.6.194.242:bianaca
sulu17:wolfsage18::1995-07-25:TO:F:98.221.42.216:Waylen the Great
sulu1996:djjd218::1996-11-01:US:M:68.194.126.222:Suril
sulu1998:235809999::1998-05-25:US:F:69.116.239.47:zairah
sulu22:9366762052::1997-02-21:US:M:72.26.5.23:devon smith
sulu273:Julie::1992-10-22:US:F:none:sulu273
sulu28:pepe25::1999-10-05:US:M:65.78.140.14:Danny
sulu345:Flowers1234567890:ms.sky_samu3l@live.com.au:1990-01-05:AU:F:202.76.184.114:Zippy
sulu4011:rannkuru@::1994-04-11:JP:M:none:sulu4011
sulu41:underwood007::1990-11-06:US:M:71.109.47.211:wesley widdows
sulu416:&@13^::1994-05-03:CA:M:none:sulu416
sulu4162:rumble1215:galenw94@gmail.com:1994-05-03:CA:M:64.231.21.61:steve
sulu45:spinty25::2001-10-10:SG:M:220.255.7.156:charmania
sulu456:alex123:bws@partners.org:1993-07-30:US:M:209.150.54.27:alex123
sulu47:zxcvbnm10::2001-03-07:AU:M:122.106.199.65:Jordan
sulu50:Enterprise::1990-10-06:US:M:none:sulu50
Sulu53:Lester13::2001-05-31:SG:M:218.186.8.234:Lester
sulu54:4876859989::2000-04-10:US:M:67.77.121.247:jesse
sulu56:cheeseburger56:Karatekid45@AOL.net:1990-04-10:US:M:208.191.145.207:Brian
sulu890:thepipa11::2000-3-14:US:F:64.194.45.4:skyler
sulu897:pokemon16:alex_hokage@yahoo.com:1987-12-25:US:F:69.228.146.142:kate
sulu90:b38eaz::1998-10-06:US:F:64.12.116.69:Jackie
sulu92:12088tt::1997-12-26:US:F:216.93.141.21:NULL
sulu93:bendi::1993-06-20:DK:M:none:sulu93
sulu96:nirali::1996-11-01:IN:M:69.117.66.95:sulu96
sulu9623:nirali1:sportzfreak1996@yahoo.com:1975-11-01:US:M:none:sam brancsyo
sulu999:Hamsters200:Karatechamp45@AOL.net:1989-04-13:US:M:208.191.145.207:Brian
sulua:8745n:rasmussen_nanna@hotmail.com:1986-12-06:DK:F:Item:Nanna  Rasmussen
suluana012:NORTE77::1997-08-20:MX:F:189.133.53.191:ARANXA
suluap:p1stol3:beso_feliz@live.nl:1990-12-25:NL:M:87.212.171.113:paul
suluap8:2341897:suluap8@yahoo.com:1988-08-24:US:M:none:Jack Suluap
suluape:jr1999:angelareborn@cox.net:1974-04-02:US:F:68.7.229.139:Angela
suluapshop1:2341897:suluap8@yahoo.com:1989-01-01:US:M:none:Suluap8\s Battle shop
suluapshop2:2341897:suluap8@yahoo.com:1989-01-12:US:M:none:Suluap8stoyshop
suluapshop3:2341897:suluap12@yahoo.com:1989-01-17:US:M:none:Suluap8sFoodshop
suluasif:SULTANA12::1997-03-09:US:F:76.121.237.249:HANNAH
suluay747:14212410::1999-08-18:MX:F:206.220.40.51:NULL
sulubaby:sweetheart:s.dy@bluewin.ch:1978-05-17:CH:M:none:sulubaby dy
sulubaby28:cowboybooth16:volleyballgrl28@msn.com:1993-07-28:US:F:97.118.170.168:Cassie
sulubahce:sulusaray55:sevcan_ozturk_10@hotmail.com:1991-01-01:NL:M:83.85.163.132:yasin
sulubalba:SENOURITA:youbei@optusnet.com.au:1988-05-21:AU:F:none:shuyu liu
sulubhama:iamkool::1992-09-26:US:F:68.5.209.133:none
sulublue:mollydoll11:sportslover9022@yahoo.com:1990-01-12:US:F:69.183.189.95:Susannah
sulubuhu:spongebob:cherpotter@comcast.net:1901-08-10:TW:F:none:Cuku-head  Maniac
suluca:pablo1018:juanpamer@hotmail.com:1991-10-18:CO:M:190.28.82.108:carlos
sulucata:1#aa2::1993-06-20:EN:M:NULL:NULL
suluca_:17fofinha::1998-06-21:BR:F:201.11.96.164:suluca_
suluci:kb6384:icespreader@yahoo.com:1990-12-10:US:F:67.11.134.75:Emily
Suluco:bbb20101:natalyarc2009@hotmail.com:1990-01-01:BR:F:189.55.223.32:NULL
sulucoocoo:zack1000::2003-11-30:US:M:71.248.154.124:NULL
SULUCRACKERS12345:selea123::2001-10-05::M:72.148.237.242:NULL
suluctecelephante:*roger*:jessie_junk@netcall.com.au:1987-01-01:AU:M:none:Suluctec Elephante
sulud:sushi::1992-12-08:US:F:none:sulud
suluera:6d54c9e233:tinalaur100@student.kau.se:1987-12-25:SE:F:213.112.28.96:Win Chester
sulueta201:131101::2001-11-13:AR:F:190.49.43.48:julia
sulueticamanda_8_8:123zxc::1997-11-08:CO:F:190.248.243.87:veronica lopez betancur
suluga007:wongc007::2000-02-07:NZ:M:118.93.81.195:justus
sulugaba:peoplesuk:ollievantini@live.co.uk:1980-09-01::M:86.184.225.152:OLIVERVANTINI
sulugil:00standrews:larasuleymangil@hotmail.com:1989-08-17:GB:F:82.25.229.88:hahaha
sulugofetchmeapale:lauren9:iluvbananas267@hotmail.com:1992-07-18:US:F:none:Lauren S
suluh1234:detective12::2000-10-24::M:125.163.150.157:NULL
suluhope:kiksekage2:suluhope@hotmail.com:1940-02-28:IE:F:none:mulle sørensen
suluhu:HOTLAVA12:YAMIR1993@HOTMAIL.ES:1993-12-21:MX:M:189.242.82.224:YAMIR FRANCISCO
suluhz:suluhz23::2000-09-24::M:125.166.246.168:NULL
suluhz3:suluhz32::2000-09-24:ID:M:125.166.246.168:suluh
suluisngh2004:gameboy::1992-10-07:AU:F:none:suzanne paul
suluithetzuiden:1lul1::1994-02-09:BE:M:none:suluithetzuiden
sului_69:natucha69:fesna_79_r@hotmail.com:1989-08-15:CL:F:none:Natalia Oyarzun
sulujaja:Iloveus666!:kurotsuki_nami@hotmail.com:1990-10-31:CA:F:99.246.182.18:Cho
sulujo:10219897:luciano.oliveira@agnet.com.br:1995-06-20:BR:M:201.21.163.225:Julio
sulujo_9_9:10219897:marcaldoliveira@hotmail.com:1987-09-09:BR:M:201.21.171.248:surtuio
suluka:1236987:menezes_suzana@hotmail.com:1992-04-22:BR:F:189.25.55.26:suzana
suluki:brooke36::1998-06-15:US:F:96.60.55.176:Brooke
sulukie:278006::1992-08-03:US:M:none:sulukie
sulukigirl:misha1:greyhound422@msn.com:1990-04-07:US:F:173.48.16.144:Amy
sulukiki:ko0ji9::1998-01-03:BR:F:189.106.79.181:sabrine
sulukinha:963963:suka_2310@hotmail.com:1960-10-23:BR:F:none:suluka loka
sulukita:kutykuty123123::1999-08-13:BR:M:189.29.171.102:dj ps2
suluknoj123:2dumb2live:jonkulus123@hotmail.com:1927-07-18:US:M:71.89.141.102:Dick
suluknoj321:steven123:jonkulus321@hotmail.com:1988-11-13:US:M:71.89.141.102:Jonk
suluko:niveks14:kkevin_taylor14@yahoo.com:1994-01-08:US:M:68.190.40.110:Kevin
sulukoe_koeloeloe94:kitenmien15:xx_lieke_kiss@hotmail.com:1994-07-30:NL:M:77.166.74.11:bob001
sulukong:89631139:kawaiioh@hotmail.com:1992-03-18:MY:M:175.138.213.207:Daniel
sulukong1:89631139:metalfaceprince@hotmail.com:1988-03-18:MY:F:none:Daniel Chin
sulukong20:Sulukong20::1998-01-01:MY:M:121.120.44.196:don
sulukong200_6:Sulukong20::1998-02-12:MY:M:60.54.14.131:don chin
sulukong896:89631139:karwengredknight@hotmail.com:1959-11-16:MY:M:63.216.54.47:Daniel  Chin Kar Weng
sulukwe:like90:k12@pavcs.com:1977-01-01:AS:M:71.240.105.254:sulukwe
sulukwe_12:like890:sulukwe12@aim.com:1976-05-06:US:M:141.151.181.56:sulukwe
sulula:larab:baronsahn@vol.net.mt:1983-09-25:MT:F:Mail from theneopetsteam:lara baron
sululana:210498:giulifamilia@gmail.com:1980-04-21:BR:F:189.98.54.58:giuliana
sululeelee:1234love:loveme@aol.com:1990-10-31:US:F:none:mily cyris
sululhier:imissyou14::1997-02-05:BR:F:189.10.154.241:suélen
sululi:sulu90:brubru1993@hotmail.com:1993-01-22:BR:F:201.89.24.163:Bruna
sululu:sulululomas12:sululu@live.com:1980-02-25:GY:M:190.245.156.241:tomas
sululucom:cutie1234::1994-01-04:US:F:none:sululucom
sululukuki:samantha:smentar@yahoo.de:1986-08-14:AT:F:none:samantha rose
sululula:2000%susu:sulululaa@hotmail.com:1993-10-22:VE:F:none:Susan Romero Rojas
sulululu:girls:duboisl@videotron.ca:1967-04-07:CA:F:none:Lucie Dubois
sulumac:350magic316:sulumac@hotmail.com:1981-10-16:GB:F:95.145.125.12:Sooz
sulumacangel:350magic316:sulumac@hotmail.com:1981-10-16:GB:F:95.145.128.106:Sooz
sulumacangel_lab:350magic316:sulumac@hotmail.com:1981-10-16:GB:F:95.145.125.12:Sooz
sulumacpoogles:350magic316:sulumac@tiscali.co.uk:1981-10-16:GB:F:78.156.66.45:sue mac
sulumac_angel:350magic316:sulumac@hotmail.com:1981-10-16:GB:F:95.145.125.12:Susan Mac
sulumak:izzyj:isobel_jay@yahoo.co.uk:1991-01-17:GB:F:195.93.21.6:Janice Sulu
sulumar:Karano0:j_trips@hotmail.com:1986-02-02:BE:M:none:Balkhot Dekay
sulumbek:pandy15::1998-12-11:AT:M:80.108.71.239:sulumbek
sulumbek_10:010498::1998-12-11:AT:M:91.128.81.41:Sulumbek
sulumbek_5_5_5:dinosaurier10::1998-12-11:AT:M:80.108.71.239:sulumbek
sulumuc09319855:banana:annabananafisher93@comcast.net:1987-05-06:US:F:none:Annelise Fisher
sulumuc191:Banana:annabananafisher93@comcast.net:1991-05-06:US:F:none:Annelise Fisher
sulumuc193:Banana:annabananafisher@comcast.net:1991-05-06:US:F:none:Annelise Fisher
sulumuc93:Banana:annabananafisher@comcast.net:1991-05-06:US:F:none:Annelise Fisher
sulumuciaya:banana:annabananafisher93@comcast.net:1987-05-06:US:F:none:Annelise fisher
sulumuut:foogle6:snoopyloopy207@aol.com:1992-03-24:US:F:none:Rachel Head
sulun:sexyteen:steveedwards_007@hotmail.com:1990-03-11:GB:M:none:steve edwards
sulunchana:tata123:rodoboto@hotmail.com:1980-01-02:TH:F:none:sulunchana H
sulune:mangaroks12:tinseltanzy@yahoo.com:1988-01-29:GB:F:67.49.168.23:Niki
suluneitor:narutoyraruto13:edward13_cullen@hotmail.com:1996-6-20:MX:M:189.154.96.205:Gerardo Israel
sulung:revolution:ddaegf@yahoo.com:1990-03-25:BN:M:none:dae da
sulungmania:866076:qinq88@yahoo.com:1975-08-17:ID:F:none:sin  sin
suluni:gordas22:luis_rich_4@hotmail.com:1993-10-18:US:M:190.48.59.159:Nicolas
suluniacheck:truemabinogi22:sulunia@yahoo.com:1996-03-02:US:F:98.115.78.239:HawHawnotmyrealname
suluniano:sulito22122::2001-06-28:AR:M:206.220.40.51:NULL
SuluniaSnow:chinme123:katnyaan@yahoo.com:1995-03-02:US:F:50.51.174.103:NULL
suluniata:Rainbow34:Eacerelle@Gmail.com:1988-05-01:KR:F:71.105.140.210:Jkoco
suluniawingx2:mabinogi221:TrueMabiX1@yahoo.com:1996-03-02:US:F:98.115.68.179:Loli
sulupacouoohobgob:iloveoreos27:purpledrpepperispimpin@yahoo.com:1994-04-20:US:F:75.177.136.176:stranger
sulupe:vielka11::1999-02-01:PA:F:200.124.27.196:lupita
sulupi:9373407:sulupi6@hotmail.com:1990-11-23:PE:F:190.42.116.131:susan
suluptututupote:hiiiii0:h5@yahoo.com:1968-02-21:US:M:none:.............................. ..............................
sulupumu:0sulupumu0::1995-04-20:AU:F:58.110.134.186:bhavna
sulura:cornelia11:sulura@bio-muesli.net:1991-08-21:US:F:84.186.213.170:Sarah
sulurat:Babycat:zeusd@live.co.uk:1991-06-19::F:94.185.251.155:sulurat
sulurezzak:salak123:onurfeza@yahoo.fr:1994-04-03:US:M:78.163.203.95:NULL
sulurith:school9498:casey.ray@mymail.champlain.edu:1991-06-24:US:M:216.93.157.174:Casey
sulurra:loreainaxi00::1996-08-07:FR:F:193.252.108.130:InaLo
suluru:lulo12:notbshaken@msn.com:1991-11-05:US:F:75.23.37.125:Alexis Smith
suluru_2:whitney88:bluegy@msn.com:1977-03-25:US:F:69.154.143.138:cocileya
sulus15:roxy22::2001-06-14:PE:F:190.232.197.166:NULL
sulus97:sulusZ98::1997-10-01:CL:M:190.163.109.221:Francisco
sulusa:amigas2007:diluaraya@yahoo.es:1991-11-24:CL:F:201.241.249.43:diana
sulusamoa:talofa24:suluga01@msn.com:1994-03-15:AS:F:216.10.60.201:suluga
sulusaray16:tppcrpg79:sevcan_ozturk_10@hotmail.com:1991-01-01:NL:M:83.85.163.132:yasin
sulusaray_13:Avatar97:Aang_Frodo@hotmail.com:1994-01-01:NL:F:83.85.146.121:Frodo
suluse:clayton12:dead_dude@msn.com:1980-01-01:AU:M:60.229.233.223:Clayton
sulusea:chelle77:wobbuffet@ymail.com:1991-11-18:US:F:121.54.29.118:Michelle
suluseis:45tyu890:suluseis@hotmail.com:1974-04-19:EE:M:none:rauno leesment
suluseiuli:babyboe11:nickseiuli@yahoo.com:1994-05-07:US:M:67.182.204.173:Nicholas
sulusesh:jackass22:sulakshanas@hotmail.com:1987-06-13:IN:F:122.164.54.44:Sulakshana Seshadrinathan
sulush:khel12:tralz@web.de:1987-07-02:DE:F:213.39.195.224:Jana
sulushi_2008:sunny_19999::1999-05-20:US:F:69.234.153.51:sunshine
sulushy1999:bbrreennddeenn12::1999-07-17:US:M:75.129.154.1:brenden
sulusingh2004:gameboy::1992-10-07:AU:F:none:suzanne paul
sulusrevenge:supersulus12::1997-10-01:CL:M:200.89.54.61:Francisco
sulustine:melimeli:matilda245@hotmail.com:1990-12-23:CA:F:none:Mélinda Cotnoir
sulusuku:ilovealan:burst_mi_bubble_bish@yahoo.com:1989-11-20:US:F:none:emily toews
sulusulu:cuaccuac11::1997-07-21:CA:M:68.144.181.46:sergio
SULUSULU_0:SEBAS22::1999-4-13:AR:M:186.56.195.176:SEBASTIAN
sulus_98:pancho98fox:pancho_foxlive@hotmail.com:1989-03-03:CL:M:201.223.98.26:Francisco Gallegos
sulus_mon_3400:sanmiguel23:soldejota@hotmail.com:1985-11-03:AR:F:201.255.9.182:soledad
sulutamim:153153153::2001-01-09::M:213.6.244.242:NULL
sulutan12:sass5:alliehibdon@yahoo.com:1992-12-04:US:F:none:allie hibdon
sulutara:rebelde:ani_vc@yahoo.com.mx:1991-06-12:MX:F:none:Ani Valtierra
sulute:sulute11::1995-11-26:CA:M:96.21.131.231:simon
suluterah01:wennielyn11:imurs_forever07@yahoo.com:1991-09-11:PH:F:121.97.232.150:BB.SULUTERAH.01
suluthegreat:antoine43::2002-03-05:US:M:76.4.214.134:NULL
sulutu:lilalucky10:hotcocomonkey@gmail.com:1991-10-31:US:F:24.252.136.228:lucy
sulutucker:gtucker8:gdtucker@purdue.edu:1981-02-06:US:M:206.246.141.21:Gregory Tucker
suluusul:Tricia33:bkress@hotmail.com:1948-11-13:US:F:96.250.226.120:b kress
suluuu:lakourbat11:chawklitrayn@yahoo.com:1995-07-01:AQ:F:96.40.137.241:Louise
suluv15:suluv16::1998-04-13::M:76.121.13.34:NULL
suluvaco:555777:andrea@encontroacp.psc.br:1980-01-01:BR:M:201.83.209.245:tutu coco
suluvboo15:booooo15::1999-04-13:US:M:76.121.13.34:suluv
suluvinha:silvinha14071996:silvinhaa14@hotmail.com:1990-07-14:BR:F:200.166.146.131:Silvinha
suluvinha_florzinha:071496::1996-07-14:BR:F:189.52.132.201:Silvinha
suluwar:TAWITAWI123::1996-05-06:TO:M:210.213.168.70:Howar
suluxan:2qwerty::1994-01-01:CA:M:none:suluxan
suluya:nalushi23:shree-daya@hotmail.com:1984-03-02:CA:F:216.211.53.28:sharee
suluyellow:cody1000::2003-11-29::F:68.238.109.195:NULL
suluz:enter1:jordan.c@custschool.co.nz:1985-04-12:NZ:F:none:J junior big
suluz6:melina:sumadie@uolsinectis.com.ar:1941-05-15:AR:F:Mail from referralteam:su braye
suluzinha:rattes92::2000-01-21:BR:F:189.54.54.139:melany
suluzio:902547:sjfl@ig.com.br:1947-12-29:BR:F:189.18.143.106:suely luzio
suluzx:superman232:leanbardi@hotmail.com:1945-04-26:AR:M:200.3.223.103:manolito
sulu_2006_2:tomas_12:evelyn_lujan4@hotmail.com:1992-11-26:AR:F:none:evelyn lujan
sulu_gz_mari:barbie1:irembinici@mynet.com:1990-11-26:TR:F:none:mari binishi
sulu_injau8279_1:sayang8279:enigma_dara@yahoo.com:1979-02-08:MY:F:60.54.93.178:Maria
sulu_lulu:ayesha143::1998-10-01:PH:F:121.54.1.11:ayesha
sulu_man:TOFU12:dofusboy@hotmail.com:1992-12-17:US:M:none:ZACHREY DORITY
sulu_man1:12fite12:davendy2k@verizon.net:1993-12-17:US:M:71.100.199.61:zach
sulu_man2:12FITE12:DAVENDY@VERIZON.NET:1993-12-17:US:M:71.101.63.22:ZACH
Sulu_Mocha_55:buster55::1998-01-14:US:F:74.244.233.168:NULL
sulu_n9:zuzuiscool22:narmeen.sherif@optusnet.com:1994-03-28:AU:F:58.106.20.253:Zuzu
sulu_rules:poohead90::1997-01-16:AU:F:211.30.186.95:sulu_rules
sulu_sesh:garlic:babydoll_878@yahoo.com:1987-06-13:IN:F:none:Sulakshana Seshadrinathan
Sulu_the_hamster:25252maliburd::2003-04-18::F:99.189.0.170:NULL
sulu_warrior:sessions55:westcoasteagles_rulz@yahoo.com:1990-05-05:AU:F:58.7.217.46:monica
sulva123:pokemon12::1999-02-06::M:84.67.163.25:sulaiman
sulva987:pokemon12::1999-02-06:GB:M:94.0.21.30:Sulaiman
sulvala:kovalev:betabeta79@hotmail.com:1979-03-02:US:F:none:Bethany Matthews
sulvana:dombo12:silvana_augustin@hotmail.com:1975-09-28:NL:F:213.93.204.177:ilvana
sulvania:abcde1:luigionizzle@yahoo.com:1992-03-31:US:F:none:amy oneal
Sulvanith:dene123::1998-01-01::F:174.150.17.181:NULL
sulvanly:sulvanly14::2000-02-05:BR:F:189.54.233.194:Lydia Darcy
sulvanly_14:8910sul::2000-02-05:BR:F:201.74.133.113:lydia Darcy
sulvanna:627894:nicholssamantha16@yahoo.com:1995-04-18:US:F:76.92.164.90:samantha
sulvanos:77elfen:Setsiel@hotmail.com:1982-09-20:DE:M:91.35.225.216:Setsiel
sulvanra:demonic123:neopets_millenium@yahoo.com:1995-11-15:US:M:216.14.154.51:Dominic
sulvanus:notbay1:evilzim@gmail.com:1980-05-18:US:M:none:Xander Carlo
sulvanus21:gohan::1992-03-27:GW:M:none:sulvanus21
sulvar:nicks:nickiliekgh@hotmail.ca:1989-02-18:CA:M:none:dodo man
sulvar123:sulvar321::2000-10-11:US:F:99.157.247.183:Clare
sulvaran:631999::1999-02-06:MX:M:189.133.74.158:sulvaran
sulvarbir:gard3n3:christophe.sully@googlemail.com:1993-04-10:GB:M:195.62.204.26:Chris
sulvatee:plums44:ryan.mccarth@hotmail.com:1992-12-29:GB:M:172.203.241.7:bob
sulva_01:631999::1999-03-06:MX:M:189.133.72.86:erivk
sulva_akhtar:jordache08:sulva.miller1@xtra.co.nz:1987-06-01:NZ:F:60.234.138.65:sulva akhtar
sulveno:senate::1991-10-22:PH:F:203.111.235.46:none
sulver:erlin::1991-10-16:US:M:none:sulver
sulver_wing:fire wing12::1999-01-21:US:M:71.167.199.242:eric
sulvester1628:sweetheart:browneyes141614@yahoo.com:1990-09-04:US:F:72.95.239.155:lesley davis
sulvester9034:rosco78:77watkins@msn.com:1985-07-09:US:F:none:whitney triplett
sulvesterm7505:nagem2:megans6187505@yahoo.com:1993-08-05:US:F:68.221.54.252:megan sulvester
sulvesterpuddycat:147052:bmwdrvr2@aol.com:1982-02-01:US:F:none:lala
sulvester_2005:1mission:c_atlookan10@hotmail.com:1990-09-03:CA:M:neofriend:Corey Atlookan
sulvester_my_kitty:aintskeered10:morganfelix@hotmail.com:1989-05-10:US:F:207.40.17.190:Morgan
sulvestor:09119288::1992-11-09:GB:F:none:sulvestor
sulvey:19985:sulveypooh@hotmail.com:1985-09-19:VE:F:none:sulvey angola
sulvi12:love3202:sulvi_javkson2002@yahoo.com:1972-12-01:US:F:none:sulvi jackson
