summemmer:summer123::2005-09-02:US:F:99.33.176.62:Summer
SummeMoon:allenwalker11:frostedskys@gmail.com:1998-02-11:US:F:24.16.138.54:NULL
summener467:::2001-07-06:US:M:99.0.4.73:NULL
summeneryunie:cacey9292:eureka757@yahoo.com:1992-03-05:US:F:75.75.189.187:Courtney Byerts
SummeNG:porshua123::1999-08-02::F:69.255.123.130:NULL
summeox:givemeurpass22:summer.lovee@live.co.uk:1992-06-09:CA:F:76.68.101.117:Summer
summepiner:summer924::2002-8-22:US:F:76.123.159.192:summer
summer:::1999-07-17:US:F:173.76.153.71:NULL
summer0:lala00:aprilross13@hotmail.com:1992-08-13:CA:F:74.57.253.72:NULL
summer00:7001134::2000-07-28:US:F:71.57.208.157:NULL
summer000:::2003-07-11:US:M:98.24.250.20:NULL
summer000001:sumsum63::2000-05-28:US:F:151.199.91.194:summer
summer00008:funfungo08::2002-02-26::F:74.32.125.224:NULL
summer0002:Love02:sumermhoffmn@hotmail.com:1995-07-27:US:F:165.254.92.77:Summer
summer0004:swimmer::1992-01-21:AU:F:58.175.192.186:summer0004
summer0005:summer24::2004-10-10:US:F:98.86.2.224:summer hurst
summer0009:ruby009::1998-08-31:GB:F:91.109.54.182:katy
summer00097:774177417741::1999-01-27:US:F:64.12.116.75:brooke
summer00101:17summer::1996-07-07:US:F:74.61.209.181:faith
summer001227:ardnassandra15:sandra.forsch@gmx.de:1990-06-12:DE:F:78.42.201.34:Sandra Forsch
summer001242:kala100::1999-10-04:US:F:71.87.194.137:summer
summer00124329:killer001242::1999-10-04:US:F:71.80.24.178:NULL
summer00128:Temperance94:live.laugh.love.xo@live.com.au:1994-06-20:AU:F:124.179.113.197:Kelsie
summer00145:tinker00::2000-04-14::F:99.194.90.174:NULL
summer001697:horse24::1997-10-17:US:F:71.245.8.201:summer
summer001999:brooke00::1999-09-09:US:F:209.212.137.249:summer
summer00278:123454321:us4ever_98@yahoo.com:1988-08-07:US:F:24.94.11.9:NULL
summer0028:28081998::1998-08-28:BR:F:201.93.199.196:sweet1998
summer002940:lover45:summerblalock@yahoo.com:1994-07-12:US:F:98.209.95.243:summer
summer0038:fire00::2001-10-06:US:M:71.179.167.229:NULL
summer003_1:nelly55:danofakee@live.co.uk:1994-12-13:GB:F:92.233.114.41:paige 
summer00412514:miley99::1997-11-06:US:F:72.185.224.152:olivia
summer00412519:miley12::1997-11-06:US:F:72.185.224.152:olivia
summer0063:aidan06:summer0063@hotmail.com:1986-01-17:US:F:96.237.144.31:amy  jenkins
summer007:leticia21::1996-01-01:BR:F:189.41.236.48:NULL
Summer007166:petrocks12::2000-08-08::F:216.41.244.81:NULL
summer0077:071600::2000-07-16:US:F:24.247.189.16:NULL
summer0078:vanilla22::2002-02-03::F:76.189.176.204:NULL
summer007_3_3_3:monkey00::1999-02-14:US:F:71.30.83.30:jasimine
summer007__28:919509051996:pafrbd@hotmail.com:1996-03-16:BR:F:189.30.108.81:patricia
summer00812:cree2000::2000-06-16:US:F:66.211.17.185:NULL
summer009:sam123::2002-09-12:PH:F:180.194.172.184:NULL
summer0095:breeze96:breonnapurcell@sbcglobal.net:1988-03-18:US:F:76.193.32.54:breonna
summer009_1:13350061335002::2000-01-09:US:F:222.88.72.130:millie
summer009_68:winter09::1999-10-23:US:M:98.204.114.137:ward
summer00banana:candyland00::1997-08-01:US:F:75.71.18.157:akane
summer00remmus:drgpm19445:drgpm@msn.com:1995-02-14:US:F:63.231.107.200:Summer
summer00xx:x5gapcv5:summer_16@live.com.au:1992-08-12:AU:F:122.108.191.44:Summer
summer01:dgjhth000111::2001-06-10:US:F:75.80.146.31:NULL
summer010:summertime504::2000-09-05:CA:F:24.65.79.107:summer
summer010082006:jackjackrocks23456::2006-08-10::M:74.67.133.232:NULL
summer01010:lilmama00::1997-11-01:US:F:64.53.104.15:summer
summer010103:openup12::2003-01-01:US:F:173.78.25.141:summer
summer010211:jeter211:si8811@hotmail.com:1993-08-22:TW:F:114.40.47.50:Summer
summer01032000:snake00::2000-03-01:AU:F:202.7.94.214:Summer-Jade
summer0108:0108cat::1999-07-08:ZR:F:75.64.208.121:summer
summer0108_:s9925056i::1999-08-01:SG:F:210.24.212.29:Candy
summer010matt:matt10:sweety_i_luv_u2@yahoo.com:1995-07-28:US:F:98.88.159.126:Nichole
summer0110:summer123::2001-08-01::F:75.139.104.80:NULL
summer01109:summer1234::2001-08-01::F:75.139.104.80:NULL
summer0113:fluffy.lana.1.922:summerwatkins922@yahoo.com:1994-09-22:US:F:97.97.61.191:Summer
summer0114:onetreehill161:angelickisses0@hotmail.com:1986-07-14:CA:F:70.31.94.135:Erin
summer011409:654987:volleyball_chick99@hotmail.com:1995-03-10:CA:F:65.95.103.209:Jayme
summer0115:summer10::2006-01-15:US:F:69.116.226.52:Summer
summer0116:a850116::1996-01-01:TW:F:61.67.95.34:王小一
summer0118:sara1995:sjhar0118@live.com.my:1995-01-18:MY:F:118.101.122.142:SaraJane
summer012:laurel01::2001-03-12::F:24.16.225.214:NULL
summer0122:pokemon01::1998-01-22:CA:F:70.73.159.149:kyrstie
summer0123:food123::2000-05-26:CA:F:66.183.75.119:Mac
summer01234:mommy12345:sabrina.gonzalez79@yahoo.com:1997-06-18::F:69.109.47.27:NULL
summer0123456:1dirtyforks1::2000-10-24::F:70.67.15.187:NULL
summer0125:wjxcpj0012::2004-04-27::F:68.47.185.68:NULL
Summer0134:izzy105:morganflipflop@gmail.com:1995-01-01::F:24.151.221.154:NULL
summer014:cocopuffs014::2001-05-03:US:F:107.8.56.129:NULL
summer0158:trumpet01::2001-05-08:US:F:24.131.71.233:Annika
summer01656:poppy7911::1999-09-09::F:86.147.166.47:NULL
summer017:autumn00::2000-06-09:BS:F:24.206.17.229:NULL
summer018:summer44:ina_ardan@yahoo.com:1989-01-09:PH:F:203.87.199.138:Green
summer018234:anna31::2002-07-31:US:M:70.62.149.68:sammy
summer01missey:pooh01::1997-03-11:US:F:75.53.203.113:nikki
summer01_01:carla01_01:rob.step1@suddenlink.net:1991-10-31:US:F:76.111.188.77:summer
summer01_22:hot10001::2001-01-09::F:69.152.160.92:NULL
summer01_3_3:prissy212::1999-08-27:US:F:71.48.37.72:summerose
summer01_565:cristal98::1998-12-29:US:F:98.194.57.58:NULL
Summer01_808:Tyler01::1999-08-06::F:174.23.173.64:NULL
Summer01_89:rockstar01::2001-09-08::F:76.183.65.177:NULL
summer01_901:cream90::1999-01-21::F:71.156.81.2:NULL
summer01__aa:90406957::1997-07-20:HK:F:222.166.160.6:summer
summer02:::2002-04-07:US:F:35.11.172.167:NULL
summer020:funyface11::1997-04-19:HR:F:93.138.104.62:Lana
Summer020819:GOOD19::2002-02-19:AU:F:203.158.42.210:NULL
summer020894:emmy020894:emmy_i_luv_lollies@hotmail.com:1994-08-02:AU:F:123.3.156.112:Emma
summer021:kalled02:summer9658@yahoo.com:1993-11-09:US:F:68.41.97.43:summer
summer0213:lindsey0213:lindseyrosemarsh@yahoo.com:1997-02-13::F:71.110.217.50:NULL
summer0214:shoppet12::2001-02-14::F:67.177.113.142:NULL
summer0218:pierce09::1999-01-17:US:F:74.233.15.96:Summer
summer0219:rose0219::2002-2-19:US:F:67.233.11.45:kara
summer0221:19950221:ivy_0221@126.com:1995-02-21:CN:F:119.113.145.92:NULL
summer0225:1234555:summer0225@yahoo.cn:1986-02-25:CN:F:221.205.56.132:梁舒天
summer0228:pepper11:cupcake2028@yahoo.com:1993-02-28:US:F:23.3.10.37:NULL
summer0231:sunshine02::1999-12-2:US:F:67.170.189.211:samantha
summer02400110:t223488:summer02400110@yahoo.com.tw:1986-01-10:TW:F:111.242.151.65:夏 天
summer0258:dulce0258::2007-02-05::F:68.202.105.36:NULL
summer0279:::2000-10-19:GB:F:86.3.214.201:NULL
summer028:ilovemeself02:simply_me_028@hotmail.com:1992-11-09:SG:F:220.255.7.166:sash
summer02ok:shadow01::2001-07-11:US:F:24.116.241.194:Summer
summer02_135:alyssa05::2002-02-05:US:F:24.1.139.149:NULL
summer02_7:summer01::2007-05-16:US:F:99.18.41.225:NULL
summer03:::2003-07-27:US:F:68.202.89.118:NULL
summer030202:maci2555::2002-03-02:US:F:4.245.6.86:summer
summer0303:iluvbrand33:cutie_luvs_3@yahoo.com:1993-05-01:US:F:98.22.9.43:Summer Marie
summer030301:030301::2000-03-03::F:64.12.117.79:NULL
summer0304:ilovesummer12:cupkake34@gmail.com:1994-02-04:US:F:76.121.2.157:Abby
summer0308:122921:s507308@yahoo.com.tw:1987-03-08:TW:F:122.121.165.231:summer
summer0313:march13::2001-03-13:US:F:207.200.116.133:Morgan
summer031311:summer11::2000-03-13:US:F:71.196.201.136:NULL
summer031403:dillon05::2003-3-14:US:F:67.142.164.23:Summer
summer0322:march2207:babygurl420_wolf@yahoo.com:1988-08-26:US:F:65.6.143.220:jenevia
summer0324:emma24::2002-03-24:US:F:24.110.31.39:NULL
summer032584:applepie:summer1884@yahoo.com:1984-03-25:US:F:24.164.165.55:meg obr
summer033:72657094:summer_loves_yu@hotmail.com:1980-03-14:AU:F:122.111.191.2:Summer
summer0345:summer89::1999-07-19:US:F:74.196.154.168:summer
Summer0375:wafer375::2005-09-20::F:69.243.185.212:NULL
summer0396:digger03::2003-06-01:GB:F:80.47.45.68:ruby
summer03_18:7761965::1999-06-11:US:F:69.232.53.187:sana
SUMMER03_682:iloveyou01::2001-12-04::F:74.173.112.208:NULL
summer03_7:144725583669::1999-08-08:US:F:98.24.1.186:Tamia
summer03__20:miley01::1999-04-27:US:F:72.192.68.205:summer
summer0401:09090909090::2000-11-03:AU:F:203.32.65.141:NULL
summer0404able:lulu0202::2002-06-26::F:65.6.90.235:NULL
summer0404_408:lulu0202::2002-06-26::F:65.6.112.224:NULL
summer0410:aprilsmith00::2000-04-10:US:F:74.74.230.166:NULL
summer0411:leigh04::2001-04-11:US:F:24.20.255.240:Summer
summer04202006:junior04::2006-04-20:US:F:67.166.224.253:NULL
summer0429:butterfly52::2002-04-29::F:70.186.200.187:NULL
summer044:winter04::1996-08-11:US:F:121.55.231.160:Trissy
summer04412854330:fishbowl13::2000-7-27:US:F:76.203.158.238:maya
summer0485:babygirl101::1997-12-20:US:F:74.193.233.188:breanna
summer0487:molly123456::2000-09-20::F:24.154.170.122:NULL
summer04_5:sillyband02::2004-05-28::F:24.251.185.203:NULL
summer04__aa:rain04::2005-05-25:US:F:76.18.67.190:summer
summer0501:05012006::2006-05-01::F:65.24.89.132:NULL
summer0504:love1308:summer@springvillewireless.com:1994-10-12:US:F:71.93.240.30:Summer
summer05072010:sammyluke10::2000-07-05::F:74.67.133.232:NULL
summer05090502:britnie98::2001-5-9:US:F:75.223.19.170:britnie summer
summer05090521:summercuties33::2001-05-09::F:74.194.155.5:NULL
summer0509052199018:britnie98::2001-05-09::F:75.199.81.40:NULL
summer05090521_435:britnie89::2001-05-09::F:74.194.155.5:NULL
summer0520:hannah0520::2000-05-20:US:F:70.119.23.198:summer
summer0523:singer_dancer05:stefy_singer05@hotmail.com:1991-08-20:CA:F:24.109.61.68:Stephanie
summer0526:91764115:kwantszwing123@yahoo.com.hk:1988-05-26:HK:F:116.22.92.78:～子穎～
summer05416:madison12:dnao5@sbcglobal.net:1986-04-16:US:F:76.202.238.31:Summer Jones
summer05569:summer12::2005-06-05:US:F:216.164.55.32:NULL
summer056:pigpig23::2000-12-09:US:F:70.162.42.21:NULL
summer05_2:summer06::2003-02-21:US:F:65.189.57.126:Summer
summer05_rain27:lalala12:auroarain@yahoo.com:1993-05-27:US:F:69.108.238.68:Summer
summer0604_17:purple12::2002-06-06::F:209.33.229.64:NULL
summer0605:iluvdad0605::2001-06-05:US:F:71.239.46.129:Summer
summer060596:june05::1996-06-05:US:F:24.217.115.230:Brittany
summer0606:akins0606:summer.akins6@gmail.com:1996-01-14::F:205.188.117.79:NULL
summer0610:19980106::1998-06-10:HK:F:119.246.108.144:summer
summer0619:810619me::1999-06-19:TW:F:61.61.230.146:summer0619
summer06211997:starlight300::1997-06-21:US:F:70.135.164.228:KK
Summer0629:sijs0629::2000-06-29:US:F:68.99.213.221:NULL
summer0630:warbear01::1998-06-30:US:F:72.230.243.244:ange
summer06359:33473347::2007-01-01:US:F:76.127.143.11:cole
summer065:home21::1999-06-26:CA:F:70.24.203.19:Summer
summer0680:taylor01::2003-10-23:US:F:71.42.209.179:Taylor
summer0698:102294:miamicuaboy@live.com:1997-10-22:US:F:66.176.31.195:NULL
summer0699:mccracken03::2004-04-27::F:68.47.185.68:NULL
summer0700:LALALA01::2001-08-02::F:68.163.21.180:NULL
Summer07027:Cookie08::2002-7-27:US:F:98.116.194.224:Isabella
summer0703:tila20:summer0703@aol.com:1991-07-01:US:F:24.228.39.47:kels
summer0704:5566556:summertaisuki@yahoo.com.tw:1985-07-04:JP:F:203.75.232.173:杜拜
summer0705:savnav98::1998-05-07::F:93.96.177.154:summer0705
summer0707:mommy34:taushaj3576@yahoo.com:1976-03-05:US:F:99.190.35.82:Natausha
summer0708:qsummer07::2000-08-07:US:F:75.84.20.43:NULL
summer070809:09080912::1995-02-12:TW:F:123.194.159.95:summer070809
summer0709101:bella07091::1994-07-09:US:F:71.99.97.56:summer0709101
summer071399:tristen43::1999-07-13::F:66.67.101.150:NULL
summer0722:vanillaice:fionagoldeneye@hotmail.com:1988-08-30:US:F:61.62.110.186:kiki nawa
summer072309:july232009:elizabeth.norman18@gmail.com:1992-03-17:US:F:98.251.148.196:NULL
summer0743:fuzzle32::1995-12-11:GB:F:82.2.39.190:Vikki
summer07626:sr12321::1995-02-09:US:F:4.157.47.126:katy
summer077:austin16::2001-12-04:US:F:24.119.86.200:summer
summer0790:summer1990:neoplayer2010@yahoo.com:1991-02-22:US:F:70.179.24.229:Cori
summer07_493:grovyle10::2001-08-24::F:96.244.43.243:NULL
summer07_8:dafnesh123:la.holanda@hotmail.com:1992-03-20:BR:F:189.52.151.248:Laís Soares Holanda
summer07_9:ilovezack13:donaldson_kelsey@yahoo.com:1994-07-10:US:F:65.29.91.142:kelsey
summer07_imluvinit:HERBIE08:cow_lovr_07@hotmail.com:1996-08-13:US:F:69.253.241.54:Karen
summer08:::2001-12-04:US:M:75.245.151.140:NULL
summer080:amoisso69:nakamura1917@hotmail.com:1993-02-02:BR:M:201.26.161.170:NULL
summer0801:mazzle03:summer.merkle@yahoo.com:1989-08-01::F:66.245.86.252:NULL
summer0802:tabby08:tlc4evaa@aim.com:1994-09-25:US:F:69.113.102.10:Christina
summer0805:080594::1994-08-05:HK:F:58.177.123.118:NULL
summer080597:opieki8597::1997-08-05:US:F:69.171.196.153:Katelynn
summer0806123:coolgirl123::1998-08-06:CA:F:74.14.27.187:ruffruffmeow
summer0814:Eunjung2000::2000-08-14:US:F:173.70.27.254:Summer
summer0816:ilovemom21::2002-08-16:US:F:72.101.70.234:summer
summer0821:58829862::1996-08-21:CN:F:116.230.202.81:壞壞
summer082301:debbykool23::2001-08-23:US:F:173.173.96.236:NULL
summer0823_sg:debbykool23::2001-08-23:US:F:70.125.159.247:summer
summer0824:8471662::1998-08-22:US:F:99.147.114.129:summer
summer0835:jordan09::1999-11-08::F:69.127.133.118:NULL
summer08642:hippo12::2000-01-26:US:M:108.77.77.78:NULL
summer0865:tanai09::2000-11-8:US:F:69.127.133.118:tanai
summer088:liebe66:summer-88@hotmail.de:1970-03-29:DE:F:89.58.146.233:Lola
summer0888:jordan0935::2000-11-08:US:F:24.189.3.132:NULL
summer0889:bm8oo7dm:samantha.costain@hotmail.com:1989-11-08:CA:F:99.252.23.33:sam 
summer08babiii:5664737::1995-12-21:US:F:24.45.109.74:Kristina
summer08gal:imisshtms15::2001-06-19:US:M:74.244.56.106:joey_hottness15
summer08greer:summer101:summer1greer@aol.com:1989-03-07:US:F:207.200.116.74:rhianon greer
summer08jt:!@#$56:pinkpolkadot897@aim.com:1989-01-01:US:F:66.66.120.250:Haley
summer08luv:8579243924:Singlikenobodyslistening@live.com:1995-06-28:US:F:96.237.132.65:Ana
summer08sunnies:Holly818:ultimate_geek@hotmail.co.uk:1992-02-02:GB:F:86.135.163.204:Clare
summer08yr:sarah13:sdidion@cox.net:1994-08-23:US:F:70.178.141.191:sarah
summer08_1:dove700:cathy_2356@hotmail.com:1993-12-20:AU:F:122.107.196.27:ali
summer08_15:iluvboyz22:softballchick180@gmail.com:1992-09-16:US:F:67.160.151.93:Kayla
summer08_bby:roys86:xoxo_angelkisses_oxox@hotmail.com:1993-01-11:CA:F:99.253.29.198:angel
summer08_party:makam123:summer08.party@gmail.com:1994-03-30:US:F:69.233.89.99:kailey
summer08__90:dragon82::2001-08-03:EN:F:NULL:NULL
summer0903:mummy01::2003-09-24:GB:F:90.197.70.63:summer
Summer0904:summer0904:xxyankeegirlx00@aol.com:1994-09-04::F:24.168.18.121:NULL
summer09090:eusoumongol10:miss.gravity@hotmail.com:1985-03-21:BR:F:201.9.249.58:Carol Fares
summer091:smokey09::1991-09-21:US:F:24.3.115.155:summer
Summer0911:comet911:princess_kanisha@yahoo.com:1996-08-21::F:76.189.47.99:NULL
summer09113:k5053646:KYLEENQ13@SBCGLOBAL.NET:1996-03-21:US:F:75.19.33.70:KYLEEN
summer09123:biddy12:jackiex39@hotmail.co.uk:1996-03-24:GB:F:78.146.100.47:nicola
summer0913:sumsue12::1998-09-13:US:F:81.52.249.109:Summer
summer0916_02:davids45::2002-08-16::F:98.148.7.240:NULL
summer0918:michael09:m3r3dith564@aim.com:1992-09-09:US:F:75.69.173.237:lindsey
summer091809:lmscheerlead2010:m3r3dith564@aim.com:1996-09-09:US:F:75.68.50.143:NULL
summer091876:michael09:m3r3dith564@aim.com:1992-09-09:US:F:76.19.48.36:meredith
summer092000:summerjade2000::2000-09-12:US:F:174.49.33.29:Summer
summer0960:pawprint60::2000-01-05:CA:F:65.95.134.83:paige
summer09876:iloveelkmeat123::1999-05-26::F:66.213.50.2:NULL
SUMMER098890:HUNTER09:BROBX07@YAHOO.COM:1996-10-16::F:74.196.39.7:NULL
summer098890123:hunter098890::2005-05-03::F:75.110.63.88:NULL
summer098890_108:hunter45:brobx07@yahoo.com:1993-05-08::F:75.110.63.88:NULL
summer098_988:spring10::2001-01-17::F:75.75.139.91:NULL
summer099:babygirl99:summer-ummer@hotmail.com:1997-11-09:US:F:75.172.223.148:removed
summer0998:bethann11:secouch10@yahoo.com:1992-11-02:US:F:74.197.217.212:Sarah
summer0999:teachers0910::1998-04-20:US:F:198.110.57.99:summer
summer09annie:haydn123:annnie.bannaie.2017@hotmail.com:1994-08-30:US:F:207.230.194.136:annie
summer09babe:harajukudiva09:xoxl3xigurlxox@yahoo.com:1993-01-09:US:M:169.139.112.9:Gilly
summer09babii:bronson91:PaRtAyGuRl_07@hotmail.com:1991-10-04:US:M:173.27.249.219:Sabrina
summer09baby:grant9796::1997-07-29:US:F:174.100.12.230:Kristen
summer09by:chey123:shyboo1296@yahoo.com:1995-06-17:US:F:71.87.157.81:cheyenne
summer09chick:summer2009::1998-04-11:US:F:69.251.93.84:summer
summer09crazy:mellane11::1996-10-12:US:F:69.117.253.114:maddie
summer09ily:sexyback15:basketballstar_96@hotmail.com:1994-01-11:CA:F:64.228.132.111:Vanessa
summer09russell:foxie1211:russellsummer@rocketmail.com:1995-03-04:US:F:96.19.71.56:Summer
summer09_01:zru.3bjo4g4gp6:aaff0000@yahoo.com.tw:1990-01-24:TW:F:122.127.218.105:楊瑞臻
summer09_09:lucia2016::1997-04-21::F:98.194.56.240:NULL
summer09_101:Michigan905::2001-12-12::F:75.134.126.138:NULL
summer09_6_6_6:megan09::2000-04-26:US:F:67.238.136.108:megan
summer09_8:horton n09::2001-04-25:US:F:24.107.232.49:noelle
summer09_8_8_8:winter16:mayor28@verizon.net:1980-09-16:US:M:71.190.15.4:sim
summer09_9:alek123::1998-03-13:US:M:96.247.230.14:Alek Felde
summer09_98:monkey98::1998-04-15:CA:F:75.154.99.185:Katelynn
summer09_annie_beans:lucy123:annie.bananie.2017@hotmail.com:1995-08-30:US:F:184.158.17.92:annie
summer09_crs:crs299::1996-10-03:US:F:70.161.213.61:cassidy
summer09_kidds:mishikay09:kay_babii573@yahoo.com:1991-06-18:US:F:68.100.29.44:Mishi_Kay
summer09_steph:122594:xsmileystephyx@aim.com:1994-12-25:US:F:76.29.137.156:Stephanie
summer09__13:loly09::1999-06-29:US:F:99.185.32.209:shaquelle
summer09__97_3:princess098::1999-08-09:US:F:207.68.86.17:summer
summer09__aa:thunder11:rpenn186452@yahoo.com:1992-12-09:US:F:173.74.128.19:Rachel
summer0hugs:missymoo0::1993-08-14:AU:F:124.188.69.18:summer0hugs
summer0love:tarzan11:wsyhg@hotmail.com:1980-06-16:NL:F:82.95.214.10:emma
summer0n0333:3monkeygirl3:nicolesomers@comcast.net:1996-03-03:US:F:98.225.196.81:NULL
summer0o:oero11:ghettoqueen01@hotmail.com:1994-02-13:US:F:76.183.246.36:Tavaishae
summer0o0:boy123::2005-05-01::M:173.65.130.147:NULL
summer0s:tootsie::1989-09-03:EN:F:NULL:NULL
summer0s0:girl16::1999-08-16:US:F:209.234.252.28:NULL
summer0sunshine:asha36:weldon224@netzero.net:1992-11-14:US:F:67.165.91.9:Audrey Weldon
summer0sun_xx:leisam23::1997-07-23:AU:F:124.181.24.233:NULL
summer0t0:girl16::1999-8-16:US:F:173.65.130.147:tiana
summer0_:i3y252o5::1997-03-04:US:F:67.82.119.92:hudy
summer0_0:Diamond5916::1995-11-02:US:F:74.240.93.88:Hannah
summer1:::2002-01-10:US:F:115.189.51.161:NULL
summer10:::1999-09-28:US:F:70.109.109.219:NULL
summer100:::2007-05-10:US:F:24.158.228.190:NULL
summer1000:::2000-05-24:US:F:68.162.80.163:NULL
summer100000000000:lovelike100::1998-02-21:US:F:72.73.182.89:parisa
summer100000001:thyle::1996-01-21:US:F:99.188.83.33:summer100000001
summer100001:cocoa121:pinkpan384@yahoo.com:1994-07-24:US:F:68.41.67.65:h
summer10001:summer101::1997-02-21:CA:F:24.202.102.235:Valeh
summer10004:dogs455::2002-01-15:US:F:67.81.226.77:Sarah
summer100042006:3042gold::2001-03-03:US:M:76.73.188.210:summer
summer10006:baby10::2000-08-07::F:71.50.174.212:NULL
summer1000_903:cookies200::1999-03-01::F:173.3.216.31:NULL
summer1001:ilovesummer21::1998-07-09:US:F:24.93.173.14:NULL
summer1001730:0982747969:snoopy73730@yahoo.com.tw:1984-07-30:JP:F:220.141.33.40:summer
summer1001772:summer25::2004-08-17:NZ:F:222.155.154.242:NULL
summer1001_11:rreeaapp12::1998-07-28:NZ:F:203.211.78.93:summer
summer1001_2_2_2:winter100::1996-01-17:US:F:74.183.204.75:summer1001_2_2_2
summer1002:1432molly::1998-07-10:US:F:68.229.82.137:Maddie
summer1002345:amber12998::1998-02-28:US:F:66.61.0.103:amber
summer100270:ilovemyipodtouch12:natalie.olivera@yahoo.com:1992-11-02:US:F:98.240.94.52:NULL
summer1003:100603::2003-10-06:US:F:67.142.164.32:Summer
summer1004fyi:hottie2000:keiwanawilliams@yahoo.com:1990-4-30:US:F:70.178.133.190:Kiki
summer100_210:pancake30::2001-01-27::M:94.5.180.63:NULL
summer101:::2000-07-14:US:F:74.198.9.82:NULL
Summer1010:summer10::2000-01-20:US:F:99.173.170.17:NULL
summer1010101010:kitty11::2000-03-13::F:74.130.41.49:NULL
summer101012:yellow77::2002-09-20::F:78.149.228.136:NULL
summer10102:225930::1998-04-05:US:F:72.224.129.230:NULL
summer10107:cookie101::1996-04-12:US:M:68.10.87.92:ZACK
summer1010_243:jaylen1010::1999-07-06::F:75.31.125.85:NULL
summer1010__97:will10::2001-07-25:US:M:98.212.208.114:william
summer1011:codysimpson143:megriley@homemail.com.au:1997-01-11:AU:F:204.188.138.7:NULL
summer101101:summer@ccsk12.net:summer@ccsk12.net:1995-05-17:VI:F:76.6.29.182:NULL
summer101101010:1137948:si@sisi.si:1982-10-31:US:F:76.6.29.182:NULL
summer10111:sammaa11:sammakoyo@hotmail.com:1988-09-19:CA:F:64.229.22.106:sammma
summer1011111:irok222::1999-08-13::F:76.115.156.204:NULL
summer10112__32:catherine12::1998-11-14:US:F:67.163.192.163:Catherine
summer101191:mushroom10::1996-10-19:US:F:71.239.14.55:Summer
summer1011997:pug16455::1996-05-19:US:F:71.255.177.91:summer
summer1011__12:nat_nat@18ya:chefrayj46@hvc.rr.com:1983-07-05:US:F:204.210.137.161:summer
summer1012:madelyn92:morgyme@yahoo.com:1993-08-27:US:F:174.57.0.102:NULL
summer101202:sumsum123::2001-08-20:US:F:74.89.150.109:NULL
summer10122:summer10::1999-09-02:US:F:76.83.37.98:summer
summer101222:hannah101222::1999-08-18:US:F:99.195.78.253:summer
Summer101256:jack1229::2000-12-29:US:F:71.30.92.118:NULL
summer1013:summer98::1998-10-13:US:F:98.223.237.136:NULL
summer1014:flowers159::1999-04-03:US:F:99.165.37.91:NULL
summer101421:o19950201:f0821ly@yahoo.com.tw:1995-02-01:TW:F:114.42.57.68:郭小初
summer101498:101498::1998-10-14::F:66.169.91.83:NULL
summer101671:grizzly101671:summer101671@verizon.net:1971-10-16:US:F:74.99.90.136:MARION
summer10168:pavan101::1997-10-16::F:173.180.4.39:NULL
summer1017:hotpink12::1996-10-08:US:F:64.217.182.155:LucyLou
summer10180_429:summer101::2001-07-28::F:174.23.211.102:NULL
summer10181:princess110::2000-06-20:US:F:68.37.205.90:NULL
summer1019:joseph0221::2000-10-19::F:98.151.7.99:NULL
summer101dove:mom101::2001-08-09:US:F:74.177.136.65:NULL
summer101dude:piepie12:rpurvis015@cox.net:1988-05-19:US:M:68.11.172.114:brandon
summer101sum:gunish01:kellocgp@mlc.vic.edu.au:1969-06-06:AU:F:123.2.74.129:Georgie
summer101z:cats72:bildill007@aol.com:1995-08-11:US:F:69.136.228.32:summer
summer101_:p0kem0n::1999-04-03:AU:M:124.183.81.32:Matthew
summer101_18:lalalandforreal101::1998-06-27:US:F:98.203.227.2:NULL
summer101_193:cutie11::2000-07-27::F:71.10.64.23:NULL
summer101_6:Fish90:coolcat102687@hotmail.com:1994-01-01:CA:F:24.85.146.35:elizibith
summer101_80:summer101::2001-07-28::F:174.23.211.102:NULL
summer101_frosty:makenna12::1996-08-15:US:F:75.0.255.15:makenna
summer101_sun:chances1girl1::1996-09-26:US:F:207.200.116.66:tricia
summer101__49:854621::2001-05-02:US:F:71.180.66.25:summer
summer101__83:shebas16:tonysbabygirl1234@yahoo.com:1993-8-16:US:F:75.110.241.219:summer
summer101__96:cassidy2002::2002-8-14:US:F:206.57.29.46:cassid
summer101__aa:hannah109::1998-06-07:SO:F:86.144.84.92:summer
summer102289:grizzly123:nick032094@verizon.net:1971-10-16:US:F:173.50.79.111:m
summer1023:pink1023::1998-10-20:US:F:99.144.161.179:em
summer102_272:peace01::2000-08-04::F:75.110.134.238:NULL
summer1030:summer2011:zeinabsayed1991@gmail.com:1992-04-04:US:F:96.250.45.2:NULL
summer10302000:snake11::2000-03-01:AU:F:122.148.151.57:NULL
summer1031:19891031:summer_king38ring@yahoo.com.hk:1989-10-31:CN:M:222.166.160.214:BABY.SuMMeR
summer103106:awsome335::2001-01-14::F:99.23.225.19:NULL
summer1031_4:badgirl82::1998-11-06:US:F:74.50.243.235:summer
summer10377:ladygaga56:morgan27@yahoo.com:1996-09-14::F:67.36.19.183:NULL
summer104023:ruthie10:aurealbeeh@rocketmail.com:1997-05-18:US:F:76.171.84.13:NULL
summer1044:Twinkles481::2004-10-04:US:F:99.12.192.106:NULL
summer10449:marceaux20::2001-6-22:US:F:173.21.84.159:summer
summer1048:vista123::1998-10-20::F:71.43.159.86:NULL
summer104__30:shane05:shanedassy@gmail.com:1995-06-15:US:M:174.60.52.186:Shane
summer105:::2001-06-08:US:F:99.229.200.237:NULL
summer10583:spring10:hyndmanhornetgirl@yahoo.com:1996-06-21:US:F:66.146.232.1:NULL
summer105girl:67gifford:IBOININY@aim.com:1987-02-06:US:F:72.72.44.203:bdawwggg
summer105girl989:67gifford:summer105girl@aol.com:1992-02-06:US:F:72.93.131.109:NULL
summer10657:summerkaylee65::1999-8-31:US:F:67.240.244.203:summer
summer1067:winter1067::2000-1-6:US:F:74.235.243.202:Mia
summer1068:snowdogs1068:nikki283@gmail.com:1995-03-08::F:68.117.88.118:NULL
Summer10684:summerspassward101::1999-05-14:US:F:67.190.67.54:NULL
summer10717:babysit00::1999-12-17:US:F:206.220.40.50:NULL
summer1075:minnie01::2001-08-13:MX:F:189.177.107.28:NULL
summer1078:summer12::2000-05-18:US:F:108.54.1.57:NULL
summer1079:summer99::1998-08-05::F:174.22.230.161:NULL
summer108:werewolf108::1999-07-06:US:F:99.56.60.90:NULL
summer1080:applekingdom08::1998-03-01:US:F:76.112.229.41:Sarah
summer10809:s63hnaineo:forever80870@yahoo.com.tw:1992-12-21:CA:F:203.75.232.183:*^^*
summer1082:faith00::2000-06-03:US:F:70.178.140.144:NULL
summer10834:dalton67::2000-06-06:US:F:216.151.187.110:courtney
summer10849:jewel123::2002-07-30::F:76.23.153.248:NULL
summer1084_198:jewel123::2002-07-30::F:70.160.132.147:NULL
summer1084_646:jewel123::2002-07-30::F:70.160.132.147:NULL
summer1084__76:jewel18::2002-07-30:VG:M:70.160.133.16:Summer
summer108_565:heyboy12::2000-07-12::F:69.205.142.127:NULL
summer109:emilyhsia9502::2002-05-09:AU:F:202.124.75.169:NULL
summer1090:pinky16::1997-05-18:US:F:74.226.12.238:summer
Summer1096:summer0610:summerlgray0610@hotmail.com:1996-6-10:US:F:170.185.220.19:Summer
summer1096_12:rudy4465:lmandmq@gmail.com:1996-03-11:US:F:69.139.15.111:NULL
Summer10996:jv2k0cd7:ksdbfis@aol.com:1993-03-07:US:F:69.180.234.9:NULL
summer10bby:blair12:dreaming_stars@hotmail.com:1996-8-11:CA:F:24.81.111.144:HAHA
summer10gym1:gymschool10:summerjane@verizon.net:1994-04-10:US:F:71.164.189.158:Summer
summer10n:summer98::1998-08-01:US:F:98.25.251.53:summer
summer10raine:summer10rocks::1999-10-20:US:F:64.33.166.187:Summer
summer10s:tinkerbell67::1999-11-20:US:F:72.69.178.2:Jenna
Summer10_:SUMMER10::2006-12-04::F:97.116.11.248:NULL
summer10_06:gin_gin:onebarbie4u@yahoo.com:1993-08-18:US:F:24.253.128.195:virginia gallaway
summer10_1:cm3995::1998-04-21:US:F:74.166.201.5:Alejandra
summer10_10_698:thompson10::2000-10-26::F:76.247.128.76:NULL
summer10_161:lane19::1999-06-25::F:65.184.81.157:NULL
summer10_18:brooke2010::2002-07-23::F:174.42.219.12:NULL
summer10_2:preston10::2000-09-15:US:F:67.9.81.130:summerfawn
summer10_267:summer30::2000-07-25::F:98.134.24.225:NULL
summer10_299:98765544::1999-10-15::F:72.145.68.252:NULL
summer10_359:jerome007::2003-11-14::F:66.188.68.147:NULL
summer10_5:2651657::1998-04-10:PE:F:190.234.93.54:larissa
summer10_80:neopets100::1999-10-07:US:F:72.94.45.121:Trinity
summer10_819:spring10::2001-01-17::F:75.75.139.91:NULL
summer10_97:joe5336::1997-06-24:US:F:71.115.226.54:Summer
summer10_a33:daniel10::1998-09-26:US:M:66.176.49.74:Daniel
summer10__99:barible98::1998-06-03:US:F:64.12.116.197:summer
summer11:summer1716:emily_jcleeland@hotmail.com:1995-07-19:AU:F:121.219.171.132:NULL
summer110:::2000-12-03:US:F:75.185.65.147:NULL
summer11011:242you::1998-03-27:US:F:68.43.161.102:sarah
summer11019:codymaw14::1999-1-15:US:F:68.169.183.15:summer
summer11022:july10::2002-07-10:US:F:69.113.41.208:NULL
summer1103_25:justin112::2001-10-23:US:F:68.61.70.100:autumn
summer1104:sugerhoneyicetea11::1998-10-28::F:24.126.75.207:NULL
summer1105:maggie0708:nancy.sommer@yahoo.de:1988-05-11:DE:F:78.53.65.221:Nancy
Summer11054:teamo1997:TeAmo_1997@yahoo.com:1995-07-11:US:F:168.13.63.66:Chantel 
summer1109:summerluver1109::1999-10-18:US:F:71.230.206.243:Lauren
summer111:NETENDO77:summerlynnmcdonough@hotmail.com:1997-03-15:CA:F:76.64.151.155:NULL
summer1110:conmeo87:gaubeo1110@gmail.com:1991-10-11:VN:F:123.27.13.20:NULL
summer1110987654321:loser13::1997-05-08:US:F:216.167.146.19:morgan
summer1111:Horses99::2001-10-28:GB:F:95.150.251.89:NULL
Summer111107:karenmae99::1999-05-03:US:F:69.203.131.166:NULL
summer11111:walnut11::2000-04-12:US:M:207.172.31.10:NULL
summer111111111:summer09::1999-05-31:US:F:71.127.49.53:Summer
summer111112:bonnie12:roxychick_tiarne@hotmail.com:1993-08-07:AU:F:220.101.26.252:tarney
summer11112:star45::2002-06-23:US:F:24.46.86.207:Emmy
summer11112_214:neoneo123::2002-06-23::F:24.46.86.142:NULL
summer1111_4_4:princess1233:princessholly13@hotmail.com:1995-12-06:CA:F:72.140.172.20:holly
summer1111__19:summer10::1999-11-02:US:F:204.2.199.22:summer
summer1112:::2002-11-07:US:F:24.45.210.228:NULL
summer1112131415:poppy123::2000-09-12:GB:F:81.107.212.75:Star
summer11129:11129summer::2008-01-01:US:F:68.43.251.217:NULL
summer111291:11129summer::2005-04-29::F:68.43.251.217:NULL
summer1113:angel1113::2000-01-01::F:68.7.96.75:NULL
summer111333:7124111::2001-11-28:US:F:174.111.224.47:NULL
summer11136:mary12::1999-9-14:US:F:68.36.169.189:mary
Summer1114:1006299::2000-05-31::F:64.250.235.178:NULL
summer1115:sweet754::2000-11-15::F:75.91.14.68:NULL
summer1115313:ranger313:rosehillsummer1115@gmail.com:1992-08-27:US:F:68.90.45.180:NULL
summer111638:winter111638::1998-05-10::F:76.127.144.178:NULL
summer111997:summer97::1997-07-17:US:F:68.99.33.225:kristen
summer111999:cupkake7187::1999-11-25:US:F:69.251.212.35:NULL
summer111_4:liu663375:liuyingjie265@163.com:1995-11-25:MO:F:122.6.153.68:summer
Summer1120:summer10::2000-02-20:US:F:99.173.170.17:NULL
summer11211:nahls4eva21:sahjah1@bigpond.com:1994-04-21:AU:F:121.212.132.210:Summer
summer11212:jehovah11:devin.seigler@yahoo.com:1996-04-10:US:M:98.200.149.39:david
summer11223344:cody11223344::2000-09-25:AU:F:124.168.200.9:sarah
summer112233445523:plumpy26::2001-02-26::F:67.86.107.22:NULL
Summer11223344556677:love4455::2002-11-23:US:F:99.164.49.152:NULL
summer1123:halima11a:clemille1115@hotmail.com:1988-02-22:US:F:72.247.146.108:NULL
summer112367:donot12:kenip@yahoo.com:1992-10-08::F:67.36.19.183:NULL
summer1124:951124145046:hoiwyanyi@hotmail.com:1995-11-24:MY:F:118.100.142.241:NULL
summer11251995:christine15:somersun10@hotmail.com:1995-11-25:US:F:97.84.205.238:NULL
summer11251999:cupkake7187::1999-11-25:US:F:69.251.212.35:NULL
summer1127:sflores1127::1999-10-13:US:F:74.60.112.206:NULL
summer112789521:audreygirl6607:autumnpierce4202@aol.com:1986-05-04::F:76.16.170.23:NULL
summer112881:pepzmo11::1997-08-17::F:71.171.73.48:NULL
summer11299:kyliepayton12::1998-11-02:US:F:24.119.96.51:NULL
summer112997:summer684::1997-11-29:US:F:75.177.101.95:Summer
summer112ct:haiyen112:hyen92_ct@yahoo.com.vn:1992-12-01:VN:F:113.169.173.10:NULL
Summer112_3:summer99::1999-07-23:US:F:50.41.122.163:NULL
summer1130:password0520::2000-05-20:US:F:50.89.231.101:NULL
summer1135:sweet1135:kevin_n13@yahoo.com:1980-02-24:US:F:97.113.17.96:kendall
summer114:rocky12::2001-01-28:US:F:206.220.40.50:NULL
summer1142:momdad12::2001-01-24:CA:F:64.56.225.130:amber
summer11455:se604546::2003-01-17:US:F:98.247.121.22:Sommer
summer1146:sw7129::1997-10-28:US:F:208.101.129.93:Summer
summer1147:winter12::1998-07-19:US:F:98.166.69.129:summer
summer11473:bradybunch11::2000-06-16:US:F:207.157.134.158:NULL
summer114_6:school101::1998-05-02:US:M:173.86.31.144:adam
Summer1168:flutter1163::2001-08-02::F:66.69.105.187:NULL
summer11697:chloe333::2004-04-10:US:F:80.12.192.157:NULL
SUMMER116_2_4:CHERRY11::2000-02-09:US:M:166.147.120.15:NULL
Summer11701:summer12::2001-01-17:US:F:71.86.180.104:NULL
summer11701123456:petpetpark1234::2001-01-17:US:F:99.156.197.71:summer
summer1170121:ashleigh1170123::2001-01-17::F:71.87.69.61:NULL
summer117117:season77::1999-03-05:GB:F:89.240.51.24:Caitlin
summer1172002:horsefan101::2002-01-17::F:66.177.78.96:NULL
summer1176:trigger10:xxjennabbexx@msn.com:1996-04-06:GB:F:82.4.226.138:jenna
summer1177:55543210::1998-10-19:BR:F:201.74.139.199:summer
summer117_882:sunshine11::2000-01-17::F:99.190.213.54:NULL
summer117_89:sunshine11::2000-01-17::F:99.190.213.54:NULL
summer118:summer61::2003-07-24:US:F:69.142.200.18:NULL
summer1181:singergirl67::1997-07-18:CA:F:72.141.201.224:Sophie
summer1185:457565me::1998-10-13:CA:F:99.199.9.11:Amanda
summer11891234:cherry12::2000-12-22::F:173.55.239.70:NULL
summer11893:vip322::2004-03-04:US:M:98.198.25.229:NULL
summer11908:monkey11908::1996-10-22:GB:F:91.107.194.205:becky
summer119487:250489:funky_255@hotmail.com:1989-04-25:CA:F:66.183.62.37:Vincey
summer11971:falcon12:shay2mike@yahoo.com:1995-05-26:US:F:173.80.254.31:summer
summer1199:emiismydog123::1998-09-27:US:F:71.70.95.224:Summer
summer1199703:cgmduckies11::1999-09-01:US:F:98.116.73.226:NULL
summer11aa:carcar55::1998-08-06:US:F:174.39.221.181:squirt
summer11ab:manderskelly11::2010-04-13:US:F:76.114.136.206:NULL
summer11ac:nonnie11::1998-11-29:US:F:76.214.25.116:angela
summer11f:tina!::1992-08-16:MT:F:80.77.196.46:summer11f
