summer11_11:passw0rd11::1998-06-23::F:67.233.81.81:NULL
summer11_3:maisy11::1999-05-08:GB:F:222.141.220.43:molly
summer11_422:justice12::1998-09-29::F:98.206.251.250:NULL
summer11_4_4:abelhi22::1999-10-23:US:M:75.62.243.97:john
summer11_57:khloearwood11::2000-02-08::F:74.226.104.23:NULL
summer11_6:1jake1::1998-11-20:US:F:166.205.5.188:Lexi
summer11_670:summer45::1999-06-19::F:173.25.183.130:NULL
summer11_7:maisy11::1999-05-08:GB:F:78.151.108.108:molly
summer11_825:bizebitz11::2000-01-21::F:24.45.252.44:NULL
summer11_a12_7_3:0hotdog0::2001-08-20:US:M:172.190.220.231:Esther
summer11_a44:Angle21::1998-05-31:US:F:75.56.215.248:Brianna
summer11_a76:hannah77::2001-03-13:CA:F:70.79.131.7:RAVEN
summer11__22:midnight11::1997-04-22:US:F:159.251.13.5:Summer
summer12:wachtwoord12345::2000-01-31:NL:F:83.86.56.136:NULL
summer120:::2001-02-09:US:F:65.75.108.51:NULL
summer12000:asdaqwergn12::1999-10-12:GB:F:89.241.33.103:sabrina
summer120195:36771920:kit_kit1201@hotmail.com:1995-12-01:HK:F:58.176.40.4:summer
summer1202:jessica123::1997-01-02:US:F:72.197.10.179:savannah
summer1203:Simsum12::1999-02-15:US:F:24.197.143.230:Summer
summer12101:moonoy00::2001-01-21:US:F:76.244.155.146:Summer
summer1211:hoffman12::2003-12-11::F:76.234.148.244:NULL
summer121121:25138733::2000-01-21:KR:F:121.167.184.118:vivien
SUMMER12120:CCAATT12::1998-06-01:US:F:24.129.144.94:NULL
summer121204:mommy12::2004-12-12::F:72.220.99.64:NULL
summer121212121222:summer1212121212223::1997-08-17:US:F:209.170.115.101:summer
summer12122:cammy12122::2000-01-03:US:F:64.246.141.167:camryn
summer1212246:monkey59::1998-06-13::F:71.15.102.43:NULL
summer121245:ice123::2000-09-08:US:F:69.161.93.250:NULL
summer121292:89kk3Q:ox.summer.ox@hotmail.com:1992-12-12:CA:F:74.15.196.253:Summer
summer1212_412:mylittlekk11::1997-10-21:US:F:70.30.27.95:NULL
summer1212_637:preston10::2000-09-15:US:F:67.9.80.42:NULL
summer121364481:winx121::1996-03-06:MY:F:60.49.33.19:summer121364481
summer1213cam:catcat123::2000-08-25::F:71.53.217.174:NULL
Summer12144:mommy11::2001-06-26::F:72.231.153.244:NULL
summer1215:perfect04:bluestars1215@yahoo.com:1976-10-01:SG:F:61.8.198.242:summer
summer1216:doodle16:lily.pad1216@hotmail.com:1995-10-17:US:F:24.59.131.98:Lily
summer12162:jesus11232:taylerlovestito@yahoo.com:1996-05-11::F:69.14.101.81:NULL
summer121707:angel05:summergjsms@aim.com:1994-05-03:US:F:173.8.1.82:Summer
summer121745:STORM2000::2000-12-17:US:F:74.167.4.211:SUMMER
Summer12181:localgirl97::1999-07-11:US:F:99.23.173.0:NULL
summer121_6:blood12:summerdragon1295@yahoo.com:1995-07-12:US:F:67.158.146.43:summer
summer1221:jojo12:dustin6446@aim.com:1990-01-01:US:F:12.216.54.2:gayfag
Summer1222000:jack2010:maymay2000@verizon.net:1995-01-22:US:F:96.6.45.165:Summer
summer1223456789:7441085529663::2001-10-03:US:F:70.136.39.78:stacy
summer1223_3:dragon12::2001-01-26:US:F:71.9.38.203:summer
summer1223__h_h:ilovecody1223::2001-10-03:CO:F:67.125.134.86:summer
summer12255:bearah12::1999-02-11:US:F:74.192.239.248:NULL
summer122708:kilgore07::1994-12-27:US:F:64.12.116.75:Summer
summer122808:rowl14::1996-06-24:GB:F:92.237.76.252:summer122808
summer1229:friend13::2001-09-19:US:F:70.176.140.250:NULL
summer122_1_1:143001159::2002-02-14:US:F:75.71.148.176:NULL
summer123:vbnmvbnm123123::2003-05-20:US:F:173.80.68.104:NULL
summer12304:kazim12::2004-03-08:US:F:98.92.98.175:sarah
summer12305:ladybug12::1998-10-28:US:F:173.93.131.52:Rylee
SUMMER12309:BABYBOY56::1998-04-13:US:M:71.225.193.127:NULL
summer123098:Summer Sum567:minime109@Gmail.com:1994-08-10:JP:F:180.131.210.6:Summer
summer1231:Tristan12::1995-12-31:US:F:64.12.116.65:Chelbi
summer123102:peetree12::2001-03-15::M:96.255.139.31:NULL
summer12312123:grammy123::2000-06-01:US:F:71.169.68.4:NULL
summer123123123:summer14::1998-11-08:US:M:76.27.8.44:ryan
summer123123123_6:erica89::2002-07-30:US:F:98.168.187.70:NULL
summer123123200200:nikki2001::2001-10-17:US:F:68.109.75.63:Nikki
summer123147:peanut12::2000-05-20:US:F:99.172.182.2:NULL
summer123154:doggg333::1992-08-20:US:F:98.26.54.132:Becky
summer1232:rusty1998::1997-09-27:US:F:75.1.180.58:NULL
summer123207:summer207::2000-06-13:US:F:209.183.51.130:NULL
summer12323:julie7386:jc_sanchez91@yahoo.com:1991-07-28::F:76.211.212.61:NULL
summer12326:webkins224::2001-02-04::F:98.169.10.130:NULL
summer1232_4:iloveualex1232::1998-05-05:US:F:98.244.4.133:adrianna
Summer1233:summer11::1998-08-04::F:75.87.66.215:NULL
summer12332:summerellis123::2000-07-16:US:F:204.118.11.151:summer
summer123340:vbnmvbnm123123::2003-05-20:US:F:173.80.43.203:NULL
summer123362:win567::2000-02-15:VI:F:96.238.70.2:NULL
summer123377:123456789a::2003-05-20:US:F:173.80.45.96:NULL
summer1234:branchaud1234::2003-11-11:US:F:208.118.157.154:NULL
summer12341:sherry12:raegenthaxton@ymail.com:1909-01-01:BM:F:173.81.151.93:raegen
summer1234137:awsome101::2000-08-03::F:70.135.8.31:NULL
summer12342010:summer01::2001-9-8:GB:F:79.65.178.111:summer
Summer123424:BellaJazzy11::2000-08-30:US:F:75.248.56.254:NULL
Summer123425:BellaJazzy11::2000-08-30:US:F:75.248.98.47:NULL
Summer123426:BellaJazzy11::2000-08-30:US:F:80.12.192.157:NULL
summer1234270:summer55::2001-11-01:US:F:71.246.58.99:NULL
summer12343:1234sloppy::1998-07-20:US:M:70.178.19.67:tray
summer12345::ms.o.anozie@gmail.com:1996-07-27:US:F:67.173.111.175:NULL
Summer123450:123456a::2001-08-02:US:F:108.21.224.104:NULL
summer1234548:max1234::2000-06-23:US:F:99.106.111.215:NULL
Summer1234549:Monet12::1998-12-16:US:F:24.98.8.174:NULL
summer1234554321:funny12345::2000-07-08:UM:F:72.224.90.11:NULL
summer123456:::2001-06-21:US:F:108.54.1.106:NULL
summer1234564:cocoa121:hollichiickster@aim.com:1994-06-25:US:F:68.41.67.65:gsf
summer1234567:::2003-03-05:US:F:108.54.1.106:NULL
summer1234567890:::1999-02-09:US:F:108.54.4.45:NULL
summer12345678901:jordon12345::2002-01-13::M:173.49.225.199:NULL
summer12345678901_18:mouser123456789::2001-01-08::F:24.126.27.86:NULL
summer12345678909:summer3456789::1998-06-30:US:F:24.191.118.113:casey
summer1234567890_4_4:summer101::1999-07-26:US:F:99.182.33.177:riey
summer1234567891:poped12::1998-07-10:US:F:174.22.230.161:
summer12345678910111:H4n9hqwS::2001-03-09:US:F:72.133.35.67:kylie
summer12345678910112:summersweet1112::1998-10-01::F:98.28.126.62:NULL
summer123456789103:123456789::2000-05-28::F:24.74.11.245:NULL
summer12345678910_13:shannon235::1999-11-24::F:202.88.75.245:NULL
summer12345678910_53:game12345678910::2001-08-30::F:69.14.125.224:NULL
summer12345678910_9:summer45::2000-11-08:US:F:66.96.76.24:summer
summer123456789123:927461ss::2001-06-21:US:F:98.181.41.40:summer
summer1234567891234:sponge50::1998-02-01:US:M:68.196.92.249:Tyler
summer123456789188:summer12345::1999-02-07::F:24.3.84.124:NULL
summer123456789kate:790288::2000-05-28:US:F:24.74.11.245:katelynn
summer123456789_0:123456789q::2002-07-16:US:F:24.100.92.148:summer
summer123456789_245:game12345678910::2001-08-30::F:69.14.125.224:NULL
summer123456789_6:sun123456:nicolledavis1@hotmail.co.uk:1988-11-25:GB3:F:89.243.85.15:nicolle
summer12345678_123:summer12::1998-09-07::F:67.54.233.27:NULL
summer12345678_433:summer37::2002-03-07::F:71.192.237.61:NULL
summer12345678__w_w:joseph678910::2003-11-14:US:F:74.176.138.169:NULL
summer12345679:jellybean12345::2001-01-17::F:71.86.180.150:NULL
summer1234567_388:lily23::2002-05-18::F:70.92.79.241:NULL
summer12345689:crazyhead12::1999-05-24::F:24.129.67.142:NULL
summer123456_:angel123::1999-06-24:US:F:75.33.209.245:april
SUMMER123456_510:YOUNG12::1998-07-21::F:99.55.158.2:NULL
summer123456_awesome:123awesome::1999-06-24:US:F:98.191.241.140:NULL
summer123457682:sw18706::2000-01-22::F:71.241.78.178:NULL
summer12345789:summer897:dumdogno1@yahoo.ca:1991-01-01:CA:F:67.230.128.60:Summer
summer12345789_229:catfood234::2003-02-07::F:96.19.102.49:NULL
summer12345999:butbutbut99::1999-03-27::F:98.204.1.102:NULL
summer12345as:491678::2007-07-15:US:F:24.100.5.226:summer
summer12345_4:scout12345::2001-06-24:US:F:98.195.85.132:summer
SUMMER12345_7_1_4:COOLCOOL18::2002-10-17:US:F:98.226.82.13:NULL
SUMMER12345_974:Fuckthatkitty12:nohearne@wildblue.net:1994-12-04::F:205.188.117.79:NULL
summer12346:skn123::1999-02-26:NZ:F:125.236.44.47:Sheehan
summer12346812:justinbieber1234::2008-08-25::F:70.181.252.76:NULL
summer123468451:ziggy:lhottman@sympatico.ca:1997-06-30:CA:F:70.52.174.47:summer123468451
summer12349:sam123::1998-12-24:US:F:75.27.234.175:sam
summer1234yy:2cute4u::1997-11-10:US:F:76.248.232.104:mo
summer1234_123:paola123::2001-01-01::F:69.140.227.81:NULL
summer1234_1_1:qweasdzxc12::2003-06-12:AU:M:222.153.227.12:Summer
summer1234_23:poppop12::2001-10-21::F:79.76.170.21:NULL
summer1234_3:XDRCFTVGY34::1999-06-05:US:F:68.189.71.112:SUMMER
summer1234_3_3:leasummer123:leanne900coen@aol.com:1994-06-13:US:F:71.194.57.148:leanne
summer1234_5:summer32:emoles@optonline.net:1984-01-15:TV:M:68.196.92.203:dinky
summer1234_56:pivakait1995:summer1234_@hotmail.com:1995-07-04::F:70.49.14.207:NULL
summer1234_629:sparks12::2000-01-16::F:98.210.22.156:NULL
summer1234_67:bianca12::2003-05-12:AU:F:121.223.108.31:NULL
summer1234_7_7:bear12::1999-04-09:US:F:72.208.164.157:summer
summer1234_812:school12::2003-08-08::F:96.232.109.240:NULL
summer1234_86:paola12::2000-01-01::M:69.140.227.81:NULL
summer1234__10:sunny12345::2001-11-17:US:F:71.214.75.154:zoe
summer1235:steiniger101:norbert@steiniger.us:1995-06-21::F:70.143.30.168:NULL
summer123504:2001712:harveychild@yahoo.com:1990-04-03::F:173.52.125.31:NULL
SUMMER123552:CHUM12::2001-03-02::F:69.235.155.241:NULL
summer123555:fatbear55555::2000-02-20::F:24.166.11.171:NULL
Summer123602:hunn123::2000-04-05::F:74.197.213.208:NULL
summer12363:toni2468::1999-03-13:US:F:99.33.196.9:kari
SUMMER12364:HAPPY123::2003-05-01::F:75.82.85.241:NULL
summer12366:morgan72::2000-10-18:US:F:67.81.35.53:Morgan
summer1236820491:summer2278::2004-02-27::F:76.178.136.90:NULL
summer12373:F348348888F::2001-01-09:CN:M:122.239.52.0:NULL
summer123788:summer3859::2010-07-26:US:F:68.195.169.177:NULL
summer12379:mamasita123::2001-02-10:US:F:75.70.171.88:NULL
summer123805:123456789a::2003-05-20:US:F:173.80.37.205:NULL
summer123821:password123457::1999-05-10:US:F:65.0.27.96:NULL
summer123846:booboo123::2002-01-08:US:F:173.169.162.62:NULL
summer123862:peewee123::2001-10-08::F:24.113.228.45:NULL
summer123875:starry12::2001-03-27:GB:F:109.152.81.232:NULL
summer12389107:678594::1999-08-18:US:F:67.224.41.55:NULL
summer123892:lol123::1998-07-10::F:173.24.143.158:NULL
Summer123903:summer12::2002-04-24:GB:F:81.153.55.212:NULL
summer123909:cookie790::2001-01-17::F:70.127.150.39:NULL
summer123955:sunflower12::1999-06-17::F:207.200.116.65:NULL
summer123955_22:sunflower12::1999-06-17::F:207.200.116.65:NULL
summer123981:horses123::2003-08-19:US:F:96.244.133.226:NULL
summer123996:husker04:summerschroedl99@gmail.com:1978-08-13::F:174.71.40.135:NULL
summer1239_5:summer22::1999-02-10:CN:M:219.77.130.118:samuel
Summer123abc_720:pie123::2000-03-16::M:75.70.98.88:NULL
summer123baby:kiss123:mandapandababybear@hotmail.com:1989-06-01:US:F:70.58.93.39:Amanda
Summer123Beach:aniME13:julia.rasanen@pp.inet.fi:1995-11-12:US:F:80.220.131.71:NULL
summer123cat:sts2007:mamasmith875@comcast.net:1989-10-03:US:F:71.196.82.161:Samantha
summer123jkiw:1234567890gil::2003-12-29::F:69.137.140.61:NULL
summer123lynn:blue12::2003-05-20::F:173.80.37.183:NULL
summer123nichols:123summernichols::1997-09-05:US:F:68.101.186.145:Summer
summer123rocks:summerfun123::1998-02-05::F:67.176.229.113:NULL
summer123summer12345:1233qow::2000-03-22:US:M:99.41.187.64:Dan
summer123summer_123:seasons123seasons_12::1998-8-23:US:F:75.109.159.210:summer
summer123sumsum:stinky203::2001-08-20:US:F:74.89.150.109:summer
summer123yymomo:2cute4u::1997-11-10:US:F:24.20.79.136:monique
summer123_102:peetree12::2001-03-15::M:96.255.139.31:NULL
summer123_12:sidrah12::1997-04-27:US:F:24.90.61.237:sidrah
summer123_123:flower12::2000-01-19::F:184.41.67.198:NULL
summer123_200:summer123::2002-08-24::M:24.164.131.237:NULL
summer123_22:552152su::1998-07-19:US:F:68.218.151.112:summer
summer123_228:jovie13::2002-05-05::F:24.13.178.79:NULL
summer123_229:mmaatt123::2001-02-06::F:68.90.139.226:NULL
summer123_262:123456789::2001-06-05::F:99.28.97.215:NULL
summer123_288:jazzy123::2009-02-01::F:76.210.65.45:NULL
summer123_29:na2003::2003-10-25::F:24.164.131.237:NULL
summer123_2_2_2:summer23:hannahdahlen@optusnet.com.au:1972-07-09:YE:F:58.172.73.205:hope
summer123_33:summer123::2000-02-25::F:64.228.221.124:NULL
summer123_332:summer123::2003-08-21::F:200.7.56.1:NULL
summer123_35:isabel12::1998-03-24::F:75.249.12.60:NULL
summer123_39:summer123::2002-08-24::M:24.164.131.237:NULL
summer123_399:summerwhite97:summerwhite97@gmail.com:1990-06-25::F:65.188.129.198:NULL
summer123_39_391:summer123::2002-08-24::M:24.164.131.237:NULL
summer123_3_3:XTTTKL222:yinzitong88@sina.com:1990-08-31:CN:F:61.48.49.21:殷子童
summer123_3_3_3:sunfish12::2000-07-08:US:F:67.251.3.159:summer
summer123_417:purple12::2002-02-06::F:209.33.229.64:NULL
summer123_444:summer123::2002-01-01:US:F:99.66.17.2:NULL
summer123_444_444:elainna14::1999-01-01::F:74.74.100.130:NULL
summer123_45:ilovedance123::1999-02-15:CA:F:206.116.162.21:sheavon
summer123_456:kittie07::1998-04-03:US:F:70.57.231.193:Angel
summer123_4567_8910:ninja12:clevengerjayden@yahoo.com:1995-08-08::F:71.49.56.214:NULL
summer123_456_602:pink999:anthonyruiz@ymail.com:1996-02-15::F:69.230.208.44:NULL
summer123_456_789:123456789::2001-06-08::F:98.20.45.0:NULL
summer123_466:grizly12::2000-10-05::F:69.47.197.101:NULL
summer123_523:summer123::2003-11-11::F:72.181.248.62:NULL
summer123_555:elainna14::1998-01-01::F:74.74.100.130:NULL
Summer123_558:mynameislindsey123::1997-07-29::F:24.4.24.132:NULL
summer123_5_5_5:keziah27::1996-01-12:US:F:70.224.43.44:Keziah
Summer123_602:hunn123::2000-09-16::F:74.197.213.208:NULL
summer123_639:piano123::2002-03-01::F:24.19.161.180:NULL
summer123_68:sept123:rebekahp@shaw.ca:1992-10-23:CA:F:68.150.42.248:summer
summer123_689:summer12::2005-07-04::M:74.65.11.102:NULL
summer123_6_6:asd123::1998-10-26:US:F:72.200.106.171:vanessa
summer123_752:tianna22::2000-03-01::F:24.188.190.167:NULL
summer123_756:youmeto12:kfn@comcast.net:1911-01-03::F:98.227.198.250:NULL
summer123_78:kathleen12::2003-10-25::F:24.164.131.237:NULL
summer123_786:summer786:aliyaq786@hotmail.com:1995-02-23:GB:F:80.193.98.17:hajarah
summer123_7_7:ha31ha:lynnchen303@yahoo.com.tw:1995-11-15:JP:F:218.162.172.110:lynn
summer123_8:spandkm12:benkovatmm@yahoo.com:1990-12-15:US:F:98.18.111.198:kaylie
summer123_80:sarah123::1996-11-23:US:F:98.212.253.163:summer
summer123_820:dallaire123::2002-09-19::F:65.190.63.179:NULL
summer123_8_8_8:crazy123::2002-05-07:GB:F:92.41.240.229:summer
summer123_903:bakug123::2002-08-24::M:74.73.65.103:NULL
SUMMER123_998:LOVE123:BATMAN@GMAIL.COM:1996-01-01::F:24.56.167.216:NULL
summer123_a54:sammy12::2000-03-29:US:F:68.230.26.214:jasmine
summer123_anna:ivanlove123::1999-12-16:CN:F:165.254.92.77:anna
summer123_annie:anniezhu123::1999-12-16:CN:F:76.65.17.31:anna
summer123__10_6:june262001::2001-6-26:US:F:98.85.2.248:summer
summer123__15:pepper12345::2000-04-26:US:M:205.188.116.65:stetson wheatley
summer123__17_4_4:duggdude11::1997-12-02:US:F:71.90.165.136:summer
summer123__45:sunfish12::2000-07-08:US:F:67.251.3.159:summer
summer123__52:horse12::2000-09-15:US:F:74.76.13.52:Summer
summer123__59:helpme12:summeranderson_42@yahoo.com:1990-09-10:US:F:70.246.84.57:summer
summer123__67:addysa1234::1998-12-23:US:F:74.250.206.221:mary
summer123__74:Summer11::2001-07-01:US:F:76.26.239.129:Summer
summer123__92:Megan11::2000-08-15:US:F:98.194.116.196:Megan
summer123__97:cougar22::1997-03-15:US:F:173.55.74.62:summer
summer123___:sheavon11::1999-02-15:CA:F:206.116.162.21:sheavon
summer123___15:summer321:bcgreaney@aol.com:1993-06-17:US:F:71.178.51.226:June
summer124:sam123::2004-01-02:US:F:173.57.140.166:NULL
Summer12400:JESUS24::2000-07-07:US:F:98.239.8.77:NULL
SUMMER12439:SUMMER123218::2001-08-10:US:F:108.25.125.234:NULL
summer1244:pumpkin62::2002-09-03::M:69.193.115.61:NULL
summer1245780:fallsummer12::2000-09-21::F:76.27.58.246:NULL
summer124589:candy124589::2000-03-06:US:F:99.146.8.212:erica
summer1246:spring12::2002-12-02::F:66.82.9.56:NULL
summer124681:jbcs12::2008-08-25::F:70.181.252.76:NULL
summer12487:whatever:kfarhouna@aol.com:1987-12-04:US:F:98.243.154.211:summer habhab
summer125112:lover243577::2000-05-30:AS:F:68.204.165.216:summer
summer12513:tanner753::1999-04-15:RU:F:72.234.118.115:NULL
summer12524:cassie12::1999-10-13::F:96.248.54.175:NULL
Summer1254:weby1254::1999-04-18:US:F:98.232.46.60:NULL
summer1254_226:terrby123::2003-10-31::M:67.246.125.104:NULL
summer1255:isabella123::2001-04-03:CA:F:99.199.43.199:NULL
summer1256:patrick123::1998-01-06::F:97.124.227.34:NULL
summer12567:shawneen12::2000-03-16::F:75.22.74.135:NULL
summer1258:sarafina97::1999-05-26:US:F:76.93.49.2:SUMMER
summer12597:summe11::1997-01-25:US:F:173.59.231.104:summer
summer1265987:s3t3arboy::2003-06-15:GB:F:86.164.98.173:NULL
summer1273:natalie22:natalie12763@yahoo.com:1997-06-21:US:F:208.180.65.30:NULL
summer12748:katty12::2001-08-19:US:F:76.95.242.161:summer
summer1275:kmg9712520:Catmandu1275@yahoo.com:1988-08-12:US:F:67.189.55.28:Karissa
summer127551:girlsrule101::1998-10-31::M:99.38.117.185:NULL
summer1276:victor12:summiesumsum12@yahoo.com:1988-07-06:US:F:75.71.34.146:Summer
summer1277:honeymine360:dabbett@sbcglobal.net:1994-06-17:US:F:69.108.12.201:Hollywood
summer127890:coppyggu1278::2000-08-29:US:F:67.83.38.78:NULL
summer127900:maciers127::1999-11-02::F:76.99.200.7:NULL
summer127_1_1:justinbieber127::2004-06-07:US:F:71.139.169.75:NULL
summer12841:hunter1234:abby_fugate@yahoo.com:1996-11-04::F:74.190.114.43:NULL
summer1286:mmmmmm78::2001-06-19::F:70.45.177.127:NULL
summer1289:rachael1997::1997-08-07:NZ:F:219.89.8.48:ashley
summer1291:999765::2000-06-02::F:70.129.23.69:NULL
summer12916:lee1545:kelsey_nettles@yahoo.com:1995-08-15:US:F:72.161.77.208:NULL
summer1294:rainbows8130:wentcrazybebkl8r@yahoo.com:1966-01-20:US:F:172.162.73.248:m s
summer12s:kumiprincess12::1998-06-07:CA:F:64.180.24.168:Mia
summer12xy:summer12::1996-03-27:US:F:69.72.122.65:Danielle
summer12_:cocosie55!::1999-10-10:AU:F:60.225.227.88:summer
summer12_145:greif123::2001-07-09::F:209.239.109.164:NULL
summer12_172:995956::2002-10-16::F:99.199.60.245:NULL
summer12_186:dayjoy12::2001-06-04::F:69.126.245.36:NULL
summer12_1_1:love123:kayla_wright@hotmail.com:1995-09-30:CA:F:69.63.58.90:kayla
summer12_1_1_1:sexy10::1998-03-12:US:F:76.110.242.122:marissa
summer12_223:995956::2002-10-16::F:99.199.60.245:NULL
summer12_26:talor12::1999-05-04:US:F:75.162.9.45:jessica
summer12_336:mine1234::2000-11-28::F:70.236.38.34:NULL
summer12_336_713:mine1234::2000-11-28::F:70.236.38.34:NULL
summer12_34:chino12::1997-03-03:US:F:96.244.236.194:baily
summer12_434:hannah12:jaykaylamoses@yahoo.com:1979-08-13::F:67.149.89.227:NULL
summer12_61:melanie12:and1111@yahoo.com:1943-03-02::F:75.17.231.27:NULL
summer12_720:summer09:ramirezyesika@ymail.com:1981-09-05::F:24.98.50.35:NULL
summer12_84:sarah123::1996-11-23:US:F:98.212.253.163:summer
summer12_8_8:awesom12::1997-10-21:CA:M:70.29.83.251:tyler
summer12_a17:charmed::1996-02-21:EN:M:NULL:NULL
summer12_a37:sweet12:summerwilliams11@hotmail.com:1996-07-09:CA:F:70.50.6.198:summer
summer12_aaa:preston10::2000-9-15:US:F:65.36.20.111:summerfawn
summer12_raine:raine123::2003-01-18::F:218.186.10.233:NULL
summer12_sun:cassidy12::1998-01-24:CA:F:70.30.21.199:Cassidy
SUMMER12__26:summER12!::2002-10-07:US:F:98.244.163.95:NULL
summer12__49:kittycat12::1997-10-17:CA:F:64.59.144.87:vicki
summer12__65:tobago12::1998-03-05:GB:F:87.113.79.80:Emma
summer12__75:sophie36::2000-01-02:PE:F:201.230.138.110:regina
summer1301:sumsum08::2001-01-03:US:F:205.242.95.130:summer
summer13071995:gorgeous00:maisybee@btinternet.com:1995-07-13:GB:F:81.152.166.161:Maisy
summer130792:Att130792.:annie.tisdale@live.co.uk:1992-07-13:GB:F:86.134.79.93:Annie
summer1310:::2000-11-23:US:F:68.4.183.115:NULL
summer1312:penguin13:blueleoeyes@yahoo.com:1995-08-12:US:F:74.133.71.60:summer
summer1313:summer13::1998-11-29:US:F:76.123.46.69:Summer
summer131313:rcarca13:flatlander7@hotmail.com:1994-02-13::M:68.194.47.146:NULL
summer1314:xoxo14xoxo:angel1@spiderclick.com:1992-07-30:US:F:71.202.184.160:Jessica
summer13147299:austin1314::1999-07-02::F:69.171.168.188:NULL
summer1314_5200:0986983033::1996-11-11:CN:F:114.40.134.173:劉奕宏
summer1315:sparks15:tcohorses@aol.com:1996-01-30:US:F:72.179.143.177:Summer
summer13155:rhees123:thumper_summer@yahoo.com:1996-01-22::F:69.23.97.27:NULL
summer131994:limonynaranja186:juana_arroyave94@hotmail.com:1994-09-10:CO:F:190.165.6.226:Juanita Arroyave Giraldo
summer1324_815:kayla122::2000-12-13::F:90.220.143.115:NULL
summer1327413:324252::1998-05-26:US:F:168.216.16.50:NULL
summer132_969:mummer_969::1999-10-07::F:98.234.170.227:NULL
summer132_969_103:mummer_969::1999-10-07::F:98.234.170.227:NULL
summer133:froggy12:holt2005@cablelynx.com:1994-05-17:US:F:206.255.75.90:summer
summer13309:rudder39::1995-04-03:US:F:24.115.214.55:grace
summer1331:ssummerr13:summmer321@yahoo.com:1982-07-04:US:F:71.192.46.178:summer
summer13319:icecube1331::2001-10-27:CA:F:70.64.154.85:NULL
summer13322:kitty1332::2000-04-07:US:F:98.64.210.55:summer
summer13344:molly08::1997-08-14:US:F:66.142.41.179:summer
Summer1340:1906214:Mystical13girl@aol.com:1996-06-23::F:76.7.135.177:NULL
summer13445:callie31:pikachu1612@comcast.net:1991-01-12:US:F:68.36.168.169:Erica
summer134weret2:annahh22::1997-06-26:US:F:69.141.239.24:Summer
summer1351999:tigerlilly08::1999-05-13:AU:F:123.211.175.130:NULL
summer13529:ponies22::2002-01-22::M:67.247.207.182:NULL
summer135790:spongebob12::2001-01-18:US:F:68.92.238.223:Celia
summer13579871:summer2468:mona1996@comcast.net:1996-12-01:US:F:208.105.96.11:summer13579871
summer1359:green15::1999-04-02:AU:F:210.10.142.29:mairi
summer135_fun:lottie12:summer_blondie_25@yahoo.com:1993-09-15:US:F:207.118.205.169:elli
summer136:w1s2x3e1d2c3:ryro21@gmail.com:1995-06-26:US:F:69.77.154.144:Summer
summer13658:summer13::2001-04-13::M:205.188.117.79:NULL
summer13687:bunnies11::1997-06-11:AU:F:124.149.85.157:Erin
summer1368768:brockland15::2000-07-15::F:24.107.190.59:NULL
summer1370:898989::2001-10-27:CA:F:216.197.198.245:diana
summer1379:summer2010::2000-06-13:US:F:69.24.169.140:NULL
summer138458:457565me::1998-10-13:CA:F:66.183.125.241:Amanda
summer1384me:457565me::1998-10-13:CA:F:99.199.9.11:Amanda
summer1387:summer12:simth37@live.com:1997-05-04::M:98.122.0.57:NULL
summer1387_4:summer12:simth37@live.com:1983-7-4:US:M:98.122.0.57:nick
summer1388:diana15::2001-10-27:CA:F:65.94.99.242:diana
summer13895:vanessa33::2000-08-01:CA:F:174.88.5.177:NULL
summer139:shorty27::2000-03-08::F:74.215.20.156:NULL
summer13939:qwer123qwe123::2000-04-25:US:F:75.151.71.108:summer
summer1398:2468101214::1998-06-29::F:98.66.159.199:NULL
Summer1399:mjrox11::1999-04-14:ZA:F:41.132.169.242:NULL
summer13deb:sunshine13:dbuck@inreach.com:1962-07-13:US:F:76.14.115.5:Evelyn
summer13kisses:Dasani!43:diyaniyoung@hotmail.com:1992-03-10:US:F:198.82.103.195:Dasani
summer13roxs:summerbear225:summertime13@hotmail.com:1996-02-25:US:F:98.238.150.128:Summer
summer13rules:paradise08:summer13rules@yahoo.com:1995-12-15::F:24.209.108.182:NULL
summer13xo:wendy123:summerpopplestone@yahoo.co.uk:1995-08-12:GB:F:82.33.6.143:Summer
summer13_:123hij**::1998-06-10:BR:F:201.95.184.95:- summer *
summer13_1:shepherd13::1996-04-11:US:F:76.181.163.247:Summer
summer13_14:r080195:morgans_12@hotmail.com:1995-08-01:CA:F:68.147.153.60:Robyn
summer13_144:741852::2000-04-14::F:75.72.231.172:NULL
summer13_20:lw123456::2001-02-09::F:24.140.81.81:NULL
summer13_33:susel10::1997-11-22:US:F:75.50.158.148:susel
summer13_44:travis13::1997-08-16:US:F:75.198.175.164:sandi
summer13_5_5:bitch13::1996-11-07:US:F:12.197.250.51:Frances
summer13_7:chrisbrown13:starywolf2005@yahoo.com:1992-05-04:US:F:68.39.170.145:pamela
summer13_811:sum6000::2001-04-21::F:76.221.68.233:NULL
summer13_9_9:KISS12::2001-01-26:US:F:71.51.170.139:Summer
summer13_aa:scooby13::1995-12-01:US:F:98.222.123.168:Tristin
summer13_a_a:amber13:ellistristin@yahoo.com:1995-12-01:US:F:98.222.173.246:tristin
summer13_soes:neopets11::1996-11-17:NL:F:213.84.103.171:ginger
summer13__73:tiggerboo09::1997-06-09:CA:F:142.163.50.250:summer
summer13__aa:kikitaylor142:thebreezefamily1@bigpond.com:1995-08-08:AU:F:58.174.112.98:taylor
summer14:::2002-07-07:US:F:67.190.32.31:NULL
summer1400:allsmiles82::2002-06-26:US:F:24.2.82.149:allee
summer1405:noepets14::2000-05-14:ZA:F:198.54.202.226:NULL
summer140699:kiana14!::1999-06-14:GB:F:77.102.252.25:kiana
summer140805:BecSum14::2005-08-14::F:124.171.6.121:NULL
summer1409:iloveanime12::2000-04-30::F:71.109.249.216:NULL
summer1412:breeder11:starfish89@excite.com:1988-07-14:MG:F:98.70.136.45:Summer
summer1415:joana123:joana.jeremias@hotmail.com:1994-07-04:BR:F:85.246.33.220:Summer
summer1419:emily1234567::2002-04-06::F:68.224.13.9:NULL
summer142536475869:Dion333::1996-05-16:CA:F:99.235.228.21:Summer
summer1432:694312::2001-06-13::F:74.166.3.193:NULL
summer1436:maddie98::1998-08-14:US:F:71.68.13.202:NULL
summer143_627:summer234::1998-01-05::F:98.219.229.85:NULL
Summer143_TeHeHe:537952::2000-02-25:CA:F:69.156.208.147:NULL
Summer1440:tressa1440::2002-03-14:US:F:71.13.236.183:NULL
summer14410:nikki14::1999-04-21:US:F:69.248.131.231:nicole
summer1444:katy14::1998-09-04:AU:F:121.214.19.72:carter
summer14444:katy14::1998-09-04:AU:F:60.230.38.151:NULL
summer1447:s83jj29::1999-03-30:US:F:50.35.197.5:NULL
summer145:quiznos12::2006-01-13:US:F:24.7.219.143:NULL
summer145287:summer2563:lucerothechihuahua@sbcglobal.net:1995-02-13:US:F:70.143.86.248:summer145287
Summer145315:Shadow123:albajimenez54@yahoo.com:1998-05-19:US:F:96.17.160.13:NULL
summer1458:chloe14:hclapara@yhaoo.com:1985-06-21:US:F:70.224.43.210:chloe
summer14620:pawprint62::1999-06-15:US:F:24.15.139.94:NULL
summer1468:sniper1468::2003-12-21:US:F:74.61.45.167:Summer
summer146__46:tammy123456:tamz123@live.co.uk:1988-02-07:GB:F:90.197.191.6:tammy
summer1477:matt1477::2000-06-08:US:F:68.4.185.19:Bridget
summer1478000:lolli829:samanthariemer@hotmail.com:1987-07-08:CA:F:68.148.17.95:why should i tell YOU
summer1479:summer258::2002-01-09:US:F:216.246.75.230:NULL
summer147__aa:summertime13:lgardner@wyan.org:1987-05-18:US:F:67.36.18.78:lindsay
summer148:::1999-04-12:US:F:173.184.108.93:NULL
summer14891222__57:summerslam2009:fatterd1222@yahoo.com:1997-09-03:US:M:99.12.195.58:NULL
summer149:ioana1998:carmenurs@gmail.com:1998-01-01:US:F:50.39.201.152:NULL
summer1494:summer13:cowgirls_are_crazy_13@yahoo.com:1994-08-01:US:F:65.39.118.10:Jax
summer1495:autumn2488:dlg2016@yahoo.com:1995-10-04:US:F:75.110.179.135:Ashley
Summer1496:Natasha1496:chidafodil@yahoo.com:1997-07-18:KE:F:41.212.104.208:NULL
summer14p:wendy123:srp-xo@hotmail.com:1995-08-12:GB:F:82.33.6.143:Summer
SUMMER14_135:DENISE14::1998-08-25::F:98.211.48.135:NULL
Summer14_293:basketball13:littlesoccerqt95@yahoo.com:1995-09-20:US:F:97.82.249.192:NULL
summer14_399:694312::2001-06-13::F:74.166.3.193:NULL
summer14_aa:ginsterz23:ylimer06@yahoo.com:1995-03-18:US:F:67.241.75.44:emily
summer14_sk8er:daug14!::1998-08-14:CA:F:70.52.153.252:Daphne
summer14__i_i:summer107::2000-02-15:GB:F:86.1.163.117:NULL
summer15:Luckycharm15::2001-08-26:US:F:184.1.116.212:NULL
summer1506258:summer123::2000-01-04::F:68.149.65.169:NULL
summer15079:cbcelite88::2000-08-08::F:72.28.252.14:NULL
summer1508:kindness12::1997-12-02:US:F:66.169.111.141:summer
Summer151:kirby12345::1999-05-14::F:67.190.67.54:NULL
summer1513:sparks15::1997-01-30:US:F:72.179.143.177:Summer
summer152:00521365::1999-07-07:US:F:97.89.101.130:NULL
summer1523:jodi123:bluebird1003@aim.com:1994-09-18::F:24.25.135.156:NULL
Summer15240:rabbit15240::2000-10-18:TH:F:125.25.34.203:NULL
summer152876:grandma01:johnurpimp@yahoo.com:1987-07-14:US:M:63.214.229.111:brandon
summer153:ckookie153::2000-08-29:US:F:76.226.85.169:Summer
summer1530:florida58::2001-02-17::F:24.1.207.94:NULL
summer153501:winter101::2010-01-15:US:M:24.253.49.168:NULL
summer1537:summer1500:hskaggs7@yahoo.com:1953-04-08:US:F:76.26.73.98:Susan
summer153_z:ilovedog20::1998-01-19:US:M:72.185.199.152:max
summer154947:810819::1996-08-10:HK:F:58.60.223.84:summer154947
summer1550:1falenangel:gothica_is_me@hotmail.com:1992-05-25:GB:F:78.150.212.22:Summer1550
summer15554:cutiepie15::1998-05-15:US:F:74.160.38.6:ashley
SUMMER156:174748::2001-10-26:US:F:96.225.133.81:NULL
summer156280:summertime12:roxanavanzanten@hotmail.com:1981-09-02:NL:F:84.80.40.10:roxy
Summer15642001:pooped10::2001-07-19::F:71.188.21.196:NULL
SUMMER15678:LIGHTINGT43::2000-07-15::F:24.107.190.59:NULL
summer1569847:soccer16666::1997-07-01:US:F:71.204.248.76:summer
summer15882:87aniline::2003-01-22:US:F:24.247.9.254:NULL
summer1589:kenkenken11::2003-08-04:US:F:70.248.178.180:kandie
summer15947:lucky15962::1999-12-25:US:F:75.162.129.8:christina
summer1595:bognorgirl15::1999-5-6:GB:F:94.3.38.77:jasmine
summer15951:122509:rlebaron12@gmail.com:1990-07-28:US:F:72.223.114.109:Laura
summer1596:jas1596::1996-07-15:US:F:66.156.90.152:Joshulyn
summer15987:summer123:vitoria_sacchi@hotmail.com:1990-05-14:US:F:187.57.77.179:summer
summer1599:cutegirl15::1999-01-05:US:F:98.213.137.84:Aleesha
summer159931:hayes12::2000-12-06::F:72.218.4.233:NULL
summer1599_734:98765544::1999-10-15::F:72.145.68.252:NULL
summer1599_846:98765544:rainsummer@bellsouth.com:1990-10-15::M:68.217.90.208:NULL
summer159_1:Winter159::1999-01-26:US:M:68.55.40.230:Luke
summer159_8:autumn101::2000-12-06:US:F:159.142.82.19:autumn
summer15o:tootsie15::1997-08-15:US:F:75.25.53.203:Nash
summer16:Dragon15::1998-09-12:US:F:174.253.185.50:NULL
summer160_9:italie11:summer_time@live.nl:1975-03-01:NL:F:213.34.255.209:Summer
summer160_aa:yukie213::2002-11-20:US:M:124.107.169.16:NULL
summer1610:moni95:sereniti-cindy@web.de:1995-10-16:DE:F:79.194.17.5:monique
summer161616:summer616161::1998-05-05:US:F:69.154.8.53:summer
summer1616_1:shanna211::1997-09-16:US:F:24.197.211.65:Shanna
summer1617:peanut3651::2004-05-04:US:F:98.83.107.193:NULL
summer1618:gracie101::1999-08-21:US:F:76.16.197.172:maddie
summer161_dmp:tessie40::1995-06-07:CA:F:70.48.199.248:Diana
summer1627:summer07:dibenaved_2006@yahoo.com.ph:1995-08-01:PH:F:124.106.195.125:Diane
summer162817:password18:summer1604@gmail.com:1995-08-01::F:71.52.206.127:NULL
summer162_125:lulu02::2006-05-05::F:65.6.90.133:NULL
Summer162__80:qwx4p10b:karenmolokach@sbcglobal.net:1995-4-3:GB:M:85.159.105.34:Ben
summer1638:w00dylv::1997-11-01:US:F:76.184.146.212:Paige
summer16411:ihenry101:marylan@yahoo.com:1990-09-04:US:F:75.23.119.66:shavell
summer16545:sunshine25434::2000-09-06:US:F:108.9.74.54:NULL
summer16564:gators13::2003-03-11::F:174.131.78.173:NULL
summer1666:milom16::2000-06-04:AU:F:203.56.233.122:amy
summer1667:mail123::1998-03-06:AU:F:123.2.144.107:summer
summer166_355:gigi11::1999-06-29::F:74.105.128.96:NULL
summer16867:cooper99::2000-09-07:US:F:99.181.118.118:summer
summer16_5:wonder45::2000-12-06:US:M:70.170.13.144:Nathan
summer16_89:goddess666:summer16608_89@hotmail.com:1989-10-04:CA:F:70.66.232.52:Kayla
summer16__16:shadow30::2001-03-16:US:F:24.74.134.39:alex
summer17:::2011-01-21:US:F:97.89.228.250:NULL
summer170:sumsum170::1999-06-01:US:F:70.20.28.15:NULL
Summer1703:17032000::2000-03-17::F:187.56.19.224:NULL
summer1706:r97r749p::1996-02-22:CN:F:59.149.31.60:小晴
summer17071993:summer1995:hill-summer@hotmail.com:1994-07-17:NL:F:86.81.109.119:Hill Verweij
summer17071994:summer1995::1997-07-17:NL:F:86.81.109.119:Summer
summer17124:bonehead12::2000-09-04:US:F:71.95.46.240:mya
summer1715:bonehead12::2000-09-04:US:F:76.166.142.120:NULL
summer17154:bonehead12::2000-09-04:US:F:76.166.142.120:NULL
summer171546:bonehead123::2000-09-04:US:F:76.166.142.120:NULL
summer1715467:bonehead123::2000-09-04:US:F:76.166.142.120:NULL
summer171568:bonehead1234::2000-09-04:US:F:76.166.142.120:NULL
summer173663:summerandcricket44::1997-09-06:US:F:209.107.209.100:paige
summer1738:rhonda101::1999-05-28:US:F:76.108.33.54:Rhonda
summer177939:cassie09::1999-07-01:US:F:99.6.6.238:Summer
summer178_935:butt3rf1y::2002-09-22::F:64.12.112.69:NULL
summer1797::::::99.102.154.39:NULL
summer17_97:rlasb198::1997-06-17:AU:F:124.185.233.77:Summer
Summer18044:180442L::2000-08-08::F:108.2.101.5:NULL
