summerbunnytail:1237318::1999-06-16:US:F:69.246.196.58:Bunny
summerbunny_12:jackjack12:Aaron_tan_ky@hotmail.com:1989-06-17:SG:M:220.255.7.218:Aaron
summerbunny_13:tikarulez13::1999-03-26:US:F:98.226.92.37:summerbunny_13
summerbunny__13:babyblue13::1999-03-26:US:F:98.226.92.37:jordan
summerbunny__aa:Cheyenne66::1998-01-04:US:F:65.80.21.97:summer
summerbunummer:summer11:short.n.sweet01@Hotmail.com:1994-01-02:US:F:216.51.129.93:Summer
summerbun_bun:123455::2002-06-29:US:F:68.105.61.230:summer
summerburch:michelle26::2003-05-20::F:173.80.59.215:NULL
summerburchette:michelle25::2003-05-20:US:M:173.80.19.64:summer
summerburchette123:michelle123::2003-05-02::F:173.80.59.215:NULL
summerburgess1234:summer123::1999-10-3:GB:F:92.232.210.106:summer
summerburn:2711176king:bumblebeetuna120@yahoo.com:1985-12-12:US:M:68.253.190.135:Michael
SummerBurnie:63396137::2000-05-03:AU:F:203.52.130.166:NULL
summerburnnet:heather:dragonqueen9204@yahoo.com:1988-04-03:US:F:none:holly wolfe
summerbuster:shiver1441::1999-03-14:US:F:75.71.80.60:victoria
summerbutler:addison2011::2000-05-28:US:F:68.170.250.93:NULL
summerbuttercupo:200594:tinkerbella52352@aol.com:1992-05-20:GB:F:none:summer deehan
summerbutterfield200:sharks400::2008-09-23:US:F:67.249.235.153:summer
summerbutterfkygirl:98765544::1999-10-15::F:72.145.68.144:NULL
summerbutterfly:summer:buterflygurll123@yahoo.com:1991-02-10:US:F:none:Alicia
summerbutterfly02:princess02::2002-05-02::F:98.219.165.114:NULL
summerbutterfly10:princess10::2002-05-02::F:98.219.165.114:NULL
summerbutterfly18:sydenyloohoo18::2002-05-02:US:F:98.219.165.114:NULL
summerbutterfly562:spikeandpoppet22::1998-09-27:US:F:80.12.192.149:NULL
SummerButterflyCandy:starlight55:Summerbutterflycandy@yahoo.com:1990-10-16:US:F:98.198.150.38:Jamie
summerbutterflygirl:98765544::1999-10-15::F:72.145.68.144:NULL
summerbuttons:neopets13::2007-07-14:US:F:76.6.47.28:Summer
summerbuzz:glossyredbop101:DRINKER1467@AOL.COM:1994-09-01:US:F:72.230.212.123:summer
summerbw:doodoo88::2002-06-13:US:F:71.48.238.20:summer
SummerByfun:aimme123::2000-12-19::F:71.190.88.195:NULL
summerbyrne:summerrocks12:summerdawnbyrne@hotmail.com:1995-06-10:CA:F:70.78.26.197:summer
summerbyrne16:Sajwen271327:frangipanibeachbabe16@hotmail.com:1988-02-27:ZW:F:122.148.164.208:Light Faerie
summerby_6_6_6:you15n6::1999-05-08:US:F:98.218.38.147:ete
summerb_9:pony95:summerb9@aim.com:1993-06-09:US:F:68.33.42.157:Bre
summerc:abcd1234:summerc1@live.com:1998-01-03:US:F:76.174.132.138:Summer
summerc02:panda55555::2002-04-19:US:F:74.44.13.232:NULL
summerc0ol:passion12:cenli-@hotmail.com:1995-10-21:SG:F:218.186.9.252:cenli
summerc1127:horse1127::2000-11-27:US:F:98.27.31.114:Summer
summerc12:stormy12::1998-06-20:US:F:71.3.129.19:summer
summerc12345:stormy12::1998-06-20:US:F:71.3.77.2:Summer
summerc15:soccergirl15:summer.xox@live.com:1989-07-05:CA:F:207.6.158.145:Summer Copland
summerc2:1906213:patchworkfarm@embarqmail.com:1996-06-23:US:F:76.7.190.224:Summer
summerc401:summer123::1997-09-04::F:75.65.241.207:NULL
summerc657:5953052::1997-01-25:US:F:72.204.51.125:Madison
summercain:spongebob12:loopylululu@hotmail.com:1985-08-26:GB:F:88.108.189.56:summer
summercake124:1233abcc::2002-08-26::F:65.19.59.89:NULL
summercake2:sumsam45::2000-09-20:US:F:72.77.92.96:summer
summercake3000:spiderman09::1998-04-27:US:F:68.108.147.126:Summer
summercake343:summer345::2003-02-12:US:F:74.130.214.68:summer
summercake909:summersammiloriken14::2000-09-21:US:F:24.3.115.227:summer
summercalender:KPBxrV44:ashlieebrown@hotmail.com:1993-03-28:CA:F:69.157.49.94:Ashliee
summercali:calilove13:softball_soccer_girl@yahoo.com:1995-01-29:US:F:71.108.223.32:rebecca
summercalifornia:number07::2003-10-23:US:M:68.5.108.243:Kendo
summercaligurl09:rasta23:catherinah1987@yahoo.com:1987-12-22:US:F:99.152.132.240:cat
summercalliou:cheychey1992:cheyanne_calliou@hotmail.com:1993-08-02::F:209.89.217.83:NULL
summercam2000:cam123::2000-04-16:US:F:70.5.39.51:camryn
summercamille:0429john::2002-07-24::F:98.90.71.205:NULL
summerCamp:Puja44::2001-03-04:CA:F:173.33.252.70:NULL
summercamp08:mljlots21::1996-02-29:US:F:71.84.95.164:madi
summercamp11:turtle11::2001-09-11:CA:M:99.226.14.175:NULL
summercamp1234:mousetrap90::2001-03-26:US:F:98.197.184.191:Tien
summercamp123_123:summer123::1999-06-22:US:F:72.27.190.194:summer
summercamp123_9:mittens01::2000-10-31:US:F:69.142.133.164:Renee
summercamp222:holly123::2001-03-01::F:64.252.18.78:NULL
summercamp32183:hijito21::1998-11-11:US:M:98.119.199.151:santiago
summercamp70:cookie21::1997-09-02:AU:F:114.73.143.49:Amy
summercamp8299:sydney8299::1999-8-2:US:F:72.94.197.201:sydney
summercamp897:lollipop562::1999-03-28:US:F:24.196.220.93:madison
summercampgirl1:dude12:amyr0x@verizon.net:1995-02-10:US:F:72.78.178.130:Amy
summercamprock:camprockdemi11:dhoguern@aol.com:1992-03-12:US:F:75.135.158.143:Nikki
summercamprules101:robert123::2000-05-25:CA:F:76.224.22.40:oollala
summercamp_09:sonias33:secretstarsonia2@gmail.com:1989-3-3:US:F:74.72.130.222:shhy
summercamp_6:dogcat34::2000-06-01:US:F:74.130.248.150:kaelyn
summercandes:98765544::1999-10-15::F:68.214.4.154:NULL
summercandes_587:98765544::1999-10-15::F:68.214.4.154:NULL
summercandies:sweetcandies:demoncatgrl@hotmail.com:1986-05-03:US:F:24.4.112.38:Alysia Brown-Gant
summercandy13:serenah13:davenport.serenah@gmail.com:1997-07-21::F:184.99.137.33:NULL
summercandy19:1991998:cute.bunny74@yahoo.com:1993-09-19:VN:F:118.71.97.207:phuong
summercandy21:family1of5:SummerCandy121@aim.com:1995-06-21:US:F:72.227.121.99:Emily
summercandy64:August23:summercandy64@yahoo.com:1989-07-10:US:F:64.183.158.202:Tamara Gibson
summercandycane:tAMMY12:angiepinoy1@yahoo.com:1995-08-06:US:F:71.110.155.99:Angela
summercandy_34:babyariano20:tokyo.chii@yahoo.co.nz:1926-10-14::F:125.238.164.124:NULL
summercane13:spower:summercane11@yahoo.com:1985-11-11:US:F:69.122.11.60:Sammi SzeTo
summercanning:canning15:sammy_toes@hotmail.com:1993-10-25:CA:F:142.162.183.147:Summer
summercantor:summer12::2001-07-10:US:F:76.253.138.68:summer
summercantremember6:remember66:tball323@yahoo.ca:1995-8-31:CA:F:142.161.162.21:Summer
summercanufeel:hirsch101::1997-01-02:US:M:67.84.195.6:jin
summercapo:lincoln45::1999-05-03:US:F:68.81.232.153:summer
summercar:4160844::1996-12-16:SG:F:218.186.8.227:carissa
summercaramel:5raspberry3:loyimin@gmail.com:1991-06-23:SG:F:220.255.0.33:Min
summercarbaugh:summer07::2001-07-03:US:F:69.250.57.103:NULL
summercarissimo:carissimo2002::2002-07-10::F:74.67.246.190:NULL
summercarissimo413:sc2002::2002-07-10::F:74.67.246.97:NULL
summercarlino:summer10::1998-08-30:US:F:75.67.122.102:summer
summercarlino1:summerc12::1998-08-30:US:F:75.67.122.102:summer
summercarlino8:summer11::1998-08-30:US:F:75.67.122.102:summer
SummerCarmen:recycle22::2000-07-11::F:173.60.99.197:NULL
summercaron:merkel13:sumito.man@yahoo.com:1990-12-15:US:F:71.21.64.169:summer
summercarpenter:9036468295::1998-06-23:US:F:66.76.26.254:summer
summercase:carleixon16:mad_kitty66@hotmail.com:1986-06-07:ES:F:79.152.141.219:Carla
summercasillas:picture12::2008-01-01::F:71.106.152.98:NULL
SummerCassady:koda27:aybe2222@yahoo.com:1994-02-22:US:F:68.248.73.78:Summer
summercast2008:celine123:breeflorek@aol.com:1994-03-10:US:F:69.142.252.82:summercast2008
summercasual:paco1995:corporalyip@gmail.com:1982-05-05:US:M:68.50.200.62:Durd
summercat:dragon333:TFAkitty@gmail.com:1996-12-11:US:F:24.165.7.9:Catharine
summercat0000:chrisb09:Summercat09@aim.com:1992-03-29:US:F:24.162.226.96:AliSA
summercat07:7kittycat7::1996-03-04:CA:F:209.52.207.112:Callie
summercat12:zink123::1997-02-27:US:F:24.187.16.66:becca
Summercat123_31:cougar123:Jessiep@hotmail.com:1995-09-29::F:24.20.64.222:NULL
Summercat123_834:cougar123:Jessiep@hotmail.com:1995-09-29::F:24.20.64.222:NULL
summercat1257890987:Tommy12:summer101509@hotmail.com:1994-11-26:CA:F:24.207.48.136:Cloe
summercat1996:summercat321::1996-06-14:US:F:70.161.69.211:Summer
summercat22:catgirl22::2002-02-22:US:F:71.51.8.72:Kyra
summercat3:11111s::2003-03-15:US:F:207.138.82.76:Winter
summercat456:soccerstar456::1998-10-16::F:74.166.12.172:NULL
summercat72412:orange::1992-07-24:US:F:68.42.135.185:summercat72412
summercat9:summer::1994-08-24:US:F:24.231.184.122:summercat9
summercatindenmark:270776:chris_molly@hotmail.com:1993-08-19:DK:F:83.91.90.90:Cathrine
summercatlover:lover::1996-08-08:US:F:76.185.187.35:none
summercatmom3:111111S::2003-07-10::F:70.181.52.10:NULL
summercats:donna111::1995-09-30:GB:F:81.144.199.140:rosie
summercatt1999:spainer19::1999-7-11:US:F:64.27.236.17:Genesis
Summercatxo:gigi2009::2000-4-28:US:F:68.62.89.54:Lira
Summercatxo2009:gigi2009:alice.murphy24@yahoo.com:1997-04-28:US:F:68.61.78.193:NULL
summercat_8_8_8:118589:wangyouju09@163.com:1985-08-09:CN:F:218.104.221.10:茉莉喵喵
summercat_sg:walnutpen86:tanbeelay@dls.com.sg:1979-02-07:SG:F:116.197.216.85:summer cat
summercausby:mittens09::1999-03-20::F:71.75.100.225:NULL
summercausby320:mittens09::1999-03-20::F:71.75.100.225:NULL
summerceballos:6summer6::2003-09-16:US:F:71.116.83.220:summer
summercest:iluvballetLBT22:balletberry@gmail.com:1988-10-24:US:F:76.186.35.108:Faith
summercg_772:garcia22:Tracy@thousandcranes.com:1995-10-02::M:72.222.173.166:NULL
summerchalle:qwkldf77:smoothiemixer101@gmail.com:1994-04-25:US:F:68.39.234.20:Summer
SummerChampian:anna2321:vietdollie96@yahoo.com:1996-05-08:US:F:24.5.125.211:NULL
summerchan:coolio678::1997-11-21:US:F:97.117.47.45:Summer
summerchandler:106698:summerc1@hotmail.com:1995-08-26:US:F:72.35.98.248:NULL
summerchanel22:moore22:SummerChanel21@yahoo.com:1995-04-03:US:F:96.15.140.111:Summer
summerchangesXxX:yellow123:alexandra_samuel@live.co.uk:1995-4-2:GB:F:86.149.128.11:alexandra
summerchaos:chanc33:ashlyn@shatos.com:1992-07-04:US:F:71.112.154.24:A
summerchaos13:angellbettis97::1997-03-02:US:F:69.130.33.17:Ry
summercharm23439:1quinny1::1998-03-09:US:F:69.112.33.166:Syd
summercharm39:quinny39::1998-03-09:US:F:69.112.33.166:Syd
summercharm98:1quinny1:NalaS6@aol.com:1992-03-09:US:F:69.112.33.166:Sydney
summerchase214:chase1summer2::2000-04-21:TC:F:84.135.251.161:lena
summerchatterton101:iloveaustin96::1996-09-18:CA:F:67.193.255.59:summer
summerche:030491:summer_pld@yahoo.com:1991-04-03:BG:F:89.215.127.214:Summer
summercheck:amberotis22:free2rule@live.com:1993-07-04:US:F:97.122.65.107:Krista
summercheeks:nanqixuyang10:kellyzhou898@hotmail.com:1993-07-14:CN:F:99.224.160.38:xuyang
summercheer:34340j::1999-10-27:SG:F:202.156.10.251:Joey
summercheer128:Divotdog12::2000-05-12:GB:F:92.238.60.197:Sydney
summercheers:98639556:summerchin@hotmail.com:1985-12-13:SG:F:220.255.0.34:summer cheers
summercheese:corn12::1998-02-11:SG:F:220.255.7.158:Tan Pei Zhen
summerchem:lalanerd69:kelliatthedisco@gmail.com:1994-07-30:US:F:98.237.204.232:Kelli
summercherokee12:kisses12:summerperry12@hotmail.com:1993-05-12:US:F:67.236.37.123:Summer
Summercherry:atlantis82:alteraner82@web.de:1992-01-01:DE:M:88.208.141.42:NULL
summercherry01:706617:pet_e28@yahoo.com:1994-05-17:US:F:74.46.190.120:Linnie
SummerCherryBoom:littlefreak12:elizabetepur@gmail.com:1997-05-14:LV:F:78.84.14.79:Marta
Summercherry_101:12137411151:narutoXsaskue@yahoo.com:1988-06-05:US:F:69.234.112.138:Ashley
summerchester_1:chester321::1999-04-06:US:F:24.247.186.19:M
summerchey:::2005-05-23:US:F:24.91.184.186:NULL
summercheyannegeddin:summer10::1998-05-26:US:F:72.146.46.191:summer
summercheyenne_:siber12:swimfox95@gmail.com:1995-09-06:US:F:72.219.148.232:Summer
summerchic:Katie98:cutensweet983@gmail.com:1998-05-05:US:F:184.174.136.96:NULL
summerchic0326:erin0326::1997-03-26:US:F:68.158.251.220:Erin
summerchic1773:prider09:chisholm_katrina@yahoo.com:1988-08-19:US:F:108.83.196.210:NULL
summerchic183:dandyboy78:phoebe.devos-cole@hotmail.com:1992-05-03:US:F:24.151.20.151:Phoebe/SandStar
summerchic27:ohsnap77:FortMillChic10@yahoo.com:1989-08-22:US:F:208.104.111.38:Olivia
summerchic313131:summer31::1998-04-02:US:F:216.151.187.108:Bre
summerchic365:calliewallie22:bermudatiki@yahoo.com:1994-02-20:US:F:65.78.171.164:callie
summerchic4eva123:dance88::1997-05-22:US:F:71.75.234.64:Caroline
summerchic813:dandyboy78:phoebe.devos-cole@hotmail.com:1995-05-03:US:F:24.151.20.151:Phoebe
summerchic86:zoey343:alexandraSR214@hotmail.com:1993-02-03:US:F:72.0.160.54:alex
summerchica:::1998-07-30:US:F:98.203.232.227:NULL
summerchica00:kzm1010::1998-02-07:US:F:99.170.240.98:katie
summerchica10786:Janel:snowangel10786@yahoo.com:1986-10-07:US:F:70.181.29.96:Amanda Bevilacqua
summerchica123:18liz18::1998-09-23:US:F:174.137.80.57:maria
summerchica144:irock626:blustarslol@gmail.com:1991-09-04:US:F:107.4.24.177:Caitlyn Wright
summerchica1997:18liz18::1997-9-23:US:F:174.137.80.4:Maria
summerchica2237:Janel:snowangel10786@yahoo.com:1986-10-07:US:F:70.181.29.96:~*Manda*~
summerchicca:simba123:emily_mauhl@yahoo.com:1992-03-30:US:F:98.203.150.59:emily
summerchick06:summer06:princessshady24@optonline.net:1985-03-24:CA:F:67.81.189.72:Shady Lady
summerchick10:mlucia28::2000-3-28:US:F:96.6.45.165:meghan
summerchick121:penguin12::1998-07-01:US:F:99.9.236.199:shae
summerchick1229:maemae247:teamgreen247@yahoo.com:1990-12-29:US:F:71.59.201.193:Lacey
summerchick1232:butterfly12:love7678@hotmail.com:1993-06-10:US:F:68.0.153.76:Brooke
summerchick13249:sally1234:mcdonald5@verizon.net:1981-12-17:US:F:71.181.40.251:Ryan Smith
SummerChick1445:sis3701::1999-07-05::F:99.136.123.171:NULL
summerchick1490:summer:sarah38959@snowboard.com:1989-08-29:US:F:71.13.25.201:Sarah Chevalier
summerchick18:chatterbox18:gabby_chic1816@yahoo.com:1988-08-16:US:F:173.30.24.224:Gabby
summerchick193:icepie12:summerchick1993@yahoo.com:1993-04-06:US:F:76.112.255.35:Katelyn
summerchick1985:iluvnick97:winky_moe37@yahoo.com:1990-03-11:US:F:97.84.134.147:Juliet
summerchick1987:iluvnick87::1997-03-11:US:F:97.84.134.147:Juliet
summerchick1988:stars:blackknight0@yahoo.com:1988-08-15:US:F:68.224.237.115:Me Gan
summerchick1995:summergirl2009:dharmadog1967@yahoo.com:1995-09-16:US:F:68.118.208.139:shawna
summerchick199927:summerchick123::1999-07-27::F:24.44.13.128:NULL
summerchick2000:july29::2000-07-29::F:70.57.250.80:NULL
summerchick2010:herbie2010::1999-09-16::F:173.17.210.97:NULL
summerchick20101:summer20101:kit-kat_katie_101@hotmail.com:1995-7-12:CA:F:96.51.214.107:Katie
summerchick2424:snooch24:snyperbradford@gmail.com:1995-10-11:US:F:67.185.248.215:Ciera
summerchick3255:justin14:lilsistersrcool@yahoo.com:1994-06-07:US:F:70.125.42.237:jessica
summerchick404:iluv2swim404::1996-09-09:US:F:71.30.205.171:Paige
summerchick4everbaby:pizzalover:andrea_act13@hotmail.com:1991-07-13:CA:F:76.64.99.166:andreat
summerchick531:violin1991:hellow20855@yahoo.com:1987-08-06:US:F:68.84.132.102:my name
summerchick6064:060689:summerchick6064@aol.com:1989-06-06:US:F:68.36.53.20:nikki t
summerchick666:MAKENZIE11::1998-06-28:US:F:71.207.244.122:Makenzie
summerchick71195:coby10:iheartcats21@yahoo.com:1995-07-11:US:F:65.80.178.143:Amanda
summerchick729:25220wolf:snickers@cableaz.com:1990-07-29:US:F:184.98.103.225:i cantremember
summerchick789123:important14:candy_claudia_506@hotmail.com:1994-10-05:CA:F:99.230.159.102:Claudia
summerchick827:addirose827::1998-05-27:US:F:76.110.209.6:Addi
summerchick93:elaine:elainacoop@aol.com:1974-06-09:US:F:76.106.49.27:Lauren
summerchicka33:qwedsa94:summerlove865@hotmail.com:1989-11-22:US:F:68.201.12.80:Amy
summerchicka_95:trevor95:lilflip_95@hotmail.com:1980-09-24:US:F:209.216.189.70:Catherine
summerchickie41:hahaitrickedyou11::2003-07-17:US:F:68.198.130.240:Janie
summerchickie__11:rachel11::1996-09-24:US:F:151.205.69.227:Rachel
summerchickk:lollipop34:wasatchtel@aol.com:1994-07-03:US:F:207.200.116.66:Siera
summerchickqwerty:qwerty101::2000-03-08::F:24.158.186.208:NULL
summerchicks81:Provo:soccerjacalyn@aol.com:1990-08-12:US:F:Mail from theneopetsteam:Jacalyn Provencher
summerchicks85:hottie12345:coworkers@aol.com:1988-06-10:US:F:none:Britt Collisante
summerchicksgab:nonna01:summerchicksgab@aol.com:1993-01-02:US:F:76.109.56.86:samantha
summerchicksgab1981:sammy14:summerchicksgab@aol.com:1994-01-02:US:F:76.109.56.86:samantha
summerchicksguild:caroline33:caroline_3353@yahoo.com:1965-06-02:US:F:none:Summer Chicks
summerchickx3:meghan24:y0oitsandrea@aim.com:1992-06-29:US:F:98.116.71.127:Andrea
summerchickx30:selenag123:elaina.simp123@gmail.com:1990-07-27:US:F:68.117.197.199:Elaina
summerchickx93:13286:summerchickx93@aim.com:1992-08-25:US:F:none:anna m
summerchickxox:4455678:aggv13@aol.com:1990-07-01:US:F:none:Lauren
summerchickxx:summerlover::1993-03-14:CA:F:none:summerchickxx
summerchickxx02:123456789dar:Summerchickxx02@aim.com:1995-01-10:US:F:74.78.46.247:Danielle
summerchickxx06:dis4me:m2dngorillaz9@wmconnect.com:1992-12-19:US:F:none:Brandi R
summerchicky:woodfordcounty08::1987-10-16:US:F:none:Chic Cic
summerchicky10:summergirl::1994-01-10:US:F:none:summerchicky10
summerchicky13:KyleGross13:Dani.siporin94@gmail.com:1994-10-21:US:F:71.79.118.182:Danielle
summerchicky1994:James12:siporindani@yahoo.com:1994-10-21:US:F:69.212.53.96:DaniBannie
summerchicky256:2483818290:dani.siporin94@gmail.com:1993-10-21:US:F:66.51.148.242:Dani
summerchicky26:cuqui26!!!:karla_baltuano@yahoo.com:1986-02-26:PE:F:190.232.136.213:katie
summerchicky480:summerland:summerchicky480@hotmail.com:1989-01-16:CA:F:none:Aleisha Kalina
summerchicky71:phantom71::1996-07-01:US:F:71.225.162.88:Mary Liz
summerchickybayb714:NFG92:catpaws34@aol.com:1991-07-14:US:F:none:Katy  Weilant
summerchickz:ilovemum123456789::2000-08-20:AU:F:121.215.224.165:summerchickz
summerchickz12345678:pussy2651::2000-08-20:IE:F:123.211.44.35:summerchickz
summerchickz2651:pussy12651::2000-08-20:IE:F:121.222.239.192:summerchickz2651
summerchick_:bunny0505::2005-01-01:US:F:Acceptance:Emily
summerchick_07:trashcan!:neopetsgirl3@aol.com:1991-05-15:US:F:75.15.145.214:Hillary Jacobs
summerchick_08:colorful11!:rebelchick1016@yahoo.com:1993-10-16:US:F:69.131.175.28:ashley
summerchick_09:11year:moongirl13@live.com:1995-09-02:CA:F:99.238.36.206:Amanda
summerchick_1:hotboyz:dragonlady990@aol.com:1987-10-14:US:F:none:Jackie Syvertson
summerchick_10:ohio10::1995-03-14:US:F:76.2.235.167:Callie
summerchick_101:lovely13::1995-10-16:US:F:71.115.70.207:Ivette
summerchick_123_7:sum4ever:love_basketball115@hotmail.com:1993-06-20:CA:F:none:taylar hoogendyk
summerchick_15:pinkpanther123:littlemissprincess@yahoo.com:1991-06-03:US:F:none:Janel Kerigan
summerchick_16:bentang:kurisuchina_16@yahoo.com:1987-12-12:PH:F:none:kristina onh
summerchick_182008:nichole:summerchick_182008@yahoo.com:1985-07-07:US:F:none:ciara marquis
summerchick_18200821:achildcalledit:summerchick_182008@yahoo.com:1979-01-07:US:F:none:ciara marquis
summerchick_182009:nichole420:summerchick_182008@yahoo.com:1991-07-07:US:F:216.175.62.99:Ciara
summerchick_2:bubbles22:augustbeach72@yahoo.com:1995-06-15:US:F:71.178.101.205:Ally
summerchick_2223:summerrules!22::1998-10-07:US:F:209.152.105.35:Nicol
summerchick_2_2_2:password123::1999-01-01:GB:F:80.249.48.133:polly
summerchick_3:summer12:elena.lopez05@gmail.com:1993-02-27:US:F:68.5.65.155:
summerchick_44:SanDiego!:little_fut@hotmail.com:1992-08-31:US:F:66.220.101.204:Squirrel Nut
summerchick_4_4_4:password123::2000-03-03:GB:F:94.169.31.160:polly
summerchick_5:season*:kirlybird15@sbcglobal.net:1976-03-06:US:F:none:Kirby Blah
summerchick_66442:summer:erihin1990@hotmail.com:1989-01-17:US:F:none:Jerika Hitown
summerchick_902004:jeremy:snowbabe_123452000@yahoo.com:1991-04-04:US:F:none:angel thompson
summerchick_93:Jaramillo12:Misspriss553@aol.com:1993-07-31:US:F:75.131.196.198:Emily
summerchick_94:people34:theorginasl4lyfe@yahoo.com:1980-10-10:US:F:173.52.246.195:Sarahh
summerchick_addict:people34:pjinc2001@aol.com:1980-10-10:US:F:173.56.196.27:sarah
summerchick_x:werkman94:deees@live.nl:1992-11-16:NL:F:62.234.183.113:Désirée
summerchick_xo:Chick07:Emb1994@sbcglobal.net:1994-01-01:US:F:69.182.221.40:Erika
summerchick__01:yuppie1:vikingbarr61@optusnet.com:1990-12-26:AU:F:none:Lilo Spitcher
summerchick__aa:hamster11:Roxanne_2013@yahoo.com:1993-10-20:US:F:68.229.174.51:roxanne
summerchick__xx:hotsummer1:pinkpenguin2332@aol.com:1993-11-16:US:F:none:jenifer jenkins
summerchico27:ghada27:sajami27@yahoo.com:1988-03-23:US:F:76.112.177.193:Summer
summerchics:summer:surfergurl999@aol.com:1986-10-31:US:F:none:Kaela Walsh
summerchics123:highschool::1992-09-21:CA:F:none:summerchics123
summerchicsc88:Samantha:summerchicsc88@hotmail.com:1988-11-28:US:F:130.127.255.220:Maggie Johnson
summerchicsten01:oliver*:anallamericanreject01@yahoo.com:1990-03-17:US:F:none:Devlin Kearns
summerchicx06:patches1:krazykitty09@bellsouth.net:1989-06-03:US:F:72.144.240.23:kelsey elizabeth
summerchicx09:austin07:summerchicx06@aim.com:1991-06-03:US:F:98.64.247.150:kelsey
summerchicx3:ilovehim12:summerxchic@gmail.com:1993-12-28:US:F:24.205.54.9:Hanna
summerchicxx:summer:xcheercrazix79@netscape.net:1989-12-29:US:F:none:Andrea Alestrio
summerchic_:sumeyaa01:sabby.summy@hotmail.com:1977-02-26:NL:F:86.92.196.226:nhh
summerchic_01264:strawberry::1992-08-20:US:F:none:summerchic_01264
summerchic_0601:5118086::2000-06-01:US:F:72.86.97.92:divine
summerchic_1:summerchic_123:emeraldlinkheart@yahoo.com:1992-04-22:US:F:71.209.20.135:lexi luu
summerchic_11:Family11::1997-08-07:US:F:62.41.2.63:Kelsy
summerchic_1204:samifan::1992-03-24:US:F:none:summerchic_1204
summerchic_128:hello_128:anonymous_128@hotmail.com:1992-01-28:CA:F:none:Janessa Loewen
summerchic_15:poppypal15:aj_laugh@hotmail.com:1991-10-11:US:F:75.151.101.37:Alice
summerchic_17:112788:those_summer_sunsets_54@hotmail.com:1988-11-27:US:F:none:molly jenson
summerchic_2:tally1joe2:Tduris@aol.com:1992-12-12:US:F:152.163.100.78:morgan
summerchic_3:3488202523:lilspecialness@yahoo.com:1992-02-03:US:F:24.197.171.142:Chablise
summerchic_4:summerchic44::1996-03-07:US:F:69.14.255.162:Jessica
summerchic_789:crayf1sh:summerchick_789@hotmail.com:1992-07-11:NZ:F:none:bridget drake
summerchic_9:temper234:lrmshadow@aol.com:1985-08-02:US:F:70.171.247.247:Summer
summerchic_99:sugar:summerchic_2000_99@yahoo.com:1985-09-10:US:F:none:tiffany lockhart
summerchic_b:9019650:rangerben18@aol.com:1991-10-23:US:F:none:britt geers
summerchic__14:summerbabe32:newmoon0909@gmail.com:1995-08-30:US:F:24.11.180.247:summer
summerchiic:leogirl12:summerchiic07@aim.com:1990-03-01:US:F:208.38.88.46:Gigi
summerchiic07:leogirl12:smrtchicka2006@aim.com:1966-03-01:US:F:71.63.220.127:Geanna
summerchiica:summer17:xoxsummer-chiicaxox@hotmail.com:1994-05-17:CA:F:70.83.69.4:Joanie
summerchiicaa:summer17:xoxsummer-chiicaaxox@hotmail.com:1994-05-17:CA:F:70.83.69.4:joanie
summerchiick:gymnast07:awalsh01@comcast.net:1991-06-22:US:F:71.230.137.78:Devan
summerchiik:Summ3rTim3:Missii-2k7x--x@hotmail.co.uk:1994-03-27:GB:F:217.42.7.193:Ria
summerchiika123:lala101:despena@zouzas.us:1994-07-22:US:F:71.192.49.82:Debbie
summerchik:billabong::1992-09-24:AU:F:none:melissa hewitt
summerchik04_09:ruthound:summerchik0409@yahoo.com:1989-10-11:US:F:none:my other accounts were frozen urrggggg!
summerchik06:summer06:zoomziggy7@aol.com:1992-01-25:US:F:72.94.62.21:hillary zvarick
summerchik11:summer:dezarie181@aol.com:1986-06-22:US:F:none:Desiree Jones
summerchik115:lindy123:summerchik115@attbi.com:1983-01-15:US:F:none:Anonymous Please
summerchik12:124477::1992-12-03:US:F:68.52.220.239:Summer Smith
summerchik12345:chicken11:bad0466@comcast.net:1988-08-24:US:F:none:Ashley nevagonnatellya
summerchik123__ee:dayna123:sp0rtyxchik@aol.com:1992-05-15:US:F:none:dayna nesta
summerchik14:rkw91498:summerchik98@rocketmail.com:1992-9-14:US:F:98.191.7.96:Rachel
summerchik141:tazspaz8:yjackets141@hotmail.com:1991-11-24:US:F:none:Mitchelle Smith
summerchik17:SUMMER:dezarie181@aol.com:1967-07-17:US:F:none:Lavender Lakwasti
summerchik2:summerchik18000::2000-06-05:US:F:68.55.173.176:NULL
summerchik2007:rocco10::1996-10-23:US:F:99.37.161.106:sara
summerchik22911:secret22:summergirl148@aol.com:1991-10-15:US:F:none:Katie nothing
summerchik27:summer::1993-10-07:US:F:none:summerchik27
summerchik29:samson3:dukkyz49@gmail.com:1991-11-12:US:F:24.115.158.250:Brit Franya
summerchik3:summerchik33::1998-04-25::F:67.235.175.67:NULL
summerchik304:chik$:shop4fun95@aol.com:1970-10-25:US:F:none:Alexa Amburgey
summerchik3193:buffy:meganknolan@yahoo.com:1991-06-10:US:F:none:megz~~!! k.
summerchik321:sateriale:karla@crapmail.com:1989-01-15:US:F:none:Karla Casablancas
summerchik4:sims2:e_whitacre@aahs.mcvsd.org:1990-05-08:US:F:none:Emilia White
summerchik415:deejay:summerchik415@yahoo.com:1988-04-15:US:F:none:Jennifer Butler
summerchik4186:ihateethan:sxybeachbabe08@hotmail.com:1989-01-23:US:F:none:samantha snippen
summerchik429jn:ashlee:guitarchik429jn@yahoo.com:1987-04-29:US:F:none:Jessica
summerchik44:summer:beach_baybii@hotmail.com:1989-05-10:CA:F:none:Anna Parker
summerchik4eva:louierush:summerchik4eva@yahoo.com:1984-12-11:US:F:none:Virginia Elizabeth
summerchik4ever:dusty1:cutiemadge@aol.com:1991-02-25:US:F:none:Madison D.
summerchik5182:max123:summerchick5182@yahoo.com:1984-05-14:US:F:Offer Made on Lot:SummerL
summerchik622:iluvbobby:nuter0890@aol.com:1989-08-29:US:F:none:MNM
summerchik642:tazspaz:bballfan141@aol.com:1991-11-24:US:F:none:Mitchelle
summerchik67:summer:summerchik67@hotmail.com:1980-11-07:TD:F:none:hannah benner
summerchik6886:simonsays:summerchik15@hotmail.com:1985-06-08:US:F:none:samantha duncan
summerchik709:jenna:jennal92@hotmail.com:1989-07-09:US:F:none:booger brainz
summerchik70944:truelove:jennal92@hotmail.com:1990-07-21:US:F:none:none  ofyourbuisness
summerchik717:dags55555::1999-07-17:US:F:24.144.150.99:dagmar
summerchik721:tyler:summerbabie721@netscape.net:1984-01-04:US:F:none:?
summerchik724439:paige:bomar93@eathlink.net:1968-04-16:US:F:none:paige weeks
summerchik75:wiggly:snogurl75@yahoo.com:1975-10-26:US:F:71.184.162.180:Paulla Soares
summerchik89:ssecnirp#12:krystalita@comcast.com:1989-04-20:US:F:65.34.39.8:krystal
summerchik928:summer::1992-10-22:US:F:none:summerchik928
summerchik93:imaprincess:spunkygal75@aol.com:1989-01-19:US:F:none:Milan Delatorre
summerchik99:288326k:Crazimonkeygurl96@gmail.com:1990-04-25:US:F:75.178.41.70:Kristian
summerchika:002193::1993-05-12:US:F:none:summerchika
summerchika07:buddy12:segarrow@gaggle.clkschools.org:1994-06-05:US:F:24.247.43.97:Taylor
summerchika101:sally1232:SUMMERCHIKA@aol.com:1986-04-17:US:F:216.6.159.173:Tiffany
summerchika1066:summer06:juicyduff18@aim.com:1975-05-26:US:F:none:Rachel Pollak
summerchika12:chicka12:saddgurl1995@hotmail.com:1995-10-08:US:F:66.189.215.116:kara
summerchika22:summer22:monkeybizniss722@hotmail.com:1989-07-22:US:F:none:imtha masta
summerchika23:trulove23:babyphatrocawear2002@yahoo.com:1989-08-23:US:F:68.37.45.167:Rachel
summerchika_gurl:cryj3111992:c_niko_niko_311@hotmail.com:1992-03-11:US:F:none:Chika Hattori
summerchikbc13:dags717::1999-07-17:US:F:24.144.150.99:dagmar
summerchike08:chike01:taylor_kerttuu@hotmail.com:1916-04-10:BI:F:24.247.41.207:tay
summerchikia05:dustin*:volleylove19@yahoo.com:1987-07-17:US:F:none:hilary harris
summerchikk:random10:blossbloss1@hotmail.com:1991-10-07:AU:F:125.168.0.237:Sarah
summerchikk33:ryanhawk::1993-03-25:US:F:none:summerchikk33
summerchikk_x0o:cookies14:jordanroberge@sbcglobal.net:1993-01-29:US:F:69.37.248.19:jordan
summerchiklet62:beckaboo::1989-06-02:US:F:Item:none
summerchikmissy:missy22:dancing_is_the_way_of_life@msn.com:1991-03-22:AU:F:none:Melissa Dumas
summerchiknicole:ginger:summerchiknicole@netscape.net:1985-02-08:US:F:none:Nicole Foster
summerchikz6758:Mona55:summerchikz626@yahoo.com:1987-07-30:US:F:none:Annie Chovey
summerchik_:*chocolate*:sarahdobson88@hotmail.com:1988-01-21:NZ:F:86.141.232.13:Sarah Dobson
summerchil08642:sarah98::1998-09-03::F:74.102.81.160:NULL
summerchild:Pamn50m:honungs_barn@hotmail.com:1992-08-29:SE:F:81.234.219.197:Linnea
summerchild001:daddysgirl001::2001-09-25:US:F:71.62.171.203:NULL
summerchild1:k933zy::1999-07-30:US:F:98.217.182.121:khaia
summerchild13:ginger:darkangle90084@aol.com:1988-01-08:US:F:none:Kyra Noteboom
summerchild14:aurelia14:beautifulbb@yahoo.com:1993-06-30:US:F:209.77.228.95:Aurelia
summerchild141:nikki::1991-06-05:US:F:none:summerchild141
summerchild18:pinkypie10::1999-06-23::F:216.164.154.56:NULL
summerchild222:tantan:summerchild729@aol.com:1986-07-29:GB:F:none:Rachael Montoya
summerchild306:pearl10::1999-06-23::F:216.164.154.56:NULL
summerchild54326:CHACHACHA::1992-03-11:CA:F:none:summerchild54326
summerchild55:moonglow55:ladysummerchild2001@yahoo.com:1953-07-06:US:F:99.144.113.39:Debbie
summerchild6:school100:readingrocks@msn.com:1979-08-17:ES:F:68.100.146.170:Woonzy
summerchild692003:internet854:armychick854@hotmail.com:1985-12-13:CA:F:none:jennie t
summerchild81:rosethorn321:pinkcarnation15@aol.com:1976-06-06:US:F:72.43.215.183:Melon**Compton
summerchild814:dtmrk814:frostygirl808@aol.com:1993-08-04:US:F:none:summerchild814
summerchild87:watermelon:qtpye_87@hotmail.com:1987-06-26:US:F:71.207.221.133:J.  Doggette
summerchild88:watermelon:qtpye_87@hotmail.com:1986-07-27:US:F:none:Taffy Daffy
summerchild91:052991:animalgirl11@aol.com:1991-05-29:US:F:none:Amanda Dziendzielewski
summerchild96:cocacola02:wilsonma@wellington-girls.school.nz:1996-02-02:NZ:F:203.167.146.37:Mary
summerchilde:stebre99::1999-07-28:US:F:24.115.137.87:Kat
summerchildg:nälö=)::nälö=):nälö=):nälö=):nälö=):nälö=)
:::::::
summerchildlove:mikimouse94:miki-rox@hotmail.com:1994-12-28:AU:F:203.104.11.2:monique
summerchild_306:pearl10::1999-06-23::F:216.164.154.56:NULL
summerchild_599:cutiepie10::1999-06-23::F:216.164.154.56:NULL
summerchild__51:daddysgirl001::2001-08-25:US:F:71.62.171.203:Ashley
summerchild___3:83193:mkgraphixs@hotmail.com:1989-01-30:US:F:none:Christa A
summerchill:peaches12:katloulove@live.com:1992-04-09:US:F:70.234.237.102:K
summerchill97:Sarah97::1998-09-03:US:F:141.150.83.133:Sarah
summerchilli1993:leeinsing95:summer_chilli@yahoo.com.sg:1975-09-28:SG:F:165.21.154.10:lee daphnie
summerchilly:SummerChilly12::1998-05-12:GB:F:86.162.77.168:amy
summerchillz:juice:x_skyline_babe_x@hotmail.com:1982-01-29:FJ:F:none:Summer Chillz
summerchimera:one2three4:bengaley.summercat@gmail.com:1985-08-28:US:M:75.37.128.129:Henry
summerchin:98639556:summerchin@hotmail.com:1985-12-13:SG:F:220.255.2.151:summer chin
summerching:love4c:victoria19892002@yahoo.com.hk:1989-10-18:HK:F:Item:ching victoria
summerchingching:volleyball@maplewood::1993-09-11:US:F:66.222.56.163:summerchingching
summerchin_421:980805::1997-08-05::F:110.159.110.196:NULL
summerchip:u7471558::2002-12-10::F:86.136.40.199:NULL
summerchiq32288:seminar:punkpopprincess@cox.net:1989-03-22:US:F:none:Maureen McKinney
summerchiq6312:chickenz:neopetsemail6312@yahoo.com:1985-07-04:US:F:none:Summer Percy
summerchiquita:summer23:neha2393@gmail.com:1993-06-23:US:F:74.131.183.219:Chiquita
summerchirp:chirp812::1996-08-31:US:F:67.163.188.193:Kay
summerchix:summerof08:hprocks84@hotmail.com:1997-09-23:CA:F:96.55.179.97:Nicole
summerchix4:winter3:rapidmonkey4@sbcglobal.net:1993-08-18:US:F:none:Alayna Montez
summerchix7:idfly94:rachfish@satx.rr.com:1990-08-29:US:F:72.179.157.160:Rachel
summerchk:backspace11:vollyballcuty@yahoo.com:1995-01-30:US:F:24.149.123.192:Morgan
summerchk06:roses98:summerchk06@yahoo.com:1988-05-09:US:F:none:Alex Summers
summerchk08:banana15:torman14@netzero.com:1992-06-28:US:F:70.248.191.198:torie
summerchk44ever:sexyryan:harleychkforever@aol.com:1990-09-25:US:F:none:summer dillon
summerchloe:91463001:herminonelys@yahoo.com.hk:1991-08-08:HK:F:none:Summer liu
summerchloe2:fu1125:dayton_chloe_202@yahoo.com:1992-09-21:US:F:69.66.67.156:Shaina
summerchloe20:aj199220:summer_chloe202@hotmail.com:1992-09-21:US:F:67.55.198.156:Shaina
summerchoi:dillon308878:dillonyeogd@gmail.com:1994-11-22:SG:F:220.255.0.34:Summer Choi
summerchoko:natasha1992:natashabriggs464@msn.com:1989-09-01:CA:F:none:trasha biggs
summerchong:4395919:xin87@hotmail.com:1987-04-07:MY:F:175.145.174.194:summer
summerchongzi:821127:summer_minmin@eyou.com:1982-11-27:CN:F:none:妞妞   虫
summerchow:27067:britishpest@netvigator.com:1960-01-13:HK:M:none:chowkaikit chow
summerchow347:27067:lamsiulai@hkbn.net:1986-01-13:HK:M:none:chowkaikit chow
summerchowka:mariahsummer25::2005-08-25::F:99.191.232.225:NULL
summerchplin01:toppyss::1993-08-16:US:F:none:summerchplin01
summerchris:mary4me:beatlesfan18luver@hotmail.co.uk:1990-12-15:GB:M:none:chris summer
summerchris0069:26383828:lamchris_1219@hotmail.com:1980-12-29:HK:M:none:chris lam
summerchristal911:kostun:alli911@gmail.com:1990-09-24:US:F:none:Summer Jones
summerchristine:iloveyou01::1997-03-26:US:F:72.67.17.122:summer
summerchrush2011:homo23:summerchrush@aim.com:1995-10-23:US:F:96.61.6.88:Alyssa
summerchrystal:_summerchrystal101_::1998-03-14:US:F:74.132.67.4:emily-rose
summerchs:seraphina18::1997-07-26:GB:F:86.162.151.27:sophie
summerchump:bubba88:carlosjuarez_407@hotmail.com:1988-09-28:US:M:69.227.169.89:Carlos
summerchun:74771::1993-10-18:HK:F:none:summerchun
summerchutney:goodens66::2001-03-17:GB:F:84.51.181.112:NULL
summerchyk04:pauline:championlkp@msn.com:1991-01-10:US:F:none:Billy  Bob
summerciarra:cecila12:sparklecece@hotmail.com:1997-03-10:US:F:66.157.226.241:NULL
summercicada:1cicada:we.sail.at.dawn@gmail.com:1988-07-27:US:F:none:Nicole  Petrovna
summercick2627:ydds81:yohanaehayane1@hotmail.com:1990-01-27:US:F:69.142.131.193:yohana
summercindy:benny:sourpatchkid22@hotmail.com:1989-11-07:CA:F:none:Cindy Medynski
summercindy98:qwertyuiop98::1998-02-16:US:F:75.67.29.187:Cynthia
summerciole:winterworld12::1998-05-27:US:F:65.10.176.73:pudding
summercitrus:paige75:johnsmith@comcast.net:1990-12-16:US:F:71.200.209.130:paige
summercity:deborde4617:fugigirl34@yahoo.com:1963-08-11:US:F:none:michelle de
summercity07:madison1:mdeborde001@cinci.rr.com:1963-08-11:US:F:65.189.38.123:michelle de
summercity575:coolkid123::1998-08-23:US:F:71.169.144.213:NULL
summercks25:abby123::1999-01-25:US:F:71.195.154.46:Abigail
summercl:Jessica12::2000-08-14:US:F:76.112.173.226:Chels
summerclaire:music29:fishrefraction@aol.com:1990-05-17:US:F:75.185.134.47:Alice
summerclaire001:sunshine:qtpijessie@hotmail.com:1993-11-10:US:F:72.81.237.74:summerclaire001
summerclan:warrior:leah.i-xo@hotmail.com:1992-07-01:CA:F:24.138.20.5:Autumnbreeze
summerclark:sc1997:clark.robin@mchsi.com:1987-07-24:US:F:173.24.190.136:summer
summerclark334:jesus7:summerclark223@yahoo.com:1988-07-05:US:F:none:summer louviere
summerclash:summer21:mommysgurl21@comcast.net:1991-09-21:US:F:68.44.33.251:Summer Clash
summerclaw92:thunderclanfan9234:theDocs@comcast.net:1983-10-30:US:F:76.200.123.48:summerclaw
summerclement:leigh03::2003-08-17::F:76.118.18.115:NULL
summerclementson__aa:password22:summer.3511@hotmail.com:1993-06-04:US:F:68.76.109.183:summer
summerclif:peachgirl123::1993-03-29:US:F:none:summerclif
summerclifford:Ink04:sstab@aol.com:1980-08-07:BD:F:none:Molly Samanez
summerclily:nickolas::1991-06-02:US:F:none:none
summerclk:traini9:samahroxx@yahoo.com:1987-07-26:US:F:none:S T
summercloe457:turtles12:summercloe436@yahoo.com:1992-06-20:US:F:75.82.248.112:Rocquell
summerclogger:luckydog717:gretnadude@hotmail.com:1985-10-05:US:F:none:Kathryn Harrison
summerclogger717:luckydog717:summerclogger@hotmail.com:1992-10-05:US:F:68.226.58.80:kate
summerclone:kait89::2000-12-23:CA:F:174.6.112.230:NULL
summerclothes:redoak50:canalsofourcity@yahoo.com:1994-03-15:US:F:174.66.141.84:meow
summercloud:summer::1991-08-05:GB:F:Item:meggie wimshurst
summercloud1:egypt101::2000-03-19:US:F:174.101.222.147:kristian
summercloud15:sommerzeit123:summercloud123@yahoo.com:1995-11-27:DE:F:77.178.61.94:NULL
summercloud589:pinkish5::1992-01-07:US:F:none:summercloud589
summercloud9:111036:summercloud9@yahoo.com.tw:1987-04-17:TW:F:none: 杏雲 李
summercloudbabe313:canna313:daweewun@hotmail.com:1990-02-13:US:F:none:lisa weddingplo
summerclouds:bakaneko33:plushkittie@cox.net:1991-07-06:US:F:199.111.177.159:Summer
summerclouds2:ballet::1992-12-03:US:F:none:kelsey burke
summerclouds_101:t1ons:summer_clouds101@yahoo.com:1992-01-01:US:F:none:xANNEx
summerclouds__:lynmarie30:summerclouds_@hotmail.com:1990-07-30:GB:F:86.27.107.122:Jade Macdonald
summercloud_makoto:chanchan:summercloud_makoto@yahoo.com:1987-10-15:PH:M:none:Kristan Keith Eco
summerclover:sl!nky:dimerman@sympatico.ca:1987-11-05:CA:F:none:Minnie Mouse
summerclover104:qfc104kame:kazami_ami@hotmail.com:1985-10-04:CN:F:218.14.81.177:clover
summerclover12::::::173.52.174.110:NULL
summerclover1345:daisyxx11::1997-07-24:GB:F:86.150.227.218:NULL
summerclover17:summiskye77:kaitytink@msn.com:1991-01-07:US:F:75.160.161.93:Summer Clover
summercloverleean:ily...12:summerclover.leean@gmail.com:1993-12-09:US:F:69.196.213.230:taylorleean
summerclowed:221103:sexiangeleyes89@aol.co.uk:1989-06-01:GB:F:195.93.21.98:Sophie
summerclub2:sparkey00::2002-11-11:US:F:72.93.169.77:NULL
summerclub3:o69o69:summerclub3@aol.com:1987-05-10:US:M:none:Chris Farmer
summerclubley:clubers11:summerclubley@hotmail.co.uk:1982-01-02:TC:F:87.102.32.233:summer
summerclubley96:summer11:summerclubley@hotmail.co.uk:1994-06-04:TM:F:77.86.6.64:summer
summercmonkey9896:Mariea679:gossipkittygirl@gmail.com:1994-06-21:US:F:68.57.127.147:Summer
summercoacoa:snowball!::1993-08-03:US:F:none:summercoacoa
summercobb2001:dixie11:summerxbell@aol.com:1995-03-18:US:F:24.192.245.129:summer
Summercoc:lala12:soui06@hotmail.com:1997-08-20:AR:F:186.18.41.42:NULL
summercoco123:123abcdef::2004-02-04:US:F:173.78.243.191:NULL
summercoco1234:123abcd::2004-02-04:US:F:173.78.243.191:NULL
summercocoa:cocoa8369::1998-04-30::F:142.179.8.175:NULL
summercocoa4eva:rdsk1472583690:rtfujino@hotmail.com:1911-05-04:US:F:none:Miki Yoshikawa
summercoconut:imissspeedy314:bugsandsoccer@googlemail.com:1978-07-10:US:F:none:Turtle LOVER
summercofer:!123456:sherrycofer@comcast.net:1994-05-10:US:F:69.254.104.240:summer
summercohen:ivodicarlo:ammmdriu@hotmail.com:1984-12-29:CL:F:none:Andrea Pizarro
summercohn:caleb123456789:summercohn@walla.com:1992-07-15:US:F:208.49.214.75:Summer
summercoke:ryans:amandasam@earthlink.net:1989-06-27:US:F:none:Heather Bonds
