summerhunn001:devinroy1:julycutie01@yahoo.com:1990-07-01:US:F:none:tori abc
summerhunn06:chase06:summergrl@comcast.net:1992-08-09:US:F:none:rachel petrucci
summerhunn29:capecod:xskittelzx009@sbcglobal.net:1991-03-09:US:F:none:jen k
summerhunni047:cheer:looneylisa72@yahoo.com:1980-01-27:US:F:none:Christina Grape
summerhunni047x:cheer:looneylisa72@yahoo.com:1990-10-27:US:F:none:who cares? why do u wanna know??
summerhunni123:19671967::1993-11-22:GB:F:none:summerhunni123
summerhunni172:jazzmin:summerhunni172@aol.com:1991-06-24:US:F:none:nicole martinez
summerhunni61:ma@fun112994:hunnibunnni123@yahoo.com:1994-11-29:US:F:69.47.186.19:Cara
summerhunnie:habbo26:dannie_wilson@hotmail.co.uk:1993-05-12:GB:F:80.193.55.19:danielle
summerhunnie20:berrychair210:butterflies_886@hotmail.com:1988-08-05:US:F:24.236.129.144:Kasey Marie
summerhunnie2010:fhs24:summerhunnie24@yahoo.com:1985-12-11:US:F:none:KEm JAckson
summerhunnio4:white333:springchick2oo4@aol.com:1954-02-01:US:F:none:amber white
summerhunny2k6:modgey123hehe::1993-08-22:GB:F:none:summerhunny2k6
summerhunny41:juan98::1991-01-13:US:F:none:none
summerhunny589:qwerrewq:xolilsugababeyox@yahoo.com:1985-08-01:US:F:none:Shy  Faith
summerhunny786:cpcpcp:xolilsugababeyox@yahoo.com:1985-08-08:US:F:none:Shy Faith
summerhunny801:qwerrewq:xolilsugababeyox@yahoomail.com:1985-08-01:US:F:none:Shy Faith
summerhunt:ryanhunt69:summerlewis0129@yahoo.com:1981-01-29:US:F:206.144.51.109:summer
summerhunt69:176917a:summerlewis0129@yahoo.com:1981-01-29:US:F:206.144.51.109:summer
summerhunter440:tutter69:liciap@adelphia.net:1960-01-21:US:F:none:Licia Palmer
summerhunt_955:12345678909::1999-12-31::F:69.130.122.244:NULL
summerhush_17:kp1826:tigerdrive_newsletter@yahoo.com:1990-02-20:PH:F:none:karla erika
summerhutchinson:pedroandrico21:sillysummer-10@hotmail.com:1996-01-21:GB:F:82.13.85.75:Summer
summerhuynh:moomoo15:pyroskills@yahoo.com:1984-05-26:US:F:69.234.55.119:summer
summerhv:84241:linghuiwen@yahoo.com:1984-07-11:US:F:218.186.13.3:huiwen ling
summerhyden:barbiedolls10::2000-07-25:US:F:24.32.74.157:barbie
summerh_12:manager:amandabynes_rocks04@hotmail.com:1989-06-17:GB:F:none:Summer Hathaway
summeri:p1ngv11n1:duracell_94@hotmail.com:1992-09-01:FI:F:91.155.17.37:summer
summeri07:190707::2007-07-19:GB:F:77.98.213.78:summer
summeri8787:marsu99:marsu948@hotmail.com:1905-03-24:FI:F:none:maria mammioja
summeri95:061995:vanessa_vanessa73@yahoo.com:1927-06-19:US:F:76.202.87.214:vanessa
summeria:psycho:fantasticfroggy_9463@yahoo.com:1990-06-05:US:F:none:Ann Ferguson
summeria10:summer123::1999-07-06::F:166.82.187.37:NULL
summeriakae_attha:gluestick98:ezirelg98@yahoo.com:1990-11-06:PH:F:125.60.241.152:glerize mallanao
summerian:safari:cowsbarks@yahoo.com:1981-04-15:SG:F:none:halim tanya
summerian99:polkadots99:summerian99@aol.com:1984-02-13:US:F:67.190.20.222:Summer
summeriao:l6990557:purewinter@hotmail.my:1991-10-13:MY:F:60.48.69.114:NULL
summerice:1MANGO10:ANGELCAKEATDAWN@AOL.COM:1992-08-05:US:F:70.189.233.88:Kelly Whitehead
summerice159:neopets456::1997-12-17:CA:F:99.244.222.223:Brittany
summerice17:tundra11:summerice176@yahoo.com:1991-02-25:US:M:67.33.229.200:wade
summerice22:wedding::1993-06-07:GB:F:none:summerice22
summerice717:670717:summerandice2003@yahoo.com.tw:1978-07-17:TW:F:none:傑 羅
summericeboy_1997:acer12::1997-07-10:SG:M:220.255.7.199:Tu
SummerIceCream:STRAWberries1*1:summer-ice-cream@live.com:1992-10-31:US:F:50.17.145.8:Mary
summericecream0802:123banan:paulinepus@hotmail.com:1994-02-08:NO:F:84.215.115.123:Pauline
summericee129:mystie00:truecheerlove@aol.com:1990-01-29:US:F:198.85.228.129:Adaria
summericeegg:egg147896325:winty215@yahoo.com.tw:1987-10-13:TW:F:58.114.4.88:Summeregg
summericehottie:pacsun1:summericehottie@aol.com:1992-05-24:US:F:none:sabrina Ayoub
summericekitten:loveangel19:steph_brokenhearted@yahoo.com:1992-08-12:US:F:216.10.186.91:Stephanie
summericepops:eddie666:summericepops@aim.com:1993-04-15:US:F:76.16.242.19:sara asjkdfg
summericetime:girls33:charlenespider@yahoo.com.tw:1989-02-26:CA:F:none:may march
summericey:hyperboa12::1998-01-06::F:96.229.150.226:NULL
summerIce_:Thalita290594.:thalylollipop@hotmail.com:1989-05-30:BR:F:201.68.247.59:NULL
summerice_5639:tyf2917van:vanei_summer@hotmail.com:1988-03-01:US:F:none:summer ice
summericicle:winona:summericicle@phayze.com:1985-11-05:PH:F:none:Winona Agonias
summericon:bearcute17:rsargent2@hotmail.com:1985-04-17:US:F:66.233.159.89:Summer
summericon123456789:skullhead24:summericon@yahoo.com:1985-04-17:US:F:66.233.159.89:sum
summericon2008:skullhead24:summericon@yahoo.com:1985-04-17:CL:F:66.233.159.89:sum
summerie:sme2browns:ultramarineocean@hotmail.com:1977-12-10:SG:F:none:Claire Sim
summerieday:PHILLIP2010:ladyselena621@yahoo.com:1980-07-12:US:F:64.18.124.81:NULL
summerieraven:simbra122:simpatch27@yahoo.com:1987-07-10:US:F:66.42.219.142:summer birdsong
summerie_3:zits101:mirandatheakpanda@hotmail.com:1990-12-02:US:F:none:Miranda Allan
summerific:Summer (neobutterfly282s side)::Summer (neobutterfly282s side):Summer (neobutterfly282s side):Summer (neobutterfly282s side):Summer (neobutterfly282s side):Summer (neobutterfly282s side)
:::::::
Summerific_41:6042351::1997-12-10::F:69.155.76.101:NULL
SummerII:ready22go:jeffndiana123@yahoo.com:1985-05-06:US:F:167.21.1.224:NULL
summeriifire:kingdomhearts26:kaji_082@yahoo.com:1993-04-25:PH:F:125.60.241.141:April
summerii_:rasmus6:rachel_bilson@luukku.com:1993-01-08:FI:F:none:Aura Kokko
summerilandbreez:mandm25:trueskier4ever10@aol.com:1987-07-25:US:F:72.227.127.214:megan m
summerileohui:wypopo820727:summerbenny@126.com:1982-07-27:CN:F:none:茉莉 莎么
summerill:ssej1:djxjess@aol.com:1991-12-15:GB:F:none:jessica summerill
summerillj:3915j:djxjess@aol.com:1991-12-15:GB:F:none:jessica summerill
summerilljj113:39155:djxjess@aol.com:1991-12-15:GB:F:none:JESSICA SUMMERILL
summerilove05:mizzkammo44:xsummerilovex05@hotmail.com:1991-10-03:US:F:68.248.7.178:Rosie ABCDEFGH
SummerILoveIt:nica123:nicaik@gmail.com:1996-07-08::F:146.115.41.134:NULL
summerils:ogunquit12:evil_girl23@hotmail.com:1994-06-27:CA:F:207.35.125.200:emma
summerilu:72519:sammiiluilu@yahoo.com.tw:1983-05-19:TW:F:none:思 廖
summerily:29091978:casey_summer@hotmail.com:1978-09-29:SG:F:none:summer koh
SummerILYJB:summertime107::1997-07-05::F:74.141.104.37:NULL
summerily_:brice12:summervirgilio@yahoo.com:1995-07-28:GB:F:98.112.52.206:summer_brice
summeriminlove:magpie88:lancjg@students.fccj.edu:1988-05-28:US:F:74.185.242.214:Jessica
summerin:pato25::2000-01-18:US:F:70.58.69.86:summer
summerin12:almostsummer16:dkranen@verizon.net:1994-01-17:US:F:72.70.233.129:sally
summerin5:Jazzy5:csteele@earthlink.net:1988-08-22:US:F:none:Carlyn Steele
summerin506:summer::1991-12-09:SG:F:none:none
summerina:stormy:jocci65@hotmail.com:1986-02-27:US:F:none:summer purcell
summerina5:summer55::2003-02-12:GB:F:82.36.34.184:summer
summerina85:zanzarina85:summer-flower@hotmail.it:1985-06-18:IT:F:79.22.252.218:Marina
summerina89:Sethmore:stregale89@yahoo.it:1989-05-10:IT:F:none:Alessia Achilli
summerinaaa:ciliegina93:evar92.ignelzi@alice.it:1993-9-20:IT:F:109.113.63.17:summerinaaa
summerinaely:1sunshine1:Summerina1991@gmail.com:1991-11-15:IT:F:151.65.212.224:Elisa
summerinalaska:112832:jessansell@aol.com:1992-10-28:GB:F:92.9.172.252:Jessica
summerinbama:brook:terriecruz@yahoo.com:1988-08-26:US:F:none:summer cruz
summerincali:california:hit_me_baby_1_more_time_@hotmail.com:1984-07-11:US:F:none:summer girl
summerindawinter:misang7:humanmoodring@aim.com:1990-12-21:US:F:none:winter summer
summerindecember:*kitkat*:gemini-156@hotmail.com:1988-06-15:AU:F:none:Layla
summerindia:summer10::1998-03-18:US:F:24.163.243.84:India
summerindolence:1l3ffloss:sporking_llama@hotmail.com:1992-11-05:AU:F:124.189.146.103:Lillian
summerine108:reefer21096586:summarine108@aim.com:1993-10-08:US:F:70.146.50.142:Summer
summerinengland:cindy123:sophsoph678@aim.com:1994-06-01:US:M:71.136.233.150:Poogle
summerinferno:dancing12::1998-12-01:GB:F:82.36.146.176:Kayleigh
summering:6049448391::1996-06-30:CA:F:70.68.99.123:Melissa
summering07:sweetvava93:sweetsummer_leva@msn.com:1993-07-23:FR:F:86.192.159.147:Léva
summeringfun123:j031689:summeringfun123@myway.com:1985-03-16:US:M:none:Justin W
summeringitup:flipflop:pinkxxxclouds@yahoo.com:1991-08-05:US:F:none:Flip Flops
summeringsnow:Xq7qi4yk::1997-03-25:SG:F:220.255.7.216:Dawn
summeringz:cl0udzzz:wildcatflame@yahoo.com:1991-09-03:SG:F:none:Sherlyn Goh
summering_sun:surfing::1985-05-04:US:F:none:Danielle Danielle
summerinheven:dragonkeeper14:angelhal@hotmail.com:1991-10-04:US:F:24.220.124.252:kennedi
summerinjuly:noexcuses1:globe_hero@hotmail.com:1992-08-25:AU:M:none:timmy g
summerinlace:eternity:summerineden2000@yahoo.com:1987-06-12:US:F:none:Summer Wonderful
summerinlove:hellodear1123:summerin-love@hotmail.com:1991-11-11:SG:F:220.255.2.140:NULL
summerinman:smokey2006::2002-06-19:US:F:65.184.102.44:summer
summerinman2002:smokey2006::2002-06-19:US:F:65.184.102.44:NULL
summerinoc101:Fuze101::1995-10-11:US:F:71.246.93.116:Hannah
summerinside:sextaboe:merules2000@hotmail.com:1986-06-21:NL:F:none:Merel van der Linden
summerinspired:foster916:supa_summer@hotmail.com:1993-09-16:US:F:74.75.32.199:summer
summerinsummer110:93123456:peterrabbit1993@hotmail.com:1990-12-23:AU:F:none:Jessica-anne Henderson
summerinsun:camille:cvengrosfam05@earthlink.net:1989-03-25:US:F:none:camille cvengros
summerintacoma:gateway:mbabl2002@aol.com:1977-04-07:US:F:none:Michaela
summerintaly:btcd7zu:summerintaly@yahoo.com:1980-10-10:IT:F:none:bubble baby
SummerIntel:Jason2810:pink_angel212@hotmail.com:1991-07-28:AU:F:110.33.210.100:NULL
summerintern2009:fairedusk11:jonathan.b.myers@gmail.com:1987-12-21:US:M:128.239.131.59:JB Myers
SummerInthavong1998:inthavong11::1999-09-14::F:76.235.206.51:NULL
summerinthecityx:Snoodle22:shippinforecast@yahoo.co.uk:1990-12-18:GB6:F:90.195.90.248:Katherine
summerinthecityy:iheartfalloutboy123:corriecrayola@yahoo.com:1994-01-14:TJ:F:173.74.74.183:Tylarrrr
summerinthelivin:indigo13:aalliiee620@yahoo.com:1993-05-20:US:F:24.189.188.20:alli
summerinthepool:schoolsout!12::1998-01-01:US:F:64.12.116.17:Katelyn
summerintherain:stumble47:sworth86@gmail.com:1994-03-14:US:F:24.245.89.29:Summer
summerinthesky:ilovedad12::2000-05-11:US:F:69.248.159.161:NULL
summerinthe_city:tundra57:summerinthe_city@yahoo.ca:1987-09-30:CA:F:24.141.170.47:Ellen Murray
summerinwinter:annajodi911::1999-07-10:US:F:12.207.189.110:gabby
summerin_b:1totota1:summer_B07@hotmail.com:1992-03-29:US:F:72.228.45.197:Kate
summerin__xx:sighn5::1993-07-14:US:F:none:summerin__xx
summerio777:freedom123::1997-01-15:ID:M:118.136.48.84:Joseph
Summerious:Flamious22::1999-03-20::F:173.64.123.148:NULL
summerip:89010601:lovely_chrislin@yahoo.com:1989-01-07:MY:F:none:chin lovely
summeripock:1qazzaq1:hoti101@cox.net:1989-08-02:US:F:70.177.115.74:Summer
summeripod:crunchycat77::2000-07-08::F:99.250.67.45:NULL
summeripod19:summer19::2000-09-14::F:75.60.187.33:NULL
summeripp:89010601:wanting101@yahoo.com.sg:1984-12-30:MY:F:none:chin lovely
summeriranny:princess45:iranny5@hotmail.com:1991-09-19:US:F:24.189.222.133:iranny
summerirene2005:june2003:angelmom_19@hotmail.com:1982-09-11:CA:F:none:Rhonda  katherine
summerirene34:kool12893489:pookyb27@yahoo.com:1993-08-19:US:F:70.255.112.254:summer
summeriris:srsrs19971031::1997-10-31:CN:F:60.29.120.129:任靖霖
summeririshroses:harold1:vcrazy@sbcglobal.net:1988-08-18:US:F:none:Violet Sellers
summerirving14:si1234:jazzracketfs14@aol.com:1994-04-14:US:F:75.67.119.125:summersilver
summeris:hiro88:xyyrain@hotmail.com:1988-08-08:CA:F:69.157.33.172:Am
summeris01:212121::1993-09-18:US:F:74.199.64.221:summeris01
summeris10:webkinz10::1998-08-09:US:F:24.117.219.46:Summer
summeris101:dragon56::1999-07-30::F:68.188.57.159:NULL
summeris13:supermanisc00l:summer789@kiwibox.com:1992-03-27:US:F:207.191.13.58:SuMmEr
summeris2faraway:fairfield12:ahmazingX333@aim.com:1985-05-10:US:F:68.54.155.110:Emma
summeris3:summer03::2006-09-11::F:110.139.188.216:NULL
summeris411:princessr46:summertou@gmail.com:1980-06-21:US:F:68.81.242.37:Summer
summeris8:summertamslovell25::2002-08-25:GB:F:195.93.21.9:summer
summeris89cool:savannah.s.09::2000-07-03:US:F:64.193.228.246:savannah
summerisabella:princess03::2003-10-18:US:F:68.192.152.45:Summer
summerisablast711:watermelon:bookwurm118@aol.com:1982-01-01:US:F:none:meg grace
summerisacomin:summerrocks12::1999-02-01:US:F:97.122.128.14:Lindsey
summerisahippo:jameson09:jamesonmayfield@aol.com:1982-12-07:US:F:75.81.245.201:summer
summerisallinbloom:bugaloou123:orangep@yahoo.com:1992-09-14:US:F:none:savannah sullivan
summerisalmosthere30:KIMBERLYANNSATHER:allstar588@aol.com:1970-03-24:US:F:none:JOE SMOE
summerisamazinng7:vermilion7girl7:summerrogier@yahoo.com:1995-08-26:US:F:208.108.81.38:NULL
summerisamermaid:562188:partyanimal8@gmail.com:1995-04-21:US:F:184.6.100.195:NULL
summerisanangel01:angel8me:ferjenus@yahoo.com:1991-08-30:US:F:none:Summer  Hagood
summerisawesome:malmal2000::2000-11-11:US:F:74.128.163.156:mallory
summerisawesome05:amylee:pipipipipickles@yahoo.com:1980-06-29:US:F:none:some body
summerisawesome1:maggie12::1998-06-07:US:F:98.254.204.146:summer
Summerisawesome_4:8675309doggies::1999-3-11:TG:F:24.154.44.33:Madison
SummerIsAWinner:mauskiste56:usagirl123456@live.com:1995-06-20:US:F:74.225.117.72:Summer
summerisawsome:neonolon::1993-12-08:US:F:none:summerisawsome
summerisawsome123:summer1:gomlevel22@aol.com:1988-10-01:US:F:none:something more
summerisballin:100183:andtellsummer@aol.com:1992-07-06:US:F:24.117.54.144:elizabeth
summerisbeautiful:july111993:summer_othd@yahoo.com:1988-07-11:US:F:99.8.106.171:NULL
summerisbeautyful:tina6152:valentinakqiku@msn.com:1992-10-21:DE:F:91.34.122.248:tina
summerisbest:Sydney143:mrsreddog322000@yahoo.com:1975-08-19:US:F:none:Della Ray
summerisboy:winterisgirl::1991-06-18:HK:M:Mail from summerisboy:summerisboy
summeriscandy:305591:saskia.dodds@gmail.com:1997-6-19:AU:F:124.190.88.29:Saskia
summeriscmoing:nomorewar::1992-08-23:GB:F:none:clare wallace
summeriscmoing1:nomorewar::1992-08-23:GB:F:none:clare wallace
summeriscmoing1112:nomorewar::1992-08-23:GB:F:none:clare wallace
summeriscool01:docthegreat01::2001-03-07::F:67.184.228.141:NULL
summeriscool101:iamwhoa101::1998-01-01:CA:F:76.69.150.23:summer
summeriscool12:poppop12::2002-07-02::F:68.174.15.126:NULL
summeriscool1234:bebelle1234::2000-06-20:GB:F:78.149.242.175:isabelle
summeriscool1247:spring::1992-04-01:US:F:none:summeriscool1247
summeriscool164:ilovejosh:summerneonolon@hotmail.com:1988-12-08:US:F:none:Summer Nieto
summeriscool19:lupey67::1992-01-08:US:F:none:summeriscool19
summeriscool237712:I LOVE GOD:brcorwin1@yahoo.com:1987-11-09:US:M:none:Will Corwin
summeriscool269:Iliketoread::1991-10-17:CA:F:216.211.121.34:none
summeriscool6:lolol123::2003-03-24:EH:M:216.121.237.67:fghghgfdh
summeriscool852:Piper!:megamo@earthlink.net:1993-02-06:US:F:none:Katie Robinson
summeriscool98:superme98:allison.upchurch@yahoo.com:1994-01-01:US:F:98.82.118.62:NULL
summeriscool999:mcgowan99::1998-07-29:US:F:68.178.18.239:Rylee
summeriscool_123:neopets12::2000-04-09:GB:F:86.180.43.39:Eli
SUMMERISCOOL_651:KAVAUGHNLEE23::2002-05-12::M:74.190.109.5:NULL
Summeriscoool:summer12::1999-04-01::F:69.119.136.68:NULL
summerise:090992:msjj92@hotmail.com:1992-09-09:SG:F:220.255.7.216:marie sim Jia Jin
summerisflyy:iloveu@18:itssummerdawgg@yahoo.com:1994-07-26:EG:F:184.91.218.96:Summer
summerisfrozen:whattheythink32:pinkrainbowpisces@gmail.com:1908-12-31:CA:F:76.76.91.159:Summer
summerisfun200:summer100::2001-7-8:US:F:66.205.143.235:Bianca
summerisfun2home:summer10:alanparra14@yahoo.com:1994-12-14::M:76.210.235.129:NULL
summerisfun408:kin123:quincysaid@aim.com:1995-10-18:US:F:71.93.229.83:summerisfun408
summerisfunner2010:sierragrace12:summerisfunner12@gmail.com:1996-01-01:US:F:24.118.8.3:Kendra
summerisfunnyandcool:max2007::1999-4-21:US:F:71.181.242.241:summer
summerisgone_3_3_3:emilie14:summer.almost.gone@hotmail.fr:1993-07-17:FR:F:82.235.60.87:emilie
summerisgr8:7291992:shadow_sasha_forever@hotmail.com:1992-07-29:US:F:208.107.104.34:summer lianelle
summerisgreat:batman12:you_gotta_love_summer@yahoo.com:1993-07-26:US:F:75.108.164.42:Summer
summerisgreat24:IloveSummer42::1998-08-26:US:F:24.25.167.54:fluf fluf
summerisgreatlegit:1q2w3e4r5t:jeffiecore@live.com:1989-04-20:US:M:24.119.172.120:NULL
summerishere07:67582647:chong_hp@hotmail.com:1992-01-11:SG:F:220.255.7.144:huizhen
summerishere10:peaceful10:hugheskid123@charter.net:1996-01-08:US:F:97.89.170.115:allie
summerishere745:nailpolish745:rebeccamdirksen@yahoo.ca:1991-05-02:CA:F:192.139.153.30:Rebecca Dirksen
summerisheree:summer123:lacosta884@aim.com:1994-01-09:US:F:71.189.203.87:jacqueline
summerisherewow:mimi789:penguinszebras@aol.com:1994-01-01:US:F:24.102.216.117:Mimi
summerishere_24:naruto56:summer422lol@gmail.com:1980-06-20:US:F:68.45.46.134:Summers side account
summerishere__64:aaliyah26::2000-06-06:US:F:98.16.215.40:aaliyah
summerishot8:april1991:surfbabe_345@hotmail.com:1991-04-01:GB:F:90.207.195.26:april retter
summerishotawesome:26602n:puffle97@yahoo.com:1994-05-07::F:70.118.174.62:NULL
Summerishott:irish100::2000-05-03::F:67.173.173.231:NULL
summerisintheair:ilovesummer11:u-know-me-not@hotmail.com:1994-06-03:TZ:F:89.143.146.19:Summe
summerisisthayne:50damiller:blueyes2459@yahoo.com:1959-09-24:US:F:24.59.7.218:debbie
summerisjade18:neopets18::1998-06-18:US:F:69.146.230.9:Jade
summeriskewl19:Summer Hyden19::1998-10-19:US:F:24.32.187.70:Summer
summerisl0ve:emily537:EmlayLizbath03@aim.com:1995-01-07:US:F:72.189.173.176:Emily
summerislame_xD:tdlforever18:forreal.spazzymagee@gmail.com:1994-10-25:US:F:65.32.119.48:summer
summerisland:beauty11::1998-07-15:US:F:68.23.169.200:summer
summerisland123:joshua5296:water.splash@yahoo.com:1980-05-02:PH:F:122.53.175.7:janice
summerisland8:branch595::1999-07-01:GB:F:82.28.4.212:NULL
summerisle:starlite13:ohmigoshies@gmail.com:1990-10-17:AU:F:124.188.162.175:George
summerislove_:himyself12:starry_blu2@hotmail.com:1990-01-20:AU:F:211.30.29.225:Summer
SummerIsmail1:Ismail27:summerajami@yahoo.com:1988-3-23:US:F:99.51.155.227:summer
summerismine:elilovesme123:julielove500@aim.com:1997-10-22:US:F:69.117.86.244:NULL
summerismyname01:girlsrule01::1997-06-20:BS:F:65.124.174.39:tania
summerisneat:asdfghjkl12:summerisocoolike@aol.com:1995-07-10:US:F:216.30.225.184:Summer
summerisneverending:ikoto95:nannika95@hotmail.com:1995-02-05:MY:F:124.82.108.159:pfft
summerisno1:jazzieis01:masterxharry@hotmail.co.uk:1996-05-23:GB:M:92.20.113.147:david
summerisrad805:millove22:summer.lee.22@hotmail.com:1993-04-23:US:F:24.205.249.213:Summer
summerissocute59:dogsaresocute67::2000-07-25::F:72.87.120.55:NULL
summerissohot:summer:ihrtrach3lbilson@aol.com:1978-06-18:US:M:Item:shaban  ayala-torres
summerissped:BATMAN1:zebrasummer@yahoo.com:1993-06-29:US:F:none:SUMMER JENSEN
summerisstupid:hey123:mckae@bellsouth.net:1980-01-04:US:F:none:mckae blahblahblah
summerissummer1234:134697:thebestviolinistontheplanet@hotmail.com:1988-08-30:US:F:none:Summer A.
summerissummy:sunissunny:ttchozewski@yahoo.ca:1985-07-05:CA:M:none:lalalalalalalalalalalalala
summerissweet:123isme!:summer.hassan@hotmail.com:1989-08-12:CA:F:none:summer hassan
summerissweet123:123isme!:summer.hassan@hotmail.com:1994-08-12:CA:F:74.13.91.135:summer
summerissweet2012:tanzanitetopaz96:tanzanitetopaz@yahoo.com:1996-10-28:US:F:76.4.117.232:NULL
summerissweet904:cowboys09::1998-02-07:US:F:70.140.180.236:Summer
summerista:squishy21:rockin_radical_rebel@yahoo.com:1989-06-09:PH:F:125.60.243.114:Min Estrada
summeristhabest:iloveme123::2000-07-18::F:24.182.40.245:NULL
summeristhebest:summer13:asian_bully5000@hotmail.com:1991-07-13:CA:F:70.52.170.53:cutie
summeristhebest1234:friendsforever123::2001-9-28:US:F:71.1.62.181:Molly Taylor
summeristhebest1996:summer1996::1993-08-24:US:F:none:Summer Smith
summeristhebest43:lollipop::1991-07-04:CA:F:none:summeristhebest43
summeristhebest5:asians25:soccerprincess2@verizon.net:1992-06-17:US:F:71.126.93.253:Jamie
summeristhebestxx:dancer44::2001-07-25:GB:F:78.147.192.53:summer
summeristhebestxx4:dancer44::2001-07-25::F:92.17.131.96:NULL
summeristhebomb13:sticks13:daddysgirl6586@aim.com:1992-08-09:US:F:24.184.23.34:jjls refg
summeristheseason:piink123:aquariantwirler@aol.com:1992-09-29:CH:F:205.188.116.142:Sarah
summerisveryawsome:anna01:summerissofun@gmail.com:1985-06-09:US:F:67.248.79.20:Violet
summerisweird639:howdyloser:soccerstarmeggie@cox.net:1987-02-25:US:F:none:Megan Chatham
summeriswerid:whiskers12:destineystone@hotmail.com:1996-11-09:US:F:72.101.152.246:destiney
summeriswon30:installation:wizardsharp_9@hotmail.com:1980-08-07:US:F:none:horse crazy
summeriszzy:201pinker:paigehotty12@aol.com:1992-12-25:US:F:none:Isamar Castio
summerita:crackhead00:saj1@rice.edu:1927-01-01:US:F:68.91.121.101:Summerita
summerita101:happycoke12::1999-07-19::F:69.139.77.99:NULL
summerith:sethsmysweetie:lil_miz_cohen@hotmail.com:1991-12-25:AU:F:none:Kate G
summerity:9546025366yz:yifeizheng_@hotmail.com:1992-01-24:US:F:65.12.224.40:Summer
summeriuke:91424:_summer_@one.lt:1991-04-10:LT:F:none:summer summer
summerium:moosekin:my_mail_91@hotmail.com:1987-12-31:US:F:none:Summerium H
summerivy:freeman:summerivy1@webtv.net:1978-02-01:US:F:none:Diana Freeman
summerivy78:summerivy1:dianahottie@hotmail.com:1978-02-01:US:F:none:Diana Freeman
summeriwishiwinter:blond:blond_nation@hotmail.com:1988-12-16:US:F:172.190.13.203:keira levin
summerixi:ixklz::1992-11-02:CA:F:none:summerixi
summerizdabestxxx:trail13:tocoslove12@yahoo.com:1992-08-02:US:F:none:Summer Smith
summerizdabomb:jxt3057::2005-08-08::F:98.21.235.56:NULL
summerized44:trigger44:barngirl013@aim.com:1992-12-20:US:F:none:natalie && hearts
summerize_me:leeann:jlwhitmer@hotmail.com:1986-01-10:US:F:Battledome Challenge:Jessica Whitmer
summerizgreat:97elite:summerizgreat@aim.com:1994-01-01:US:F:72.222.225.204:Ki
summerizhere:042098:happybunny@gmx.us:1998-04-20:US:F:97.89.152.144:NULL
summerizland:orlando2:lorla89@hotmail.com:1988-11-15:GB:F:none:Summer Island
summeriztight:sexysum22:summerml@comcast.net:1992-07-31:US:F:75.72.230.114:summer
summeriztight2:sexysum22:summeriztight@gmail.com:1995-07-31:US:F:75.72.230.114:summer
summerizzel11:check11:holaitsummer@yahoo.com:1989-05-18:US:F:68.199.22.41:arielle and summer
summeri_8:summeri17:shreehari@hathway.com:1994-01-17:IN:M:210.18.154.183:shreehari
summeri_94:210894:sumppa-94-@luukku.com:1994-08-21:FI:F:84.253.254.146:Suvi
summerj:gilagin11:perfect_angel_964@hotmail.com:1991-02-27:CA:F:none:Alison Smith
summerj10:jordaniscute11::1999-07-16:GB:F:94.196.40.10:jordan
summerj101:987987:dogsrgirls@hotmail.com:1990-09-27:US:F:none:Summer Justian
summerj114:blue11::1997-03-07:US:F:72.78.174.210:Summer
summerj1993:summer::1993-07-14:US:F:none:summerj1993
summerj2005:daemon112:junesaphire13@aol.com:1993-06-08:US:F:none:lizzyie lear
summerj212:kearston:smmrj2jen@yahoo.com:1972-11-19:US:F:none:jennifer stuart
summerj261:kearston:smmrj2jen@yahoo.com:1972-11-19:US:F:none:jennifer stuart
summerj33:604785::2000-09-06:US:F:98.115.120.240:summer
summerj36:8au8adkj::2000-11-06:US:F:67.177.2.92:Summer
summerj911:bobo911::2000-12-01::F:166.166.212.210:NULL
SUMMERJ911413:BOBO911::2000-12-01::F:166.164.156.46:NULL
summerj9117:bobo911::2000-12-01::F:166.164.170.43:NULL
summerj91172:bobo911::2000-12-01::F:166.164.170.192:NULL
summerj98:summer98::1998-08-23::F:220.235.236.188:NULL
summerjackel:fenris:summer_jackel@yahoo.com:1976-05-31:US:F:none:Summer Jackel
summerjackson_997:997jack:summerjackson_997@hotmail.com:1974-08-07:US:F:none:Summer Jackson
summerjacob:jacob714:pickynikki714@gmail.com:1989-01-01:US:F:70.115.55.208:NULL
summerjade:cappie:pogopossum11@aol.com:1988-02-04:US:F:none:Summer McHaney
summerjade01:a1a1a1::2001-06-25:US:F:72.208.127.42:Summer
summerjade07:272727:winter_real_me_07@yahoo.com:1990-06-20:PH:F:121.1.44.66:summer jade
summerjade10:*henri*2003:summer-jade1@ntlworld.com:1994-07-21:GB:F:90.214.196.72:summerjade10
SummerJade1140:xobeccaxo123:kitty_furry@hotmail.com:1995-07-29:CA:F:173.237.100.98:NULL
summerjade123:spider123::2000-07-18:US:F:69.232.85.209:summer
summerjade2000:summer2000::2000-09-12:US:F:174.49.33.29:Summer
summerjade4567:dad123::2004-07-27:US:F:70.173.61.237:NULL
summerjade5:1357246::2000-3-2:US:F:65.27.255.237:summer
summerjadebun:bunbun31::2003-01-22::F:76.221.212.123:NULL
summerjadedube:summerdube77:gibbd@hotmail.com:1975-01-01:CA:F:68.145.67.168:sarah
summerjadex:blondie38:summergeorge@live.co.uk:1995-07-01:GB:F:2.218.123.141:NULL
SummerJadexx:summerjade12:summer-jadexx@hotmail.com:1994-08-15:NZ:F:122.61.105.154:NULL
summerjade_6:leanne06::1997-02-06:US:F:139.168.175.201:NULL
summerjae:Summer93::1993-12-04:US:F:none:summerjae
summerjae12:summer93::1993-12-04:US:F:none:summerjae12
summerjae393:Love93:summerjae93@aol.com:1993-12-04:US:F:76.106.66.132:Summer Hooks
summerjae93:cole93::1993-12-04:US:F:none:summer hooks
summerjae9393:Love93:summerjae93@comcast.net:1993-12-04:US:F:96.241.33.58:Summer Hooks
summerjae93__vv:summer93::1993-12-04:US:F:none:summerjae93__vv
summerjaid:diaj01::2001-06-27::F:71.55.80.8:NULL
summerjak:lynzee30::2004-07-13::F:98.237.71.174:NULL
summerjake:pillow01::2003-07-26:US:M:67.185.0.88:tom
summerjam:150892::1990-08-15:DE:F:195.93.60.2:Mi
summerjam04:fairgrieve::1992-07-24:GB:F:none:summerjam04
summerjam07:jayjay05:voightfarmschik06@yahoo.com:1992-05-14:US:F:69.253.140.30:taylor
summerjam1993:riley::1993-01-18:US:F:none:summerjam1993
summerjam2003:aguilera:inneminnemutetrut@hotmail.com:1969-05-19:BE:F:none:ddd ddd
summerjam2006:viperrt1:ghostonviper@gmail.com:1980-12-05:TR:M:none:Umur Coskuncan
summerjam208:murray::1992-07-24:GB:F:none:summerjam208
summerjam32:amelia32:babiiegrrl32xo@aol.com:1991-04-10:US:F:68.196.202.160:Amelia
summerjam4:ambecca22::1999-03-04:AU:F:121.219.40.185:Becky
summerjamal:summerj831:hershykisses_992@hotmail.com:1992-08-31:JO:F:79.173.237.6:summer
summerjamcederna:12571257:summerjamcederna@yahoo.it:1984-12-08:IT:M:217.133.172.98:Maurizio Rossetti
summerjamee1996:neogirl11::1996-10-17:US:F:69.116.198.187:Jamee
summerjamee96:neogirl11::1996-10-17:US:F:69.116.198.187:jamee
summerjammer11:catdog101:b.sweets9@yahoo.com:1995-08-06:US:F:69.112.169.97:summer
summerjammer1997:CATDOG101::1996-05-15:US:F:69.114.183.204:SUMMER ELLIS
summerjammer_6:CATDOG101:badgleymischa@yahoo.com:1993-08-06:US:F:24.186.118.90:SUMMER
summerjamm_:ww3323:wanda_dj@planet.nl:1965-12-16:NL:F:none:wanda de Jong
summerjams46:hahalol23:erinski23@hotmail.com:1993-04-30:US:F:71.115.40.54:Erin
summerjan:02301:luv_free@hotmail.com:1987-01-22:SG:F:none:jan jan
summerjana:patches123:smmrx0x8@aim.com:1997-09-30:US:F:108.5.251.170:NULL
summerjanae66:oby33::1993-12-27:US:F:none:summerjanae66
summerjane08:carpy246:carpy1013@hotmail.co.uk:1993-08-04:GB:F:86.134.211.49:Summer
summerjane12:dressage12::1996-04-17:US:F:64.26.72.153:leah
summerjane13:crewe and alana01::1995-07-25:AU:F:121.219.16.112:kourtney
summerjane18:kim18:starcrossed_lovers18@yahoo.com:1990-09-19:PH:F:none:Summer Jane Kazehiko
summerjane2009:Midnight17::1996-11-17:NZ:F:123.255.12.20:Bridie
summerjane3:beckham23:dirrty.x@hotmail.com:1991-12-03:AU:F:211.28.201.203:Summer
summerjane48:791989:bballhoopsta18@aol.com:1977-08-22:US:F:none:Summer Jones
SummerJane511:Tucker11::2004-05-11::F:64.12.117.79:NULL
summerjane93:fred$family!:hotbabe_86862000@yahoo.com:1993-01-07:US:F:none:Summer Graham
summerjane95:cabbage95::1994-04-01:AR:F:none:summerjane95
summerjanebabe:911swa:summerjane@hiptop.com.au:1995-04-01:AU:F:122.108.185.54:Summer-Jane
summerjane_3:mickey723:chab_cutie@yahoo.com:1995-01-09:PH:F:125.60.235.195:eli
summerjaredchandler:djstrawberry22:jsaint2@mac.com:1990-07-20:US:F:68.50.20.54:jarsumler
summerjas:darklove23:summerjas_mine@yahoo.com:1983-08-28:US:F:66.191.20.127:JulianaWilkinson
summerjasimne:dogs123456::1998-07-21:US:F:69.225.3.250:Sierra
summerjasmine101:fiyero666:summerjasmine@myway.com:1990-06-11:US:F:71.194.49.82:Rin C
summerjasmine19:yellowday15:debramarie17@yahoo.com:1990-12-26:US:F:70.109.124.138:Jasmine
summerjasmine20:august10:summerjas_mine@yahoo.com:1983-08-28:US:F:24.143.92.79:Juliana Wilkinson
summerjasmine271:tuesday21:angel0971@excite.com:1986-11-04:US:F:none:Angel Rose
Summerjasmine95:puppydog1995:neosjcg@hotmail.co.uk:1995-08-02:GB:F:86.3.191.14:NULL
summerjasmine98:summer98::1998-08-23:AU:F:124.168.245.26:Summer
summerjasminebff4eve:ghostbusters99::1999-01-19:US:F:68.56.237.153:NULL
summerjasminec:olives95:summerjasminec@hotmail.co.uk:1995-08-02:GB:F:86.6.137.84:NULL
summerjasper2k6:summerflossy!:jo-jo_2k6@hotmail.com:1992-09-18:GB:F:none:jodie bruton
summerjas_mine:august:summerjas_mine@yahoo.com:1983-08-28:US:F:66.191.20.127:Juliana Wilkinson
summerjay:greendayno1::1996-02-27:GB:F:94.12.246.129:summerjay
summerjay1:summer12::1997-10-20:NZ:F:203.184.56.9:summer
summerjay2:summer12::1997-10-20:NZ:F:203.184.56.9:summer
summerjay265348:SierraStarr25:lindaMartinez@yahoo.com:1994-06-25:US:F:24.174.180.192:Summerjay
summerjay5:summer34::2000-04-27:SH:F:203.184.47.88:summer
summerjay6:ilove123::1997-10-20:NZ:F:202.150.115.166:summer
summerjay62594:Sierra2004:kitty5794@yahoo.com:1994-06-25:US:F:71.21.100.37:Summerjay
summerjay69:annmarie11:summerjoudrey_@hotmail.com:1992-06-06:CA:F:24.142.33.172:NULL
summerjay7:ilove123:sum_sum76@hotmail.com:1980-10-20:NZ:F:202.150.119.249:summer
summerjay9:ilove123::1997-10-20:NZ:F:202.150.123.147:summer
summerjaya:summer02::2002-05-18:SG:F:202.156.12.11:Summer
summerjayagirl:summer76::2002-05-17:SG:F:218.186.9.251:Summer
summerjayden:ninja12::1999-08-08:US:F:76.6.106.245:jayden
summerjaye:dylanlodge11::1998-04-20:GB:F:94.8.93.99:NULL
summerjayne:lilliesky12:summer_jayne_wells@live.co.uk:1995-05-21:GB:F:92.13.132.201:summer
summerjay_aa:SierraStarr2004::1994-06-25:US:F:24.26.230.20:summerjay
summerjay__98:summer360::2001-04-03:GB2:F:81.110.107.159:chloe
summerjaz8s:aaron::1994-03-18:US:F:none:summerjaz8s
summerjazz817:taylor123:roxyhaster@yahoo.com:1994-12-15:US:F:216.151.187.110:Roxy
summerjb:summer12::1997-07-23:US:F:12.24.142.80:NULL
SummerJB8:463010::1999-06-08:US:F:173.172.211.231:NULL
SummerJB888:463010::1999-09-01:US:F:173.172.211.231:NULL
summerjbieber:catcat123::2000-08-25:US:F:71.63.52.9:NULL
summerjc07:madmax69:Sscox69@aol.com:1985-06-21:US:F:74.184.186.108:Summer
summerjc08:sean08:becker_edward@bellsouth.net:1980-06-21:US:F:74.184.186.108:Summer
summerjc21:softball21::1996-09-18:US:F:206.74.73.156:Summer
summerjcat:gohan23:trunks74@hotmail.com:1987-02-23:US:F:199.29.6.2:patrice
summerjd:jewell11::1998-08-19:US:F:68.46.209.77:Summer
summerjd112:manchester101::1996-09-24:US:F:76.119.80.115:Summer
summerjdbabe:sweety::1992-12-23:US:F:none:summerjdbabe
summerjean:frms07:sumkies@gmail.com:1991-07-02:US:F:72.155.15.116:summer
summerjean01:jack03::2003-11-26::F:174.24.195.157:NULL
summerjean1234:t0ha1a::1998-10-04:NZ:F:125.236.44.47:summer
summerjean16:candicane:apenny4yourthots@hotmail.com:1988-03-28:US:F:none:Summer Jean
summerjean211:winter01:archbamn@aol.com:1981-01-25:CA:F:none:amanda stone
summerjeanie:summer12::2000-05-14::F:65.161.86.125:NULL
summerjeanpalma:summer22:sunshinekidd@rocketmail.com:1991-06-21:US:F:68.4.126.68:Summer
summerjean_20:patience2:summerjean28@yahoo.com:1986-07-28:US:F:none:Summer Kruger
summerject:october:billlindadunlap@aol.com:1989-04-11:US:F:none:Summer Ject
summerjeffery:zoe101::2002-01-18::F:173.216.88.123:NULL
summerjehan:summer24::1996-06-24:US:F:208.125.14.234:jehan
summerjelly:monkeys123:hilcng@hotmail.com:1990-11-08:TW:F:58.173.129.139:Cup
summerjelly84:karen:kai_kai18@hotmail.com:1984-04-30:IT:F:none:summer jelly
summerjeng:applepie12:jgottfeld@csumb.edu:1991-01-31:US:F:198.189.249.14:Jenica
summerjeng123:applepie123:summerjeng@yahoo.com:1991-01-31:US:F:24.6.12.121:Jenica
summerjenni:1buddyboy1::2003-01-17:US:F:68.190.132.18:jennifer
summerjenniferjuly:iluvanthony:jenniferchan731@yahoo.com:1990-07-31:US:F:none:jennifer chan
summerjento56:daddy123::2001-01-18::F:174.45.64.90:NULL
summerjerseygurl:jersey:totalhotty@pokedream.com:1992-03-05:US:F:none:Alex call me alley Monroh
summerjes:473489:jesssung2007@gmail.com:1996-01-23:US:F:68.240.198.176:Jessica
summerjess87:011287:summerjess87@hotmail.com:1987-12-01:SG:F:none:tohur honda
summerjess95:bonkers800::1995-06-21:US:F:72.221.83.206:summerjess95
summerjessica08:meowser08:kittycat102@sbcglobal.net:1990-09-14:US:F:70.238.183.76:Jessica
summerjet:summerjet123::2000-08-31::F:173.63.44.176:NULL
summerjewel:brucie:5days@cox.net:1992-07-01:US:F:none:Kiki Day
summerjewel14:fucknut:chantilly_lace14@hotmail.com:1987-11-25:CA:F:none:Chantelle Paquette
summerjewel2:shadow07::1999-07-18:US:F:24.111.214.214:lexi
summerjewell00:summerjewell2000::2000-03-08:US:F:69.229.201.205:summer
summerjgreen:puppup22::1997-09-02:US:F:98.232.171.230:summer
summerjhansen:summer20::2003-05-20:US:F:174.44.150.125:NULL
summerjhball:Kacheek::1993-10-13:JP:F:none:summerjhball
summerjia:198322:summerjiahappy@hotmail.com:1983-02-02:CN:F:none:Summer jia
summerjigg:summer::2005-01-01:US:F:none:nicole freligh
summerjiggy:su33er:coleyfriz@aol.com:1982-06-04:US:F:Trade Closed:Nicole Freligh
summerjimenez24:summer224:mexicankartgirlz29@sbcglobal.net:1990-09-24:BJ:F:none:summer jimenez
summerjingles:qwertyp00p:blur_girlgirl@hotmail.com:1992-10-13:SG:F:220.255.7.226:NULL
summerjj:dhsl427:summerjunej@hotmail.com:1989-06-29:US:F:69.160.179.216:s j
summerjj1:lovetosing1::1994-02-28:NZ:F:none:summerjj1
summerjj1234:faithsummerjj123456::1999-01-20::F:96.254.26.83:NULL
summerjj3102:rainbowsummer3102::2002-03-01::F:97.127.6.119:NULL
summerjjsummer:summer4jj::1994-02-28:NZ:F:none:summerjjsummer
summerjj_9_9_9:rainbowsg12::2002-03-01:US:F:74.36.107.138:summer
summerjkcute:rockets12:justastar12@aim.com:1987-04-10:US:F:none:JustineBOO
summerjkingsley:06231997::1997-06-23:US:F:70.169.101.43:summer
summerjlenreese:remmusss21:princeszsummer@yahoo.com:1990-03-13:PH:F:180.193.46.23:Summer
summerjll:kepler14:doll.vanessa@web.de:1991-12-28:DE:F:none:Vanessa maia
summerjm:buy042wand022:summerjoymccowen@yahoo.com:1988-12-01:US:F:65.206.128.57:Summer
summerjmom:summer2009::2005-04-04::F:69.76.232.99:NULL
summerjo10:streak16:sammy8990@hotmail.com:1990-08-09:US:F:174.23.111.114:Samantha
summerjo2004:sjb0401::2004-04-01:US:F:68.0.234.247:summer
summerjo23:cooool23::1997-06-23:US:F:71.189.127.124:Katie Zimmerman
summerjo24:sparky1:summerjo@kiddonet.com:1988-06-23:US:F:none:Charlie Zimmerman
summerjo26:cooool!:summerjo@girlsense.com:1988-06-23:US:F:none:Katie Zimmerman
summerjo67:jojo67::2002-07-22::F:68.224.237.202:NULL
summerjo911:bobo911::2000-12-01::F:96.14.49.159:NULL
summerjo9115:bobo911::2000-12-01::F:96.14.0.230:NULL
summerjoan:z6191038:iluvtienyou4ever@yahoo.com.hk:1983-05-16:HK:F:none:ke ke bo
summerjoan2:DOLPHIN::1993-08-09:SG:F:none:summerjoan2
summerjoan5:anasaki:jerrie_on_dolphin@hotmail.com:1990-08-09:SG:F:none:i dunno
summerjoani:inlove:jerrie_on_dolphin@hotmail.com:1989-08-09:SG:F:none:i dunno
summerjobcompany:seifert226:whateva@cox.net:1962-07-26:US:F:none:K Martinez
summerjockdan:dan995:cho2x_chix2x@yahoo.com:1987-02-15:PH:M:Acceptance:michael angelo mendez
summerjoco:cazzeyla16:lauren@jacoworks.com:1992-05-16:US:F:none:lauren lauren
summerjoe45:19vib9t2:jackie.penick@yahoo.com:1996-04-05:US:F:68.112.129.23:NULL
summerjoey:weiwei201068:joey0102@gmail.com:1988-11-22:CA:F:142.161.124.132:joey
summerjohn1993:summerjohn13:smmrp14@yahoo.com:1993-09-27:US:F:152.163.100.77:summer
SUMMERJOHNSO:SUMMER12:summerrayne13@gmail.com:1995-10-06::F:98.223.117.196:NULL
summerjohnson02:Donovan02:lilmomma102202@aol.com:1982-01-10:US:F:74.211.85.157:Summer
summerjohnson67:honeybear13::1999-07-16::F:24.96.248.168:NULL
summerjohnson_7:8au8adkj::2000-11-06:US:F:71.195.192.108:summer
summerjohnting_10:srj123::1998-05-01:US:F:74.138.92.221:summer
summerjoiemacy:summerlovescack89::2003-07-08::F:76.23.5.148:NULL
summerjokes:candy123::1997-02-10:US:F:68.74.125.107:mary
summerjon:67665432:germaineluah98@yahoo.com.sg:1970-07-24:SG:M:165.21.155.88:Jonas Sng
summerjonah:55ghuyt::2005-10-20::M:70.56.102.92:NULL
summerjonas13:summer13:summerjonas13@yahoo.com:1995-12-05::F:99.65.139.119:NULL
summerjones2000:dusty00::2000-02-14:US:F:70.44.119.98:Lily
summerjones2010:sumash12::2001-02-08:US:F:173.184.167.254:NULL
summerjones921:suncat11:neopet921@yahoo.com:1997-06-20:US:F:97.123.72.114:summer
summerjonesgrade3:school12::2001-10-02:US:F:208.3.131.127:summer
summerjones_4:tyler23:karajones56@yahoo.com:1994-07-29:US:F:75.117.21.188:kara
summerjones_98:summerlouise98::1998-05-01:GB:F:82.19.94.6:summer
summerjoop:pledge12:cjvdzeeuw@hotmail.com:1978-11-16:NL:M:none:Kees van der Zeeuw
summerjordan:beyond123::2001-09-05:US:F:69.68.220.89:Summer
summerjordan294:dixie::1994-02-18:US:F:Challenge Accepted:summerjordan294
summerjordan877:dixie::1994-02-18:US:F:70.122.232.79:summerjordan877
SummerJoshandRachel:biscuits20:blindedbythelight310@yahoo.com:1994-03-20:US:F:173.51.71.211:NULL
summerjoy000:98quer::2000-06-20:US:F:71.177.12.57:summer
summerjoy06:raquel6::1993-08-06:US:F:75.25.31.149:summerjoy06
summerjoy122:HAPPYSUN99::1997-03-21:US:F:71.113.3.204:raven
summerjoy13:5757268:summerlance@sbcglobal.net:1994-06-14:US:F:75.11.173.103:summer
summerjoy14:5757268:sumjoymc@yahoo.com:1994-06-14:US:F:222.125.65.195:Summer
summerjoy17_a35:summer17:leticiagerry@yahoo.com:1994-08-17:US:F:76.26.255.72:summer
summerjoy18:5757268::2000-06-14::F:116.77.140.43:NULL
summerjoy1986:lovers:summerjoy1986@aol.com:1987-11-06:US:F:none:summer ashley
summerjoy1987:lovers:summerjoy1986@aol.com:1984-11-06:US:F:none:ashley summer
