summerjoy2005:bettie00:summerdawnbk@yahoo.com:1968-05-22:US:F:74.79.253.39:Baby Doll
summerjoy365:ebonygirl:joy_althia@yahoo.ca:1958-01-23:CA:F:none:Jo Whittle
summerjoy43:joys43:beaulieu43@gmail.com:1995-07-01:US:F:24.205.220.251:summer
summerjoy56:rainbow56:summerjoy_56@yahoo.com:1956-04-08:US:F:69.182.31.233:joyce
summerjoy66:puglover67:summerjoy66@yahoo.com:1990-02-01:US:F:none:Anna
summerjoy70:507557::1992-09-01:US:F:none:summerjoy70
summerjoy712:wyatt08:swires14@hotmail.com:1995-03-25:US:F:71.231.149.224:summerjoy712
summerjoy77:20ada00:sjll93@hotmail.com:1977-08-29:US:F:none:sj
summerjoy79:sunset1:summerjoy91@yahoo.com:1991-07-09:US:F:24.35.55.127:Summerly  Lunz
summerjoy8:dewild12::1999-02-19:US:F:12.205.116.234:hannah
summerjoy9:nevahg1:summerjoy91@yahoo.com:1988-07-09:US:F:24.35.55.127:Summerly Lunz
summerjoy91:nevahg:summerjoy91@yahoo.com:1991-07-09:US:F:12.204.192.2:Summerly Lunz
summerjoy9403:joy9403:lelsmmr9403@yahoo.com:1994-03-31:US:F:76.104.18.158:Summer
SummerJoyce:TeamFreeWill12:summer.maskey@gmail.com:1995-12-28:AU:F:114.77.143.29:NULL
summerjoyduh:es8910:chrisbrowns2cute@aim.com:1991-04-23:US:F:70.189.178.120:Summer joy
summerjoydunford:eden1:agirlinluv@hotmail.co.uk:1993-05-19:GB:F:none:summer dunford
summerjoydunfordzz:eden1:agirlinluv@hotmail.co.uk:1988-05-19:GB:F:none:summer dunford
summerjoyelektra:mimbulusmimbletonia:summer_radcliffe@yahoo.com:1991-11-22:US:F:none:SummerJoyElektraWatson
summerjoygurl889:candy89::1989-08-12:US:F:Can I be your NeoFriend?:Beth Parent
summerjoyof4seasons:mimbulusmimbletonia:summer_radcliffe@yahoo.com:1986-11-22:US:F:neofriend:SummerJoyWatson
summerjoyp:sjp099:katdesum@yahoo.com:1974-05-26:US:F:75.90.21.150:summer
SummerJoysLuv:buy042wand022::1998-12-01:US:F:72.135.29.253:Summer
summerjoysunshine:ghisghis::1993-09-22:NL:F:none:summerjoysunshine
summerjoy_1:torie123::2001-02-02:US:F:69.121.183.230:victoria
summerjoy_43:ilovetim43:summerjoy43@gmail.com:1995-7-1:US:F:64.149.158.142:Summer
summerjoy__:may17kd:cute_gymnast17@hotmail.com:1989-05-17:US:F:none:Summer
summerjp:mollyme99:katdesum@yahoo.com:1965-05-26:US:F:71.31.236.58:summer
summerjq:sjq92831:summerj92@hotmail.com:1992-08-31:JO:F:86.108.20.7:Summer
summerjt:110605:summerjt@hotmail.com:1990-07-25:MX:F:173.254.206.111:Lupita Maldonado
summerju:crazy2:summerju@aol.com:1961-12-27:US:F:Mail from boy45692:Judy Stephens
summerju12:monkey999::1998-07-04:US:F:68.230.37.211:tatum
summerjubran:hellokitty13::1999-02-05:US:F:75.83.142.155:Summer
summerjuice:canada422:hollist3rx@hotmail.com:1985-10-26:US:F:68.104.160.164:SARAH !
summerjul109:horse:summerjul109@comcast.net:1991-07-09:US:F:155.33.140.210:none
summerjuli38:mausimaus38:Juli-Summer38@yahoo.de:1990-07-09:DE:F:84.62.183.242:Julia
summerjuly26:july34::2000-07-03:US:F:12.216.103.27:ally
summerjuly93:paleo:summerjuly93@yahoo.com:1987-07-04:US:F:none:Jennifer H
summerjulyrocks:nownow::1992-07-26:CA:F:none:summerjulyrocks
summerjuly_7:cryingbabys12::1998-06-07:US:F:70.149.131.85:marie
summerjump:Therese14:marie.moog@live.de:1994-07-11:DE:F:80.133.98.164:Noomi
summerjump123:happyface123::2000-01-09:US:M:99.133.161.252:Hoatson
summerjumper:shaila:jalinolin@comic.com:1986-09-28:US:F:none:Show Winner
summerjumpin5:SPACE44:tdkcak@netzero.net:1995-07-04:US:F:24.22.25.206:Jane
summerjuncky2005:justin::1992-11-24:US:F:none:Brianna Kloeckner
summerjuncky2005_1:adam11:summerjuncky2005@yahoo.com:1972-11-24:US:F:none:Brianne Kloeckner
summerjundi2011:summer2011:summer_jundi@hotmail.com:1995-04-16:CA:F:207.216.160.110:NULL
summerjune:summerjune06:regina_cheryl@yahoo.co.uk:1990-06-06:SG:F:202.21.159.253:fong
summerjune0601:junevoon:tyng8584@yahoo.co.uk:1985-06-01:MY:F:none:june tyng
summerjune1:snoopy11:kariyozviak@aim.com:1997-06-26:US:F:99.99.232.53:NULL
summerjune1112:rachelismyname::1993-06-21:GB:F:none:summerjune1112
summerjune123:hapi1:viruspso@aol.com:1979-06-14:US:F:none:Nicole Tcheniavski
summerjune14:love12::1996-06-14:US:F:96.225.157.60:summer
summerjune21:753214896::1999-04-20:CA:F:142.22.16.59:jasmine
summerjune22:turtle22:june_239@hotmail.com:1989-06-22:CA:F:none:June Summer
summerjune381neo:elmo12:ginger244522@yahoo.com:1988-10-25:GE:F:none:j s
summerjune4673:69031::1991-06-01:GB6:M:none:none
summerjune7:agpoon07::2004-06-07:US:F:71.202.130.80:jessica
summerjune8:babylooney8:chara549@hotmail.com:1989-05-08:US:F:173.208.33.228:joy brown
summerjune96:638891:sujumini@yahoo.com:1967-08-15:US:F:none:jumie jacob
summerjunegirl:moonfly247:allstar247@gmail.com:1970-01-07:US:F:70.104.149.253:Ali
summerjunesnow:STARWARS11::1997-05-08:US:F:208.100.241.221:SUMMER
summerjune_8_8:password1234::2000-06-09:US:F:24.164.20.46:maya
summerjunkie03:lillian8:btechic@yahoo.com:1991-08-03:US:F:none:Lilly Hippel
summerjunly:2345689::2007-12-10:US:F:75.190.185.185:justice
summerjustian:summer10::1992-09-27:US:F:none:none
summerjustinbieber:skippy21::1998-02-08::F:74.141.17.251:NULL
summerjuwina:33924235:prue_ju@yahoo.com:1989-12-30:MY:F:203.59.190.252:Juwina
summerj_2004:Pisces:xosummerxo_2003@hotmail.com:1987-02-20:US:F:none:Summer Jones
summerj_d:sunshine123:summertimez1998@yahoo.com:1994-08-19:US:F:74.245.163.132:summer
summerj_rox:twenty1guns13:summerJrocks@gmail.com:1996-08-06:US:F:99.23.188.34:Summer
summerj__aa:199709072008::1997-09-07:CN:F:116.3.147.120:﹍墅ρs蠻①mю
summerj__xx:sum544:werido@bellsouth.net:1993-03-24:US:F:none:summer jam
summerk02:summer02::2002-01-20:US:F:75.181.60.60:NULL
summerk07:rosie12::2001-04-07:GB:F:86.148.51.95:summer
summerk09:ritter38::1999-04-27:US:F:174.131.119.96:Allison
summerk0ala:k0ala31:redbubbl3s@gmail.com:1996-12-02:US:F:24.7.181.204:NULL
summerk101:babe911:kkangel1230@yahoo.com:1990-12-30:US:F:none:Kayla Bayla
summerk104:summer79::1999-01-10::F:72.178.170.215:NULL
summerk121655:london12:sweet_kayla_55@hotmail.com:1989-10-16:CA:F:none:Kayla Jonson
summerk123:wildchild5040:summer_k04@hotmail.com:1987-01-01:GB:F:none:neopet lover
summerk13:30096T:biq_pimpin@yahoo.com:1994-10-17:US:F:68.158.113.5:Summer
summerk161989lol:aaron9:summer_strickland2003@yahoo.com:1989-10-21:US:F:none:summer strickland
summerk16866:aaron8:summer_strickland@yahoo.com:1989-10-24:US:F:none:summer strickland
summerk1972:102503:summer-alan@sbcglobal.net:1972-11-28:US:F:76.200.74.157:Summer  Time
summerk1978:payton:skparden@hotmail.com:1978-02-07:US:F:Challenge Accepted:Summer Smith
summerk1998:kunke10::1998-03-01:US:F:98.206.133.18:summer
summerk21:summerk21::2002-08-06:US:F:71.3.156.45:NULL
summerk624:summer624::1999-06-24:US:F:68.158.7.64:Summer
summerk98:kevin98::1998-01-01:US:F:71.161.245.24:summer
summerka:jibbery96:sunshinesummer96@yahoo.com:1996-09-17:US:F:71.144.71.60:Summer
summerkacheek:711diva:sakuramoonrise@gmail.com:1989-07-11:US:F:71.154.13.36:Natalie
summerkagome:loser::1994-03-31:CA:F:none:summerkagome
summerkahei:kahei73:summerkahei@yahoo.com.hk:1990-07-03:HK:F:none:yip kahei
summerkait:love13:all_4_moolah@hotmail.com:1994-04-11:CA:F:86.5.93.53:Katie
summerkaithlynn_6:08kaithlynn::2008-07-09:GB7:F:83.85.30.115:kiki06
summerkalei:summvp12:summer_kalei@hotmail.com:1991-05-26:US:F:98.165.0.191:NULL
summerkame:kame89:summer_shinez@hotmail.com:1989-01-07:MY:F:none:seah mai shi
SummerKameron:fishlover123::2000-08-08::F:216.41.244.81:NULL
summerkamm:linnae12:summer_kamm@yahoo.com:1993-06-08:US:F:24.16.188.5:summer
summerkamp:0:: I am...::hanneke_post_1@hotmail.com:134217735:I? I? I.. I am eeh.. eeh.. I
summerkandii1999:maplestory11:cutesingingmonkey@hotmail.com:1996-01-19::F:123.211.235.118:NULL
summerkaneshiro:161019:summer_kaneshiro_5566@yahoo.com:1985-10-11:MY:F:none:summer yee
summerkania:summer12::2001-06-24:US:F:98.221.93.68:summer
summerkania1:patrycja123::2002-6-3:US:F:98.221.93.68:summer
summerkao:s12345:summer8684@yahoo.com.tw:1990-06-22:US:M:118.170.13.10:summer
summerkasi:heeroyuy:zeph_blaze@gundamwing.net:1988-12-23:PH:F:none:Megumi Kazega
summerkat:caflabadab:kcmaier@optonline.net:1992-06-01:US:F:none:Samantha  Maier
summerkat1234:141876:glsnlas@aol.com:1987-11-19:GB2:F:none:Kika
summerkat13:456987::1993-11-24:US:F:none:Alyssa oneal
summerkat16:zilla13:summerkay2007@yahoo.com:1995-02-27:US:F:173.89.235.139:NULL
summerkat20:prettypinkponey13:KaitlynBriana@aol.com:1993-02-11:US:F:71.164.147.66:Kaitlyn
summerkat23:love4ever22:summerfotochick@hotmail.com:1994-02-28:NZ:F:125.239.25.215:summer
summerkat258:rocky12:rkarrrkat@aol.com:1967-02-02:US:F:68.205.59.59:Kathy
summerkat422:xoprincessox:punkprincess422@yahoo.com:1990-04-22:US:F:none:Nicole Rivera
summerkat7:lspssa7:lspssa@comcast.net:1991-04-15:IT:F:none:summer siemieniak
summerkate09:bandit12::2003-01-06:US:F:72.66.201.53:Summer
summerkate10:123194:kmsoccer144@aol.com:1989-12-31:US:F:68.83.89.12:Katelyn
summerkate2:26172617::2005-9-13:IE:F:84.51.245.130:summerkate
summerkate6:maxapoo::1992-09-05:US:F:none:summerkate6
summerkatebre:poppit18::1998-01-09:US:F:76.101.23.169:kate
summerkatherine3:summer23::1996-02-05:US:F:24.189.118.2:katherine
summerkatrina43:alaina123::2000-02-19:US:F:68.102.240.204:NULL
summerkatrina96:andreaportillo96:vera.verano@hotmail.com:1993-03-02:US:F:76.213.235.16:andrea
summerkat_823:missnsixgrade:xxsoftballqt32xx@sbcglobal.net:1989-08-23:US:F:none:kaity sandders
summerkaulitzth:tokiohotel123::1996-04-05:GB:F:86.151.165.207:Summer
summerkay:summer22:jpbecca@arbbs.net:1995-07-12:US:F:165.29.87.254:summer
summerkay123456:skr12345::1998-09-02:US:F:173.80.105.185:Summer
summerkay2008:phillip03:popcornlover_2008@yahoo.com:1996-03-18:US:F:184.6.3.30:summerkay2008
summerkay56:sk1956:skwalker50@yahoo.com:1956-07-03:US:F:70.192.121.252:Summer
summerkay89:pooper13:kayla_aboulhosn@yahoo.com:1986-12-04:US:F:74.34.138.220:kayla
summerkayb:daddy567:reesypiecy555@yahoo.com:1992-06-22:US:F:76.6.86.106:Summer Brown
summerkayd456:august16:tdhoang3@yahoo.com:1993-08-16:US:F:none:Kayleigh Hogan
summerkaye:friends11::1997-07-19:US:F:98.119.194.136:Summer
summerkaye6:hannah14::2003-10-24:GB:F:195.93.21.4:summer
summerkaye8:hannah14:hannah_tar@hotmail.co.uk:1995-10-24:GB:F:195.93.21.2:summer
summerkayla:summer123::1997-08-07:US:F:70.126.188.66:Summer
summerkaylee1997:19971997::1997-03-25:US:F:71.64.21.11:kaylee
summerkaylyn:babygurl22:uniqueangel0@yahoo.com:1982-01-05:US:F:12.74.209.191:Summer
summerkays:175700:dsummerk@gmail.com:1987-05-20:SG:F:165.21.154.98:Summer Parker
summerkaze:persimmon1101:tennis_bear2020@yahoo.com.sg:1985-01-01:SG:F:202.156.13.4:Rayko Ong
summerkbear:12smile::1996-07-09:US:F:76.115.46.49:becky
summerkd:angelgal::1994-01-17:US:F:none:summerkd
summerke:13112001:genevieve_lelievre@hotmail.com:1986-01-13:BE:F:none:Geneviève Lelièvre
summerke10__30:summer10::1999-02-02:BE:F:78.21.102.31:summer
summerkealey:kealey10::1997-10-6:US:F:72.133.245.45:summer
summerkealey2000:kealey09::1997-10-06:US:F:69.23.85.10:summer
summerkeen770:violet770::1997-07-12:CA:F:68.149.68.139:summer
summerkeller:brandy27::1993-11-20:US:F:none:summerkeller
summerkelley:neopetsarethebest08::2002-07-28:US:F:64.130.139.101:summer
summerkellis534:bulldogs02:summermunkie@msn.com:1994-03-10:US:F:68.189.203.26:Summer
SummerKelly:ck1975::2003-06-20:US:F:108.92.183.80:NULL
summerkellychiew:900112:missingyou_kelly@hotmail.com:1990-01-12:MY:F:none:kelly s
summerkellyko:kellyko1:summerkelly@hotmail.com:1981-06-02:TW:F:none:利 凱
summerkennedybby:diebitch16:summerkennedybby@aim.com:1990-06-30:US:F:68.58.172.179:summer
summerkerbes:buddys2:little_miss_smartass_11@hotmail.com:1989-12-23:CA:F:64.59.144.24:summer kerbes
summerkerr:minun12:jamesrichardkerr@hotmail.com:1993-01-17:US:F:none:kate clancy
summerkevin:kk2004:leechakfungkevin@yahoo.com.hk:1972-12-23:HK:M:none:lee kevin
summerkevin1:triplekev10::1998-07-10:CA:M:76.69.4.188:Kevin
summerkewlkat2006:*kas*:sherylcoburn@yahoo.com:1988-09-05:US:F:none:Kasey Coburn
summerkgirl2000:summer2000::2000-03-25:US:F:74.194.11.119:summer
summerkhill:kaskaya59::1998-09-09:US:F:72.130.135.197:summer
summerkhim:pickkhim:gohcheeboon@hotmail.com:1987-10-03:MY:M:none:batista88 boy boy
summerki:lauris502:tigrecito_94@hotmail.com:1993-02-06:CO:F:none:Laura Gonzalez
summerki1215:753951456:Ngokevin25@yahoo.com:1989-11-04:US:M:69.227.191.159:kevin
summerkia:aiai99:summers11@ymail.com:1976-12-19:NZ:F:121.203.123.71:summerkia
summerkiana:kianasapson101::1999-11-25:US:F:76.19.205.159:Kiana
summerkid0:gr102417:wakeron@aol.com:1989-09-17:US:F:69.134.39.127:Captain Kasander Summers
summerkid1000:summer12:ebubblegumtape@hotmail.com:1991-05-24:CA:F:67.158.67.33:meagan
summerkid1000__ww:meagan12:ebubblegumtape@hotmail.com:1949-02-24:CA:F:67.158.67.136:mweagan
summerkid11:elton brand::1994-09-01:CA:M:99.250.149.86:summerkid11
summerkid1122:112295::1995-11-22:US:F:68.197.216.239:Ashley
summerkid12345:frederick101:augustgurl101@aim.com:1993-08-10:US:F:none:caitlin cavin
summerkid199609:Bandit1107:lynne_munroprinting@hotmail.com:1990-08-09:US:M:76.116.163.2:Trevor
summerkid2:TDA123:gtagcm@aol.com:1995-07-06:US:M:74.101.121.118:Anthony
summerkid2232:love22:Jksoccer247@aol.com:1992-02-22:US:M:68.38.31.201:Danny
summerkid297489::::::65.80.1.127:NULL
summerkid46:33344::1993-06-01:US:M:none:summerkid46
summerkid513:desiree513::1993-08-02:US:F:none:summerkid513
summerkid57:summerkid58::1999-01-01:US:M:71.176.228.156:Matt
summerkid6:kisha9:jacobplourde@hotmail.com:1993-09-05:CA:M:24.137.192.164:jake josh
summerkid634:tubby11::2000-11-07:US:F:75.20.146.159:McKayla
summerkid747:summer::1992-06-29:US:M:none:summerkid747
summerkid86:mommymaya86::1998-08-06:US:F:74.64.57.214:ufuoma
summerkid89:cute123:steven325@yahoo.com:1987-12-19:GE:M:98.88.22.14:steven
summerkid9:joshua99::2008-01-01:US:M:99.250.101.61:lol
summerkid900:ashy233::2000-10-27::F:65.30.197.25:NULL
summerkid9422:blue23::1994-04-10:US:F:none:summerkid9422
summerkid95__ll:cba321:summerkid95@aol.com:1993-07-16:US:F:none:nellie feeney
summerkid96:digimon::1994-03-04:US:M:none:summerkid96
summerkid98:isaac12::1998-04-28:CA:F:70.71.252.76:summerkid98
summerkidd00:lauren!:laureneschmitz@comcast.net:1988-11-28:US:F:none:bob frank
summerkidd4ever:fluffycat:krisitnpurdy@hotmail.com:1990-02-27:CA:F:none:Kristin none of yer busniss
summerkidhero:jacob::2000-08-05:CA:M:24.137.192.164:summerkidhero
summerkids:20021988:pigglet_88@hotmail.com:1987-02-20:SG:F:none:eileen soh
summerkids01:ton010101::2003-05-20:US:F:72.64.68.83:NULL
summerkids11:rik8694:i_heart_afi_dude@yahoo.com:1990-06-28:US:F:99.177.91.46:Saralita
summerkids2608:51741276:timmy_kt@hotmail.com:1985-10-24:MY:M:60.53.116.123:summer kids
summerkids4:cooliekids4::1992-09-27:US:F:none:summerkids4
summerkidsrock:1060222::2003-05-20::F:72.64.68.83:NULL
summerkidxox:kevinismylove11:hawaiisurfer11@yahoo.com:1991-02-16:US:F:69.249.149.16:Mary
summerkidz:9502435:pinkcornelia@yahoo.com.sg:1985-01-31:SG:F:218.186.9.225:SuMmErKiDz
summerkidz344:bratz88:alyssarhae66@hotmail.com:1992-10-10:US:F:71.136.255.29:SummerKidzClub
summerkid_2004:lulus:natashatassie11@hotmail.com:1990-08-22:CA:F:207.216.54.75:natasha tassie
summerkid_9:usher:summerkid9@aol.com:1989-10-31:US:F:Mail from 007girl007:CM
summerkiissx3:iloveyou:summerkiissx3@netscape.net:1987-12-22:US:F:none:veronica carroll
summerkiiszx0:meganre::1992-06-13:US:F:none:summerkiiszx0
summerkiiszxo:megan::1992-06-13:US:F:none:summerkiiszxo
summerkiki:keyara10::2001-01-10:US:F:76.7.199.194:NULL
summerkiki1122:momdad123::1999-11-10:US:F:206.192.243.131:Kiki
summerkikiru:summergirls::1985-07-04:US:F:none:Linn Spinner
summerkiko7:chocolate12345::2000-04-10:CA:F:64.59.144.87:Jessica
summerkiko8:dogsrock12::2000-04-17:CA:M:24.84.178.232:pengyoung
summerkiko9:dogsrock12::2000-04-17:CA:F:64.59.144.87:shayla
summerkill:hellokitty01::1996-08-19:NL:M:86.88.41.198:robin
summerkiller:summerbingo09::1998-01-07:US:F:65.60.168.244:summer
summerkillings:Summerkillings13!::1996-11-17:GB:M:81.131.120.66:NULL
summerkills:momtaz1:farzandshaz@hotmail.com:1980-07-03:GB:F:none:shazeda begum
summerkills33:33335:mschmidt98@fccglobal.net:1987-04-10:US:M:70.63.34.146:chris boehmer
summerkim:summerboo74::2001-06-13:US:F:72.193.204.11:summer
summerkincaid:01brooke::2001-09-27:US:F:75.109.141.87:summer
summerkindagirl3:kathleen::1992-04-12:US:F:none:summerkindagirl3
summerkindofgirl:cmlafonda1:ccaatthhlleeeenn@aim.com:1993-09-22:US:F:67.167.51.247:Cathleen LaFond
summerking:gamety:eallon7106@yahoo.com.tw:1991-07-24:TW:M:none:冠豪 陳
summerking1:lilly08::1998-07-12:US:F:75.90.145.97:NULL
summerking1234567:1234567s::2000-06-27:US:F:69.40.21.49:NULL
summerking13:cardking13:zakwilcox@comcast.net:1995-09-12:US:M:98.213.249.81:zak
summerking1325:swordfish4326:jrg800@sbcglobal.net:1996-10-09::M:68.250.128.5:NULL
summerking2470:lilly08::1998-07-12:US:F:75.90.146.159:NULL
summerking53:good boy::1992-07-19:US:M:none:summerking53
summerking_94:00daniel00:changyeong_chua@hotmail.com:1994-01-02:MY:M:60.53.246.226:chuachangyeong
summerkinntes:webkinz67:didntsayanything@yahoo.com:1980-09-18:US:F:65.175.160.168:dana
summerkins11:summerbailey11::1997-02-06:US:F:69.243.192.211:summer
summerkins178:072288:hyperteen@hotmail.com:1980-08-20:US:F:none:Josephine
Summerkins_2011:ily*Cody24:sharpshootinsummer107@yahoo.com:1993-04-28:US:F:68.47.178.205:NULL
summerkinz:tika67::1997-06-11:US:F:68.34.51.72:Summer
Summerkinz2:E71n#1234:peacefulsummergirl@gmail.com:1992-08-15:US:F:71.215.0.170:Summer
summerkirby:crapz:xkevinxevin2003@yahoo.com:1990-07-29:US:F:none:Kevin Tran
summerkirgan:angel24::1998-03-18:US:F:75.129.244.232:summer
summerkiss:kissy:amezos@hotmail.com:1989-06-07:AU:F:none:roxy ryan
summerkiss04:2001023552:shelbyxoxo32@aol.com:1990-10-06:US:F:Trade Closed:Shelby Isom
summerkiss05:lauren::1993-09-23:US:F:none:summerkiss05
summerkiss111:antivirus:miranda00810@freenet.de:1989-01-21:DE:F:none:miriam eisenbart
summerkiss11111:antivirus:summerkiss11111@web.de:1989-02-22:DE:F:Mail from theneopetsteam:kira lang
summerkiss1313:Dream1st:onesweetmiracle@aol.com:1992-07-14:US:F:none:Lexie None
summerkiss1992:snoepie1::1992-10-21:AN:F:none:summerkiss1992
summerkiss1993:snoepie1:rietjefrietje5@hotmail.com:1992-02-12:NL:F:none:rianne moens
summerkiss2011:rockstarz18:summerkiss1992@yahoo.com:1992-10-27:US:F:67.239.116.100:Nicki
summerkiss220:nick pizzola:debbina@aol.com:1991-02-20:US:F:none:Jenny From Debock
summerkiss334:dogpal:purpleprincezz10@sbcglobal.net:1991-05-14:US:F:none:Chelsea lene
summerkiss353:lovee::1994-03-06:US:F:none:summerkiss353
summerkiss39:music39:mischiefw813@hotmail.com:1993-08-17:US:F:none:Summer Kiss
summerkiss555:miranda10::2000-08-10::F:24.130.91.201:NULL
summerkiss59:bienchen11:dorsi59@freenet.de:1989-02-05:DE:F:85.176.88.8:tanja
summerkiss727:143cory::1993-07-27:US:F:none:summerkiss727
summerkissdbabe:eddie:dreammergal34@peoplepc.com:1989-03-18:US:F:none:AmberMerryman
summerkisse:xiuwei94:joeylinxw@hotmail.com:1994-05-03:SG:F:218.186.13.243:NULL
summerkissed:idontcare13:colorizedkiss@hotmail.com:1993-09-30:US:F:71.231.234.119:Dylan Smith
summerkisses:summerkiss:wow_animalsrule@hotmail.com:1990-06-24:CA:F:none:Katelyn wolfe
summerkisses006:giggle:raspberyy90@yahoo.com:1982-03-23:US:F:none:Alicia Cider
summerkisses07:ginger87:lynn-182@hotmail.com:1993-01-04:CA:F:142.162.170.50:Vicky
summerkisses090:rockon12:SMRABDOU@YAHOO.COM:1995-08-02:US:F:173.54.93.30:summer
summerkisses13:always_12:ashlee.xo.xo@hotmail.com:1994-03-26:CA:F:70.50.75.21:Ashley
summerkisses16:kisses56::1996-03-26:GB:F:88.105.65.202:
summerkisses16111:weasley1:summerkisses16111@yahoo.com:1990-01-21:US:F:none:Jasmine Garner
summerkisses168:poems88:hanhn1988@yahoo.com:1988-08-17:US:F:67.172.38.176:Miss Nguyen
summerkisses23:specialdeal80:x.x.jaquie_l.x.x@hotmail.com:1992-03-15:CA:F:204.112.131.245:Michelle
summerkisses502:bunny300:pinkpanther09092@msn.com:1987-06-11:US:F:none:alyssa soule
summerkisses524:bored:treetreey@yahoo.com:1986-05-24:US:F:none:Ashley Burke
summerkisses66:laureng6:summerkisses66@yahoo.com:1990-12-28:US:F:none:lauren goebel
summerkisses8879:shaunj:xoxbeachbabe8879@yahoo.com:1986-05-15:US:F:none:ashly camdin
summerkisses911:420509:summerkisses911@comcast.net:1991-01-27:US:F:none:Rachel fazz
summerkisses92:italian11:elisa928@yahoo.com.au:1992-10-04:AU:F:202.148.231.54:summer
summerkisses9593:loveisall2:xsummerkisses9593x@yahoo.com:1990-09-05:US:F:none:nikki
summerkissess:mbarrett33:Bratica247@yahoo.com:1993-07-03:US:F:72.160.194.178:monica
summerkissess26::::::74.194.64.166:NULL
summerkissess97:superb97::1997-05-11:US:F:72.158.237.30:summer
SummerKissesss26:boobear26:beach_cutiie28@yahoo.com:1991-01-02:US:F:74.194.64.166:NULL
summerkissesx0x:spooky92:iloveyou92x0x@yahoo.com:1992-10-07:US:F:24.186.227.112:Summer
summerkisses_4:honey123:strawberries.and.kisses@hotmail.com:1994-01-15:GB:F:none:India  Rawlings
summerkissez:s9721210d::1997-06-26:SG:F:220.255.7.222:ChuLin
summerkissez05:mathis1225:summerkissez05@aim.com:1991-12-25:US:F:169.139.112.9:Brittany
summerkissez14:kisses:babygirl_983@hotmail.com:1990-10-02:CA:F:none:Maddi H
summerkissez2004:bethany:xroxybeachbabex@hotmail.com:1990-05-13:US:F:none:rachel burst
summerkissv:740726:kusy74726@yahoo.com.tw:1985-07-26:TW:F:none:summer kuo
summerkissxx:angelay99:kiwi_hearts_drums@yahoo.com.ph:1993-08-19:PH:F:222.127.228.7:Angela
summerkiss_1:james93:xKateClarkex@hotmail.co.uk:1991-10-12:GB:F:86.144.128.2:Kate
summerkiss_1992:UNIcorns123456:summerkiss90@yahoo.com:1992-10-27:US:F:67.239.96.51:Nicki
summerkist:goof45:summ3rkist@yahoo.com:1989-04-05:US:F:Trade Closed:Danielle
summerkit:0777777:marco_2036@yahoo.com.hk:1978-04-27:HK:F:219.76.251.150:溥幸 寡情
summerkitsune:auggie:winterkitsune@yahoo.com:1987-01-01:US:F:none:Athena Maxell
summerkitteh:monkey202:tleonard017@yahoo.com:1992-10-31:US:F:69.27.74.65:summer
summerkitten:holly:i.croberts@xtra.co.nz:1990-01-12:NZ:F:none:Amanda Roberts
summerkitten16:creampuff:summerkitten16@hotmail.com:1987-07-20:US:F:none:Kat T
summerkitten2003:jessie:notarycyn@aol.com:1990-02-03:US:F:none:How about  um...NO
summerkitten55:!flower95!::2000-05-26:US:F:72.247.146.92:NULL
summerkitten88:poohbear:summerkitten88@aol.com:1988-07-14:US:F:none:Kirsten Shiles
summerkitten99:puppydog99::1998-08-28:US:F:72.23.77.142:summer
summerkittengirl:meow!@#mix:zelda_lover_no1@msn.com:1993-03-19:US:F:174.22.1.153:Summer
summerkittens124:neopet12:summerkittengurls@yahoo.com:1992-04-01:US:F:none:Vanesa Solino
summerkittens33:spanky::1990-08-10:US:F:none:none
summerkitty:mother:sum09_719@hotmail.com:1985-11-02:CA:F:none:summer harris
summerkitty1:summer12::1998-09-02:US:M:71.173.76.94:ALex
summerkitty103:Lovers12:hellmisstress@yahoo.com:1989-12-16:US:F:75.81.45.87:summer
summerkitty123:ilyj13:summerkitty13@gmail.com:1996-07-15:US:F:71.205.136.172:summer
summerkitty13:summer13:summieraelynn13@yahoo.com:1996-07-15:US:F:68.40.1.242:summer
summerkitty19_94:qscaxz12:schnoodle91@hotmail.com:1988-08-09:US:F:none:Vanessa Frank
summerkitty2:Kitley!:lanekr@sbcglobal.net:1992-01-01:US:F:none:Daisy Look
summerkitty25:summer25::1996-07-15:US:F:68.40.2.160:summer
summerkitty275:angel12::1999-02-26:US:F:70.23.36.15:NULL
summerkitty3:midna12::2000-03-24::F:70.45.22.12:NULL
summerkitty31:dido!::1993-06-10:US:F:none:summerkitty31
summerkitty4:redcup123:unioncheerchick@aim.com:1992-05-03:US:F:68.14.161.26:Whitnie
summerkitty86:morning2:coffeecat2003@aol.com:1986-02-10:US:F:none:kelsey Dunn
summerkitty89:ronsu236:nora.89@jippii.fi:1989-12-02:FI:F:none:NoraBck
summerkittycat:catsrule:toriaroz@aol.com:1990-07-05:US:F:none:Nikki Rozsypal
summerkittycat94:APRIL94:bbabybear94@aol.com:1993-04-17:US:F:none:Brittany Briggs
summerkittyfishy:bff75:puppyprincesskms@aol.com:1992-07-27:US:F:none:Katie Summerville
summerkittygirl:summer123summer!@#:zelda_lover_no1@msn.com:1993-03-19:US:F:66.241.68.41:Summer
summerkitty_20:pezmuerto_69::2000-03-17:MX:F:200.79.233.13:isabel
summerkitty_44__29:cats33:summer_d_jewel@yahoo.com:1992-07-23:US:F:75.105.128.36:summer
summerkity:animal::1986-05-21:EN:M:NULL:NULL
summerkivett239:coolieo345:derauzi@bellsouth.net:1987-11-01:US:F:none:summer kivett
summerkivett345448:cooper359:sjkivett@adelphia.net:1987-11-01:US:F:none:summer kivett
summerkiwi123:summerrox12::1996-12-16:AU:F:58.173.97.15:Summer
summerkiwi15:summerkiwi123456789:bremotley@ymail.com:1998-09-15:US:F:24.214.19.241:NULL
summerkiwi5000:winterstrawberry5:vivianperdomo@bellsouth.net:1993-02-05:US:F:none:Melissa Perdomo
summerkizz:19hershey53:summerkizz@aol.com:1953-02-03:US:F:71.58.18.176:Cindi
summerkizz101:megan8::1993-11-03:CA:F:none:summerkizz101
summerkizzxo:megan8::1993-11-03:CA:F:none:summerkizzxo
summerkk:kk3838:summerkk@netvigator.com.hk:1965-02-23:HK:M:219.79.181.208:summer kk
summerkk_1:laddybug12::2003-1-25:US:F:74.103.37.48:summer
summerkk_902:welcome#45::1998-02-01::F:64.53.80.71:NULL
summerkl12:june1996:summerkl96@yahoo.com:1990-06-25:US:F:98.200.33.76:Kaytlyn
summerklassen:qwerty123456789:ngc@hotmail.com:1980-02-25:CA:F:none:olivia sarich
summerklig:supdude52::1998-07-12:US:F:67.140.161.114:summer
summerklinebell:shylow12345::1996-11-15:US:F:66.68.178.84:maria
summerkling:lilly2470::1998-07-12:US:F:98.19.154.33:Summer
summerklon:lincoln:sumiscool7@aol.com:1990-06-10:US:F:none:Summer Krantz
summerklops:oaktree11:summerw@mercurysw.com:1991-07-05:US:F:128.138.64.160:Summer
summerkloud:kavomin:i_love_mtb@yahoo.com:1990-08-18:US:F:none:Amy Unknown
summerkm:koko12:geolibby@gmail.com:1993-03-06::F:72.90.46.194:NULL
summerknapp:knappsummer12::1995-04-28:US:F:71.109.166.197:summer
summerknight:deskjet:escaladerider101@msn.com:1985-01-23:US:M:none:Zack Goodrich
summerknight123:899687:summerknight8@yahoo.com:1996-08-30:US:F:174.50.0.145:NULL
summerknights:beattime1000wityou::1999-01-04:TT:F:209.94.210.104:Summer
summerknights102:buffy:summerknights102@aol.com:1988-05-26:US:F:none:lade coffe
SummerKnights2015:minnie11:daragraybeal@knights.ucf.edu:1992-11-26:US:F:68.202.82.115:NULL
summerknights_:pattonjames12:darkstriperules@live.com:1996-09-25:US:F:96.42.70.236:Leigha
summerknites:summervali12:xosummerv@yahoo.com:1993-09-19:US:F:96.229.56.79:NULL
summerknowsbest:jimmy95:summer.pattison@yahoo.com:1994-05-26::F:99.59.86.181:NULL
summerknox08:summerevone08::1998-12-28:US:F:75.108.176.190:summer
summerknuddel:loveyou:lari.huesch@web.de:1990-11-02:DE:F:none:Larissa Hüsch
summerko:116145r:ko.summer@gmail.com:1992-06-06:US:F:174.77.36.127:NULL
summerkoala:luv123:behang55@yahoo.com:1994-07-25:US:F:74.246.196.211:Amiee
summerkobe_92201:stars::1994-04-18:US:F:none:summerkobe_92201
summerkof:23130061::1998-01-05:HK:F:118.112.98.78:轩辕
summerkohan:summerkohan@oc13:gollan@hurontel.on.ca:1994-01-10:CA:F:67.220.40.76:summer
summerkonzen:125125::1996-02-27:BR:F:201.3.118.24:Summer Konzen
summerkoo:3468282235::1990-06-11:US:F:74.70.106.74:Jenny Chen
summerkookiez:dog47473::1998-10-29:US:F:209.170.115.118:NULL
summerkool_holiday:hkjlm:esthercew@hotmail.com:1983-10-24:MY:F:none:summer kool
summerkooyyy:summer:yueyan.yin@srcb.ricoh.com:1976-09-26:CN:F:none:koo summer
summerkopitzke:tigerton16::1997-09-16:US:F:65.73.221.103:summerkopitzke
summerkopitzke16:summer16::1997-09-16:US:F:63.135.149.56:Summer
summerkorhammer:9053094845::1997-11-22:CA:F:69.49.39.58:summer
summerkork:jewels12::2001-02-10::F:71.181.145.60:NULL
summerkorl:foxyloxy:babycakes3@smileyface.com:1991-12-11:US:F:none:none
summerkotila:sumsum03::2003-05-01::F:99.186.51.19:NULL
summerkramer:kelvin77::2001-02-22:US:F:24.18.161.133:summer
summerkramme8:summerjr10::2002-08-30::F:173.18.81.98:NULL
summerkrantz:robotunicorn11:summerisneat@gmail.com:1995-07-10:US:F:184.13.163.161:NULL
summerkrazei:prissy22:like.okayy@yahoo.com:1991-12-27:US:F:68.126.63.246:Priscilla
summerkrispie:LICKERPAW::1993-09-05:US:F:none:summerkrispie
summerks:hhyyu5::1986-03-11:US:M:none:Weso Calimar
summerkssa:spike11::2000-02-08::F:70.145.135.131:NULL
summerkt:12qwer::1999-11-17:US:M:24.118.22.190:tuckkam
summerktg:tasha20::1993-09-17:US:F:none:summerktg
summerku:188994:felix20049413@yahoo.com.hk:1991-03-16:HK:M:none:summer man
summerkuen:x112233ts:mlxlj@21cn.com:1982-03-30:CN:F:60.55.73.123:summerkuen
summerkungfu_911:familyguy43:summer_asdf@hotmail.com:1988-04-01:US:F:none:jason flair
summerkutienpink:summersun!::1994-03-08:US:F:72.161.221.193:summerkutienpink
summerky10215:kyleigh97::1994-03-28:US:F:none:summerky10215
summerky408061975:5731324:sweetfemale40806@hotmail.com:1975-11-17:US:F:none:sherry miller
summerky709:flowers:kyleigh1997@hotmail.com:1992-04-03:US:F:none:Kyleigh Rothwell
summerky709452:werestar:kyleigh1997@hotmail.com:1992-07-03:US:F:none:kyleigh rothwell
summerky861:flowers:kyleigh1997@hotmail.com:1991-07-03:US:F:none:kyleigh rothwell
summerkyfan:roseposebowling88::2000-07-18:US:F:72.51.209.85:summer
summerkyle2:lovekyle12::2001-08-19::F:76.95.242.161:NULL
summerkyles01:hot37::1993-11-21:US:F:none:summerkyles01
summerkyles05:hot38:jaden-321@myway.com:1992-01-14:US:F:none:Summer Kyles
summerkynd:kyndall12::1998-05-23:US:F:74.133.2.158:kyndall
summerk_101:snowflake12::1996-07-05:US:F:209.191.208.27:Summer
summerk_122:9999999::2001-05-30::F:72.23.116.190:NULL
summerk_420:#1daniel:summerk420@hotmail.com:1986-02-02:CA:F:none:Summer Kent
summerl00ve:oskg96b22q5:summerloove@gmail.com:1992-06-05:US:F:69.107.126.28:katherine
SummerL098:n0o9a8h::2000-09-11:US:F:72.145.145.16:NULL
summerl0l0l:chancler5:hibyeseeya0@yahoo.com:1988-01-01:US:F:none:hi bye
summerl0v3_:twloha69:painfulsecrets@gmail.com:1995-02-02:US:F:98.23.134.106:Sophie
summerl0ve:ashley11:pinkandcash@yahoo.com:1992-02-25:US:F:68.193.25.15:ash
summerl0ve06:246246:xoxogiblerxoxo@yahoo.com:1986-05-20:US:F:none:Kimmi Metz
summerl0ve08:click53:summerl0ve08@live.com:1993-05-03:US:F:99.68.198.148:becca
summerl0ve2010:09261990:ssteadman@my.monroeccc.edu:1990-09-26:US:F:75.218.186.129:Stephanie
summerl0ve222:pier18:lbigirl12@aim.com:1989-07-11:US:F:70.110.236.234:brooke
summerl0vee:jiwoners:iscream4icecream2002@yahoo.com:1990-07-18:US:F:none:Diamond Keller
summerl0ven:june94:chunkyluver531@sbcglobal.net:1990-06-05:US:F:69.106.251.80:Rikki
summerl0ver06:cheer123:summerl0ver06@aol.com:1993-03-31:US:F:none:jesss purcell
summerl0verxox:l00neytoons::1995-09-24:US:F:67.80.166.208:vatsala
summerl0vex:missyou45:hollisterxx156@aim.com:1995-02-17:US:F:173.48.167.139:Gia
summerl0ve_x3:pinkbabie:lil_sis_tiffy@hotmail.com:1989-05-23:US:F:none:Tiffany Alley
summerl0viin_xo:chase:summerl0viinxo@aol.com:1990-08-14:US:F:none:kara russell
summerl0vin:grease176:benditgrl@yahoo.com:1980-06-26:US:F:none:Sandy Walker
summerl0vin0317:beach17:beachgirl31794@aim.com:1994-03-17:US:F:96.234.49.237:Ally
summerl0vinq:mbid13::1992-12-13:US:F:none:summerl0vinq
summerl0vuhr:(summer)::1994-03-23:NL:F:none:summerl0vuhr
:::::::
summerl101:sum101::1996-12-03:AU:F:60.240.55.250:Simona
summerl123:123456s::2000-01-09:US:F:67.11.144.252:summer
summerl145:booger:extremeflyer143@hotmail.com:1989-06-21:US:F:none:Saannah Hill
summerl21:summer10:xlipstickhorrorx@aol.com:1988-08-16:US:F:98.211.104.154:Summer
summerl7:summer07:mikendiane@sacoriver.net:1993-03-21:US:M:66.181.120.161:Jack
summerl88:boyboyz:summer_junk@hotmail.com:1985-08-18:CA:F:none:connie chen
summerla01:benny:hjgertz@hotmail.com:1991-02-10:US:F:none:ashlie allan
summerla02:sweet:haileejg@hotmail.com:1991-02-10:US:F:none:ashley allan
summerla08:sla081602::2002-08-16:US:F:75.245.35.47:NULL
summerla222:benji:nenniesnooky@hotmail.com:1991-02-10:US:F:none:ashley allen
summerla223:benji:hjgertz@hotmail.com:1991-02-10:US:F:none:ashlee allen
summerla511:Catbaby::1994-03-28:CA:F:none:summerla511
summerlaa:qwerty12:trayeman@hotmail.com:1992-06-19:AU:F:none:Summer Rewell
summerlab:ihatechristie::1994-02-10:US:F:Mail from iwantcandy371:Why do you care
summerlab212322:Summer Fox::1994-02-12:US:F:none:summerlab212322
summerlab21789456:Aries::1994-03-22:US:F:none:summerlab21789456
summerlab3426790:Aries::1994-03-22:US:F:none:summerlab3426790
summerlab5896:Aries::1994-03-22:US:F:none:summerlab5896
summerlabpaw:sonic::1994-03-22:US:0:none:summerlabpaw
summerlace0424:trinity:perfect_princess_99@yahoo.com:1981-03-30:US:F:75.104.22.150:melissa wright
summerlacexo:gcfreak5945:summerlace55@aol.com:1994-06-15:US:F:71.245.212.164:summer
summerlache2006:jasmine18:jasminehobson@ymail.com:1994-04-07:US:F:24.45.205.76:jasmine
summerladie:sammy#::1988-07-24:US:F:69.140.240.161:nicole abban
summerladie93:sammy#:www.summerladie93@aol.com:1992-07-24:US:F:none:Nicole Abban
summerladrianna:jackson50:crazymcm@yahoo.com:1980-01-29:US:F:173.52.233.74:MOrgANn-no tags here-3&#x27;sKaTIe
summerlady:90430249:alee.bravo@live.cl:1996-08-08:CL:F:186.104.88.177:Alejandra Bravo G.
summerlady1:51ps11::1995-08-21:DE:F:78.43.148.230:Nicole
summerlady15:florian15::2000-02-04:DE:F:79.247.30.141:isabelle
summerlady1705:shelan12:shelleyopmeer@hotmail.com:1993-04-17:NL:F:none:emma van leeuwen
summerlady55:taylor11::1997-12-30:US:F:74.47.182.69:Taylor
summerlady9000:test66:kantfademe1@hotmail.com:1980-01-01:US:F:71.64.136.76:summer
summerlady91:lunar:dolphin_no7@hotmail.com:1991-04-30:FR:F:none:jenny Vial
summerLADYBUG:NINA15::2001-05-21::F:75.23.198.225:NULL
SummerLadybug45:10900123::1999-03-08:US:F:76.91.238.64:NULL
summerlagan206:emle*:hotkisses15@hotmail.com:1990-05-16:US:F:none:summer lagan
summerlagoon:qhrtlf6::1999-06-16:KR:F:125.128.127.135:summerlagoon
summerlai:712623:eva77712@yahoo.com.tw:1988-07-12:TW:F:61.20.222.106:賴曼蓮
summerlai0209:26660833:summerlai_0209@yahoo.com.hk:1986-02-09:HK:F:203.218.236.217:summer
summerlaila:jenine1234:nevene1979@aol.com:1979-12-2:US:F:69.116.226.52:summer
summerlaillol:bossy101:momof8carrs@aol.com:1990-10-22:US:F:none:Summer lail
summerlaine:mrfleas01:SummerLaine@verizon.net:1983-07-07:US:F:71.253.241.15:Summer
summerlake:27182Alk3:takethisluck@gmail.com:1986-08-30:GB:F:92.21.81.188:Scout
summerlake444:goldfish1234::2003-02-03:US:F:174.17.114.235:jessica
summerlakes:july15:jesusluvinlady@yahoo.com:1984-05-04:US:F:24.24.86.26:Morgan
summerlakin:carlylakin22::1999-03-22:WK:F:89.207.208.1:carly
summerlala:january24:jacinta_ward@live.com.au:1992-03-11:AU:F:58.179.100.208:NULL
summerlala14:sports:funlovinchika08@yahoo.com:1986-09-28:US:F:none:Mya Futuni
summerlala22:flowers**22:dancincheetah247@aim.com:1994-11-22:US:F:75.118.120.123:Olivia
summerlalalalala:j2ll2an:mango_spotted_monkey@yahoo.com:1991-07-10:US:F:76.118.33.151:Summer
summerlalapoot:lalapoot22:antiheroicamerican@yahoo.com:1960-01-31:US:F:71.193.51.101:Summer
summerlam2004:busy717rick855::1996-06-01:HK:F:none:summerlam2004
summerlam2005:busy717rick855:summerlam2004@yahoo.com.hk:1982-06-01:HK:F:none:Ka Yau Lam
summerlam2006:busy717rick855:summerlam2004@yahoo.com.hk:1986-06-01:HK:M:none:Ka Yau Lam
summerlamb:summerlamb1999::1999-02-19::F:75.121.202.19:NULL
summerlamb574:calicorock12::1999-02-19:US:F:173.202.14.237:NULL
summerlambs:spring1:hampizza3@hotmail.com:1988-07-07:GB:F:82.32.57.29:francesca waite
summerlame:fishs:shaines@fiberrider.com:1973-08-11:US:M:none:Danny Minko
summerlamoureux:fuckyoubro1995:sommer_lam1995@hotmail.com:1995-02-24:CA:F:71.17.252.133:NULL
summerlan:sld01a:summer_dodd@yahoo.com:1983-06-27:US:F:71.145.171.97:Summer
summerlance:qweqwe123123::2000-07-12:US:F:72.214.97.49:summer
summerland:crush::1992-09-21:US:F:none:summerland
summerland0000:degrassi11::1994-04-01:US:F:none:summerland0000
summerland002:lilkid:smodgepodge@yahoo.com:1990-01-30:CA:F:206.75.53.142:RavePie
summerland007:sheep88:Lucky165@girlfriend.com.au:1991-05-13:AU:F:122.148.70.36:Wen
summerland009:lucky88:annajiang333@yahoo.com.au:1993-03-03::F:122.148.70.36:NULL
summerland00_00:tyler:mommysgurl624@netscape.net:1990-06-24:US:F:none:megangriffin
summerland01:thisgetsold::1994-04-24:US:F:none:summerland01
summerland03:12345a::1994-03-23:US:F:24.243.31.12:kayla
summerland04:darkangel:kal1995@comcast.net:1987-04-09:US:F:none:Ashley Kloczynski
summerland1000:lovemichael12::1996-01-14:US:F:205.231.151.131:carly
summerland101:chance4:lininparkfa2848@wmconnect.com:1985-09-08:US:F:none:Rikku Loala
summerland101327:jessem::1992-08-02:US:F:none:summerland101327
summerland101794:aslan951159::1993-10-17:US:F:none:jennapher turner
summerland110:neopet3::1993-09-21:AU:F:none:summerland110
summerland1111:degrassi11:ocbabe11@aol.com:1992-04-01:US:F:none:Katelyn McLauthlin
summerland112:@ngel::1994-02-11:AU:F:none:summerland112
summerland1122:@ngel::1994-02-11:AU:F:none:summerland1122
summerland12:falconrocks12:happy_monkey145@yahoo.com:1995-04-08:TR:F:108.98.150.188:Laura
summerland120:th11293:swatmonkey12@yahoo.com:1990-01-12:US:F:none:teresa johnson
summerland1212:summer:boy_crazee22@yahoo.ca:1985-09-24:GB2:F:Can I be your NeoFriend?:Nikki Hart
summerland123:mymanisexy351:vasqgirls@yahoo.com:1992-04-25:US:F:none:Sabrina Vasquez
summerland123456:jesse1234::1991-08-13:US:F:none:london france
summerland123560:falloutboy7:lulunoway2000@myspace.com:1991-11-03:US:F:none:hannah peters
summerland1246:summer123::1993-09-02:US:F:none:summerland1246
summerland132:lolly:carrymehome06@yahoo.com:1974-03-27:US:F:none:l d
