summerstefan:jiggly:stefanthesmilie@hotmail.com:1990-07-13:NL:M:none:Stefan Olthof
summersteph2:cabbage1:little_miss_rainbowstar@hotmail.com:1991-09-30:GB:F:none:stephanie wood
summersteph96:707070:summersteph96@aol.com:1968-01-20:US:F:none:Steph timminapioulous
summerstephanie16:scribble16:summerwinders@yahoo.com:1994-10-17:US:F:99.14.212.16:NULL
summerster308:9865576:estherppng@yahoo.com:1985-08-30:MY:F:none:esther ng
summersterner:chadrox1:summer_sterner@hotmail.com:1993-01-28:US:F:none:anne fluffball
summersterner194:lookatthathotty(chad::1993-11-12:US:F:none:summersterner194
summerstevens:mileyrocks002::1997-04-22:US:F:98.24.44.190:summer
summerstevenson:stev7539:stingout@hotmail.com:1991-12-30:CA:F:24.109.78.42:summer
summerstew:m012001::2001-05-01:US:F:75.51.125.100:NULL
summerstew2001:alexa89::2001-5-1:US:F:75.51.120.230:alexa
summerstew79:alexa79::2003-04-22:US:F:99.132.120.8:Alexa9 Luke7
summerstew_400:alexa99::2001-05-01::F:99.132.120.8:NULL
summersthenamex3:iloveu22:roxiechick10190@yahoo.com:1990-07-05:US:F:208.127.93.142:summer
summerstheseason:pookie:summerstheseason@aol.com:1990-07-26:US:F:none:Summer Ray
summerstheshyte08:4nick2no::2004-03-10:US:F:92.75.230.254:Stephanie
summersthesyte08:itja770:luv_me_gurl94@yahoo.com:1994-03-10:US:F:88.67.131.97:Stephanie
summerstilepaul:billabong13:derderdichhaut@gmx.de:1996-03-01:DE:M:217.93.201.180:Paul
summerstillblue:22003279:summerblue29@hotmail.com:1984-02-01:CN:F:218.82.231.206:summer
summerstims01:deerfly2010::2001-8-21:US:F:98.213.138.172:summer
summersting55:mario:crazychick2580@yahoo.com:1991-08-07:US:F:none:Stephanie Galvan
summerstock:chelsie::1992-12-14:US:F:none:none
summerstockwell3:summer33:summer_donna3@hotmail.com:1993-05-07:CA:F:24.57.44.188:summer
summerstolen:ju5t1n:badlybyrned@hotmail.com:1984-09-09:CA:F:99.255.220.186:Bailey Thompson
summerstone:castro56::1997-04-08:PH:F:122.53.121.78:missy
summerstone3:mysterygirl12::1998-06-29:US:F:205.188.116.72:vanessa
summerstone411:moonflower119::1998-04-21:US:F:75.97.195.178:Abby
summerstooshort:14273:smm69@comcast.net:1993-02-07:US:F:none:Brandilyn Vaspoli-Murray
summerstop:jianxun:ringthebell@hotmail.com:1980-05-16:US:M:none:Ryo Fujima
summerstopswinter:missingmyhome11:Friendsbear@hotmail.co.uk:1990-07-30:SG:F:165.21.155.15:towel
summerstoree:summer::1994-03-13:US:F:Mail from theneopetsteam:summerstoree
summerstorm:babihutan:cherry_sonata@hotmail.com:1989-08-11:MY:F:none:anisa manap
summerstorm070:heartland:asdf@msn.com:1985-10-30:CA:F:none:Kylee O\\
summerstorm10:jackson10::1999-10-9:US:F:67.171.189.40:Avery
summerstorm101:zanzibar1:dreimiller@alltel.net:1992-01-01:US:F:69.40.244.222:i have no name
summerstorm101200:jarrick101:gidget7731@yahoo.com:1979-03-11:US:F:74.34.184.237:Helena DeGraw
summerstorm123:123abcdog::1993-09-09:US:F:none:summerstorm123
summerstorm1234:oliver123::2001-09-25:US:F:99.74.204.213:NULL
summerstorm13:Robin1:bbjaysdisco@wn.com.au:1993-04-28:AU:F:none:Jaylene Stubbs
summerstorm15:anactofmine:asif2137@yahoo.com:1989-01-07:US:F:none:summer storm
summerstorm157:heartland157:davewarrick@openwave.com:1987-02-19:US:F:none:erin warrick
summerstorm1617:monica1617:summerstorm1617@yahoo.com:1988-01-22:US:F:none:Lexa Something
summerstorm177:lamas:brownlee@backroades.net:1991-09-04:US:F:Battledome Challenge:Charlotte Day
summerstorm19:sarah19:swinters19@yahoo.com:1989-09-19:US:F:75.71.136.225:Sarah
summerstorm194:storm6::1995-04-21:US:F:64.12.117.15:summerstorm194
summerstorm1983:acewand12:ranmahellsing@lycos.com:1983-08-11:US:M:164.113.105.25:Michael
summerstorm1993:kisha@::1993-09-18:CA:F:none:summerstorm1993
summerstorm2251998s:werewolves05::1998-02-25:US:F:24.117.154.79:Summer
summerstorm25:lady25:jackysmarty@yahoo.co.uk:1993-10-25::F:91.19.177.227:Jacky
summerstorm26:mud87dledv27:vikikramer@gmail.com:1973-10-13:US:F:96.3.156.6:Victoria Koska
summerstorm27:ceasar77:ashley.eichele@cox.net:1990-07-27:US:F:68.4.126.48:beebee
summerstorm369:harrypotter3699:manvitham369@yahoo.com:1994-04-15:US:F:65.246.98.132:Priscilla
summerstorm389:coco11:tonydj1587@yahoo.com:1987-08-19:US:M:Acceptance:antonio johnson
summerstorm40:nicholas03:wildstorm38@hotmail.com:1967-10-14:AU:F:210.49.241.233:summer
summerstorm4727:miller4727:strippyscarves@hotmail.com:1994-03-05:CA:F:24.141.210.126:D
summerstorm47271:liberec4727:crossmyheart@live.ca:1994-03-05:CZ:F:24.141.138.109:i have no name
summerstorm47274727:liberec4727:crossmyheart@live.ca:1994-03-04::F:24.141.138.109:NULL
summerstorm667:lovver:summerstorm667@yahoo.com:1989-05-10:US:F:none:missy yancy
summerstorm689:snake89:gijade6689@yahoo.com:1991-09-01:US:F:24.189.120.35:Jade
summerstorm7:ansh3n8:summerstorm7@earthlink.net:1979-11-30:US:F:Can I be your NeoFriend?:Calypso Tea
summerstorm73:casper73:jessicarobin2009@hotmail.com:1973-04-27:US:F:75.199.235.8:jessica
summerstorm77:summer777:saiyuri007@cfl.rr.com:1990-03-14:US:F:68.205.249.217:Heather
summerstorm87:lt122:freaky-style@online.de:1987-10-27:DE:F:none:Ist Geheim
summerstorm90:Taggie::1992-02-01:GB:F:none:summerstorm90
summerstorm92:prowl:krystalstorm1616@aol.com:1988-03-11:US:F:none:krystal robertson
summerstorm97:summer1997:maimai_ortiz@yahoo.com:1988-11-04:NZ:F:none:yahnee ortiz
summerstormavita:lilpop::1991-06-02:GB:F:none:summerstormavita
summerstormcloud:angelclouds:summerstormcloud@yahoo.com:1973-05-11:US:F:none:Brenda Brown
summerstorme:leemarie73:ljonesru2005@yahoo.com:1973-08-23:US:F:206.53.157.203:Lisa
summerstormgirl:718366::1996-06-19:US:F:70.242.50.60:Noor
summerstormhurricane:LelandTate::1992-12-14:US:F:none:summerstormhurricane
summerstorms103:103103103:summerstorms103@aol.com:1986-09-10:US:F:none:Summer Storms 103
summerstorms123:smiles123:nushe_nenada@hotmail.com:1995-06-07:CA:F:99.232.164.190:sara
summerstorms14:jk2004:pimpette03x@aol.com:1985-09-28:US:F:none:Alexandra McCartney
summerstorms17:eric999:purpleleo1988@triad.rr.com:1988-07-24:US:F:71.71.33.102:Ali
summerstorms333:haydown27:sarahannnx3@aim.com:1992-04-18:US:F:72.94.43.99:sarah
summerstorms689:snake89:gijade6689@yahoo.com:1986-09-01:US:F:none:Jade Storms
summerstorms869:moclov89:summerstorms869@aim.com:1989-09-01:US:F:24.189.167.16:Jade
summerstormsx3:water411:jenniferlinnell@verizon.net:1993-07-26:ZR:F:68.162.79.36:Jen
summerstorm_:love69:flippbro@hotmail.com:1994-02-14:AU:F:58.173.180.8:Courtney
summerstorm_32:ariana:summerstorm_32@hotmail.com:1988-03-12:CA:F:none:margaret  lapierre
summerstorm_5:skyler06::1996-08-10:US:F:71.227.168.89:summer
summerstorm_57:summer5::1993-08-11:CA:F:none:summerstorm_57
summerstorm_578:clubdead55::2003-06-20::F:216.195.9.77:NULL
summerstorm_6:warr1ors:sw_1@msn.com:1988-01-28:CA:F:none:Summer Woods
summerstory:tlctlc07:xxhappysmilesxx@hotmail.com:1927-01-01:HK:F:74.173.204.51:Lucia
summerstory28:puchiko28:xxhappysmilesxx@hotmail.com:1992-08-28:US:F:none:Cinday  puahaha
Summerstory85:aadffe22:cajunprincess85@yahoo.com:1985-07-05::F:69.171.164.179:NULL
summerstown:leela49:fairfield@sasktel.net:1949-07-16:CA:F:216.197.128.54:Linda Fairfield
summerstown01:spike2005:fairfield@sasktel.net:1949-10-07:CA:M:216.197.128.54:David K  Fairfield
Summerstr009:sastsu123::2001-03-28:US:F:71.197.44.43:Summer
summerstr1:061594::1993-06-15:US:F:none:summerstr1
summerstr5:memb3rs:jo4ysm1th@yahoo.com:1991-03-02:US:F:none:Summer Smith
summerstrange:50d4d8::1996-08-13:DE:F:79.207.75.30:Summer
summerstraw:224466::1997-10-16:US:F:68.82.202.182:jamie
summerstrawberries:alyssa:brendan_4_life@yahoo.com:1989-08-01:GB:F:none:Taylor Brooke
summerstrawberries12:kp03249:summersweet0312@aol.com:1990-03-12:US:F:71.125.231.157:Krystle Ray
summerstrawberry:lunar12:MilenniumSnow@aol.com:1993-12-08:US:F:71.224.228.229:courtney
summerstrawbrry123:rainbow11::2000-12-5:US:F:75.189.222.228:hailey
summerstreet:leah777::1991-05-03:US:F:none:summerstreet
summerstreetgurl:farah:gothic_girl7@lycos.com:1990-04-18:MY:F:none:farah bakri
summerstrewberry:Lindsey97:mbjamer@att.net:1990-06-13:US:F:12.65.24.211:Lindsey
summerstrickland1:arwen11::1992-09-28:US:F:none:summerstrickland1
summerstrings:cherishh11:imperfect_balance@hotmail.com:1993-09-25:SG:F:202.156.13.4:lydia
summerstripedkitty:iluvjesus12:cdharter@gmail.com:1986-02-25:US:F:71.188.132.49:Cindy
summerstroll:katrina1:katrina@bradbury0106.freeserve.co.uk:1975-06-01:GB:F:none:Katrina Bradbury
summerstrom:hermione::1993-02-20:GB:F:none:summerstrom
summerstruck:0klah0mal0ve:saskia_bruisten@hotmail.com:1991-03-14:NL:F:84.84.179.72:Saskia
summerstuart1:need!:doggie_doos@claudia.com:1981-07-06:AU:F:none:Claudia Stuart-Hill
summerstud2386:soccer23:olson.ryan@sbcglobal.net:1985-08-24:US:M:68.250.136.11:Christen
summerstud86:soccer23:rolson@calumet.purdue.edu:1986-08-24:US:M:76.197.184.112:Ryan
summerstud92:virginia::1992-12-13:US:F:68.106.81.4:summerstud92
summerstudent:earth:fionaspa@aol.com:1989-09-06:US:F:none:Laurel Flom
summerstudent__88:calliejo01::2008-07-21:US:F:173.19.185.138:Callie Jo
summerstudios:catbus11:starwarssounds@hotmail.com:1991-07-17:US:F:67.142.130.19:Summer
summerstuff:egypt11::2000-04-19:US:F:208.102.212.126:kristian
summerstuff1:egypt11::2000-04-19:US:F:74.215.187.25:kristian
summerstuff101:egypt11::2000-04-19:US:F:74.83.202.8:kristian
summerstuff123:egypt101::2000-04-19::F:174.101.222.147:NULL
summerstuff1234:egypt122::1990-05-21:US:F:74.215.187.25:kristien
summerstuff123_717:egypt101::2000-04-19::F:174.101.222.147:NULL
summerstuff1_20:egypt101::2000-04-19::F:174.101.222.147:NULL
summerstuffer06:simba:oceanqueen15@yahoo.com:1988-08-17:US:F:none:connie rippey
summerstunner:55055:soccergirl-62@hotmail.com:1994-01-01:CA:F:154.20.95.80:Andrea MYOB
summersturtz:ilov3nickj0nas::1998-07-16:US:F:67.175.219.222:summer
summerstyle:athena33:guarino_gabriela@yahoo.com:1993-06-16:IL:F:71.252.9.117:Brianna Yavlin
summerstyle166:brooke8587:madisondrost@gmail.com:1997-09-13:CA:F:70.55.3.125:NULL
summerstyle4ever:matt1::1996-03-08:US:F:24.46.84.249:summerstyle4ever
SUMMERSTYLES:asdfghjkl123:fiona.kts@hotmail.com:1990-03-03::F:125.238.15.133:NULL
summerstyle_3:su394ji3a87:yeh1220@yahoo.com.tw:1989-12-20:TW:F:none:葉 大芭
summerst_9_9:sassy12::1999-10-09:US:F:70.157.157.210:summer
summersu3231:013100:summersu@mail2000.com.tw:1981-01-31:TW:F:211.75.77.195:summer su
summersuckkaa:summer45:smmrsanchez@tmail.com:1985-02-05:US:F:74.237.93.250:hmm
summersucks:justin66:SummerLorenz@hotmail.com:1992-08-23:US:F:65.8.202.7:Summer
summersucks__aa:ericaerica123:paddingtonbear16@shaw.ca:1989-10-04:CA:F:68.151.125.189:ricky
summersue110:dynex5::1994-05-10:US:F:none:summersue110
summersue123:talor34:tabbyiscool@yahoo.com:1992-02-17:US:M:72.203.168.244:NULL
summersue12345:summer12#::2000-12-27:US:F:68.1.76.73:NULL
summersue2005:andy8103:yellowdrivingsummer@yahoo.com:1987-01-07:US:F:none:SUMMER LINS
summersue370:SUMMERS:babs4583@aol.com:1982-08-22:GB:F:none:Summer Smith
summersueiluvu:baby002:notallowedname@gmail.com:1990-06-01:GB:F:207.119.248.11:SummerSueILuvU
summersuelu:sadie72196::1996-07-21:US:F:70.226.215.231:Summer
summersue_5:jj2216::1994-02-22:US:F:none:summersue_5
summersuffering:powerpuff0:lauren_kicks_ass_@hotmail.com:1991-07-07:AU:F:none:pop juice
summersuga78:aflkaiujkasdf::1992-06-01:US:F:none:summersuga78
summersuga87:ralphlauren::1992-06-01:US:F:none:summersuga87
summersugar:ciccia:domino_sniff89@hotmail.com:1989-10-16:CH:F:none:debby bee
summersugar930:welcome78::2007-02-02::F:24.168.32.99:NULL
summersugar930_9:welcome78::1999-03-13:US:F:204.2.196.29:sarah
summersugarspice:zhazha:richbevflr@aol.com:1984-07-18:US:F:none:none of ur buissness
summersugercone:honeycomb12::1999-07-20:US:F:68.44.67.162:kennedy
summersuitcase:merrygoround88:summermomo@live.com:1988-09-21:MY:F:60.53.216.203:Summer
summersult_1066:paddycake123:naenae54660@gmail.com:1997-08-20:US:F:69.179.25.137:NULL
summersum:doggy23::1993-02-27:GB:F:none:summersum
summersum001:billy01:summer_some_1@yahoo.com:1992-02-01:US:F:none:Summer Hughes
summersum01:billy01:summer_some_1@aol.com:1992-02-01:US:F:none:summer hughes
summersum145:23141:summy@extar.co.nz:1986-12-13:NZ:F:none:Summer Norris
summersum146:23141:summy@extar.co.nz:1986-12-13:NZ:F:none:Summer Norris
summersum415:23141:summy@extar.co.nz:1986-12-13:NZ:F:none:Summer Norris
summersum656:summer656:sazthespaz@gmail.com:1988-06-03:CH:F:157.161.86.159:Sarah King
summersumbie:summer1998::1998-05-29:US:F:67.238.129.219:summer
summersumedha:fundayz::1992-04-20:CA:F:none:summersumedha
summersumer08:summer08:tinaaxmariee@aim.com:1994-08-08:US:F:68.39.63.227:hi
summersumer66:sumsum77::2000-05-19:US:F:70.178.42.38:sum
summersumgirl:SUMMER::1994-03-01:US:M:none:summersumgirl
summersumitup:redsox1129:brunettebae@hotmail.com:1993-02-02:US:F:none:Not Telling
summersumlolly:magic:summersum@gmail.com:1991-04-29:US:F:none:summer martinez
SummerSummer:catfood10:summerfaith7@yahoo.com:1995-02-05:US:F:96.19.97.46:NULL
summersummer001:biggie1:summer_some_1@yahoo.com:1992-02-01:US:F:none:summer summer
summersummer09:7783278119:kylelee456@hotmail.com:1992-07-18:CA:M:207.216.155.134:kylelee
summersummer1212:NOAHNOAH11:KIDNOAH44@AOL.COM:1991-07-01:US:M:64.12.117.18:NOAH
SUMMERSUMMER12309:BABYBOY56::1998-04-13:US:M:71.225.193.127:NULL
summersummer123122:star19::1993-11-18:US:F:none:summersummer123122
summersummer123123:nikki2001::2001-10-17:US:F:68.109.75.63:Nikki
summersummer12345678:piggy787:soccerluvr18974@aim.com:1994-07-08:US:F:71.162.253.125:Jemeille
summersummer123992:duck1::1994-01-24:GB:F:none:summersummer123992
summersummer123_9:dajjja910::2001-03-28:US:F:98.27.229.154:NULL
summersummer13:pollito13:almendrita93@msn.com:1994-07-12:US:F:71.163.125.116:andrea
summersummer14:summer1414::1998-08-19:US:F:12.215.56.122:summer
summersummer153:ilikeguys:caylatomerlin@yahoo.com:1990-07-01:US:F:none:caylatomerlin
summersummer17171717:jacklyn::1991-11-14:CA:F:none:none
summersummer19:sirius9:evenstar_9@yahoo.com:1988-07-19:US:F:none:summer lala
summersummer1996:monkeygirl08::1996-11-10:US:F:75.179.35.130:summer
summersummer2005:summer05::2005-07-26:CA:F:68.151.112.241:NULL
summersummer21:jeenlau:summersnow20@gmail.com:1981-01-21:SG:F:160.96.200.37:firegal tan
summersummer260:winterwinter::1992-11-19:CA:F:none:summersummer260
summersummer52:rockit52::2002-07-17::F:69.180.108.211:NULL
summersummer912:babyboy::1993-07-28:US:F:none:summersummer912
summersummer940:feli83:hschwarzbold@web.de:1989-06-08:DE:F:89.53.62.173:Helen Schwarzbold
summersummer98:8070309::1998-02-03:US:F:76.18.202.189:
summersummerblue:2413010826:shuohuang124@hotmail.com:1984-01-24:CA:F:none:Vivien Huang
summersummerblue11:840203:xiaziye@163.com:1984-01-02:CN:F:123.189.118.79:夏子夜
summersummerfall:123456789::1999-01-31::F:173.81.59.50:NULL
summersummerfun3:fish123::1999-06-20::F:88.104.230.5:NULL
summersummergirl:winter::1992-12-26:PR:F:none:summersummergirl
summersummerj:jjjj66:summerj83@ymail.com:1976-09-19:CA:F:121.203.123.71:summersummerj
summersummerloving:ishtigtsmlwy2010:ultima_sword@hotmail.com:1991-10-08:IT:F:131.216.101.78:Summer Summer Lovin!
summersummerpoop:tacocow19:xo_lolly.pop_ox@yahoo.com:1994-07-19:US:F:216.105.208.2:Summer
summersummers86:tivobaby66::1999-03-21:US:F:205.188.117.65:regina
summersummersummer:sum12sum124::1999-02-03:US:F:64.151.0.50:annalisa
summersummersummer1:9053889301:samfrisina@hotmail.com:1964-01-04:CA:M:none:Sam Fri
summersummersummer11:9053889301:samfrisina@hotmail.com:1980-01-04:CA:M:none:Sam DoDo
summersummersummer12:casey::1994-04-20:US:F:none:summersummersummer12
summersummersummer53:neopets53:summerheartsyou@aol.com:1992-05-23:US:F:208.100.44.62:Summer
summersummertime:summersummertime28::1997-02-21:US:F:69.133.149.219:kayla
summersummertime2828:princesssummer28::1997-02-21:US:F:69.133.149.219:kayla
summersummerwhat:what12::2001-08-15:CA:F:75.157.232.11:summer
summersummer_41:moomoo101::2001-06-26:PH:F:68.4.160.27:angel
Summersummer_830:chantelyung830:yungyung830@yahoo.com.hk:1995-08-30:HK:F:210.87.254.42:Chantel
summersummer__59_1:159159::2000-08-02:US:F:216.185.204.157:summer
summersummer__l_l:newjersy22::2002-11-23:US:F:24.2.128.75:krisha
summersummie:tippytoes:hjumper13@yahoo.com:1991-01-01:US:F:none:Madeline  Dolgin
summersummie315:smmy444::1997-03-15:US:F:68.97.60.99:summer
summersummie3777:tippytoes:hjumper13@yahoo.com:1991-01-01:US:F:none:Madeline  Dolgin
summersumnummynum:pomeranian:doctapeppa1746@yahoo.com:1984-06-30:US:F:none:Val Watajer
Summersumsum789:Sunny78910::2002-03-27::F:86.16.166.193:NULL
Summersumsum884:Alina123::2002-03-27::F:86.16.166.193:NULL
Summersumsum8847:Alina1234::2002-03-27::F:86.16.166.193:NULL
summersumtinsums:39963:thgr8icedraggon@aol.com:1971-10-17:US:M:none:k lo
summersum_sum:summer36::2004-06-18:US:F:75.34.200.237:summer
summersun00:af1121:akapaneralve@yahoo.com:1993-05-10:BS:F:24.149.106.69:Uhm
summersun001:af1121:akapaneralve@yahoo.com:1991-03-03:US:F:216.12.11.80:Sally
summersun005:bananas176:smdyck2693@gmail.com:1993-04-26:CA:F:99.236.37.231:Sarah Locklier
summersun01:703406:sparklytears@gmail.com:1997-07-05:US:F:68.100.93.11:Summer
Summersun0328:65912350:hotdog0328@yahoo.com.cn:1993-03-28:CN:M:123.116.199.204:夏阳
summersun1:summer12::1996-07-15:US:F:76.100.70.111:summer
summersun100:ilovepink10::2000-05-12::F:98.74.63.139:NULL
summersun101:darby101::1997-07-05:US:F:76.98.163.35:Darby
summersun10_000:joejonas10::1999-01-15:GB:F:81.129.157.181:morgan
summersun11:af1121::1997-04-06:TK:F:216.12.11.80:Hola
Summersun1111:08308287d:summersun1111@hotmail.com:1989-08-10:SG:F:203.116.187.1:NULL
summersun1116:apples16:ckoppuzha@hotmail.com:1990-05-16:US:F:68.56.234.8:NULL
summersun1122:abbigail02::1999-11-22:US:F:72.219.160.190:Summer
summersun12:goaway12::1996-08-12:US:F:63.198.18.127:summer
Summersun1200:612445::2001-10-12:GB:F:87.254.66.52:NULL
summersun1408:leo02leo:summersun1408@web.de:1977-08-14:DE:F:77.178.154.136:Summer Sun
SummerSun1500:kittens1500::2000-01-13:US:F:24.182.205.154:Kori
summersun16:KatieGirl164:bperry164@gmail.com:1994-09-26:US:F:96.230.224.12:Brooke
summersun18:california18::1998-09-11:US:F:68.248.75.6:Ymani
summersun1991:mace9112:babespot1991@aol.com:1991-02-28:GB:F:92.6.102.82:Danni
summersun1_aa:heaven12::1996-10-08:RO:F:68.189.49.107:summer
Summersun20:shades12::2000-06-14::F:71.67.151.205:NULL
summersun2011:carly55:summer-sun2011@live.ca:1996-03-25:CA:F:24.71.21.113:NULL
summersun212:barrel212::1991-08-28:US:F:98.155.23.103:Ray
summersun213:sunshine12:darcie_2000@hotmail.com:1987-07-06:US:F:72.227.230.134:darcelle
summersun2332:mrsdarcy62771::1993-08-03::F:71.58.245.184:Darcy
summersun24242:fraymond24::2001-04-05:US:F:67.84.50.179:Sara
summersun254:MOLLY1:lizeb@hotmail.co.uk:1992-03-22:GB:F:86.146.85.255:LIZZIE BRAY
summersun258:summersun123::1999-01-01:US:M:76.179.41.174:sely
summersun26187:summer22:sun26187@yahoo.com:1989-05-18:US:F:71.164.37.234:kaylee williams
summersun28:nonnahs94:smile_its_shannon@hotmail.com:1992-05-13:US:F:76.176.212.162:NULL
summersun3:pigs23::2003-02-13::F:70.231.144.171:NULL
summersun32220:captjack42::1998-10-06::F:69.249.154.31:NULL
summersun33:eighty77:jmarko9@hotmail.com:1990-11-02:US:F:147.106.53.228:Stephanie
summersun34:what44:amy_cote123@hotmail.com:1987-11-28:CA:F:70.30.70.90:Amy
SummerSun35:SummerSun2331:s.welgraven@hotmail.com:1975-01-01:NL:F:77.165.137.181:Sandra
summersun356:summersun12::2001-02-16::F:99.172.150.109:NULL
summersun362:chocho36:cookingcutie36@aim.com:1996-03-06:US:F:72.225.159.234:Michelle
SummerSun3_97:summer97:summer397@me.com:1996-03-05::F:72.223.29.15:NULL
summersun45:Sally45:musicgirl640@cox.net:1994-04-12:US:F:64.12.116.143:Jackie
summersun456:qazqaz122::1997-08-19:US:F:173.2.98.163:Amanda
summersun4me:vbkjvbkj:vballchica484@yahoo.com:1990-03-04:US:F:173.172.103.250:Summer Sun
summersun501:baker10::2001-03-02:US:F:65.25.196.211:NULL
summersun54321:holly12::2002-6-7:GB:F:86.173.187.61:annabelle
summersun567:jumpfrog12::1998-03-04::F:72.152.22.175:NULL
summersun645:jayde123::2001-07-08:GB:F:94.9.148.74:NULL
summersun7:beukelotje00:annekemeijer7@hotmail.com:1968-03-18:NL:F:80.57.157.155:anneke
summersun73:clar246::2003-02-15::F:68.71.65.149:NULL
summersun777:domthe_cat11:izzi_e@hotmail.co.uk:1990-03-29:GB:F:78.146.240.18:Georgia
summersun8:animals89::2001-07-08::F:94.195.248.24:NULL
summersun814:swimming814::1994-09-10:US:F:198.110.218.133:Megan
summersun87:summer12::1999-02-09:US:F:99.67.190.66:NULL
summersun8899:jayde123::2001-07-08::F:94.195.248.24:NULL
summersun8954:kisses678::2000-10-29:US:F:71.61.56.102:madison
summersun8989:jayde123::2001-07-08::F:94.195.248.24:NULL
summersun900:aryah3201::2001-03-02:US:F:76.222.64.100:NULL
summersun9000:winter90::2000-10-29:US:F:206.57.29.54:madi
Summersun94:Lovinit10:loveeeww16@live.com:1994-09-11:AU:F:203.10.121.86:NULL
SummerSunBeachBum:tibbie92:sing4gsa@hotmail.com:1992-07-09:US:F:68.10.121.93:Beccie
summersunbright:winter101::2000-07-15:CA:F:99.251.184.149:Melissa-Paige
summersunburn:summer10:tomboyryan@gmail.com:1996-11-16:US:F:74.215.41.69:Katherine
summersundaystep:ilovewho18:summergal1527@yahoo.com:1990-03-01:US:F:75.202.101.58:Summer
summersunflower1991:gloria15:azbookworm@hotmail.com:1991-08-11:US:F:67.126.131.237:Sam
SummerSunFlowerGirl:771234::2002-10-06::F:75.66.116.131:NULL
summersunforever:sunnydays518:kiwilime518@gmail.com:1990-05-18:US:F:71.135.166.106:Andrea
summersungirl:oesjas1234::1999-06-14:NL:F:87.195.200.99:NULL
summersunglasses_x:megan0310:lil_miss_megz_becz@hotmail.com:1990-03-05:GB:F:86.150.70.182:Megann
summersunhine:summer100::1997-11-26:US:F:24.211.51.26:kelsey
summersunne:23chez12:staria@animail.net:1981-12-23:CA:F:121.210.133.110:CherylPolman
summersunnsurf:connorboy1011::2002-10-11::M:68.36.72.85:NULL
summersunnygirl:oesjas1234::1999-07-14:NL:F:87.195.200.99:tessa
summersunnygirl123:b3ll3mm:daniella_mia_gordenfelt@hotmail.com:1988-06-21:GB:F:78.149.25.214:Daniella Gordenfelt
summersunnysimon22:sistersalways22::1996-02-22:US:F:207.200.116.138:shaina
summersunpink:poppop11:summersunpink@rocketmail.com:1992-12-04:US:F:72.86.87.152:Andie
summersunpink_5:poppop11:and_pal05@yahoo.com:1992-12-05:US:F:72.86.87.184:Andrea
summersunrise:showbiz111::2002-08-10:US:F:24.101.168.147:Kaila
summersunrise_7:neogamer123::1999-01-05:ZW:F:81.97.5.45:chichie
summersuns1:summersuns12345::2001-09-05::F:98.236.16.247:NULL
summersuns24242:fraymond24242::2001-04-05:US:F:67.84.50.179:Sara
Summersunset:gelei33::1995-08-28:NL:F:207.138.82.4:i have no name
summersunset12:Chessie12:Swimchic0512@aim.com:1995-05-12:US:F:71.58.243.191:Abbey
summersunset1996:meghan1996:horsinaround@bright.net:1996-4-24:US:F:216.255.54.17:Meghan 
summersunset506:4892087::1998-04-01:US:F:68.163.46.208:Emily
summersunsets_:cheyenne13:cheyennecowley@rogers.com:1993-08-13:CA:F:99.233.124.206:Summer
SummerSunsetx:coolchick13:lipGloss@hotmail.co.uk:1997-4-1:GB:F:62.49.20.229:Agnieszka
summersunset_:showbiz111:myfunkyjunkylemon@gmail.com:1994-12-01:US:F:67.172.18.220:Kaila
SummerSunset_5:Radar#15::1999-01-23:AU:F:121.216.10.85:NULL
summersunsh1ne:42611787:denicetan@yahoo.com:1987-11-07:PH:F:119.95.175.40:Denice Charmaine
summersunshiine:MoPhead25:lolgiirl@gmail.com:1994-06-25:US:F:75.185.169.173:Summer
summersunshiineex3:Julie!0109:captainjellyrolltwinklemuffin@gmail.com:1995-09-17:US:F:173.29.160.171:Julie
summersunshine08:sawyer08:summerthomason@ymail.com:1990-10-02:US:F:216.97.183.77:NULL
summersunshine09:barbie03::1996-05-09:US:F:75.69.206.81:Summer
summersunshine092022:092022501:blondie092022@gmail.com:1994-01-16:CA:F:142.104.120.56:NULL
summersunshine11:212212:hkutzz@gmail.com:1995-03-12:US:F:98.252.67.161:NULL
summersunshine1129:ilovejustin9303:oneofakind1189@aol.com:1989-01-01:US:F:74.197.155.230:NULL
summersunshine12:summer12:worldsspecialgirl@gmail.com:1997-08-24:US:F:99.105.118.167:NULL
summersunshine123:12oliviaangelabff:smile246@gmail.com:1909-05-04:US:F:173.74.227.20:Olvio
summersunshine123_2:Nettie29::1999-12-10:US:F:24.140.24.178:summer
summersunshine14:friends4ever:summersunshine14@yahoo.com:1991-02-01:US:F:96.253.13.42:Malaika
summersunshine1998:sunshine98:miafrizzi@gmail.com:1994-04-08:CA:F:173.183.87.223:NULL
summersunshine2260:jade63::2002-3-21:US:F:98.150.7.159:JEWEL
summersunshine234:secret234::1995-11-29:PH:F:121.97.178.28:JKA
summersunshine2345:12oliviaangelabff:smile2469@gmail.com:1910-04-04::F:173.74.227.20:NULL
summersunshine246:12oliviaangelabff:smile2469@gmail.com:1909-05-04:US:F:71.123.243.57:caitlin
summersunshine25:summer25::2003-07-25:GB:F:82.3.82.163:summer
summersunshine3:muggles10::1995-05-20:US:F:72.224.85.14:Christina
summersunshine32:pink32::1997-06-28:US:F:65.33.53.79:keturah
summersunshine34:pink34::1997-06-28:US:F:8.14.104.4:keturah
summersunshine3553:corinne35:happyface199912@aim.com:1993-03-03::F:99.164.63.77:NULL
summersunshine36:2866821::1999-07-12::F:173.169.9.147:NULL
summersunshine364:2866821::1999-07-12::F:173.169.9.147:NULL
summersunshine369:cloverdale369::2001-09-18::F:67.60.47.192:NULL
summersunshine4:candygirl123::1997-08-14:US:F:97.113.16.246:lulu 9
summersunshine524238:buff_2345:booget2001@yahoo.com:1992-07-29:US:F:164.107.244.132:NULL
summersunshine6:penbird33::1998-07-10:US:F:76.0.65.191:summersunshine6
summersunshine67:cheeky67::1996-03-25:US:F:71.15.97.59:Imani
summersunshine72:summer77:c.assen@hotmail.com:1991-03-14:CA:F:154.5.174.52:Jazz
summersunshine86:thecorrs86:vas_jain@yahoo.co.uk:1986-01-07:GB:F:89.243.158.193:Sonia
summersunshine98:kristy28:kristymac98@gmail.com:1987-03-05:NZ:F:125.237.141.7:summer
summersunshine99:webkinz123::1996-08-19:US:F:65.60.246.220:summer
summersunshinebabe:fudge08::1997-02-05:GB:F:86.129.223.127:Ellie
summersunshinegirl:hayesden31:summersunshinegirl39@yahoo.com:1970-03-11:US:F:96.228.127.19:Shelly
summersunshines:yorkeagles12:summerstory22@yahoo.com:1990-09-20:US:F:99.163.93.185:summer
summersunshinesmile:181994:summersunshinesmile@yahoo.de:1994-08-01:DE:F:91.34.114.11:Lena
SummerSunshinest:october3846:sunshinest@hotmail.com:1993-10-20:US:F:69.153.129.37:May
summersunshinetime:isis05:zenaromy@gmail.com:1994-11-02:US:F:50.46.18.94:rebecca
summersunshinexx:remmus!22:summersun6911@yahoo.com:1995-09-20:US:F:99.163.94.201:Summer
summersunshine_758:dodgers15::2003-09-15::M:98.108.198.124:NULL
summersunshine_77:sky58!:summersunshine85@yahoo.com:1985-06-12:US:F:173.48.189.168:Summer
summersunshine_8:babypp12:chino_rabbit@yahoo.com:1995-03-20:US:F:24.125.89.131:NULL
summersunshine_88:summersunshine_888:peiyi.sim@hotmail.com:1993-05-10:SG:F:202.156.10.13:Pei Yi
summersunshine_ilh11:SHELUVZDANIEL11::1996-02-16:US:F:72.148.75.250:Summer
summersunsmile7:ilovemylife97::1998-3-21:US:F:24.210.122.67:Tiffany
summersunsunshine:dertzu45:di-husa@web.de:1994-06-19:DE:F:178.0.163.222:geheim
summersunx12:preppy12:vivalaglamx2@hotmail.com:1991-12-19:US:F:70.22.74.183:megan
SummerSun_:2975high:amaturedlove@gmail.com:1990-09-05:US:F:75.178.16.199:Shaley
summersun_0:pinacolada88::1999-10-05:US:F:68.36.25.248:alyssa
summersun_0225:PAWPRINT51::2001-08-09::F:123.211.122.227:NULL
summersun_2011:amp123:kupiikake@hotmail.com:1993-02-21:US:F:68.12.232.79:Jessica
summersun_2012:johnney06:summer_sun2012@hotmail.com:1994-07-31:US:F:173.69.148.156:Kat
summersun_213:damaris88:darcie_2000@Hotmail.com:1988-07-09:US:F:24.164.135.80:Snow
summersun_28:petpark18::1999-07-15::F:68.28.138.229:NULL
SummerSun_428:neopets55::2002-07-09::F:70.180.162.35:NULL
summersun_82:justchillin12:waterspider14@hotmail.com:1995-01-08:US:F:65.100.213.153:Alli
summersun_girl:22120062:crush.love@web.de:1989-06-23:DE:F:93.131.109.127:Katja
summersun_r:869310HG:ruthenglish@live.co.uk:1990-03-20:GB:F:92.9.52.105:Ruth
summersuper:hannah78::1997-08-13:US:F:67.149.91.181:jaykayla
summersuperstar123:summer45::1997-05-08:US:F:74.240.223.172:summer
SummerSurf:beachbabe03::1998-03-14:AU:F:121.222.24.124:NULL
summersurf1:summersurf12::2000-05-03:US:F:66.74.58.66:Sammi
summersurf35:0000000000::1998-06-15::M:69.120.84.95:NULL
summersurf456:yourock456::1999-05-06:US:F:121.72.11.195:John
summersurf57:beachbabe03::1998-03-14:GB:F:124.187.75.18:Alice
summersurfchick:frank2billy17:abbydoo27@hotmail.com:1990-02-20:US:F:156.98.180.118:Hollister
summersurfer0319:batman0319:hulijulie@aol.com:1994-03-19:US:F:74.170.34.138:summer
Summersurfer10:kittenwave39::1998-06-15::F:161.216.163.141:NULL
summersurfer101:blue11::1997-01-03:US:F:24.99.236.212:nik
SummerSurfer546:kake45::1999-01-27:US:F:98.208.52.234:NULL
summersurfer72:monkey77::1998-12-10::F:24.20.163.6:NULL
summersurferchick:panzer12:LoveMusicBlonde@yahoo.com:1993-04-04:US:F:68.189.70.108:um..SurferChick
summersurfergirl13:ballzach01:msmercer@frontiernet.net:1995-01-10:US:F:70.15.123.247:NULL
summersurfersyd:chris15syd::1998-10-15::F:69.166.167.1:NULL
summersurfin04:orange04:kolle04@yahoo.com:1993-04-04:US:F:64.83.195.49:Kelsi
summersurfin93:shelby96:s.a.s.stewart@gmail.com:1984-11-04:US:F:76.167.64.246:Shelby
SummerSurfy:petpet99::2000-06-18::F:69.119.78.246:NULL
summersurf_:#*mr4n74m9:summersurf_@windowslive.com:1995-10-28:NZ:F:222.153.182.112:Samantha
summersurf_x15:orange15:liljill15@optonline.net:1993-05-25:US:F:67.81.33.211:jill kajsdkflwb
summersushi:nessie123::2000-01-15:US:F:98.111.233.60:summersushi
summersvale:poptropic12:summervale@mail.com:1996-06-14:US:F:99.69.168.187:Amy
summersville__67:lauraashley01::1997-03-11:US:F:71.164.58.113:ashley
summersw:881022:summergirlsw@hotmail.com:1981-01-10:MY:F:60.48.82.39:summer chang
summersw1:summerrae12::1998-12-18:CA:F:174.1.147.222:NULL
summerswagging:ellaphilo96:philo.ella@gmail.com:1996-06-16:AU:F:124.176.214.191:NULL
summersway22:summer22::2001-06-25:US:F:67.165.200.97:NULL
summersweakness:CuKuracha91:xosianlove@hotmail.com:1992-09-03:US:F:72.24.107.167:Slash
summersweat:rudyrudy11:xiaoyannn-@hotmail.com:1993-04-01:SG:F:218.186.10.15:NULL
summersweeney:sum123::1998-03-27:US:F:76.113.199.159:NULL
summersweeney101:brooklynn101::1998-05-04:US:F:206.57.29.54:sunshine
summersweeney10148:seven101::1998-05-04:US:F:98.119.112.64:summer
summersweeney48:montana101::1998-05-04:US:F:98.119.112.64:summer
summersweet:2friends4ever::2001-02-24:US:F:67.250.88.24:NULL
summersweet06:oakton13:ohsfieldhockey13@aol.com:1995-03-17:US:F:96.231.199.214:monica
summersweet1:fairymagic21:starlightstarbright1000@gmail.com:1994-02-03:US:F:24.7.138.59:joy
summersweet10:22puppy:jejej5@msn.com:1993-03-18:US:F:76.181.223.150:Emily
summersweet21:springgirl12::2001-02-26::F:75.203.132.94:NULL
summersweet500:sugarbaby00:summergirl@pingryhomes.com:1996-07-10::F:71.12.15.64:NULL
summersweet627:realgoodtime:alemar1390@yahoo.com:1989-06-27:US:F:76.200.161.177:Reena
summersweet92:Sumer :)::Sumer :):Sumer :):Sumer :):Sumer :):Sumer :)
:::::::
summersweeta:pootie89:lilstephyb89@hotmail.com:1989-06-29:US:F:98.200.103.60:Stephanie
summersweetair:lovefree00:summersweet41@yahoo.com:1994-03-13:US:F:98.208.162.65:Sthala
summersweetee321:blamma93:tinkabellfan321@hotmail.com:1993-01-27:US:F:75.46.60.94:Sam
summersweethart:smeyer11::1998-04-08:US:F:72.179.32.247:Codie
summersweethart121:lulu123::2001-07-13:US:F:74.105.53.210:NULL
summersweethear1231:partygirl1231::1996-12-31:US:F:71.175.159.177:amber
summersweetheart11:summer11:stephaniecroteau@ymail.com:1992-11-13:US:F:71.192.1.94:NULL
summersweetheart474:koreison11694*:myotheraccount474@hotmail.com:1963-04-04:US:F:67.40.224.43:Tay
SummerSweetHearte:evanescence11:cwecker@austin.rr.com:1998-04-08:US:F:70.123.136.70:NULL
summersweethearts22:*bm*333:welcomebackpotter4@yahoo.com:1983-02-03:US:F:72.76.156.95:Halli
summersweetheart_123:camprock28:superrockstarr36@gmail.com:1994-11-11:US:F:68.5.170.51:Jillian
summersweetie:dinky24:alysonpal@hotmail.com:1998-01-24:US:F:71.52.92.240:NULL
summersweetie11:robertsgirl11:centuryballer11@hotmail.com:1994-05-11:US:F:67.61.237.60:hannah
summersweetie174:elijah1:summersweetie571@yahoo.com:1988-06-11:US:F:75.128.152.116:Maria Zerod
summersweetie21:summer21:summersweetheart21@msn.com:1992-04-21:US:F:71.220.62.122:Janine
summersweetie23:kathleen23:littlestaremily@aim.com:1991-09-20:US:F:75.61.235.218:Emily
summersweetie27:imbored27:kloforno@yahoo.com:1993-04-27:US:F:68.194.73.107:Kristle
summersweetie297:bananas12::1997-02-02:US:F:75.181.37.242:Katie
summersweetie439:carley12:csantori@austin.rr.com:1992-09-25:US:F:70.112.18.98:Carley
summersweetie4744:altador44:littlefishie44@gmail.com:1995-07-14:US:F:68.219.163.56:Lily
summersweetie4ever:poland22:xoxpolishgirl22@aol.com:1993-07-09:US:F:108.27.106.140:Gabriela
summersweetie517:hunter101:ch0c0l4t3_thund4@hotmail.com:1990-05-17:US:F:74.138.45.99:madi
summersweetie52491:503caitlin:kevije@yahoo.com:1991-05-24:US:F:24.20.70.103:Kaity
summersweetie554:sandee23::1996-12-11:US:F:98.221.4.236:
summersweetie6080:spirit58:hersheykiss608@hotmail.com:1980-06-08:US:F:69.21.137.200:jenna robertson
summersweetieee965:summertime965:violastar97@aim.com:1997-6-28:US:F:66.72.161.214:Afshan
summersweetie_11:611611::1995-08-06:US:F:216.246.75.110:DriDri
summersweetie_19:88shine::1999-07-21:US:F:86.7.166.122:NULL
summersweetness1:Aqua12:savannabeebug@aol.com:1990-03-07:US:F:72.145.182.197:Wynter
summersweetness18:jazmine16:i_love_vodka90@hotmail.com:1991-03-14:CA:F:69.157.172.100:Shana
summersweets:summer11:summersweets11@live.com:1994-04-27:US:F:68.43.230.173:NULL
summersweettie:17annioe:carase_92@msn.com:1990-07-16:GB:F:82.37.251.152:Naomi
summersweettooth34:8580978:luckycarabaer@aol.com:1996-09-09:US:F:64.12.116.207:cara
summersweety:102030k:kamilabochenek@yahoo.com:1988-09-08:US:F:24.14.93.39:NULL
summersweety11:cutie9000:taylorbd@yahoo.com:1994-02-14:US:F:24.2.128.108:taylor
summersweety1618:smiley1618:ANNALISE.D.D.S@hotmail.com:1995-10-26:CA:F:70.24.67.146:Ashley
summersweety528:mymomrocks69::2002-06-30::F:65.28.239.161:NULL
summersweety828:smiley18:www.shawn.hedge@sympatico.ca:1995-10-26:CA:F:216.110.250.145:Ashley
summersweetyo4:mississippi44:summersweety0o4@aim.com:1992-06-30:US:F:67.252.25.120:melindio
summerswettieunimom:emmam44::1999-03-17:US:F:67.185.104.235:summerswettieunimom
summerswigart1:thegroop12:summerswigart@yahoo.com:1979-08-18:US:F:75.48.103.78:summer
summerswim120:goalie30:pwilk30978@yahoo.com:1997-03-17::F:66.60.152.66:NULL
summerswim2:steven12::2000-12-26:US:M:74.244.130.158:steven
summerswim232:LAPS25:donnachener@gmail.com:1991-09-26:US:F:96.228.248.34:Summer
summerswim2783:spiderpower212:ebcsassie96@yahoo.com:1990-08-12:US:F:216.175.56.76:beth
summerswim89:winston89:missyas215@aol.com:1989-02-15:US:F:205.188.116.135:NULL
summerswimgirl05:pinkbackpack325:dsozansky@comcast.net:1990-03-25:US:F:69.249.56.134:summer
summerswiming27:princesse_27::1999-06-17:CA:F:216.99.53.97:NULL
summerswimmer:mokhab99:idodidou@aol.com:1998-01-07:US:F:76.254.148.38:NULL
summerswimmer10:coder815:benkincaid96@gmail.com:1996-08-15:US:M:96.28.194.184:Ben
summerswimmer11:cheval:andersonmla@aol.com:1991-01-18:US:F:173.171.84.177:Sarah
summerswimmer12:8015fi:clone8015@hotmail.com:1995-07-31:US:F:97.120.144.102:madisen
summerswimmer122:jnj122:jnj122@gmail.com:1995-10-02:US:F:66.41.11.60:JJ
summerswimmer2088:summerswimmer20888:summerswimmer208@aim.com:1987-01-07:US:F:76.197.167.251:annata
summerswimmer654:pawprints111::1998-06-19:US:F:24.0.152.151:Emma
summerswimmergirl121:blackbird41::1996-07-28:US:F:74.107.125.30:charley
summerswimming11220:swimming22::2000-04-20::F:69.113.138.201:NULL
summerswims:m1ndyisdabest4:beachpooltime@yahoo.com:1988-05-05:US:F:128.54.163.134:Mindy
Summerswingers:Pq9mXCFs8520::2000-06-22:US:F:98.101.197.207:NULL
summerswinter:myvanillatictac12:myvanillatictac@gmail.com:1996-04-02:US:F:99.177.89.129:NULL
summerswirl1:shcolo1999::1999-09-20:US:F:74.64.7.109:NULL
summerswirl1999:shcolo1999::1999-09-20:US:F:74.64.7.109:Phoebe
summerswish:dudets8957:kimberlysuzannedavidson@hotmail.com:1993-04-15:CA:F:24.64.220.47:NULL
summersword:neoncow19:summer_sword19@yahoo.com:1991-04-01:US:F:99.195.100.7:NULL
summerswt:justin10::1999-11-09::F:99.102.98.94:NULL
summerswty25:wam25hen:amiehoff@charter.net:1987-07-28:US:F:74.36.56.77:Amie
summersxxx:alisha01:tasneemx@hotmail.co.uk:1990-11-08:GB:F:92.41.32.82:Tas
summersydney:sydney12::2008-10-10::F:173.169.209.240:NULL
summersymphonies::::::64.12.116.73:NULL
summerszall:merino65::1998-12-11:AU:F:68.229.70.27:Summer
summers_07:girlss07:kasi522@hotmail.com:1995-05-11:US:F:12.200.128.2:summerss
summers_1:pavarininr72::1998-01-12:AR:M:201.255.97.67:nicolas
summers_100:summers100:desiebear365_1@yahoo.com:1995-04-11:US:F:71.210.28.138:Destiny
summers_16:mody01::1996-12-29:BR:F:200.199.232.137:Beatriz
summers_1_1:roberto11::1998-01-12:AR:M:190.50.63.48:nicolas
Summers_222:0873850:summersluvstj@gmail.com:1991-04-02::F:67.10.241.203:NULL
summers_302:badboy111:brad.summers2@gmail.com:1990-07-02:AU:M:58.110.33.181:Brad
Summers_303:Zoie_111:juliehudson@cox.net:1988-11-30::F:70.185.236.15:NULL
summers_353:alyssa524::1999-09-13::F:69.47.211.163:NULL
summers_3y3s:3y3s4him:summers.rubs@yahoo.com:1979-07-02:US:F:50.9.67.46:Summer
summers_4:322486390:olga_summernights@hotmail.com:1971-05-10:CA:F:99.227.78.162:Guesss 
summers_447:4389982::2007-12-15::M:76.106.160.226:NULL
summers_45:ets1997:emmz_97@hotmail.com:1997-02-20:US:F:75.5.244.238:Emily
summers_4love:63008532:icebabrina@hotmail.com:1989-02-26:SG:F:218.186.10.241:Ice
summers_4_2_6:mee:)::mee:):mee:):mee:):mee:):mee:)
:::::::
:::::::
:::::::
summers_5_5:collin312::1999-03-12:US:M:76.24.167.90:collin
summers_61:muhammad52::2001-12-21::M:99.174.204.99:NULL
summers_625:zacher10::2001-05-29::M:64.195.82.170:NULL
