summervt:lvsum1314:van_nessa1314@yahoo.com:1994-08-25:MY:F:60.48.62.117:summer
summervva_9:Sparkle77::2000-03-02:US:F:173.72.32.244:Summer
summerW09:babyboom11:raymo90@yahoo.com:1992-10-11:US:F:12.229.123.35:NULL
summerw12:stargirl67::2003-07-27:US:F:64.12.116.139:summer
summerw124:summer00:cheerchick0502@aol.com:1992-12-25:US:F:68.79.4.158:summer
summerw13:turtle::1993-08-08:US:F:none:summerw13
summerw14:12356:summerw14@yahoo.com:1986-05-02:US:F:none:Melissa Brooke
summerw2003:030610::2003-10-06:US:F:67.142.164.21:summer
summerw3:sn3ah4::2005-06-20:US:F:71.7.104.201:Summer
summerw37:thomas:sweetsummer34@hotmail.com:1968-01-17:CA:F:none:pennywalton
summerw39:turbo1:sweetsummer34@hotmail.com:1968-01-17:CA:F:74.114.35.81:penny walton
summerw40:thomas10:blackcat.meow@hotmail.com:1968-01-17:CA:F:99.247.167.244:penny
summerw405:flamingo15:breweiss@att.net:1995-11-15:US:F:99.152.245.43:Breanna
summerw42:twilightfan65::1998-01-05:NZ:F:222.152.64.206:summer
summerw42a4:twilightfan42::1998-01-05:NZ:F:118.92.213.81:summer
summerw4life:ohg5ie8a:aliyahslater@yahoo.com:1995-12-20:US:F:76.30.92.222:NULL
summerw56:google00::2000-04-03:US:F:76.23.88.190:NULL
summerw82:sweet1:hayanmrs@hawaii.rr.com:1993-04-16:US:M:none:david moniz
summerwade_411:ilovecjovally12:summer_wade@hotmail.com:1996-04-18::F:75.134.182.13:NULL
summerwadley:summer69:corey.wadley@yahoo.com:1992-07-15:US:F:72.172.34.124:NULL
summerwagner:cookie12:summer.wagner@yahoo.com:1992-03-18:US:F:69.215.144.147:Summer
summerwagner9:tacopizza99::1999-07-31:US:F:98.30.189.24:Summer
summerwaking:kevin22:rockmusiclover4x@netscape.net:1991-07-10:US:F:70.188.159.102:Erin
summerwal21:andrew2000:summerwal21@yahoo.com:1982-07-07:US:F:none:Summer Waldron
SummerWaldorf:burnbook1234::1995-12-25:BR:F:186.204.186.252:NULL
summerwalk4u:mikey:shirakatirah@aol.com:1983-09-08:US:F:none:Gaby Strabelle
summerwalker:kennedy04::1996-06-29:GB:F:79.65.89.17:summer
summerwalters:summer101::1996-11-10:US:F:71.54.5.145:summer
summerwaltz:summer1:superlovesongs@hotmail.com:1992-10-08:JP:F:none:Summer Sunshine
summerwan:rockandroll12::1999-05-16:CA:F:199.185.67.228:danyka
summerwang:86685482:664797632@qq.com:1989-09-26:CN:M:60.0.127.196:忘情
summerwannabe:luckynumber44:red_kats_island@hotmail.com:1994-02-17:CA:F:68.149.121.152:Veronica
summerwannabes:cheeky07:amber@pilling.uk.net:1993-09-24:GB:F:84.13.67.248:verityandamber
summerward695:jumpy:magnoliaglassworks@yahoo.com:1992-03-14:US:0:none:Summer Ward
summerware:sleep:astiana@sbcglobal.net:1992-05-12:US:F:none:sky katin
summerware07:sammy90::1999-06-07:US:F:99.54.93.27:alexis
summerwarmheart:pinkywarmheart12::1999-06-13:US:F:67.186.229.200:crystyle
summerwarriorcat:warriors66::2000-7-15:US:F:69.242.230.30:summer
summerwary3198:saw11!@::1998-03-01:US:F:70.190.38.101:summer
summerwashington1:barbie0108::1999-07-08:MA:F:75.64.203.141:summer
summerwatch:punkrocker77::1996-10-07:GB:F:86.160.110.37:alex
summerwater:19811214:jiaoyulong2004@hotmail.com:1981-12-24:CN:M:202.100.65.181:焦裕;龙
summerwater24:LASHEY:socialcoaches@aol.com:1992-02-24:US:F:none:Alaysia Trotman
summerwater51:lovesweet:ju2004yes@yahoo.com.tw:1991-02-04:TW:F:none:戀 藍羽
summerwaterfall:1529334::1996-06-18:CN:F:71.112.181.84:Lunna
summerwaterfall4:aaronh04:p_deharo05@yahoo.com:1987-05-09:US:F:172.195.0.173:Patricia
summerwatergirl7:texas12::1999-06-14:US:F:69.110.132.86:Lily
summerwaterlove10:hardsoftball10:sassygirl@ol.com:1983-01-24:US:F:67.49.210.226:raina
summerwaterman123:summer12::2001-09-04:TT:F:186.45.89.146:summer
summerwaterman12345:sandy12::2001-09-04:TT:F:186.45.112.28:NULL
summerwatermellon:flowerpower7:cateslovepig@aol.com:1991-01-08:US:F:none:linda payne
summerwatermelon:iluvpopsicles99:melinda96fu@gmail.com:1992-07-11:US:F:173.67.15.93:NULL
summerwatermelon14:lululover123:hwang19@yahoo.com:1990-07-14:US:F:24.126.210.200:Lululover
summerwatermelon26:ningningwang123:hwang@yahoo.com:1990-07-14:US:F:66.156.87.12:neopetluver
SummerWatermelons:topshop10:rachelvbryant@hotmail.com:1997-5-7:GB:F:79.77.23.140:Tayy
summerwaters:kiskis24:niicole.247@hotmail.com:1992-07-24:US:F:99.230.47.240:summer
summerwaters1725:winter01:amanda_archibald25@hotmail.com:1981-07-13:CA:F:74.210.51.238:mandy
summerwaters247:kiskis24::1998-03-24:CA:F:99.230.47.240:NULL
summerwaters62:crowsnest63::1997-03-14:US:F:24.176.58.129:Shayna
summerwave:natsunami22:natsuham@hotmail.com:1993-03-04:JP:F:125.206.32.98:Natsuha
summerwave00:california:hottowe@comcast.net:1991-04-16:US:F:none:lauren cool
summerwave161813:toyota2:mingerokx@yahoo.com.sg:1987-03-23:SG:F:none:minger ong
summerwave222:torrent2:summerwave222@yahoo.com:1988-10-04:US:M:none:d d
summerwave27:nadia123:summerwave_27@hotmail.com:1987-09-27:US:F:none:Nadia
summerwave2716:TOYOTA1:mingerokx@yahoo.com.sg:1987-07-13:SG:F:none:MINGER XIN
summerwave323:surfup::1992-06-19:GB:F:none:summerwave323
summerwave411:twilight411:summer.wave@live.com:1995-11-04:AU:F:58.111.106.130:Paige
summerwave44:SUMMER:cococrazy18@hotmail.com:1990-12-05:CA:F:none:Elizabeth Bosworth
summerwave5:croft:hottowe@comcast.net:1991-04-16:US:F:none:lauren smith
summerwave66:holbrook92:summerwave66@aol.com:1987-03-25:US:F:none:Jerrika Holbrook
summerwavepac:gopac1:ashea@suscom.net:1992-05-27:US:F:none:summer Wave
SummerWaves:wucciuo2727:rainbowrivers@live.com:1984-02-07:US:F:74.93.36.106:Tanya Comstock
summerwaves101:Summerwaves227::1998-02-27:US:F:209.66.200.64:Mackenzie
summerwaves212:tropical212:summerwaves123456788@gmail.com:1994-10-31:US:F:66.188.45.129:Emily
summerwaves227:Katiewizard227::1998-02-27:US:F:72.197.37.127:Mackenzie
summerwaves28:ilovesunny28:surfsummer92@charter.net:1992-12-28:US:F:none:Summer Harp
summerwaves565:c_candy:saferbet@hotmail.com:1991-07-16:US:F:none:Miranda Brantley
summerwaves66:holbrook:summerwaves66@aol.com:1992-03-25:US:F:none:Jerrika Walker
summerwaveschick:Cleats:summerwaveschik@yahoo.com:1988-12-14:US:F:none:GO GO
summerwavesunshine:summer1:tropicgirl@bellsouth.net:1992-06-05:US:F:none:Lydia Matheny
summerwavesx3:jordash72::1992-07-07:US:F:98.122.31.61:Jordash
summerwavez:yellow1:ada@ca.com:1973-01-01:HK:F:none:a l
summerway:justin18:velmam3@yahoo.com:1994-12-19:US:F:74.194.101.138:Summer
summerwayne:st112212:summer_wayne2000@yahoo.com.tw:1988-02-07:TW:M:none:李 志瑋
summerwazherr:omg1234:ilovespencerdole@yahoo.com:1996-04-13:US:F:71.180.86.73:NULL
summerwc:warden1:wardencai@hotmail.com:1988-12-14:CA:M:none:Brian Chu
summerweasel60:rollinghills:summerweasel60@yahoo.com:1960-12-07:US:F:none:karen martindale
summerweb:summer000::2001-08-08:US:F:76.23.28.185:summer
summerwebb55:slimbug55:bray214@hotmail.com:1988-06-16:US:F:74.229.118.214:summer
summerwebweb:emmarose16::1999-04-14:US:F:24.113.144.251:Emma
summerwednesday:rainb0w14tamer4n:rlevinger@verizon.net:1992-09-06:US:F:147.9.177.147:Summer
summerwednesdaychiu:chiu280::1994-11-27:HK:F:none:summerwednesdaychiu
summerweed777:neary55::1998-01-12:US:F:98.17.90.187:summer
summerweek:neopet12::2002-02-13:US:M:97.116.89.217:bear
summerweeks12:ginger1999::1999-10-09:CA:F:24.57.94.247:ginger
summerweet:9melissa9:summertime1995@yahoo.com:1995-07-20:US:F:72.87.130.77:
summerwei:030507:summerwei58@yahoo.com:1987-09-07:CN:F:none:summer wei
summerweider:stormiweider78::2002-07-22::F:98.28.138.129:NULL
summerweider_116:stormiweider78::2002-07-22::F:98.28.138.129:NULL
summerweiwei:941211075788:summer_gurl94@hotmail.com:1994-12-11:MY:F:60.52.76.83:NULL
SummerWelford:justinup13:luvpickles7070@aol.com:1996-12-22:US:F:75.197.224.226:NULL
summerwell:stephanie12:bluenightly@gmail.com:1992-09-10:US:F:67.248.82.233:Stephannie
summerwells:sumsumx12:xmini_wellzyx@hotmail.com:1993-05-21:GB:F:82.110.133.164:summer
summerwendy:730724:summerwendy_@hotmail.com:1984-08-20:MY:F:141.241.168.153:Chia Wen Kuo
summerwes:snake00::2000-03-01:AU:F:122.148.151.57:summer
summerwest:sandstone02::2000-12-04:US:F:69.134.138.37:summer
summerwest123456789:sandbox12::2000-12-4:US:F:76.2.43.141:Summer
summerwet:24581221:bs68920726@yahoo.com.tw:1982-01-06:TW:F:none:夏 宇
summerwey:721229:bubu_224@yahoo.com.tw:1984-02-24:TW:F:none:wey liu
summerwful:summer01:shyloamariee@hotmail.com:1991-06-25:CA:F:67.225.9.7:Summer
summerwh:summer07::2001-03-10:US:F:75.143.162.109:Summer
summerwheat83:5177mich4u:eileenm@163.com:1993-02-08:CN:F:114.94.202.216:NULL
summerwheatly:aussie:lillious_artemis@yahoo.com:1980-10-01:US:0:none:Pedro Sanchez
summerwheelock:kitkat123:summer.city@hotmail.com:1992-06-21:GB:F:none:summer wheelock
summerwhisper:p00kie:born2beperfect@yahoo.com:1987-06-20:US:F:none:Summer Shadow
summerwhisper212:freakyou::1992-12-18:US:F:none:Cate WhyDoYouCare
summerwhispers:67630348:summersnows@live.com:1994-08-05:IE:F:220.255.1.43:Summers
summerwhistle:ih3@rtp0k3m0n!:neostarter@yahoo.com:1991-02-19:US:F:108.23.219.74:Suzie
summerwhit:swhit::1993-08-27:US:M:none:none
summerwhite12345:summer12345:lisagreenwhite@gmail.com:1990-06-25::F:65.188.129.198:NULL
SummerWhite157:10010cars::2001-07-21::F:75.4.142.188:NULL
summerwhite20010:u7471558::2001-06-30:GB:F:86.136.40.199:summer
summerwhite62:dzani:summerwhite62@hotmail.com:1989-11-15:US:F:none:Leslie
summerwhite987_34:sw123456::2000-06-06::F:65.188.129.198:NULL
summerwhitesides:march10::2001-03-10:US:F:71.15.91.108:Summer
summerwhitex3:kshmsg5:november5star@optonline.net:1990-11-05:US:F:none:hannah g
summerwhitley:watever1:luckygirl77772000@yahoo.com:1990-06-01:US:F:75.176.74.9:SuMmEr WhItLeY
summerwhitman:2003106::2003-10-06:US:F:67.142.164.28:Summer
summerwhitney:123456789::2001-07-31::F:70.189.47.117:NULL
summerwhoa:hey123:summerisrad@yahoo.com:1992-01-13:US:F:none:summer wright
summerwhooo:lantian:jessielee_999@hotmail.com:1991-10-25:CA:F:154.20.146.193:summerwhooo
summerwhoop:moonsraven82:rachael.lowen@earthlink.net:1970-06-09:US:F:75.42.69.68:Raylin
summerwhoslover:ry789827:summerwhoslover@yahoo.com.tw:1988-08-09:TW:F:none:佩暄 石
summerwho_1:taylor00:Country_girl_rock@yahoo.com:1993-08-15:US:F:65.40.229.136:Summer
summerwhy:6842366:qiu-baima@126.com:1988-02-02:CN:F:none:小狗 秋
summerwi:fatima1997:ashleytisdalepiazza@hotmail.com:1916-11-25:US:F:189.4.86.189:summer
summerwiggins6621759:66217:danny@wal-mart.com:1990-07-03:US:F:none:summer wiggins
summerwilburn:summer789:summerbreeze789@yahoo.com:1994-03-31:US:F:76.16.183.174:summer
summerwild91589:m&m915:camper2122000@yahoo.com:1989-08-01:US:F:none:summer wildspring
summerwildchild:dinobear17:nis.couture@yahoo.com:1992-11-05:US:F:76.174.75.91:Nisa
summerwilde140:pepsi2002140:aliciajeanspiegel@yahoo.com:1990-10-09:US:F:206.205.66.194:NULL
summerwildpaw:shianne90:chipmunk.go@hotmail.com:1996-09-21::F:216.105.74.47:NULL
summerwiles:sexychick101::1996-07-05:NZ:F:122.57.164.253:summer
summerwilkerson:seamonkey12:summerlea36453@yahoo.com:1992-02-07:US:F:74.181.109.218:summer
summerwilliams13:summer13:summerwlliams13@live.com:1996-07-09:CA:F:70.48.151.183:summer
summerwilliams4ever:jayson4:tr0pikalsunshine@yahoo.com:1990-05-23:US:F:none:Summer Anderson
summerwillis:ashina12::1999-07-24:US:M:98.108.198.243:jakob
summerwillis2003:catfood10::2003-02-07::F:96.19.102.49:NULL
summerwillis99:catfood10:www.summerfaith7@yahoo.com:1991-07-11:US:F:96.19.102.49:summer
summerwillis9908:catfood10::2003-02-07::F:96.19.102.49:NULL
summerwillis9909:catfood10::2003-02-08::F:96.19.102.49:NULL
summerwillis_195:loveyousomuch12::2000-04-26::F:67.242.251.161:NULL
summerwillis_941:iloveyou12::2000-04-26::F:67.242.251.161:NULL
summerwillmesally202:neopets202:tenniskitty@comcast.net:1994-01-15:US:F:71.63.67.255:sally
summerwilson006:mykenzie87::2002-05-22::F:69.180.0.227:NULL
SummerWilson158:MYKENZIEWEBB87::2002-05-22::F:69.180.0.227:NULL
summerwilson3:login1234567890::2000-07-11:US:F:76.235.190.134:NULL
summerwilson3456:login123456789::2000-07-11:US:F:67.190.34.179:summer
summerwiltz:calais1234::1999-10-06::F:174.69.194.130:NULL
summerwin:dawnl:dawnlyf@hotmail.com:1982-12-31:SG:F:none:summer sun
summerwind:summerwind2:lauren.waters@delta-seven.com:1979-08-25:US:F:Mail from cute_n_sweet244:L W
summerwind06:26021990skjordon:sim0ne_x0x@hotmail.com:1990-02-26:NZ:F:122.61.132.227:genge_lover
summerwind102:blankey12:sehisme@yahoo.com:1989-02-12:US:F:68.56.148.24:summer
summerwind11:beaverlake11:samanthadepoy@yahoo.com:1993-03-31:US:F:76.101.100.236:NULL
SummerWind15:lynsey15:stevepaige15@gmail.com:1995-08-29:US:F:75.45.2.117:NULL
summerwind1591:1candy:summerwind889159@yahoo.com:1990-08-10:US:F:76.18.58.180:sophia bravo
summerwind1974:bombers:summerwind1974@hotmail.com:1974-01-22:AU:F:none:Louise Smith
summerwind1985:friends1:sandrafricker@gmx.de:1985-02-25:DE:F:none:sandra fricker
SUMMERWIND2:FISHHEAD23::2004-06-12:US:F:68.46.207.183:Rocky
summerwind200:1261998::1998-01-26:KW:F:58.69.95.126:Mai
summerwind2005:102463jr:jr9251@yahoo.com:1963-10-24:US:F:none:Joseph Russo
summerwind211:sheena16:airbornesky712@yahoo.com.sg:1989-09-30:SG:F:none:nana ng
summerwind230:sheena30:airbornesky712@yahoo.com.sg:1989-09-30:SG:F:none:shee ng
summerwind2468:24680wry:CiaraGrl11@aol.com:1989-11-30:US:F:none:Summer Evert
summerwind2964:SUNSHINE10::1996-10-29:US:F:98.215.250.187:Gracie
summerwind31:windchimes31:frances.metcalf@btopenworld.com:1943-11-13:GB:F:none:Frances Metcalf
summerwind3282:erica::1995-07-17:CA:F:none:summerwind3282
summerwind48:reckless13:slickschaedy@suscom-maine.net:1988-07-01:US:F:none:Ryouko Takahashi
summerwind541:12348765:tsadighi@comcast.net:1995-04-14:US:F:76.120.46.253:lily
summerwind58:lonestar20:cowboy583283@att.net:1958-06-20:US:M:99.190.17.120:Benny
summerwind611:113826:stephaniehung15@yahoo.com.hk:1989-06-11:HK:F:112.118.139.93:SummerWind
summerwind710:dewdew!:spring_loaded_shortie@yahoo.com:1989-08-27:US:F:none:halli bewis
summerwind8:myname94:cute_angel_saphira@hotmail.com:1994-06-08:SG:F:218.186.13.10:saphira
summerwind92:madison::1992-08-31:US:F:none:summerwind92
summerwind92392:jennifer12:jenmancino@yahoo.com:1992-09-23:US:F:72.94.168.111:Jen
summerwind94:kumpeline94:vallies-welt@web.de:1994-08-25:DE:F:84.169.107.75:Valllie
summerwind99:umd68b8s:abe-family@muc.biglobe.ne.jp:1989-12-31:JP:F:125.196.234.85:jane depp
summerwinddestiny:destiny09::1998-05-14:US:F:97.100.168.35:Victoria
summerwindgirl:summer04:clee@rohan.sdsu.edu:1987-01-29:US:F:75.33.203.86:Carol
summerwindofdreams:2Unseen:ancientsoul2526@yahoo.com:1989-01-01:US:F:none:Star Dreamer
summerwindow:103010:qiyue@www.sina.com:1995-01-01:CN:F:221.193.125.52:太平天下
summerwinds:fishbone:abryllajohnson@yahoo.com:1976-01-05:US:F:none:April Broome
summerwinds05:nottobe335:aurora.spice@gmail.com:1994-05-21:US:F:76.118.20.153:Meia Hapato
summerwinds1:ceylan12:Summers_JJo@yahoo.com:1980-01-01:US:F:99.169.166.56:Summer
summerwinds10:forgot::1994-04-27:US:F:none:summerwinds10
summerwinds101:123345::1988-09-17:US:F:70.112.144.32:Summer
summerwinds210:33445566:songokirara@yahoo.com:1992-07-13:US:F:none:Summer Todhiba
summerwindslady:lappy:snapshotlappy@yahoo.com:1989-03-13:CA:F:none:Amanda Hazel
summerwindstar101:worldstar101::1996-06-25:US:F:68.230.198.86:Summer
summerwindsunny:13012911855:sunnysummerwind@yahoo.com.cn:1987-07-25:CN:F:none:璐颜 董
summerwindxx:dumbass14:jessicatassone@adelphi.edu:1990-03-15:US:F:192.160.131.27:Jess
summerwindy:teddybear123:akrotiri_summerwind@hotmail.com:1992-02-22:CA:F:none:akrotiri gentle
summerwind_31:teddybearluv37::1996-10-02:US:F:76.126.81.85:Hayley
summerwind_611:113826:summerwind611@hotmail.com:1989-06-11:HK:F:116.48.74.109:Steph
summerwind_81:friendsrule81::1996-10-02:US:F:76.126.81.85:Hayley
summerwind_fate:shyshadow96:deathwish.fate@gmail.com:1990-07-14:US:F:72.234.76.4:marin
summerwind_girl:sallie28:angelbear_girl2006@yahoo.com:1979-03-27:US:F:170.215.179.85:jama
summerwine:timmy12::1993-09-06:AT:F:80.121.92.42:liz
summerwine0206:swishman123:jjbspeedy1@netscape.net:1992-06-29:US:F:12.145.225.50:Jessica
summerwine20:VilleValo20:summer-wine20@hotmail.de:1987-12-12:DE:F:79.213.160.153:
summerwine63:shiningstars63:irenetanailing@yahoo.com:1984-11-04:SG:F:202.156.11.5:TayIrene
summerwine688:candy123:irenetanailing@yahoo.com.sg:1963-11-04:SG:F:218.186.8.242:Tay irene
Summerwine8809:jessica123:demonswings@gmail.com:1988-12-09:US:F:71.80.197.147:NULL
summerwine911:911911:summerwine911@hotmail.com:1984-09-11:CN:F:none:Vic Yang
summerwing:paradise*:summerwing@neomail.com:1985-02-14:US:F:none:Katie
summerwing4:soleil1:icefall_77@hotmail.com:1989-07-27:FR:F:none:Nina Framet
summerwingangel:1529334::2001-03-31:TW:F:71.112.181.84:Lunna Rose Lee
summerwingglow:nermal21::1983-03-26:US:F:75.43.45.177:Jennifer Rough
summerwingry:79511:netchick@hot.ee:1989-10-04:GB2:F:none:Jennifer Crewson
summerwings:*greeneire*:gaelic_lass@hotmail.com:1979-09-17:US:F:71.131.190.57:Darvia Summerwings
summerwings41:chad1200:mimikel@yahoo.com:1989-04-16:US:F:none:kelsy padgett
summerwings49:polarbear76:runningirl72@aol.com:1989-01-20:US:F:none:kelsy padgett
summerwing_:199662199662:wingbaby96@yahoo.com.hk:1996-06-02:TW:F:123.202.11.164:夏炎
summerwing_6999:89806999:summerwing6999@hotmail.com:1990-09-18:MY:M:175.144.110.86:summerwing
Summerwink:soccer33::1999-12-17::F:69.242.43.209:NULL
summerwinnd:3424446085:mica_gd24@hotmail.com:1993-11-02:AR:F:200.117.219.106:Malu
summerwinner:kittycat:lucygaudin@msn.com:1991-05-16:NZ:F:none:Lucy Gaudin
summerwinners:neopetes2009:apedro.silva@hotmail.com:1993-11-13:AR:M:200.115.251.8:samuel
summerwinningham:webkinz18::1998-02-28:US:F:74.170.111.104:summer
summerwinningham_28:fred18:summerwinningham28@yahoo.com:1994-02-28:US:F:74.178.247.157:summer
summerwinnita:00430105sw:woodallsw0105@ymail.com:1986-01-05:US:F:206.255.73.130:summer
summerwinnita1986:pugdug2:summer_winnita@yahoo.com:1986-01-05:US:F:none:summer woodall
summerwinnitaweed:pugdug:summerwinnitaweed@yahoo.com:1985-01-05:US:F:none:summer woodall
summerwinter:sims2r0cks:llamallama.duck@yahoo.co.nz:1997-10-28:NZ:F:125.237.165.252:NULL
summerwinter0000:15401430:chesengwong@yahoo.com:1967-10-15:CA:F:none:che seng wong
summerwinter1:shaggy211::1998-07-09:US:F:70.101.18.7:nicole
summerwinter12:wintershay1239:wad207@yahoo.com:1984-03-02:US:F:75.117.40.57:wintershay
summerwinter123:123465::1994-02-14:US:F:none:summerwinter123
summerwinter124:elinorevans123::2000-04-09::F:86.180.43.71:NULL
summerwinter142band:Winterme32994::1994-03-29:US:F:none:summerwinter142band
summerwinter2169:thevipofmylife:annlim_92@hotmail.com:1991-07-27:NZ:F:none:ann lim
summerwinter30:reddog30:summerwinter300@yahoo.com:1995-08-07:US:F:72.195.189.237:Summer
summerwinter3000:reddog30:summerwinter300@yahoo.com:1995-08-07:US:F:68.230.161.41:Summer
summerwinter303:reddog300:summerwinter300@yahoo.com:1994-08-07:US:F:70.185.166.11:Summer
summerwinter333:reddog30:summerwinter300@yahoo.com:1994-08-07:US:F:68.1.156.240:Summer
summerwinter543:chearleading15::2003-02-12:GB:F:82.46.156.117:NULL
summerwinter7777:loloisarule97::1997-07-17:US:F:66.229.29.168:summer
summerwinter93:tosher::1993-08-30:US:F:none:summerwinter93
summerwinter9800:sistersforlife11::1998-02-22:US:F:74.105.29.138:Samantha Santeramo
summerwinterbaby9402:soccer9402:summerbaby70994@aol.com:1994-07-09:US:F:64.12.116.141:alyssa
summerwinterfalls999:131619:samh@comcast.net:1987-02-02:US:F:none:blah blah
summerwintergal:goosebumps::1986-12-05:SG:F:Offer Made on Lot:summer wintergal
summerwintergal954:JESUSILOVE10::1993-12-25:SG:F:none:summerwintergal954
summerwinterii:911129:summerwinter_0923@hotmail.com:1991-09-23:MY:F:118.100.165.67:JasQuan
summerwinterm:kitty07:lovergirl0091@yahoo.com:1994-05-29:US:F:70.252.130.100:Summer
summerwintermckinley:summerwinter12::1998-06-27:US:F:64.149.55.234:mckinley
summerwinters:kalekupiecjk88::1997-01-11:US:F:68.6.77.162:julia
summerwinters94:bobcat01:czfarms@hotmail.com:1994-03-26:US:F:69.228.47.183:Amanda
SummerWintersH:tonic11.:chelsea.harmer@hotmail.co.uk:1994-02-05:GB:F:77.103.160.218:NULL
summerwinterspring:amethyst:joandong@hotmail.com:1989-06-20:US:F:none:Katie Zhang
summerwinterspring1a:daddydaddada2324::1998-11-18:GB:F:82.37.201.101:summer
summerwinterspring7:goldenegg56::2001-07-29::F:71.105.138.163:NULL
summerwinterx:may06:mycompleteness@gmail.com:1991-05-06:AU:F:none:summer
summerwinter_1:saraprincess123:yun_hui_1997_119@yahoo.com.sg:1986-04-02:SG:F:220.255.7.232:Rachel
summerwinter_300:reddog333:maxx300@cox.net:1994-08-07:US:F:24.252.195.39:Summer
summerwinter_655:summerwinter655::2000-04-22::F:66.108.191.173:NULL
summerwinter_blue:0162568222:summerblue1993@hotmail.com:1986-11-30:MY:F:none:lim yenyin
summerwinter_hockey:goalie!:hockey__goalie__111_@hotmail.com:1990-06-07:CA:F:204.188.138.7:bre red
summerwinter_lsn:2725663:ns_lee84@hotmail.com:1981-06-14:MV:F:none:^_^ lee
summerwinter__aa:lavenderwaves12:way2wave@rediffmail.com:1995-09-18:US:F:98.200.48.158:Bambi
summerwintr1993:fall123::1993-10-12:CA:F:none:summerwintr1993
summerwinx:vivian0123:vivian_1995@kuririnmail.com:1991-11-29:US:F:203.218.130.163:Lovely Ella♥
summerwinxbunney:will$::1993-07-18:US:F:none:summerwinxbunney
summerwisdom141:jimjim141::2001-04-08:US:F:70.52.32.206:summer
summerwish:heartropes64:returntotheseasara@yahoo.com:1990-12-05:CA:F:205.206.139.84:Enchanty  
summerwish11:Laura11::1997-04-17:DE:F:80.140.198.128:Laura
summerwishes:071293:little.sweet.angel@gmail.com:1992-07-12:US:F:none:Sarah K
summerwishes_10:olivia10:kidwithguitar12@hotmail.com:1986-10-13:US:F:none:olivia gordineer
summerwishes_1_1:summer12:caitgoodwin@aim.com:1991-01-24:US:F:140.209.241.190:Katie
summerwishes_2000:2303wolfie2303:rchung@sprint.ca:1987-09-17:CA:F:none:Freeda
summerwishez:felicia1217:summerwishez@gmail.com:1992-12-17:US:F:108.65.0.236:Felicia
summerwishings:M33P!!:brittanykucela@rocketmail.com:1992-08-19:US:F:76.177.123.49:xD
summerwish_:love268:apple07251@yahoo.com.tw:1997-04-25:TW:F:203.75.232.178:NULL
summerwisniewski:baily1:summer_wisniewski@yahoo.com:1991-10-25:US:F:none:summer WISNIEWSKI
summerwisniewski46:grogs12::1997-11-14:US:F:74.69.62.233:supastar
summerwispers:nothis1:their_spoiled_brat@hotmail.com:1961-06-04:US:F:none:tonya bigam
summerwitch:witch282:riding_97@hotmail.com:1976-06-07:US:F:68.115.94.12:Emma
summerwitchy:teigetje4::1995-08-18:NL:F:212.127.170.173:summerwitchy
summerwitesnow_2:summersnow456:karen_lewis@msn.com:1993-02-14:US:F:24.22.199.252:Rose
summerwithbaby:08090809:baby08090331@msn.com:1986-08-09:TW:F:none:SUMMER SUMMER
summerwithcandy:popcorn10::2000-09-04::F:99.7.84.101:NULL
summerwithdaddy:hannahhayman10::2001-06-05:US:F:69.10.112.157:NULL
summerwithhannah:gangsta101::2005-10-28:US:F:98.194.128.193:NULL
summerwithhunter:hunter12::1999-10-19:US:F:75.223.164.237:NULL
summerwithmom1019:october1999ac::1999-10-19:US:F:99.28.142.183:amber
summerwithsun:xiajitong1981:740995292@qq.com:1985-06-03:CN:F:114.95.5.46:S
summerwithyouxo:colton123::1996-05-03:CA:F:24.222.204.252:hailey
summerwitter:switter:camilinha_flowers@hotmail.com:1990-09-15:BR:F:none:Summer Witter
summerwizard:juliahwang550:juliahwang550@yahoo.com:1990-01-01::F:69.108.217.132:NULL
summerwm:fangfang13:fortensummer@hotmail.com:1981-11-19:CN:F:none:方 方
summerwn:26088:summerwn@yahoo.com.sg:1985-01-26:SG:F:218.186.10.15:Joey Chew Wan Ni
summerwob:1301301:punk-rock-star@hotmail.de:1991-12-01:DE:F:none:Melli Wilde
summerwolf:trinity:summerwolf19@hotmail.com:1982-12-04:CA:M:acceptance:Jim MD
summerwolf56:w0lves:craftycritterpygmy@yahoo.com:1991-12-16:US:F:none:Lauren C
summerwolf768:194856:bluewolf768@hotmail.com:1992-07-16:CA:M:none:brian lopze
summerwolfe:dragon:lordsummerwolfe@hotmail.com:1978-06-27:US:M:none:David Vaughan
summerwolfe3:buster12:summerwolfe98@yahoo.com:1995-09-14:US:F:97.92.193.82:Summer 
summerwolfe74:ROBBIE69:dangereyes69@yahoo.com:1974-09-26:US:F:74.128.201.44:TAMMY
SummerwolfsGirl:19941994:tattoodesigner94@aim.com:1994-02-02:US:F:173.81.121.71:Kayla
summerwolves:graplet:snowiewolves@hotmail.com:1987-06-14:CA:M:174.117.248.109:Jamie L
summerwoman:playplay11::1999-07-31:US:F:98.30.66.118:Elena
SummerWoman731:ashleytisdale!99::1999-7-31:US:F:75.246.231.85:Summer
summerwoman9:playplay99::1999-07-31:US:F:98.30.63.120:Summer
summerwoman900:nicole:sanonick@comcast.net:1901-02-03:US:F:none:Sharlene Anonick
summerwoman_2_2_2:layla09::1998-08-02:US:F:68.84.246.79:summer
summerwoman_kitty:playplay11::1999-07-31:US:F:71.64.136.184:Tiffany
summerwonder101:purplepancake10::2000-05-08:US:F:71.194.18.206:NULL
summerwonder123:funtimes:whisperwonder@aol.com:1989-06-14:GB:F:Acceptance:KENDALL GABEL
summerwonder87:italy:summerfrenzy@aol.com:1990-06-01:US:F:none:whisper wonder
summerwonderland:summer123:fundaqueens1972@hotmail.com:1991-12-24:US:F:74.73.249.84:selda
summerwonderlands:44518:sjkz@mlecmn.net:1991-01-09:US:F:none:Sara Peysar
summerwonderlands46:885417:sjkz@mlecmn.net:1991-01-09:US:F:none:Sara Peysar
summerwonders:llamanoise135:prettylittlelies_135@hotmail.com:1989-08-20:CA:F:129.100.195.189:*** ****
summerwood123:sumsum88::2001-03-26:US:F:24.164.29.88:NULL
summerwoodall420:pugdug:winnita6@netscape.net:1986-01-05:US:F:Mail from theneopetsteam:summer woodall
summerwork2006:sasha123:sashamu88@mail.ru:1988-09-05:CH:F:none:Alexandra Muzyrya
summerworld101010101:saira11812::1988-07-03:GB:F:none:shazeda begum
summerworld187:shopping:summerworld187@yahoo.ca:1989-07-18:CA:F:none:marie lola
summerworld2011:remote14:miil41@yahoo.com:1989-05-10:US:F:24.178.32.75:Namet
summerworld57:cassie57::1997-06-15:US:F:99.150.144.232:NULL
summerworld66:iloveyou:gal_summer66@hotmail.com:1987-06-06:AU:F:none:Summer World
summerworld800:elevator400::2005-11-14:US:F:71.142.71.55:Aushante
summerworldrocks:smoothie411::1998-07-24:US:F:69.92.45.47:Summer
summerworld_108:gogirl12::1998-06-21:US:F:24.196.220.93:madison
summerwow:summer76::2001-05-26:US:F:68.205.240.45:summer
summerwren:DOGGY:chuckwren@sbc.global.net:1987-07-29:US:F:none:SUMMER WREN
summerwubercuber:chapstick:ash8761@aol.com:1987-11-16:US:F:Can I be your NeoFriend?:katrina  bennet
summerwummergirl:summer12::1998-04-07:US:F:71.163.55.140:Grace
summerwummerpoo:159480d:crazytigergurl18964@yahoo.com:1990-12-21:US:F:76.230.105.77:NULL
summerwummer_:Summer12::1999-12-26:US:F:68.9.189.212:Emily
summerwunder:newyork11:hbgurl01@hotmail.com:1991-02-06:US:F:68.202.69.146:Cere
summerwwwe:swimmm58::1999-08-02:US:F:98.200.155.111:Summer
summerwxx:summer9629158:stargoaway@hotmail.com:1996-08-17:SG:F:220.255.1.98:NULL
summerwynter:january26:bekahboo68two@aol.com:1968-01-26:US:F:none:bekah vincent
summerwytch:benjamin101:summerwytch@hotmail.co.uk:1972-10-01:GB:F:none:Jacquie A
summerw_5_5_5:page11::1997-03-18:AQ:F:67.140.145.176:summer
summerw_76:summer13::2001-03-13::F:205.188.117.79:NULL
summerX000:summerX1000::2001-06-06:US:M:74.70.252.9:NULL
summerX0000:summerX2000::2001-06-06:US:M:74.70.252.9:NULL
summerx04:haveablast08:summer04@liquid-kiss.net:1989-09-25:BS:F:none:Summer 2004
summerx08:summerx33:angeltoia95@aim.com:1993-10-24:US:F:71.183.232.251:Victoria
summerx09:food101::2001-01-08:BH:F:69.122.54.54:kandy
summerx0bsession:schfinger12:summerxaddiction@yahoo.com:1991-06-19:US:F:173.67.144.28:Elyse
summerx0couture:2420480:sponrox@aim.com:1990-03-11:US:F:67.184.99.84:alex lost her shoes
summerx0dream:aberblondie101::1993-12-29:US:F:none:summerx0dream
summerx0hxsevenxbabe:goldie14:bigsunnglassesx3@aim.com:1993-03-23:US:F:72.89.140.10:PiSHYy
summerx0kiiss:sammi3:laxattack893@yahoo.com:1990-03-12:US:F:none:sam Arby
summerx0love:230762m:melX0lorraine@aim.com:1993-06-03:US:F:190.34.108.117:shalala
summerx0lovinx3:howell2012:summerx0lovinx3@aol.com:1994-02-24:US:F:72.88.219.56:Nicole
summerx0nights:summer03:xxsummasweeti9xx@juno.com:1973-09-09:US:F:none:Krystyn  D
summerx0x0:2manatee1:Dorilover96@aim.com:1993-03-18:US:F:65.185.183.29:Megan
summerx0xsizzle:2202345logan:razmataz1213@aim.com:1989-04-07:US:F:71.82.126.26:Debra
summerx10:lexix10::1999-06-13:US:F:173.73.55.70:summer
summerx10000:summerX2000::2001-07-06:US:M:74.70.252.9:david
summerx1004:rabbit777:gug1028@hotmail.com:1990-11-06:US:F:75.153.41.29:Louise
summerx13:school13:leri15@msn.com:1993-05-21:US:F:71.241.73.153:Joe Smoe
summerX1314:61531010::1998-07-24:HK:F:218.103.250.72:梁泳深
summerx20:spooky1:spencer13435@aim.com:1965-09-20:US:F:none:Summer Love
summerx21:summer:celtic1118@aol.com:1986-06-21:SE:F:none:Gen Summer
summerx23:summerx21:akaplan23@hotmail.com:1987-02-23:US:F:65.31.131.32:Amy
summerx3:2468hello:tennislover452@aim.com:1993-09-01:US:F:64.53.227.12:Molly
summerx300:ng+pt::1992-07-29:US:F:66.75.38.8:Beach Girlie Gal
summerx32:nemo32:laugh9432@aim.com:1986-04-21:US:F:none:Sarah Blair
summerx33:again79:pancakes101@hotmail.com:1991-03-01:US:F:none:C H
summerx3445:qwerty12:savannah_hutchins_24@yahoo.com:1995-06-22:US:F:75.120.254.87:savannah
summerx37:mybaby44:XReneex37@aol.com:1994-04-09:US:F:205.188.116.11:Summer
summerx3chick002:51394:pamschirnhofer@nycap.rr.com:1989-05-13:US:F:none:elise  seiber
summerx3ismyseason93:klabbity567:summerx3ismyseason@hotmail.com:1988-06-22:US:F:none:Ali
summerx3kisses:abbie:scottgusto@sbcglobal.net:1985-11-17:US:F:none:Kacey Grandi
summerx3love:minimex3:bl0ndi3xiandox@aol.com:1988-03-04:FJ:F:none:Magg&&Nici Briner
summerx3loveee:alex01:nataliex3pancakes@gmail.com:1992-12-26:US:F:76.106.184.30:natalie
summerx3memories14:marlin:ljblevins@comcast.net:1987-08-23:US:F:none:carly corcut
summerx3niights:ohioisforlovers:meganxi3marie@yahoo.com:1990-08-23:US:F:none:Megan LaBonte
summerx3owx3seven:ilovelamp12:dancing.queen123@gmail.com:1990-02-27:US:F:69.14.45.174:kara
summerx3waves:emma1:summerx3waves@aim.com:1988-07-02:US:F:none:Summer Roberts
summerx3wee:taryn99:aelovee96@aim.com:1994-06-09:US:F:70.23.55.230:Ava
summerx3x3:poop77:chariiiiisse@yahoo.com:1994-05-13:CA:F:98.221.45.77:charisse
summerx4:coolchick00:lilmisssquirt30@yahoo.com:1993-04-09:US:F:76.180.152.152:sav
summerx44:eri22554:erikapark4@aol.com:1994-11-20:US:F:24.2.234.1:Erika
summerx5:there!:bballdancer103@verizon.net:1992-11-07:US:F:none:Cayley Christoforou
summerx7:loser2:blueasphlt5@aol.com:1987-02-23:US:F:none:Amy Kaplan
summerx7love:summer247::1993-10-07:US:F:none:b m
summerx8:9615330::1999-06-13:US:F:12.206.57.81:summer
summerx8792:gym123:summerx8792@aim.com:1993-08-07:US:F:68.250.243.7:summer
summerx9:1pumpkin6:xoxjillybeanoxo@yahoo.com:1994-08-30:US:F:76.16.70.195:waffle
summerx97:summernicole97::1997-09-25:CA:F:24.137.84.201:Summer
summerxandxsasuke:code256:niclover755@yahoo.com:1982-04-08:US:F:207.69.140.51:SummerSasukes Girlfriend
summerxangel:shelby1:elena.latch@nike.com:1993-05-14:US:F:none:Miss Rachel
summerxaznxgrl:*TALKING*:summerxgrl@yahoo.com:1986-11-17:US:F:none:becki ma
summerxbabbbyyy:2007summer:marymargaret_meade@yahoo.com:1992-08-01:US:F:71.96.177.186:mary margaret
summerxbabe:nicole93:laxchickx93@aim.com:1980-12-12:US:F:69.250.133.241:Nicole
summerxbabe28:vivamexico1993:benjigirl0528@sbcglobal.net:1993-05-28:US:F:none:Karen M
summerxbabe315:sonny56:abercrombielas47@aim.com:1990-03-15:US:F:71.196.60.137:Lauren
summerxbabe35:tennis_:hamsterluver35@hotmail.com:1990-03-05:US:F:69.140.36.31:T H
summerxbabe369:121264:ifxixhadx1xwishh@aim.com:1985-09-16:US:F:none:melina daileb
summerxbabee:dudeyo123:nycgirl495@aol.com:1986-03-08:US:M:64.12.116.141:dudeyo123
summerxbabexox:257family:summerxbabex0ox@aim.com:1994-04-04:US:F:71.194.113.192:Amanda
summerxbabi87:hyper:summerxbabi87@aim.com:1992-03-21:US:F:none:Katelyn Blahhh
summerxbabiee04:ilovemikie:b_lock824@yahoo.com:1985-08-24:US:F:none:Sarah  Bevino
summerxbabieox07:bella07:summerxbabieox@aim.com:1989-05-04:US:F:76.190.225.112:Caitlin
summerxbabieox44:crazybaby4:summerxbabieox@aim.com:1985-05-04:US:F:none:Caitlin Nana
summerxbabieox444:caitlin4:summerxbabieox@aim.com:1987-05-04:US:F:none:Caitlin c
summerxbabii1213:frank14:t1ger555@aol.com:1991-09-21:US:F:none:Ashlee Smith
summerxbabix:xoxox::1994-03-24:US:F:none:summerxbabix
summerxbaby:katmoo117:katmoo117@aim.com:1994-11-07:US:F:70.104.68.183:Kate
summerxbaby62195:summer95:elk28@optonline.net:1992-06-21:US:F:24.46.131.245:Lauren
summerxbabytm:paramore101:g00dandbr0ken@aol.com:1995-03-21:US:F:69.14.158.91:Rachel
summerxbabyx09:katmoo117:x0ayyxitsxkatex3@aim.com:1994-11-07:US:F:70.104.68.183:Kate
summerxbabyy:tandy56:chloexfaith@gmail.com:1993-10-31:US:F:70.44.147.117:Kimberly
summerxbabyy18:snowman99:summerxbabyy18@aim.com:1994-01-27:US:F:24.190.133.4:Melanie
summerxbarbie:samiie7:crissyslayouts3@yahoo.com:1988-09-25:US:F:none:Summer
summerxbeach:hunter8:xxtracyfacexx@aim.com:1991-07-28:US:F:24.96.129.221:Alaina Mckay
summerxbeachesxox:110493:lov3nxyouxjx9@aim.com:1991-08-21:US:F:none:ghuierho garthwreowe
summerxbeauty:winterchic590:girlangel321@nc.rr.com:1995-01-26:US:F:75.182.98.164:Emily
summerxbliss:@giddycat@123:spamdumpiness@aim.com:1993-06-21:US:F:24.192.77.139:Summer
summerxbliss13:sophie13:hiddenxsummer13@aim.com:1975-07-13:US:F:64.223.59.99:Caity
summerxblondiee:mich123::1995-05-01:US:F:68.193.144.92:summerxblondiee
summerxbreeze:sinem:pwetty_kisses@hotmail.com:1988-06-24:AU:F:220.240.81.118:&*SummerJayne
summerxbreezex1992:112292lol:georgiagirl103@yahoo.com:1992-11-22:US:F:none:Savannah
summerxbrunettexbabe:1whocares1:fhcxhottiex08@aol.com:1992-03-11:US:F:205.188.117.18:Amanda
summerxbubble:flamegirl:summerxbubble@yahoo.ca:1991-03-13:CA:F:none:Summer Bubble
summerxbum:dancer101:danceluva109@aim.com:1994-01-25:US:F:24.45.119.176:alexa
summerxbumx0:friends77:swimlvrx3@aol.com:1977-04-22:US:F:69.122.208.149:tiffany
summerxcamille:finn24:summer_tyme99@hotmail.com:1995-09-24:US:F:173.57.71.123:NULL
summerxcherry:mellystar4839:jellybean4839@yahoo.com:1994-07-04:US:F:71.107.146.106:Cherry
summerxchic:flower123:neoaccountkaitlynn@gmail.com:1990-09-16:US:F:76.212.137.36:oh.so.AMBER.
summerxchica5:roxy53:rjejm@msn.com:1994-04-28:US:F:72.65.225.51:Miranda
summerxchica9:toenail:redhead217@comcast.net:1992-02-17:US:F:none:Marissa Blahh
summerxchick3:jacalyn33:lisabeers@aol.com:1994-04-08:US:F:68.191.45.45:lalalala
summerxcourtue:pink007:michal.lyn@gmail.com:1980-03-02:US:F:75.162.93.222:mykol
SummerxCraze:PooglesFTW11:julie.tang@live.com:1992-06-14:AU:F:124.183.158.173:NULL
summerxcrunner:rache3l1:rastalker@nycap.rr.com:1993-08-08:US:F:68.172.117.187:Rachel
summerxcrush:angee22:fan_girlx3@yahoo.com:1990-12-13:US:F:69.116.35.193:Mandalyn
summerxcrystal:funnybunny44:fifi_fifi304@hotmail.com:1995-10-06:CA:F:99.233.231.22:Fifi
summerxcutie:starburst:moneemakin@yahoo.com:1990-02-14:GB:F:none:jenny
summerxcutie9876:cutie96:kooliogurl2012@yahoo.com:1986-02-15:US:F:none:JackieNann
summerxcutiex33:mengreg!:kikithewitch@aol.com:1992-04-10:US:F:none:J. Z.
summerxcutiexo:meghan1:courtcx22@yahoo.com:1993-04-27:US:F:none:courtney yoo
summerxd:summer951:alexzsuppafly@aim.com:1990-10-14:US:F:65.3.200.184:natalie
summerxd1:mimi05:ambersanting@hotmail.com:1990-02-17:NL:F:195.241.103.153:NULL
summerxday:11233455:michaleliad@hotmail.com:1988-11-26:IL:M:none:saar eliad
summerxdays:squidney16:littlesyd@hotmail.com:1990-12-24:CA:F:24.207.113.63:Britney Lynn
summerxday_:@happy00:plastiic-heart@hotmail.fr:1994-02-16:FR:F:89.14.35.6:Marine
summerxdazex333:Marley!:summerxdazex333@aim.com:1986-01-02:US:F:none:Bekah Wright
summerxdelightx:soccer11:summerdelighttx@aim.com:1988-05-18:US:F:209.158.161.246:Kelly
summerxdispair:ebony:imaginaryxfriend615@verison.net:1991-06-15:US:F:none:Briana D
summerXdLd:Fishbone40::1999-03-10::F:24.100.89.15:NULL
summerxdream:qinghua12:glissenette@yahoo.com:1992-05-18:US:F:none:Mary Meng
summerxdreamin:121491:hurleybaby1214@aol.com:1987-12-14:US:F:none:Alyssa Dransfield
summerxdreamland:141992:ohboyyitsashx@aim.com:1992-01-04:US:F:24.192.215.8:ashhhh
summerxdreams:romeo5t5:jennysmilez15@yahoo.com:1988-08-30:US:F:70.149.109.196:Jemmy
summerxdreamsz:esther:lilrosy891@msn.com:1972-08-25:US:F:none:stpeh mook
summerxdynamite:sang56:summerxdynamite@aol.com:1990-06-12:US:F:173.3.246.117:Summer
summerxd_34:diegorico07:rosario_charo12@hotmail.com:1993-04-16:CL:F:201.215.206.130:rosario sasia ibar
summerxeee:hugas07:hukleberries@msf.net:1988-05-02:US:F:76.118.188.95:beulah
summerxena:cortez11:ten11_ong@yahoo.com:1985-12-28:PH:F:203.76.229.239:Kirsten Ong
summerxethera:imgigi497:dragonhorns@optonline.net:1990-04-07:GB2:F:24.187.26.10:Summer
summerxflight:sparksflyingwithme12:tiqri@yahoo.com:1988-12-28:US:F:none:Aaralyn & Amy
summerxflipxflop:friends::1992-12-30:US:F:none:Brooklyn Landis
summerxflirt:ily101:summerxpassion@yahoo.com:1990-11-15:US:F:65.35.36.19:shannon
summerxflora:emm123:blueberrieh@hotmail.com:1990-06-22:CA:F:none:Silent Girl
summerxflower:7180c100:summerxflower@hotmail.com:1990-04-05:US:F:none:SiERRA
summerxforevr:fishyfish12:summergrlxforevr@aim.com:1993-04-03:US:F:151.196.241.113:Kaui
summerxfruits:sharnie:ellexwoodsx@aol.com:1987-07-28:GB:F:none:Me me me...
summerxfun:midnight1:dressdownbabe93@aim.com:1988-11-06:US:F:none:ashley
summerxfun10:season10::1999-07-02:US:F:58.186.125.13:Sandy
summerxfun24:frogs2:tootiexfruity@yahoo.com:1988-10-01:US:F:none:Summer McDaniel
summerxgiirl:1234k::1992-09-27:NL:F:none:summerxgiirl
summerxgirl:alex12**:liana.baden@planet.nl:1993-06-04:NL:F:86.87.112.51:Liana
summerxgirl06:ljanes77:iggy8@mail.com:1994-06-04:US:F:98.226.23.3:Lisa
summerxgirl10:ljanes77:lmj1994@mail.com:1994-06-04:US:F:24.14.29.206:Lisa
summerxgirl7:ljanes07:summerxgirl06@mail.org:1994-06-04:US:F:68.57.231.86:Lisa
summerxgirl72892:a82688268:jerseyprincess74@yahoo.com:1992-07-28:US:F:none:summerxgirl72892
summerxgirl96:timberly24:summermccollum@gmail.com:1996-09-08:US:F:69.224.154.17:NULL
summerxgirlx17:pink86:chanel5@ptd.net:1994-02-17:US:F:70.44.121.126:ashley
summerxgurl:angie:summerxgurlx@hotmail.com:1992-06-22:CA:F:none:summer *1*
summerxgurlie:angela12:Aturt1@aol.com:1990-01-12:US:F:68.44.57.221:Angela
summerxgurlie8:stephy::1992-12-07:US:F:none:summerxgurlie8
summerxhaiir:unicornio312:summerxhair@yahoo.com:1993-02-15:CL:F:201.215.131.33:A girl with summer hair.
summerxhams:zookeeper12::2000-10-12:US:F:24.171.148.242:Summer
summerxhawtiex3:kevinc77:ditzybitzy22@aol.com:1988-07-05:US:F:none:MeGhAn  Eller
summerxhcoxnj:pinacoolatta12:wildcatslover3@aim.com:1935-01-03::F:71.235.196.4:NULL
summerxheat:summerrox515::1994-05-14:US:F:71.175.247.132:Mag
summerxhollister:starz14:california.loverx3@yahoo.com:1992-09-22:US:F:71.111.128.196:just call me kath
summerxhorses:BessPower22:besslover@hotmail.co.uk:1993-10-03:NL:F:82.92.132.14:Lobke
summerxhottie:comets1:lexi_boo_09@yahoo.com:1991-01-10:US:F:none:Alexis Wilson
summerxhotxbaby:186523:sunnyjunelee@gmail.com:1993-06-08::F:24.219.187.43:NULL
summerxhunnie210:sophia1:mrf173@verizon.net:1991-02-28:US:F:none:marykate suda
summerxhunniie:5329662:babiidyme369@netscape.net:1991-06-20:US:F:none:anna s
summerxi:sx123456::2003-04-23::F:71.89.56.102:NULL
