sun014215:980408::2007-12-25:CN:M:116.192.3.97:闪人雷电
sun01620:sun2011::2000-09-09::F:75.0.147.213:NULL
sun01620_3:suns01::2001-06-08::F:75.0.147.189:NULL
sun01635:R93a21072:pupuapple@gmail.com:1989-02-03:TW:F:112.104.129.88:黃蘋果
sun017:snme17::1999-11-02:US:F:76.175.143.21:NULL
sun0183:60628028:60628028@yahoo.com.tw:1989-07-11:TW:F:none:孫 薇雅
sun019:DRAKE:myatt7uk@yahoo.co.uk:1985-07-31:GB:M:84.66.67.98:Mr Psycho
sun0194:dydwls12::1999-01-16:KR:M:59.29.27.57:NULL
sun01leo16:13918007500:leo16sun01@hotmail.com:1978-01-16:DE:M:none:leo sun
sun01shine:nessaa01::2001-10-01::F:70.35.69.117:NULL
sun01_16:hck060281:sun01_16@yahoo.com.tw:1990-06-02:TW:F:none:hung ching
SUN021095:02.10.95:san_menahem@hotmail.com:1995-10-02:IL:F:46.120.42.77:NULL
sun021343:1801654000:sun021343@yahoo.com.tw:1990-03-09:TW:F:none:晴天 大
sun0214:joy1229::1994-02-14:TW:F:218.167.29.75:sun0214
sun0218:02180218:annie021767@yahoo.com.tw:1992-02-18:TW:M:none:小柔 張
sun02180:aa1200::1998-11-11:KR:F:125.180.201.188:이지혜
sun022:linh25:traithoichien_timgaithoiloan2002@yahoo.com:1988-01-02:VN:M:222.252.231.209:Sun
sun0220ty:t5566y:qqq1111119@yahoo.com.tw:1991-01-06:TW:F:none:毓伶 張
sun0226:ilike1989:ab33226@yahoo.com.tw:1989-02-26:HK:F:114.33.76.90:陽陽
sun02468:march315::2000-03-15::F:68.1.184.52:NULL
sun0254789:afordog6:sun0254789@yahoo.co.uk:1980-03-25:HK:F:none:nicholas cheung
sun026:iluvemy4kids:sun026@msn.com:1968-12-26:US:F:24.45.126.216:sunye and
sun027:232258::2005-01-01:TW:M:none:雨紅 龐
sun03027:8312141:sun03027@sohu.com:1978-03-27:CN:M:60.164.153.154:李淼
sun0306:abc13391:little_eye_0306@yahoo.com.tw:1984-03-06:TW:F:none:胖 太陽
sun03123361:20032003:dick13141@yahoo.com.hk:1981-01-01:HK:M:Acceptance:sun 03
sun0321:sunny0321:sunnyworld@theburleighfamily.com:1990-03-21:US:F:none:Skila Burly
sun0328:opooop:asdf_3849@yahoo.com.tw:1982-11-03:TW:F:none:施 婉婷
sun0330:03303853::1997-03-30:MY:F:124.82.80.93:珊珊宝贝
sun035743:40884088:r123447417@yahoo.com.tw:1986-03-08:TW:M:122.123.110.9:john john
sun04:taylor18:sunisastar17@aim.com:1991-04-17:US:M:none:PSun TheKing
sun0408:rodrigotopali::1992-08-04:CL:M:none:sun0408
sun0408_c74:PEACHES10:lorism359@yahoo.com:1976-04-08:US:F:66.153.241.100:Stephanie
sun0413:5350413:26435160@pchome.com.tw:1990-09-23:TW:M:none:亦城 張
sun0421:neS0825:sun0421.tw@yahoo.com.tw:1984-04-21:TW:F:none:如月 星次
sun04244:0406052004244:ows_1991@hotmail.com:1991-01-15:MY:M:none:sun sun
sun0427:123456a:lukalio187@hotmail.com:1994-12-25:NA:M:220.143.2.16:小笨笨
sun0429irene:a880429::1999-04-29:TW:F:219.70.226.197:郭珈熏
sun0429yoyo:a951227::1999-04-29:TW:F:124.218.86.99:郭珈熏
sun05:bell05:Amobear@aol.com:1985-03-13:NL:M:72.70.157.194:susie
sun0505:2866446:sun2866446@126.com:1992-09-26:CN:F:58.19.233.39:吖吖
sun0507:aaa0507:b000_000b@yahoo.com.tw:1980-05-07:TW:F:none:小山 王
sun05131983:0912681812:sun05131983@yahoo.com.tw:1983-05-13:TW:F:none:红 豆
sun0532:mo0532:beachbum12@charter.net:1988-07-15:US:F:none:makenzie o\donnell
sun056:shine056::1997-06-30:US:F:64.111.150.171:autumn
sun057:Wolves::1990-06-29:GB:M:none:none
sun0572:ally10:allykeiler@yahoo.com:1992-03-10:US:F:65.9.57.201:Ally
sun0598:alex71900::2003-02-24:US:M:76.4.156.68:Spencer
sun0606:291026:dayhorse0725@educities.edu.tw:1938-10-26:JP:F:none:sun lee
sun061229:1231500000:wangzhenshan1985@163.com:1980-06-01:CN:F:none:华山论剑 笑傲江湖
sun0614:iloveyou:bhnkc0614-sun@yahoo.com.hk:1985-06-14:HK:M:none:程 朗
sun0622:1988622:sai19762@yahoo.com.tw:1988-06-22:TW:F:none:sun rise
sun0623:malls1:teeah123@hotmail.com:1988-06-23:CA:F:none:unknown unknown
sun062374:63741063:games3322000@yahoo.com.hk:1986-06-06:HK:M:210.6.75.245:Sun T
sun0628:79239309:clementsun0628@hotmail.com:1989-06-28:HK:M:92.79.155.238:Sun Siu Man Clement
Sun063:saokhue17101998::1998-06-07:VN:F:222.255.177.214:NULL
sun07:itacb79:babyinlove1990@hotmail.de:1989-09-07:DE:F:87.161.248.55:fiona
sun07030515:800703::1991-01-18:TW:F:none:sun07030515
sun071:snme017::1999-11-02::F:76.175.143.21:NULL
sun0710:kisc80246:sky.kisc@gmail.com:1987-03-29:TW:M:61.31.129.53:賴則典
sun071498:july14::1998-07-14:US:F:98.110.21.188:Treasure
sun0717:97868233::1995-07-17:HK:M:221.127.141.127:sun0717
Sun072000:sunny20000::2000-08-31::F:71.89.107.31:NULL
sun072003:3frogs:frog892007@gmail.com:1989-03-24:US:F:none:Krystyn Sarten
sun0725:CAT0405:0725.sun@yaho.com.tw:1982-07-25:CN:F:220.132.248.246:許雅菱
sun0728:dktTk:seonyung99@hotmail.com:1978-07-28:US:F:none:Sun Kim
sun0730:8207300813:lsluck@163.com:1982-07-30:CN:M:none:f l
sun074:tinka1:fit_bitch92@hotmail.com:1992-05-19:GB:F:none:jess rowe
sun0761:a121600:sun0761@msn.com:1962-09-01:TW:M:203.75.232.163:澤
sun077:annielove07:S88556629@YAHOO.COM.TW:1990-11-28:TW:F:61.216.177.250:吳筱珺
sun079:Dodge::1992-05-02:GB:M:none:sun079
sun0799:missie06:thompsonbrookeanne@yahoo.com:1970-07-15:US:F:75.120.229.224:brooke
sun07ny:1383880::1999-04-21:US:F:70.138.227.111:Olivia
sun07ny_: 1383880::1999-04-21:US:F:70.138.227.111:olivia
sun07ra:visbasic07:sand-04@hotmail.com:1994-01-22:CA:F:none:Sandra Keisser
sun08:sunny25:lily61331@yahoo.com:1993-08-15:TW:F:124.8.82.220:王馨元
sun080686499:077693539:sun080686499@gmail.com:1986-09-08:TW:F:119.77.233.47:玫淇 王
sun0807:387156:skyapple87@yahoo.com.hk:1983-08-07:HK:F:none:Daisy Chui
sun0810727:g9964833:sun0810727@yahoo.com.tw:1992-07-20:TW:F:61.231.180.89:y6uiop[ uioijkl.
sun0811:19856024:sun_s85@hotmail.com:1985-08-11:MY:F:60.51.34.222:Sun Siah
sun0811a:plants:sun0811a@yahoo.com.tw:1979-07-01:TW:F:none:Chang Berry
sun081562:08156237:sun081562@yahoo.com.tw:1990-08-15:TW:F:none:瑋玲 惠
sun082697:9oiii892:kit_kit98767992@yahoo.com.hk:1988-08-26:HK:F:none:Hoi Ying Tsang
sun0849:07765596:sun0849@msn.com:1981-04-27:TW:M:none:小明 孫
sun089:89853350:pgtan89@hotmail.com:1985-07-13:MY:F:60.50.233.250:Ze Huan Tan
sun0901:740500:andersonsun@hotmail.com:1976-09-01:TW:F:none:Sun YuNung
sun0902:590902:sun7757516@yahoo.com.tw:1970-09-02:TW:F:none:徐 sun
sun0907:090761:xiaoshu_92@hotmail.com:1961-07-09:SG:F:69.31.101.75:Sandy
sun0911099:suan0911:forever52_520@yahoo.com.tw:1994-11-15:TW:F:61.57.123.79:劉珊如
sun091136159197118:sunny65::1993-06-10:CA:M:none:sun091136159197118
sun0919:4484716:peksun87_toh@hotmail.com:1987-09-19:MY:F:none:toh peksun
sun092:300992l:sjx092@hotmail.com:1992-11-16:SG:M:none:siew  ji xuan
sun0921840377:sun0224311968:l80342@yahoo.com.tw:1987-02-24:TW:F:item:大空 鳴
sun0927pop:a2252395:hash0927t1@gmail.com:1997-02-04:TW:F:61.227.180.78:黃歆媄
sun095:015153:princessofeverything@charter.net:1992-05-15:US:F:66.190.102.129:Miley
sun09736:skw09736:fishball_ming@yahoo.com.hk:1996-08-12:CN:M:123.202.156.133:Sunlight
sun098:nofear:brat157771@aol.com:1987-10-01:US:M:none:John Paul
sun0987225:goods:nancytomazic@adelphia.net:1957-01-29:BG:F:none:dddddd dddddddd
sun0987654321:shine564::2000-03-29::F:174.42.188.92:NULL
sun099:golden23:www.Daniel.Payton090@live.com.au:1994-01-06:AU:M:58.165.153.138:Dan
sun09shine:andrew1:danielle120290@yahoo.com:1990-12-30:US:F:none:dani westling
sun09shine_1:cheyenne10::1999-01-13:US:F:72.91.233.49:Cheyenne
sun0art:898989::1999-11-24::F:121.136.19.139:이주은
sun0dragon:yugioh12:donnie1212@insightbb.com:1910-01-09::M:74.130.129.246:NULL
sun0l:sipal18:xbabee10o4x@hanmail.net:1988-08-27:US:F:68.100.32.94:seon moon
sun0rise:sunset13:pokemon.rule@yahoo.com:1993-08-26:US:F:70.178.76.10:Jamie
sun0shine:11sunshine:acobb07@yahoo.com:1989-03-10:US:F:67.235.47.159:Alicia
sun0shine14:NENE14@HAPPY:ru.b.yred@hotmail.com:1996-07-25:MX:F:201.170.56.241:ERENDIRA
sun0shine9:renee2001::2001-03-01:US:F:24.228.255.216:shar
sun0star0moon:sun1star1moon::1997-10-06:US:F:65.2.99.192:Stephanie
sun0stars9moon:1waterworks2:eddiegrl310@yahoo.com:1992-02-13:US:F:24.60.248.153:Gurr
sun0sunny0sunshine:clouds0:every_use@hotmail.com:1991-12-28:PT:F:none:Sunny
Sun0wl:nP0rkyP1kae:emck1@hargray.com:1987-02-14:US:M:67.216.142.113:NULL
sun0yi:891024:576212097@qq.com:1989-10-24:VA:F:121.227.179.86:猫小悦
sun0_ch1ps:SuN*cH1pS9::1998-01-12:CA:F:70.52.170.42:jayoung
sun0_ochips:SuN*cH1pS0::1998-01-12:CA:F:76.64.13.127:jayoung
sun1:sundance:nandmuffie8@aol.comeb:1991-10-20:US:F:none:nikki bommer
sun100:katie:rigg47@hotmail.com:1987-06-21:US:F:71.79.135.242:katie patterson
sun1000:butter10:mlod93@frontiernet.net:1990-11-23:US:M:74.34.181.242:Shawn
sun10007:ff0937152556:qwe73828@yaoo.com.tw:1993-08-19:TW:F:218.169.62.248:簡文慧
sun1001:turtleandrobin1234::2003-02-09:UM:M:76.68.116.208:argiris
sun1001957947:berry65::1999-02-08:US:F:173.217.158.55:NULL
sun1004:sun0914::2004-11-08::M:161.122.83.73:NULL
sun100826:austin:susie_24112@yahoo.com:1986-09-20:US:M:none:James Thurman
sun10084:reading:wc00109@yahoo.com.tw:1989-06-15:TW:F:none:蕭 秀蓉
sun10088:horse:kjwein@gmail.com:1995-01-17:US:F:68.178.55.178:sun10088
sun10088187:Jena123::1993-08-17:US:F:none:sun10088187
sun100918:80059::1993-11-29:IT:F:none:sun100918
sun100ny:som19mer:sun100ny@aol.com:1987-04-12:DE:F:144.41.80.136:Steffi
sun1010:sun1234:kyleighdillon@yahoo.com:1993-07-23:US:F:76.5.225.144:Kyleigh
sun101010:tink22::2004-09-15:US:F:68.36.179.125:NULL
sun1010101:unhaunhaunha90:vania_rara@hotmail.com:1991-12-02:BR:F:189.70.113.99:celina
sun10105:sun10101:sun10104@yahoo.com.tw:1993-01-01:TW:M:none:王 大年
sun101091:hamster91:s_j_91@hotmail.com:1991-03-22:NO:F:85.167.144.88:Sandra
sun101112:Ihateyou70::2001-02-03:US:F:71.34.204.22:jlott
sun10115:jellybean::1993-11-10:AU:M:none:sun10115
sun101234:izz123:The_springers@comcast.net:1969-08-09::M:67.181.253.143:NULL
sun10133:run4thesky:memeinc@msn.com:1984-01-29:US:F:none:Sunny Baker
sun1014:kaylight02::1994-10-14::F:68.55.56.36:sun1014
sun10148:vantastic1014::2000-11-09::F:99.8.162.125:NULL
sun1016:100428:nahomi1004@hotmail.com:1992-04-10:VE:F:201.211.130.37:sol
sun1018:bluewhale:emilyskyhill@yahoo.com.hk:1984-02-14:HK:F:none:Sun Shine
sun10192:pinxiu10192:sunny_girl@mykidscentral.com.sg:1991-01-10:SG:F:none:Pin Xiu Yip
sun101shine:sunny:fliss4717@aol.com:1991-10-15:GB:F:none:sun shine
sun101shine311:love12::2001-06-19::F:121.221.197.75:NULL
sun101sparkz:lildevil123::1998-02-26::F:121.221.197.75:NULL
sun1020iurene:a880429::1999-04-29:TW:F:124.218.86.99:郭珈熏
sun1021:951357::1997-11-28:PT:M:213.22.125.124:joao
sun10210:82860570::1997-03-03:TW:M:203.75.232.183:林建男
sun1021qd:951357:243877498@qq.com:1980-11-28:PT:M:83.240.187.21:João Chen
sun1021qt:683230000:rxjc_rey_mysterio@hotmail.com:1980-11-28:PT:M:81.84.150.165:João Chen
sun1023:728112:msun1023@hotmail.com:1977-03-15:KR:F:NULL:김문선
sun10231023:728112:msun1023@hotmail.com:1977-03-15:KR:F:none:kim moonsun
sun1027310:access3105:f1027310@yahoo.com.tw:1988-03-10:TW:F:219.81.144.205:小Sun
sun1027terry:a891027::2000-10-27:TW:F:124.218.86.99:王庭瑜
sun1029:sara0:hoyeewing1029@yahoo.com.hk:1983-10-29:HK:F:none:詠頤 何
sun103:UNNCH::1991-10-05::M:none:sun103
sun1030:98362386::1993-10-30:HK:F:none:sun1030
sun10312:741120:pro3282@yahoo.com.tw:1991-08-24:TW:F:none:黃 唯婷
sun10337:9260831:ankey70232@yahoo.com.tw:1990-09-09:TW:F:125.226.67.54:林 志琴
sun1039:3857520:sun1039@163.com:1987-09-20:CN:F:none:1039 sun
sun1040159894:13163108672::1997-11-14:CN:M:123.151.18.39:冲上云霄
sun10451:ihatecheers::1992-07-15:US:F:none:Chelsea Wessells
sun1048890365::::::218.90.220.122:NULL
sun104_126:brown63104::2000-05-02::M:75.51.5.78:NULL
sun105:Sunny:thewildhoss@aol.com:1982-11-01:US:F:none:sunrise suprise
sun106:twinsx@45::2000-08-18:US:F:67.238.157.109:NULL
sun106357:1063587p::1993-02-07:HK:M:203.218.39.209:skn106357
sun1069set:bm1069:bevem10@msn.com:1977-08-17:US:F:75.162.165.128:beverly
Sun10861:sunnyb11::2005-01-26:US:F:98.119.153.26:NULL
sun108_8:prettycure88::1999-06-22:SG:F:220.255.7.191:keemingyuan
sun10945:10945sun::1996-08-24:TW:F:203.71.2.72:陳巧竹
sun10972:10972sun:d.sronce@mchsi.com:1972-10-09:US:F:173.27.235.38:Laura  Abbott
sun1098:airplane1098::2001-07-09::M:24.6.182.31:NULL
sun109shine:love69:lowe_desirae@yahoo.com:1993-07-01:US:F:71.253.77.60:desirae
sun10shine:sunshine10::1997-07-10:US:F:76.126.159.17:Sophie
sun10_:sunils10::1997-11-20:US:M:74.235.216.157:sunil
sun10_2:sunny12::1998-05-28:US:F:71.86.176.77:jacklynn
sun10_2000_49:tromipo50::1999-04-05:TG:M:67.212.4.174:Sun
sun110:2137110::1992-12-28:TW:F:none:sun110
sun1101shine:11011101:www.happynhk@hotmail.com:1993-11-01:US:F:none:Kim Sunny
sun1103:lauranav123:laurisna03@hotmail.com:1994-11-03:CO:F:201.232.171.79:laura navarrete
sun1106:24422202::1993-11-06:HK:M:none:sun1106
sun1109cs:myqueen1109::2005-11-09:TW:M:118.171.32.16:宋小桑
sun11111:am11111:sun-318803@hkedcity.net:1986-02-17:HK:M:222.166.160.146:jfhfh
sun111111:horsegirl61::2000-06-01:US:F:98.223.209.120:savannah
sun1111111:boots123:mayjessica11@yahoo.com:1993-08-20:US:F:206.83.31.196:jess
sun11119:harry:kerrie-anne.richa.00@ogi.tas.edu.au:1988-06-23:AU:F:none:kerrie-ane richards
sun1111_1_1:111197:emo_girl@mail.com:1994-11-11:US:F:75.71.165.178:jessica
sun1111_6_6_6:a sun1111 a::2000-09-13:US:M:64.12.116.139:liam
sun111222333:123567890:sunsiwa@gmail.com:1984-04-03:BZ:M:110.164.123.215:sun
sun1114:solene:solenegrasset@aol.com:1990-08-16:FR:F:195.93.102.37:solene grasset
sun1114220:snoopy1420:sun114220@yahoo.com.tw:1991-11-14:TW:F:none:伶宜 陳
sun1117:gm4cl6:end_1117@yahoo.com.tw:1989-11-17:TW:F:none:笨 小豬
sun11182:hahaha::1985-10-16:US:F:none:sunny wong
sun11199:shaina88:jig-g-lypuff@hotmail.com:1994-04-17:CA:F:24.80.227.12:Shaina
sun111shine:11011101:dreamer1101@yahoo.com:1992-11-11:US:F:none:Sunny Kim
sun111_726:sun6666:pie567@yahoo.com:1989-08-16::F:96.238.45.41:NULL
sun1120:901120:kongszesun@hotmail.com:1989-05-07:HK:M:none:sun sun
sun112030:89115418:eva112030@yahoo.com.tw:1985-02-16:TW:F:none:小楓 嵐
sun1120abc:520940:chesunyau@hotmail.com.hk:1980-12-25:HK:M:none:s un
sun11215:kristen:eerie1@hotmail.com:1988-12-19:CA:F:none:ha ha
sun11220408:plm951159:lunky1431@yahoo.com.tw:1991-11-22:TW:F:none:∥戀愛﹋Q比↗
sun11234:moon11234::1993-11-11:US:F:none:sun11234
sun1123424215477:12k12:bulebunnybrenna@yohoo.com:1992-05-24:US:M:none:ian theiss
sun1123598:sky1123598:samkun111@yahoo.com.hk:1992-05-03:CN:M:203.218.211.82:sam
sun112399:sam112399::1999-11-23:US:F:184.12.67.214:sunnie lee
sun1124369681184:0929745212:sun61034@yahoo.com.tw:1991-08-23:TW:F:none:施佳芳 施
sun112499:MEAGHAN112499::1999-11-24:US:F:65.27.137.89:MEAGHAN
sun1125:SUN095:n0207a@yahoo.com.tw:1981-02-07:TW:F:122.118.131.244:潘小妹
sun11255:ococq_pcoco:yushin79@hotmail.com:1990-01-23::F:none:Z A
sun112589:caramel:cool_roro@hotmail.com:1989-11-25:CA:F:Can I be your NeoFriend?:Caroline Rockisland
sun1126:147147:popeyeyeung@yahoo.com.hk:1991-11-26:HK:M:203.218.144.54:popeye
sun1126929295966:sun422:jiande84@hotmail.com:1984-03-05:MY:F:none: 建 德  李
sun112893:2489298::1992-05-03:CN:M:none:sun112893
sun1129:cat111::2000-12-30:US:M:68.202.64.157:chris
sun1130:831130:cuiyi313@163.com:1983-08-01:CN:M:218.24.159.139:sunsun
sun1130110989526:pony1:twbrds@yahoo.com:1992-02-15:US:F:none:kelsee renick
sun1131803865213:(sanadabest):sana_cool@hotmail.co.uk:1992-01-14:GB:F:none:sarah ahmad
:::::::
sun1132599582634:Sun!!:kristel@blueyonder.co.uk:1987-12-10:GB:F:none:Crystal Cambell
sun113333:11719::1990-03-25:US:M:none:SUN 113333
sun1134:sunshine1134::2000-02-16::F:67.60.33.108:NULL
sun113582:db5z1vm1::2000-02-06:US:F:70.255.172.253:NULL
sun1135908358880:william4::1993-12-22:CA:M:none:sun1135908358880
sun1135908358880698:william7::1993-12-22:CA:M:none:sun1135908358880698
sun1138445:wangna123:liulixuan@126.com:1985-11-14:CN:M:222.168.81.188:刘立轩
sun1139631665826:moon1:tsdlong@hotmail.com:1987-06-09:US:F:none:Devin Long
sun113rex:461130:sun113rex@hotmail.com:1983-11-03:TW:F:none:璃 凨
sun114220:love1420:sun114220@yahoo.com.tw:1991-11-14:TW:F:none:伶宜 陳
sun1145717940161:pup11:angiemnance@yohoo.com:1992-09-15:US:F:none:shyenne mom
sun1146575178714:st1123:f_bassham@yhaoo.com:1989-07-06:US:F:none:tori bassham
sun1147:BONNET:cvde@tiscalie.fr:1992-03-09:FX:F:none:Alison Bonnet
sun1148575511704:45111:sundeck45@yaho.com:1991-11-11:MX:M:none:edwin blanco hernandez
sun1155:p1188::1994-02-15:TW:F:none:sun1155
sun115500:0818627366:kaewkarn_lek@hotmail.com:1973-04-03::M:125.27.194.180:NULL
sun11598:~\~(@ StEphAnIE @):~\~(@ StEphAnIE @):~\~(@ StEphAnIE @):~\~(@ StEphAnIE @):~\~(@ StEphAnIE @):~\~(@ StEphAnIE @):~
:::::::
sun116:tikka1991:julia_bird_4@hotmail.com:1991-12-06:GB:F:none:Julia Bird
sun11603:26595822:sun11603@yahoo.com.tw:1990-07-20:TW:F:123.193.166.242:林 亞臻
sun11618:1011159::1999-01-01:HK:F:222.166.181.105:SUN
sun11653:fun123::2001-05-10::F:75.37.36.33:NULL
sun1170:barney::1992-10-22:PT:F:none:sun1170
sun1171:bigat:sun2655@yahoo.com:1974-11-09:IN:M::Sundeep Dar
sun118:12350::1992-12-31:HK:M:none:sunnie hanni
sun1183:831218:sunflower_mint@yahoo.com.tw:1987-08-03:TW:F:118.171.133.50:紫 楓
sun119940787:for1314nm:119940787@qq.com:1983-10-13:CN:M:60.210.91.103:哥哈专
Sun11Shine:Sunshine77:sunflowerhippies@gmail.com:1992-01-17:US:F:108.4.3.182:NULL
sun11shine9:064801363:sun11shine9@hotmail.com:1989-03-23:US:F:none:Allie Swags
sun11star:universe88:sun11star@aol.com:1989-11-30:US:F:none:hannah rudman
sun11star674:screws35:sun11star@aol.com:1988-11-30:US:F:none:hannah rudman
sun11yoy1:ko3284pr::1996-09-23:TW:M:124.8.10.196:李育傑
sun11_12:asshole45:michael_aguiniga@yahoo.com:1993-06-02:US:F:67.180.79.199:polly
sun120:sss120918::1997-01-05:HK:M:220.246.168.173:sunny
sun12012:7523342:one-28@yahoo.com.tw:1986-06-07:TW:M:none:宗仁 ko
sun120149:am120149:sun-334401@hkedcity.net:1984-03-04:US:M:none:銘 劉
sun120149464:sfc120149:sun-236501@hkedcity.net:1981-03-18:US:F:none:可師 攔
sun1204shine:Daisha1208::1999-12-08:US:F:27.0.20.68:NULL
sun1205:ann09280523:sun641205@yahoo.com.tw:1975-12-05:TW:F:203.75.232.187:綾
SUN1206:PANSEY124::2002-08-16::F:67.141.240.26:NULL
sun120768:tear407barn944:sunrise120768@mail.cyccatv.net.tw:1976-10-11:TW:M:none:翔祥 洪
sun12113:2cool:crazy4tml2000@yahoo.com:1989-09-14:CA:M:none:nicholas nick
sun121212:s3s3s4:baby@comcast.org:1927-07-19:GB:M:76.28.239.136:bat
sun1212121074:fun24242::1999-10-12:US:F:70.114.20.223:jolly wolly
sun1212_401:happycow77::2000-01-05::F:75.185.225.164:NULL
sun1213:pinky3167:ruby70432@yahoo.com.tw:1995-12-13:FI:F:111.248.219.148:陳芝妤
sun12131415:asa2016::1998-05-04:PY:F:200.1.202.51:sunny
sun1216:861216:sun32072000@yahoo.com.hk:1987-12-16:HK:M:none:SUN SUN
sun122:school12::2001-04-04::F:70.131.131.233:NULL
sun1220:90220062:milklittlesun@msn.com:1982-12-20:TW:M:none:littlesun sun
sun1223:21419020::1999-06-29::F:78.133.91.84:NULL
sun12245:rachel1:gymnastchick1794@yahoo.com:1980-09-27:US:F:none:da da
sun1225:dec1225::1997-12-25:CA:F:99.236.230.228:sun1225
sun1227:sun921227:markwaisun1992@yahoo.com.hk:1992-12-27:CN:M:210.6.105.217:Sun
sun122770:nusnus::1993-09-12:CA:F:none:sun122770
sun1230448:65005::1991-09-03:CA:F:none:sun1230448
sun123111:9536745:serene_ngsimin@hotmail.com:1990-01-25:SG:F:220.255.2.25:Lin
sun12312:asd12312:j303000@yahoo.com.tw:1991-09-28:TW:M:125.228.45.222:許有文
sun123123:sunshine45:ji@msn.com:1993-03-19:US:F:67.165.43.129:tatum
sun12314:sun10111213::2001-04-14:US:F:70.210.23.51:Jenna
sun123184:purple123::1990-06-18:CA:F:none:sun123184
sun123204369:sunny:sonny_gray@hotmail.com:1978-02-01:CA:F:none:sun123 sunny
sun12323:barbie12323:oldinnewmexico@yahoo.com:1990-11-27:US:F:97.123.74.69:justice
sun123287:miloneemo::1992-09-26:US:F:none:sun123287
sun1233:931207::1993-03-30:HK:F:none:sun1233
sun12332:shine12332::1996-12-24:US:F:68.60.27.161:holly
sun123321:shine123321::1996-12-24:US:F:68.53.208.236:holly
sun123345:buttons123345:kaileymattson@hotmail.com:1996-07-23::F:156.34.245.147:NULL
sun123365200:haha：)::haha：):haha：):haha：):haha：):haha：)
:::::::
sun123388:44684685:a066990690@yahoo.com.tw:1993-09-24:TW:M:none:黃 黃
sun1233_1:kittydog23::1999-04-02:US:F:76.101.138.252:rachel
sun1234:sun123:hk30sun@yahoo.com:1984-11-26:HK:F:none:余 穎兒
sun12341234:sun123::2000-12-28::F:69.68.83.38:NULL
sun1234298:ocean9::1993-03-23:US:F:none:sun1234298
sun12344:tophie200:soph12_04@hotmail.com:1988-12-16:CA:F:none:sophie leblanc
sun12345:sunny12:Claudia-saksida@hotmail.com:1992-11-18:NL:M:85.191.59.200:Chad
sun1234520:blaise123::2001-06-30:US:M:97.95.91.233:NULL
sun123455:mohini::1992-09-03:US:F:none:sun123455
sun1234554321:g98p88:sun1@yahoo.com:1979-11-22:HK:M:202.71.222.147:tam
sun1234555:chabili112:jhansikirani@gmail.com:1989-01-16:US:F:68.160.48.76:Gabba
sun123456:FUNKYCHUNKY:rubydoobie20@aol.co:1991-03-20:US:F:none:DEE V. DEZES
sun123456123:123sk::1993-10-20:CN:M:none:sun123456123
sun12345678:barbie12::2000-03-15:US:F:76.234.47.5:Abby
sun1234567890:98798701::1992-12-30:TH:M:none:sun1234567890
sun1234567890123:741741::1992-10-28:DE:M:none:岩鹏 孙
sun12345678902123:abc12345::2001-06-04:US:F:69.171.166.145:NULL
sun1234567890_4:sun12345678901:wheelanthony@yahoo.com:1975-03-16:US:M:65.33.78.163:anthony
sun1234567890__63:sunsun12::2003-01-23:WS:M:114.217.39.43:sunqijie
sun12345678910908:moken::1992-07-13:US:F:none:sun12345678910908
sun12345678910_9_6:shine123456789::2003-04-01:US:F:74.215.44.226:NULL
sun1234567892000:edwin::1993-12-24:HK:M:none:sun1234567892000
sun123456789976:pito1:clajudia@hotmail.com:1988-04-28:MX:M:none:christian salas
sun123456789999:123456!::1999-08-08:HK:M:219.78.171.114:sum  wai  hon
sun1234567899999:iloveyou::1992-09-26:US:F:none:sun1234567899999
sun123456789_4:microsoft1234::1993-07-28:US:F:none:sun123456789_4
sun123456895:sisters#2:sabradconley@yahoo.com:1987-05-05:US:F:none:sara lee
sun123456qzw:656119:mzzz521@126.com:1981-02-18:CN:M:116.116.173.88:农民
sun123456_2_2_2:19980506::1998-04-11:CN:F:122.6.189.16:孙文
sun123456_5:password123:lmonas@hotmail.com:1989-07-18:CA:M:216.211.55.20:lyndsey monas
sun123456__67:970425sunsiqi::1997-04-25:CN:F:58.30.20.8:朵琪
sun12345819:catwomen122:dddddddddd@ddddddddd.com:1988-10-02:RU:M:none:sun mun
sun12345_244:tanner12::2000-12-01::F:76.115.49.86:NULL
sun12345_333:flower445::2002-07-13::F:24.163.123.245:NULL
sun12345_6:tree211::1998-05-27:AU:F:124.177.162.182:rose
sun12345_6_6:rain12345:cyberevan12@yahoo.com:1993-01-03:PH:M:none:hansel gretel
sun12345_7_7_7:john long12345::2002-07-30:US:M:76.216.37.128:jonathan
sun12346:avapupu12::2001-03-29:US:F:70.58.241.73:ava
sun1234786:simba12::1993-07-08:GB:F:none:charlotte s
sun123492:perez20:kakorot1234@yahoo.com:1986-02-14:US:M:none:antonio perez
sun1234money:63424747:sunling315hk@yahoo.com.hk:1984-01-29:HK:M:none:sun cheung
sun1234_5:red1234:kirsty_eya_1_9_9_3@hotmail.co.uk:1993-10-18:GB:F:87.102.3.7:lola
sun1234_5_5_5:123456789s:821403614@qq.com:1994-08-24:TW:M:221.227.49.106:孙来
sun12352:123451234::2008-07-18::M:99.231.192.238:NULL
sun123520:mazda520yes:abc235689yes@yahoo.com.tw:1985-12-30:TW:M:none:林 芑廷
sun12357:12548:yan_12345@yam.com:1988-03-30:CN:F:none:yuen  yan lai
sun123572n142357:sert25372101:a12534684@yahoo.com:1992-09-08:GB2:F:219.86.104.89:許瑗玲
sun123584:sun27560397:sunny27560397@gmail.com:1993-6-14:TW:F:125.224.162.82:sunny
sun123660:89117:teddy12345354366@aol.com:1987-09-19:US:F:98.160.164.205:mariah ward
sun1238:c0792051::1999-10-24:HK:M:203.186.209.133:wingfai
sun12388:c0792051::1999-10-24:HK:M:119.247.161.13:fanwingfai
sun123946:456654456654:szesze_chan519@yahoo.com.hk:1987-11-09:HK:F:none:陳敏儀 敏儀
sun123973:cat123::1992-05-07:US:F:none:sun123973
sun123987:TACOTACO22::1999-02-28:US:F:66.205.154.243:Serena
sun123abc:sclub7:blueeye@zoom.co.uk:1989-05-07:GB:F:none:emma d
sun123hk:99999999::1994-04-20:HK:M:none:none
sun123hk55:mom123:sun123hk5@yahoo.com.hk:1950-12-09:HK:M:none:fung cheung Yan
sun123ik:jeskes123::1998-10-18:NL:F:84.85.144.217:suneh
sun123kk:zvierata12::2000-12-14:US:F:71.127.225.190:victoria
sun123raro:123sun:tiaguinhorubim@hotmail.com:1891-02-22:BR:M:186.236.67.9:NULL
sun123ray:ksm123:sun123ray@aol.com:1985-05-08:US:F:none:Kasi Malott
sun123sun:Moon321::1996-01-17:CA:F:none:sun123sun
sun123sun123sun123:122343::2002-01-03:US:M:69.107.82.79:stafon
sun123z:zaxzax123::1998-10-05:US:M:76.218.21.77:zachary
sun123zxc:19820329sun:tp031b17@yahoo.com.hk:1982-03-29:ID:F:none:sun darti
sun123_:123abcdefg::1998-09-27:CN:M:120.195.63.70:孙度
sun123_1:517265*:san_menahem@hotmail.com:1995-10-02:IL:M:89.138.43.211:sun
sun123_101:sunshine123:vitore101@yhaoo.com:1986-11-22::F:96.27.39.76:NULL
sun123_1_1:flower123::2000-07-08:US:F:99.157.74.131:ali
sun123_1_1_1:monday11:robertoflores9@yahoo.com:1994-07-21:US:M:76.171.186.251:roberto
sun123_2006:sun12345:funnycat13579@yahoo.com.hk:1980-01-01:HK:M:none:sun sun
sun123_321:dn12345::2002-02-01::M:89.138.19.11:NULL
sun123_45:sunshine123::1999-12-31::F:96.27.39.76:NULL
sun123_456:cometfriend12::2003-01-10::F:138.89.144.69:NULL
sun123_5:rain12::2000-02-09:CA:F:70.49.206.178:erin
sun123_5_5:199892766::1998-09-27:CN:M:120.195.63.68:孙度
sun123_8:jerry12::2000-10-05:UM:M:98.219.22.219:NULL
sun123_82:sunshine123:vitndoja101@yhaoo.com:1996-10-17::F:96.27.39.76:NULL
sun123_828:4545sarah::1999-12-04::F:75.134.20.200:NULL
sun123_a62:A50724::1996-11-04:TW:F:59.117.190.192:陳玟心
sun123_j15:caly10::2003-06-28:US:F:65.74.49.141:NULL
sun123__29:MON123::2000-11-04:US:M:66.60.189.6:ZAC
sun123__44:midnight11::2002-10-12:US:F:24.11.102.208:leva
sun123__69:katimaus456:kathi-link96@web.de:1991-07-14:DE:F:79.212.19.135:Jasmin
sun123__79:mlmlml13:meganleong1997@yahoo.com:1983-07-17:US:F:71.126.113.87:justin
sun123__yy:iloveyou6:swlashes@hotmail.com:1993-06-11:US:F:none:sarah wali
sun124:121092:carebears_rul@hotmail.com:1991-10-12:AU:F:none:sunny brone
sun12434:dragonair:super-raj-packet@hotmail.co.uk:1989-10-27:GB:F:none:Sun .
sun1244:CANDEL::1992-05-11:AU:M:none:sun1244
sun124567889:sunny135:a5339675@yahoo.com.tw:1989-11-03:CN:F:203.75.232.184:Q
SUN124_306:ALEXIS125::2002-08-16::F:67.141.240.26:NULL
sun125:jenny45::1998-08-27:CA:F:72.140.171.12:Jennie
sun1251:dog123::2002-08-17:US:F:76.116.216.232:NULL
sun125271:sungirl::1993-08-18:US:F:none:sun125271
sun1258:postbox97::1997-07-07:GB:M:81.158.150.130:james
sun126:94su3:pphh126126@yahoo.com.tw:1986-07-26:CX:F:none:阿格西 顏
sun1268414:7ujm.lo9:sun1268414@163.com:1990-02-08:CN:M:116.217.70.73:孙浩铭
sun127:stars::1993-05-29:US:F:none:sun127
sun12700:skuma123::2000-01-27:US:M:76.231.200.119:sunny
sun127127:picpic:knewat99@aol.com:1985-09-12:GB:F:Mail from carebear287:kim lusewing
sun12764:9237250:cat961227@yahoo.com.hk:1980-04-14:HK:M:123.203.150.179:sum
sun1277:fatface228::1999-11-23::F:24.162.118.7:NULL
sun1281:ollie::1995-07-24:JP:F:none:sun1281
sun12855:webkinz55::2000-10-19:US:F:99.4.125.105:Bethany
Sun1298:Tacogirl124::1999-02-28::F:69.62.229.173:NULL
sun129_7:boo1211::1994-03-11:US:M:none:sun129_7
sun12day12:62814592:23563@126.com:1983-10-01:CN:F:none:慕容 小牙
sun12flower12:jiujiu2:sun12flower12@yahoo.com.sg:1987-12-10:SG:F:none:kaye tan
sun12girl:sunny12::2005-03-08:CA:F:24.66.94.142:katelynn
sun12lover:aver749bong928:www.sun12lover@yahoo.com:1977-06-15:US:F:none:Becky Thompson
sun12lover121:dip796ad269:www.sun12lover@yahoo.com:1977-06-15:US:F:none:Rebecca Thompson
sun12lover121721:dip796ad269:www.sun12lover@yahoo.com:1977-06-15:US:F:none:Rebecca Thompson
sun12lover598:dip796ad269:sun12lover@yahoo.com:1977-06-15:US:M:none:Becky Thompson
sun12lover902:dip796ad269:www.sun12lover@yahoo.com:1977-06-15:US:F:none:Becky Thompson
sun12shine:1529447:beautiful_t13@sbcglobal.net:1993-04-03:US:F:75.35.82.1:tatiana
sun12shine15:yama417:sun12shine15@hotmail.com:1983-07-23:US:F:none:Amy J
sun12star:butter::1992-12-10:US:F:none:sun12star
sun12sun:12loop::1997-02-17:US:M:75.164.12.176:cody
sun12sun12:sunsun12:crazy.sunnai@hotmail.com:1995-11-12:AU:F:211.30.96.2:NULL
sun12v:hurricane1:zoom1775@yahoo.com:1985-01-03:US:F:none:sun v
sun12_45:love12::1996-03-25:US:F:71.53.56.67:marissa
sun12__vv:petpet12:petravan@optusnet.com:1993-04-16:ZA:F:210.49.46.160:sunet van der merwe
sun130:aqua130:b03091975511@yahoo.com.tw:1990-01-30:TW:F:61.227.224.189:林韋辰
sun131:ronron:nekohousu@mail.goo.ne.jp:1989-01-03:JP:M:none:メラメラ 炎が
sun13112:2cool:crzy4tml@yahoo.com:1983-09-16:CA:M:none:nick valin
sun1313:345682a:linkin_phark13@hotmail.com:1993-09-18:SG:M:206.53.152.166:joelson
sun1313131313:345682345682a::1992-09-18:SG:M:none:Joel
sun131331:09191014:63111546@qq.com:1986-09-19:CN:M:114.224.173.38:sunsun
sun1314:emerald:school48858@yahoo.com:1988-10-15:US:M:none:go8 so34
sun13142:pan174quad480:sun13142@yahoo.com.tw:1990-11-10:TW:F:none:小儀子 小儀子
sun13145:5028000:sun13145@yahoo.com.tw:1990-11-10:TW:F:none:小儀子 小儀子
sun1314531:25017200:marin480@yahoo.com.tw:1990-11-10:TW:M:none:周 欣儀
sun13145333:791110:sun13145@yahoo.com.tw:1990-11-10:TW:F:none:小 儀子
sun13145344:250172:sun13145@yahoo.com.tw:1990-11-10:TW:F:Mail from referralteam:周 欣儀
sun1314596:5028000:sun13145@yahoo.com.tw:1990-11-10:TW:F:Mail from referralteam:周 欣儀
sun132:dog13::1993-08-30:US:F:none:sun132
sun1324:23puppys:sadeyes180@yahoo.com:1970-09-27:US:F:67.185.79.123:patty
sun13245768:wonderkid20::2001-05-09:KR:F:87.201.131.114:suyoung
sun1324_9:lill18::2001-10-15:EE:F:80.250.125.139:marta
sun133:sunniya133:funkysunniya@hotmail.co.uk:1993-01-01:GB:F:none:sunniya saeed
sun1331:kennith:sun1331@earthlink.net:1983-06-21:US:F:none:cristina Horkey
sun13401775679:8513326:417396837@qq.com:1989-04-28:CN:M:122.96.171.105:孙康兵
sun134556:73741179::2000-6-1:CN:F:60.22.52.121:方圆
sun134_edd:eddry3.3::2000-02-19:SG:M:165.21.154.108:Eddry
sun135:sue135::1998-11-11:US:F:96.27.153.178:sue
sun1357:414428:zxvqazxsw@yahoo.com.hk:1991-02-02:HK:M:none:vs vs22
sun13575705116:jie13575705116:sun13575705116@sina.cn:1994-9-29:CN:F:60.186.107.172:pure
sun13582:601951:parisdexter@msn.com:1991-02-22:US:F:Mail from avril_spunk:Paris Dexter
sun137:ducks::1994-02-09:CA:M:none:sun137
sun138:22122000:ben22122000@yahoo.com.hk:1992-05-11:HK:F:none:ken ho
sun138248:128244:p6a24sun@hotmail.com:1995-11-29:CN:F:202.86.188.23:卍乂蝠蝠乂卍
sun13858:sunsun85831:son85831@yahoo.com.tw:1996-08-31:TW:F:61.225.149.117:Sunia
sun13curly:1313jkllm:sun_13_curly@hotmail.com:1992-11-25:US:F:none:Laura Laura
sun13kitty58:s910118:sunny10604@yahoo.com.tw:1991-05-24:TW:F:61.231.187.42:鄭晴
sun13shine:sunshine13::1993-08-01:US:F:none:sun13shine
sun13shine83:mdd6914:sun13shine83@aol.com:1983-05-13:US:F:none:Donielle Duncan
sun1400:14girl::2000-01-14:US:F:75.48.194.176:Jessica
sun1409:sunsun14::1998-05-03:TW:M:203.75.232.184:楊峰權
sun141:4r4r4r::1992-02-26:CA:F:69.156.153.50:sun141
sun1411:27686975::1993-09-18:TW:M:none:sun1411
sun141146896672965:5556983:sun_d_308@hotmail.com:1991-03-14:MX:M:none:sun liu
sun1412:27686975:a25779876@yahoo.com.tw:1967-09-18:TW:F:none:安 孫
sun1414a527541:ben3232:sun1414a@yahoo.com.tw:1992-08-30:TW:F:none:佑元 黃
sun1417:bunny::1994-04-30:GB:F:none:sun1417
sun141_6:88027685#::2000-8-29:US:F:71.3.63.74:shauna
sun142:Mondo208:soheekang7@hotmail.com:1992-01-11:US:F:none:SoHee Kang
sun143:122551::1993-08-04:TW:F:none:sun143
sun1439:wedding::1993-11-27:US:M:none:sun1439
sun14478:crip4life3:austynwhite@yahoo.com:1979-06-19:US:M:75.191.182.180:austyn
sun145:myonly12:ziyoonali@hotmail.com:1981-10-08:OM:F:85.154.23.219:zeena
sun1453242:tanner12::2000-12-01:US:F:76.115.49.86:skyla
sun145862:1829372::1993-10-01:HK:F:none:sun145862
sun145_a89:ABC123::1997-12-06:US:F:69.203.69.152:jade
sun1481:9054650917:nsmoss@hotmail.com:1981-02-23:CA:F:74.12.234.140:roxy
sun1490:brittany12::1996-12-18:US:F:209.129.119.5:Brittany
sun14shine2000:tishaa:archryan2002@yahoo.com:1986-04-09:US:F:none:T. S.
sun14star:irish:sun14star@yahoo.com:1989-11-26:PH:F:none:Irish Pekitpekit
sun15:sun83:dof2522@yahoo.com.tw:1993-05-25:TW:F:none:姍茹 陳
sun150:hakan1996:hakan.kaplan@live.nl:1995-05-22:NL:M:77.160.11.9:hakan
sun150427:790425:sun150427@yahoo.com.tw:1990-04-25:TW:F:none:懿芸 李
sun1510:sun135sun::2006-02-04::F:12.187.74.58:NULL
sun15143215377:1123024894:1123024894@qq.com:1993-07-08:CN:M:58.245.57.29:NULL
sun1515200:800614:sunny1515200@yahoo.com.tw:1990-06-14:TW:F:none:羽真 鄭
sun152:biab04::1998-04-10:BR:F:189.102.123.10:Beatiz Simoes Almeida Vieira Barbosa
sun152629:a761204:king152629@yahoo.com.tw:1987-12-04:TW:M:none:文拓 劉
sun153:summer::1993-10-25:EE:F:none:sun153
sun154500:499818538:sun154500@sing.com:1909-01-01:MS:M:218.8.210.108:剑阁
sun155:20406::1991-01-30:TW:F:none:000
sun1560:disney1560::1997-11-28:US:F:70.201.31.241:hunter
sun156156:jenny34:lochy.trott@education.nsw.gov.au:1985-05-12:AU:M:58.168.73.180:lochy
sun15626:4921530:h12672@yahoo.com.tw:1990-02-08:TW:F:none:儀婷 蔡
sun15627:4921530:h12672@yahoo.com.tw:1990-02-08:TW:F:none:儀婷 蔡
sun1568643:1226955:sun1568643@yahoo.com.tw:1987-07-05:TW:F:none:高 舒珊
sun157588:33288::1993-06-22:ID:M:none:sun157588
sun158:pinksg89::2002-12-17:GB:F:78.148.43.172:NULL
sun15854228859:1997417::1997-04-17:CN:F:123.234.98.33:孙书琪
sun159:pop123::1997-02-16:CA:M:154.20.117.168:rowan
sun159_4:livvy88::2001-4-26:US:F:65.25.117.219:olivia
sun15sun15s:abcdaa123411:shiehsun@hotmail.com:1993-08-13:TW:M:163.32.157.210:謝尚
sun1602:28051979:silver1602@web.de:1979-02-16:DE:M:92.201.96.3:NULL
sun161:1101953::2000-10-13:US:M:76.231.64.243:NULL
sun1619:greenbeans90::2002-08-01::F:67.185.217.148:NULL
sun161sun:910403:jhshjh@sina.com:1986-02-24:CN:M:123.116.153.89:hama
sun163:Richael::1992-09-05:SG:F:none:sun163
sun1652:sunshine12::1999-02-02:GB:F:86.143.203.119:hello1652
sun16584:chocolate16::1996-01-16:AU:F:123.211.3.78:Kasie
sun1677qk:DANA6746::1996-08-06:TW:F:218.172.91.10:張紫茵
sun168:bonnet::1992-03-09:SE:M:none:sun168
sun1688qk:soul77536972:danch123@yahoo.com.tw:1996-08-06:TW:F:117.19.76.58:張紫茵
sun16usa:westvillage301b:sun16usa@comcast.net:1986-12-22:US:F:68.45.129.212:Jess G
