sunbar209:horsies24:hiphoptiludrop24@aim.com:1992-02-24:US:F:none:clare desanctiz
sunbar547:ka4ko4ko:sjbrpt@aol.com:1947-05-25:US:F:none:Sonia Barnes
sunbarbeau:tadspd19:tadearman@yahoo.com:1991-12-03:US:F:67.200.128.186:Taylor
sunbarbie101:trinkie01::1998-12-23:US:F:24.119.223.172:brittany
sunbari:shadow00:jill.koktrap@yahoo.com:1989-07-19:US:F:67.77.81.59:JIll
SunBark12:corona12:susi_cokecortes@yahoomail.com:1997-2-24:US:F:67.180.167.181:Brenda
sunbarken:uckereuteamo.09:mayara_alexandra_pardo@hotmail.com:1995-09-27:BR:F:189.3.200.130:Sun Barken
sunbaroo:chuwawa78::2000-05-19::F:68.2.118.132:NULL
sunbarrel17:mkay02:SunBarrel17@aol.com:1990-02-17:US:F:24.2.123.179:Mandy
sunbarry:barry232425::1995-09-23:HK:M:119.247.253.129:黃俊傑
sunbas1994:121594:cltsongas@yahoo.com:1984-12-15:US:F:99.13.121.201:harry
sunbasbun:sunny91::1991-02-01:CA:M:none:Sun Bun
sunbase:luckypumpkin:nastyviper@hotmail.com:1985-10-11:BE:F:Can I be your NeoFriend?:Roxane Zigrand
sunbasket:dplover91:ceiling.fan.mafia@gmail.com:1992-04-08:US:F:108.17.83.209:EMiley
sunbasking10:thewestinggame619:allieberry29@gmail.com:1993-08-10:US:F:205.188.117.76:Rebecca
sunbasking_babe:crazybitch12:sunbasking_babe@yahoo.co.in:1988-12-17:IN:F:59.93.91.42:reema
sunbass:103444::1994-12-15:US:M:none:Jaimee
sunbate:neopet21::1997-11-18:PH:F:122.3.206.113:bernadette
sunbath:77092229:k3q3q3q@yahoo.com.tw:1988-02-15:TW:F:none:iug tuk
sunbath06:bunnypup06:sunbath93@yahoo.com:1995-02-03:US:F:99.165.86.190:kik
sunbath93:bunnypup06:daylight_mn@yahoo.com:1995-02-04:US:F:99.165.86.190:sunny
sunbathe112:yy01112:hinaiti@lycos.jp:1988-01-12:JP:F:none:hinata itigo
sunbathe15:nokevin:dolpinbabe815@aol.com:1991-08-15:US:F:none:stephanie d
sunbathed:skater95:simplyemiily@aim.com:1993-09-17:US:F:67.160.250.43:Miss Emily
sunbathed611:93baby::1993-10-06:US:F:none:sunbathed611
sunbather:kikikity54:prettykittyusa9@aol.com:1994-09-18:US:F:216.90.193.196:Deathstar leader of waveclan
sunbather07:leholcomb:sunbather07@yahoo.com:1989-01-11:US:F:none:Lauren Holcomb
sunbather11:creeg93:chickeekitty@aol.com:1993-04-05:US:F:none:Ally Creeger
sunbather123:SunBather123:laxbabe4397@aim.com:1960-01-01:US:F:67.81.19.191:Sun
sunbather217:rebecca1::1993-02-17:US:F:69.250.201.143:Claire Yokum
sunbather794:beachbunny::1994-01-23:US:F:none:sunbather794
sunbathe_10:15497530:f.a.k.u._18@hotmail.com:1993-10-20:AR:M:201.250.28.237:MAURO
sunbathin:hunter01:obxnad@hotmail.com:1981-02-26:US:F:24.176.135.15:wanda
sunbathin379:Tyson2002:ommamk82@comcast.net:1977-03-04:US:F:98.208.0.167:Nikki
sunbathinblond44:dontno:prettieinpink480@aol.com:1970-10-18:BY:F:none:abby upurbutt
sunbathing:bfpo38soq6:Weemalky2602@hotmail.com:1994-02-26:GB:M:90.198.156.132:Malcolm
sunbathing372:suntanning::1993-10-30:US:F:none:sunbathing372
sunbathingcheerlady:gymnast793039506:sunbathingcheerleader@yahoo.ca:1993-02-08:CA:F:199.126.253.204:ashley grant
sunbathinggirl101:s2dtng4a:smartbabe925@yahoo.com:1990-02-09:US:F:71.106.13.47:Giorgi Centeno
sunbathinginthenude:numanuma3:mtexplorer@sofast.net:1977-03-26:US:F:none:Anna Lambgadi
sunbathingjools:dancer123:fiona@8winders.com:1994-12-17:US:F:24.4.145.214:NULL
sunbathing_daisies:qx3P7Hq:sunbathing.daisies@googlemail.com:1981-11-23:GB:F:81.106.143.178:Cerian
sunbathl:r3ds0n::1994-08-17:US:M:71.111.114.220:sunbathl
sunbay:blue54:gsreinke@hotmail.com:1993-06-10:US:M:70.59.161.90:Dom
sunbay112:horrrseee:subayshi_@hotmail.com:1990-12-04:AU:F:none:Liana Judd
sunbay31:harleybug31::1996-02-03:US:F:67.14.230.196:Baylee
sunbay365:1015701a:lil_mrs_priss101@yahoo.com:1993-08-31:US:F:70.161.245.183:Kelsea
sunbay3652332:sunbabe365223:ginger_walker@cox.net:1973-07-22:US:F:none:sarah scheible
sunbay57:jonasB67::1996-12-13:US:F:66.168.220.174:ASHLEY
sunbay88:14161a:tisamorehead@gmail.com:1994-03-28:US:F:85.115.42.190:tisa
sunbayb143:snowbell:fireroxy16812@aol.com:1983-07-19:US:F:none:Linzee Stratford
sunbaybee:wongwhyechoon12:jumel@singnet.com:1958-03-12:SG:F:203.124.2.26:Julia
sunbayday205:s110073:babyangel92@sbcglobal.net:1984-06-21:US:F:none:Angelica spaw
sunbaydot:sunbay:condemninghumanity@gmail.com:1992-11-11:US:F:72.10.115.2:sunbaydot
sunbaygirl18:BAK18::1993-11-18:US:F:none:sunbaygirl18
sunbayshine:baykinz12::2000-09-13:US:F:76.185.124.15:Joy
sunbbb:845702:845702408@qq.com:1989-02-05:LA:M:123.133.61.112:呵呵
sunbbcat:132659:bbcat_1828@yahoo.com.hk:1978-02-26:HK:F:61.238.55.104:rrrrrrrrrr
sunbbsun22:06123456:sunbbsun22@yahoo.com.tw:1990-10-20:TW:M:none:OWEN 沈
sunbby:123smjk:sofia.m.j@hotmail.com:1986-10-07:MX:F:189.164.173.36:sofia
sunbcapt:benton::1993-08-10:US:F:none:sunbcapt
sunbcpt:benton001:lead2er@yahoo.com:1990-12-31:US:F:74.131.49.181:Lynn
sunbcpt01:leader001:lead2er@yahoo.com:1992-08-20:US:F:74.131.49.181:Lynn
sunbe2585673_4_4:12345495:kenny2585673@yahoo.com.hk:1988-11-18:HK:M:none:志豪 林
sunbea:(chewy):cacao_beans@msn.com:1993-02-27:CA:F:none:Marie Lavoie
:::::::
sunbeach123:plqaz123:tquandt@charter.net:1996-03-04::F:66.188.187.111:NULL
sunbeach1818:kookoobubbles456::1992-08-18:US:F:none:i have no name
sunbeach1998:sunbeach98::1998-07-14:US:F:74.176.93.246:NULL
sunbeach290:coke10:scubaranger616@hotmail.com:1962-04-24:US:F:none:Cat 10
sunbeach45:coco12:ecorsemarket@sbcglobal.net:1990-03-30:US:F:173.10.38.122:angela
sunbeach730872:93080110:hohoho121212pkpkpk@yahoo.com.hk:1979-05-27:HK:M:none:fe sd
sunbeach8890:mememe810::1994-01-20:US:F:none:sunbeach8890
sunbeach927:groo927::1994-05-06:NO:F:109.189.43.116:sunbeach927
sunbeach928:groo928:sunbeach@online.no:1988-05-06:NO:F:none:Nina Utby
sunbeach98:sunbeach1998::1998-07-14:US:F:98.92.51.33:Tina
sunbeachbabe:mustangs:heavenslilangel712@hotmail.com:1989-07-12:US:F:none:Jody Finch
sunbeachbabe0121:redhairgirl:sunbeachbabe0121@carolina.rr.com:1991-03-22:US:F:none:Elizabeth  Jones
sunbeachbabe36:sharks2:californiachic@cox.net:1987-12-29:US:F:none:? !
sunbeachball:laurentang:hapsyhello@yahoo.com:1990-12-07:GB2:F:none:Lj
sunbeachcw2109:pepper::1993-05-16:US:F:Mail from theneopetsteam:sunbeachcw2109
sunbeached:pughcourtney97:courtneycpugh@gmail.com:1994-09-07:US:F:204.188.138.28:courtney
SunBeachEm:sunny26::1999-02-15:AU:F:123.211.78.231:Emily
sunbeachgirl:sunie:lilprincessdoglover@yahoo.com:1968-04-04:US:F:none:jamie lalaby
sunbeachgirl1394:beach4babe4:sunbeachgirl1994@yahoo.com:1994-01-16:FX:F:82.241.203.106:jess
sunbeachgirl1994:mustang4babe4:jessica-ritchey@hotmail.com:1994-01-16:FR:F:82.241.203.106:Jessica
sunbeachgirl94:wlm0301:jv.simmons@sbcglobal.net:1992-03-01:US:F:174.16.77.39:Kelsey
sunbeachhun:saving:ffbabe72@hotmail.com:1988-10-01:US:F:none:Emily Ingram
sunbeachla:becco:smally_baby69@hotmail.com:1985-09-15:CA:F:none:eve poirier
sunbeachluvr:florida4:littlenikki@comcast.net:1989-10-17:US:F:none:Amanda James
sunbeachtan:choosetheright:ultrabrat99@hotmail.com:1990-01-03:US:F:none:jennifer loveless
sunbeachxoxo:saraa::1994-03-02:US:F:none:sunbeachxoxo
sunbeach_78:beach12:tattortot@aol.com:1995-01-01:US:F:70.191.226.132:hannah
sunbeach_babes_12:lakers2232:michaelaangel@charter.net:1988-06-29:US:F:none:Michaela Adduci
sunbeach_hottie:yamahafoxbabe88:aeropostale_babe08@hotmail.com:1990-01-29:US:F:none:Brittany* Radford**
sunbeach_sunset:party82:volleygirl88@verizon.net:1991-04-21:US:F:71.178.23.134:Amanda
sunbeads:KINDER:funmcm14@earthlink.net:1984-09-11:US:F:none:Michelle meyer
sunbeak:dxmaniac22::1996-07-24:US:M:63.88.58.254:mica
sunbeak_3:dxmaniac23::1996-07-24:US:M:63.88.58.254:mica
sunbeam00:cream00::1997-03-20:US:F:65.119.51.7:angel
sunbeam000:kydiath000:hornerdawn@optusnet.com.au:1989-04-02:AU:F:none:Kim
sunbeam0015:irock:jboeshaar0015@lcu.edu:1985-02-21:US:F:none:Josephine Boeshaar
sunbeam01:sunbeam02:suecourtneydonovan@aol.com:1987-01-19:GB:F:none:alice  baker
sunbeam014:lobot::1991-12-25:US:F:none:sunbeam014
sunbeam03:aolaim10:jazziejasmine93@aim.com:1993-09-13:US:F:none:jess thompson
sunbeam0311:fortner:s_renee69@hotmail.com:1981-02-26:US:F:none:Shelly Fortner
sunbeam04:maxhenry12::2000-12-17:GB:F:89.195.144.210:lauren
sunbeam0412:college:sunbm0412@yahoo.com:1985-07-03:US:F:none:Erin Lindley
sunbeam05:Sunny::1992-12-12:FR:F:none:sunbeam05
sunbeam0614:dumas07:Lemonlime247@aol.com:1991-06-14:US:F:64.12.116.143:Sara
sunbeam08:jasmin123:may5078@aim.com:1992-09-10:US:F:72.155.131.10:Mandy
sunbeam081602:073103:midnight_candy_420@yahoo.com:1982-11-23:US:F:76.235.199.50:Susan
sunbeam09:moonbeam09::1998-09-18:US:F:99.27.204.166:melanie
Sunbeam0943:Moonbeam12:jsw371@yahoo.com:1997-03-18:US:F:70.22.237.133:Izzy
sunbeam09_9:91aht11:Bassdrummer09@yahoo.com:1991-02-11:US:M:24.14.216.3:Aaron
sunbeam1:dexter:sunbeam1@telus.net:1959-06-04:CA:F:none:mich rein
sunbeam1007:sweets1007::1997-10-07:US:F:71.188.130.132:Lily
sunbeam101:googoo::1993-10-31:US:F:none:sunbeam101
sunbeam1011:cyborg1:ashleycassiejones@hotmail.com:1987-04-03:US:F:65.73.27.35:cassie jones
sunbeam10191:light:starlite1966@hotmail.com:1966-12-12:US:F:none:janet giles
sunbeam1022:teddy1:sunbeam1022@yahoo.com:1986-10-22:US:F:65.12.219.22:Ashley
sunbeam1025:acting1025:jabberjaws1025@yahoo.com:1988-10-25:US:M:none:DR RR
sunbeam104:kupcake104::2000-11-08:GB:F:109.154.122.225:NULL
sunbeam10pc:faync1:sunbeam10pc@yahoo.com:1979-02-07:US:F:none:Mandi Jones
sunbeam1101:cyborg1:ash_rocks_the_world@hotmail.com:1987-05-18:US:F:none:cassie jones
sunbeam1111:cyborg1:ash_rocks_the_world@hotmail.com:1986-07-15:US:F:none:cassie jones
sunbeam11212:peppermint::1992-05-07:US:F:none:none
sunbeam1199:music91:embanks@charter.com:1990-09-09:US:F:none:muka smith
sunbeam120:sunbeam625::1992-06-27:GB:F:none:sunbeam120
Sunbeam121:wierdet23::1999-03-05::F:216.114.247.74:NULL
sunbeam1212:peppermint12:whoxxxhjones@aol.com:1992-05-07:US:F:98.235.104.179:jack
sunbeam12121212:stary!:dmancebo@rogers.com:1987-11-13:CA:F:none:stefany mancebo
sunbeam121222:niffer::1992-11-20:CA:F:none:none
sunbeam121222220:niffer::1992-11-20:CA:F:none:sunbeam121222220
sunbeam121314:asley123::1999-02-10::F:98.163.205.68:NULL
sunbeam1215:smiley:rualbo@comcast.net:1991-04-02:US:F:Item:sun beam
sunbeam122:sunbeam:roxy1243@hotmail.com:1990-11-29:US:F:none:lynn miller
sunbeam123321:molly12::1998-08-11:GB:F:86.164.135.103:Rachel
sunbeam123345:glamour::1994-04-06:CA:F:none:sunbeam123345
sunbeam1234:callista1262::1999-04-02:US:F:68.28.137.228:callista
sunbeam12345:SunClan12:mike@flakker.com:1990-07-18:US:F:69.116.2.11:Sunstar
sunbeam123456:SSUUNN8::1993-04-11:CA:F:none:sunbeam123456
sunbeam12362:arizona::1993-12-23:US:M:none:sunbeam12362
sunbeam123__aa:lalala98::1998-12-09:US:F:71.201.30.63:cierra
sunbeam125:sassysunbeams125::1998-03-16:US:F:75.128.46.138:Vanessa
sunbeam1255:happyfeet1255::2001-01-17:US:F:78.16.186.75:susan
SunBeam1258:chrisbrown93:Monielove93@aol.com:1993-10-01:US:F:4.88.74.57:Monique
sunbeam126:sunny::1993-10-01:AU:F:none:sunbeam126
sunbeam12781:12beam:shuttles@bvunet.net:1987-04-23:US:F:none:Meredith Pippin
sunbeam12840:blue12::1994-02-16:US:M:none:sunbeam12840
sunbeam13:Neo135::2000-05-13:US:M:68.7.8.217:Liam
sunbeam13352:playboy::1993-10-31:US:F:none:sunbeam13352
sunbeam1342:kiki1342::1999-12-21:US:F:99.185.131.137:hailey
sunbeam135:lugia::1993-10-06:US:F:none:sunbeam135
sunbeam139:sadiedog::1986-09-07:GB:F:none:Sun Beam
sunbeam139245:sadie4466:sunbeam245@aol.com:1988-09-07:GB:F:none:Kate A
sunbeam13_770:hello22:keme1820@yahoo.com:1996-12-20:US:F:174.106.205.155:NULL
sunbeam14:Blackheart7:bogle2003@rogers.com:1987-01-26:CA:F:none:Katherine Bogle
sunbeam140:happy1:craggpaul@fsmail.net:1965-08-24:GB:F:none:Sally Cragg
sunbeam1418:asley123::1999-02-06::F:98.163.205.68:NULL
sunbeam143:rabbit::1993-12-08:US:M:none:sunbeam143
sunbeam14458:bambam::1992-08-11:US:F:none:sunbeam14458
sunbeam14472:bambam::1992-08-11:US:F:none:sunbeam14472
sunbeam145:na7r8ik92::1992-07-08:US:F:99.74.73.54:Kiran Stoddard
sunbeam15:piano::1987-01-21:US:F:Mail from theneopetsteam:Grace Gabele
sunbeam15_1231:jenny1:horsefan@gmx.ch:1991-04-08:CH:F:none:Sarah Schmid
sunbeam15_s_k:151098123s::1998-10-15:AU:F:110.32.88.182:simrin
sunbeam16:michelle1990:sunbeam.16@hotmail.com:1990-05-29:US:F:none:Amber Duckworth
sunbeam161616:emily85543:sunbeam_117@yahoo.com:1987-12-25:US:F:none:Emily -
sunbeam169:stars:jessicatru@adam.com.au:1985-02-10:AU:F:none:Jess Gibbs
sunbeam1694:luffy1::1994-01-06:US:F:76.113.16.226:sunbeam1694
sunbeam172:sunnyd5300::2002-04-30::F:98.219.211.176:NULL
sunbeam180:2ykwisawirypmtfa:jennie_ansdell@hotmail.com:1980-01-08:GB:F:92.40.214.214:Jennie
sunbeam182:gatinhadolove27:just.cris@hotmail.com:1992-03-06:BR:F:200.193.116.99:gatinha do love
sunbeam188:sore4smiles4u:baby_blu990@yahoo.com:1990-03-14:US:F:75.33.35.213:Duckie
sunbeam18_4:Sidewinder18:byron__15@hotmail.com:1991-09-26:AR:M:none:steve panteck
sunbeam19:tunji99::1991-06-10:US:M:none:sunbeam19
sunbeam192:010592::1992-01-05:US:F:none:none
sunbeam1927:kseno397:kimberly93@earthlink.net:1980-02-28:US:F:none:emily
sunbeam1961:lovejoy01:dlovejoy1961@aol.com:1961-03-28:US:F:75.109.88.121:diane
sunbeam1963:Hilary::1993-09-09:US:M:none:sunbeam1963
sunbeam199:music19:dembanks@charter.net:1992-09-01:US:F:none:molly smith
sunbeam1990:(LoUiSe1990):tj001h1199@hotmail.com:1990-11-29:GB:F:80.193.157.171:Melissa Joyce
:::::::
sunbeam1991:escafit:marinescafit@wanadoo.fr:1991-09-27:FR:F:none:marion escafit
sunbeam1995:12995::1994-04-20:CA:F:none:sunbeam1995
Sunbeam1998:brianna12::1998-12-12::F:74.106.14.218:NULL
sunbeam1999:juju07:juliette_savard@hotmail.com:1995-11-07:CA:F:68.47.33.228:NULL
sunbeam2000:elliot2007::2000-01-28:GB:F:92.234.6.172:Izzy
sunbeam2003:29may54:tweetybird0003@yahoo.com:1986-12-14:US:F:97.83.24.66:Elizabeth
sunbeam201:75667799:randa-panda94@hotmail.com:1994-07-07:CA:F:71.17.139.246:myranda
sunbeam2010:shadotails1234::1996-06-21:CA:F:65.95.251.117:sabrina
sunbeam202938:hi987:crdlag@msn.com:1992-05-18:US:F:none:alissa mitchell
sunbeam205:orlando88:chloebeggs@hotmail.com:1990-11-02:CA:F:137.186.94.35:Chloe Harkin
sunbeam207:sugababe::1992-09-08:GB:F:none:sunbeam207
sunbeam21:::2003-07-29:US:M:72.208.185.88:NULL
sunbeam2121:sunny21:testt91@ymail.com:1990-01-01:US:F:72.208.185.88:NULL
sunbeam2129:enimine:sunbeam1927@yahoo.com:1980-05-22:US:F:none:robin knoles
SunBeam215:denett11::2000-07-08:US:F:204.188.138.28:NULL
sunbeam222:option1:nikon@shaw.net:1990-11-11:NZ:F:none:hehe haha
sunbeam2235:mintygal210!!:moonbean2335@yahoo.com:1992-01-14:US:F:none:neo crazy
sunbeam2268:2268neopets:marion@gmail.com:1989-10-24:US:F:none:marion vilberg
sunbeam22835:katrina:sfox02@msn.com:1975-11-09:US:F:none:pebbles mayhew
sunbeam2306:leigha0415:princess_dragonfly27@yahoo.com:1982-12-27:US:F:68.105.164.19:Shauna Leigh
sunbeam232:01443912:raj@kandas.wanadoo.co.uk:1992-05-04:IE:F:none:abbi thomas
sunbeam246:newyork24::2001-04-23:US:F:67.213.194.114:sonny
sunbeam248:catty!:pinewoodlodge@aspects.net:1993-06-18:GB:F:194.164.119.246:*sunbeams in your eyes*
sunbeam25:spiderman25::1999-12-16::M:71.237.205.142:NULL
sunbeam250:sugar1985:inge@unalom.eu:1978-07-08:NL:F:88.159.71.114:Inge
sunbeam27:may51995::2000-08-26:US:F:24.21.12.57:Bella
sunbeam2721:sun27:kdetloff@juno.com:1985-01-10:US:F:none:Rose White
sunbeam2729:sunny:kdetloff@juno.com:1990-07-10:US:F:none:Katie Detloff
sunbeam278:sunny:angelrave@msn.com:1986-03-01:US:F:none:Savannah Quan
sunbeam27828:sunny644:princesst@knolgy.net:1987-10-09:US:F:none:Quan Worth
sunbeam283:Randy::1992-11-03:US:M:none:sunbeam283
sunbeam285:owensmurf::1985-02-12:US:F:none:Owen Tukius
sunbeam2891:sunshine:glynda28@aol.com:1991-03-28:US:F:none:s w
sunbeam29:Remmy21:shiaramoon@yahoo.com:1988-12-27:US:F:66.87.120.115:Laura
sunbeam29_2_9_9:213685::2002-07-29:US:M:97.85.46.252:NULL
sunbeam2_1:6233376198::1997-12-04:US:F:98.167.149.46:cheyanne
sunbeam2_2_:pgirl2:kendralina02@hotmail.com:1991-02-02:US:F:none:Kendra White
sunbeam3:Yasmine:cfabulldogs@yahoo.c:1991-06-08:US:F:none:sarah fish
sunbeam300:mewmew123::1994-09-06:CA:F:none:sunbeam300
sunbeam310:sunflower:ggirlst@aol.com:1989-07-25:US:F:Can I be your NeoFriend?:amy  krieg
sunbeam313:stars:evelyn@wark2064.freeserve.co.uk:1992-03-31:GB:F:none:kara wark
sunbeam320:10521:marspower00@yahoo.com:1988-07-20:US:F:Can I be your NeoFriend?:Michelle Ho
sunbeam323:floppypancake10:lyloco63@hotmail.com:1992-01-20:GB:F:none:P DM
sunbeam324:Bunnyz Rule21::1999-03-15:AU:F:121.215.185.189:Telia
sunbeam328:keroppie5::1995-06-02:US:F:none:sunbeam328
sunbeam32999abc10:ring of fire123::1999-03-29:US:F:71.56.130.68:samantha
sunbeam33:sunny:brypers@aol.com:1992-02-22:US:F:none:Casey Bryan
sunbeam332:amber1:rickhjelm@msn.com:1988-01-29:US:F:none:Sunny
sunbeam335463:sunnydaydream12::1998-08-10:GB:F:86.164.135.103:rachel
sunbeam34:sunbeam123::2000-11-13::F:216.21.189.222:NULL
sunbeam358:Krista:brannonday771@hotmail.com:1990-11-20:US:F:none:Krista Day
sunbeam36:Yasmine:roxierocks@aol.com:1990-06-08:US:F:neofriend:sarah Fish
sunbeam376:aloha123:gretchen.sandberg@gmail.com:1959-02-26:US:F:96.225.216.244:Gretchen
sunbeam380:point0::1994-02-16:US:M:none:sunbeam380
sunbeam383:bubbles329::2000-05-19:US:F:165.254.34.6:NULL
sunbeam388:sunbeam:rockchild88@cs.com:1988-05-08:US:F:none:kiss  me
sunbeam389:fighters::1994-01-04:CA:M:none:sunbeam389
sunbeam394:light1:cheerleadinggirl@charter.net:1992-05-12:US:F:none:Samantha Smith
sunbeam41:science::1994-04-02:US:F:Trade Closed:sunbeam41
sunbeam418:cody418::1999-09-22:US:F:75.81.231.68:kayla
sunbeam42:sausage12::2000-04-09::F:92.29.107.43:NULL
sunbeam43:Moonbeam::1992-01-11:CA:F:none:none
sunbeam432:roses10::1994-12-12:US:F:207.5.148.238:sunbeam432
sunbeam454:hunter12:njcshugert@sbcgloble.net:1994-03-18:US:F:75.42.217.92:cassie
sunbeam481:notfunny:fearthischick@gmail.com:1982-10-28:US:F:none:Joann White
sunbeam489:zelda459::1993-08-22:US:M:none:sunbeam489
sunbeam4ever:munchie:belicia_stormz@hotmail.com:1990-04-10:AU:F:none:sunbeam4ever
sunbeam4jesus:8mandolin8:lacecruiser@yahoo.com:1988-01-16:US:F:none:Lacey B.
sunbeam4u:malibu1718::2004-03-28:US:F:64.12.117.78:briella
sunbeam5:moonb34m5:nathanhm@hotmail.com:1990-08-03:US:M:24.127.70.53:NULL
sunbeam522:poodwaddle32:lulu09041@hotmail.com:1991-09-13:US:F:206.253.149.41:Hannah
sunbeam559:magnumen:sunbeam559@hotmail.com:1986-01-06:SE:F:none:Sunbeam559
sunbeam576:starbeam765:starlight576@aol.com:1991-04-10:US:F:65.117.158.6:Hannah
sunbeam59:vampire59:sailorkatmoon@sailormoon.com:1993-06-11:US:F:24.192.140.205:kat
sunbeam6:olivia78::2001-10-05:US:F:70.15.4.43:Olivia
sunbeam60:SunBeam:belinda_barrow@yahoo.com.au:1991-07-30:AU:F:none:Belinda Beska
sunbeam6040:Kristyne::1991-02-14:US:M:none:none
sunbeam61:mariakb10::1995-06-12:GB:F:86.5.75.72:maria
sunbeam632:nickj23:njcshugert@sbcgloble.net:1994-03-18:US:F:99.168.76.53:cassie
sunbeam636:ZAMnKLP42:xsthrnbellex08@yahoo.com:1990-09-16:US:F:24.149.79.218:Kaci
sunbeam641:sexxy:sunbeam641@yahoo.com:1985-06-29:US:F:none:Jessica Guy
sunbeam642:52971:rboreman@comast.net:1988-02-24:US:F:none:jyjhjh hhjjhhj
sunbeam644:sunny644:mbutler7@aol.com:1986-07-29:US:F:none:lizzie davis
sunbeam666:slorgie123:ginger.rocks.the.world@gmail.com:1985-06-03:US:F:96.225.220.231:Claire
sunbeam67:beamer67:fwzig@hotmail.com:1940-02-23:US:F:144.92.229.39:Heather
sunbeam68:wonderwoman::1990-08-23:US:F:none:none
sunbeam704:gizmo12:ktcrazy8@gmail.com:1993-12-16:US:F:71.75.139.197:Katie
sunbeam7100:frodosam:mfallard@tmyeastern.com:1991-08-02:US:F:Mail from unicorn19911:Shannon Allard
sunbeam717:lindsay::1991-04-25:US:F:none:none
sunbeam7188:bathtub::1988-07-01:US:F:65.29.110.229:none
sunbeam72:pizza::1992-11-05:US:F:none:SunBeam
sunbeam753:air123:geilmon@yahoo.com:1994-08-22:US:M:69.155.125.156:thunder
sunbeam77:becca101:bearwillie@hotmail.com:1996-06-08::F:71.7.220.22:NULL
sunbeam777:rebecca77:williebear@eastlink.ca:1996-06-08:CA:F:24.222.40.35:rebecca
sunbeam787:wad88TAG:g.strahl@hotmail.com:1987-07-17:US:F:174.44.162.171:NULL
sunbeam789:sasha789::2000-05-12:CA:F:24.141.34.243:Julia
sunbeam78lovely:sunny78:hummingbirds78@yahoo.com:1990-04-23:US:F:none:grace peace
sunbeam78may:sunny78:hummingbirds78@yahoo.com:1991-08-20:US:F:none:lillian lei
sunbeam8:brit12::1998-02-24:US:F:72.191.98.183:Brit&#x27;ny Pollard
sunbeam82:piggy13:sunbeam90@yahoo.com:1982-02-03:US:F:98.242.14.117:Natasha
sunbeam83:JASONCRAZY:rolybear@aol.com:1986-10-14:GB:F:none:KELEIGH PITCHER
sunbeam84:s11u11nny84:sunny84tw@yahoo.com.tw:1993-04-11:CA:F:none:Sunny Wang
Sunbeam848:fredfred23::1999-02-24::M:71.199.190.51:NULL
sunbeam853:fires:seanshirali@aol.com:1988-06-05:US:M:none:sean shirali
sunbeam86:cinnamonstick::1995-01-20:GB:F:none:sunbeam86
sunbeam88:star67:mjrhein@yahoo.com:1995-07-18:US:F:97.101.119.96:LiLo
sunbeam88192:friends::1992-12-17:DO:F:67.204.201.12:sunbeam88192
sunbeam88193:meth27:poprocksandcoke_explode_2006@hotmail.com:1988-12-17:CA:F:67.204.201.12:marina
SunBeam88836:bored@work88:plumy88@gmail.com:1987-11-30:US:F:65.96.158.248:NULL
sunbeam90:hellow::1987-07-04:AR:F:67.250.50.25:coffee cup
sunbeam900:sunbeam90::1998-12-31:US:F:24.172.2.54:Becca
sunbeam9000:harrypotter:bluefire1094@yahoo.com:1989-01-21:US:F:none:Person
sunbeam905:puppypow123::1999-07-10:AU:F:114.78.164.127:NULL
sunbeam9061:15071984:mdk@rdslink.ro:1984-07-15:RO:M:none:Druga Bogdan
sunbeam91:(taporefe):sunbeam91@tre.it:1991-01-20:IT:F:none:Melania Iannella
:::::::
sunbeam911911:callyandcocoa67:jessdancing311@yahoo.com:1993-04-14:US:F:216.220.248.78:maria
sunbeam920:zeppelin19:chelsea.elizabeth920@gmail.com:1989-09-20:US:F:74.190.33.164:Chelsea
sunbeam9393:kristin93::1993-06-25:US:F:none:sunbeam9393
sunbeam945:boobagum98:kidzbopfh54@aol.com:1985-12-15:US:F:none:faith moser
sunbeam95:raleigh95::1995-05-18:US:F:24.214.32.48:Raleigh
sunbeam9534:a229341832:sunbeam9534@yahoo.com.tw:1995-11-23:TW:F:118.168.141.9:Ruru
sunbeam96:blue06:flicka96@att.net:1996-01-06:US:F:74.248.206.41:Hemi
sunbeam969:969sunbeam::1993-12-21:CA:F:none:Sunbeam Maebnus
sunbeam97:sharna36::1997-06-16:GB:F:80.7.53.136:summer
sunbeam973:rosea:tim.ashby@se1.bp.com:1987-03-20:VG:F:none:IsobellaRichta
sunbeam992:simpsons002:u_roc_my_sox_peeps@hotmail.com:1995-02-01:AU:F:202.134.51.15:sunbeam992
sunbeam999:kiara*:mark@mark498.wanadoo.co.uk:1992-07-17:GB:F:none:sophie cusworth
sunbeam999000:Baxter999::1998-05-21:AU:M:211.30.211.144:NULL
sunbeama495:bubble::1992-04-23:NZ:F:none:sunbeama495
sunbeamaa:naosei44:neopets1313@hotmail.com:1995-04-04:PT:F:217.129.33.158:Inês
sunbeamadelaide:ashley91:kalaba@optusnet.com.au:1991-04-09:AU:F:114.75.21.22:Lauren
sunbeamangel:leilani1318:kaley.ford@technique-studios.com:1994-05-23::F:70.242.157.208:NULL
sunbeambabi908:crescent@love:eschayden@bellsouth.net:1990-10-15:US:F:none:Melanie Granger
sunbeamcassidy:rachel:sophieehaigney@yahoo.com:1991-03-02:US:F:none:Cassidy C.
sunbeamdancer14:chelsea:aquagirl12@earthlink.net:1987-01-31:US:F:none:Chelsea  Packer
sunbeamdd:81383947:sinan_rulz@live.com.au:1996-03-03:AU:M:220.239.0.193:abd
sunbeamdonn100:060676:sunbeamdonn@sbcglobal.net:1976-06-06:US:F:none:DAWN HAUERWAS
sunbeamdragon88:spider:sunshineday88@aol.com:1983-10-24:US:F:none:c j
Sunbeamer1313:zoezoe99::1999-01-12:US:M:96.249.150.170:NULL
sunbeamer2:pa55w0rd:nomzy13@yahoo.com:1989-02-01:ZA:F:196.35.158.181:nom
sunbeamer486:farming:sunbeamer486@hotmail.com:1989-08-03:NZ:F:neofriend:Ginnia Gillarde
sunbeamer9:sunstar9:sara_hua92@yahoo.com:1986-07-26:CN:F:none:Saralynn  Hua
sunbeamfairy:makinmagic123:hannah-loves-timmy@hotmail.com:1993-10-04:NZ:F:121.72.69.55:Hannah
sunbeamforeverseen:147133:amy_libertines@hotmail.com:1987-09-13:GB:F:none:Sunbeam Moonshine
sunbeamgodess:lovedada:godesscourtney03@aol.com:1984-11-16:US:F:none:Courtney Tidwell
sunbeamgooglebob:sunbeamgooglebob8228::1993-08-02:US:F:74.170.76.222:Athena
sunbeamhorse:preili:defffy@hot.ee:1981-03-08:EE:F:none:Elisabeth Altroff
sunbeamhorses:helensims::1992-10-11:EE:F:Battledome Challenge:sunbeamhorses
sunbeamiaer:mayawashere23::1999-02-03:US:F:98.207.122.50:cookie
sunbeamie205:solitude:sunbeamie@yahoo.com:1974-02-19:US:F:none:K W
sunbeamiey:briana08::2000-12-24:PH:F:124.106.208.195:Marie Briana
sunbeaminblack:absinthe88:sunbeaminblack@yahoo.com:1989-04-05:US:F:70.36.234.135:Widow
sunbeamkitti999:t6pt3Klk:kittikatt999@hotmail.com:1993-01-12:AU:F:58.164.5.158:Gabriella
sunbeamm:luvsux89:Daniellexlynn89@gmail.com:1989-09-08:GB:F:24.45.196.123:Danielle
sunbeammeteor:cookies321::2000-02-20:US:F:72.49.171.68:Olivia
sunbeammom:mom2000:starlitedust2000@yahoo.com:1948-09-02:US:F:none:Darlene
sunbeammoon:inesliugogo:coolgirlsyeah@hotmail.com:1983-01-01:CA:F:Mail from theneopetsteam:Ines Liu
sunbeammoonflower:peace8:sisterused@hotmail.com:1992-06-28:US:F:none:Chelsea Wegrzyniak
sunbeamm_7:toffee77:dog_dog93@hotmail.com:1993-09-26:SG:F:220.255.7.198:grace
sunbeamm_girl:sherylwjm1997:sweetcutestrawberries@gmail.com:1990-07-10:SG:F:113.10.121.149:Sheryl
sunbeampal4:1sunbeam:sunbeampal@aol.com:1991-02-05:US:F:none:AllisonWalt
sunbeamplace:sunbeam12:qionghui86@hotmail.com:1980-02-23:SG:F:165.21.155.8:sunbeam
sunbeampuppy:AquaPuppy123:Thepuppy@nintendogsworld.com:1991-01-18:GB:F:92.18.76.5:SunbeamPuppy
sunbeampurple:4867mick::1991-10-16:US:F:none:sunbeampurple
sunbeamqueen:01744730758:georgina_gerrard_8@hotmail.com:1905-07-08:GB:F:none:Georgina Gerrard
Sunbeamrain:tennis98:JesusFreak40@ymail.com:1996-01-06::F:173.67.151.157:NULL
sunbeamrainbowgirl:Julia:jule654@hotmail.com:1990-11-02:US:F:Item:julia christy
sunbeamray:1goldengirl1:sunraybond@aol.com:1978-08-31:GB:F:none:raymonde bond
Sunbeamray1234:chelseababy123:Kaymickey@sbcglobal.net:1996-10-10::F:69.155.130.74:NULL
sunbeamrider:canada12::1996-06-20:CA:F:70.69.145.50:Beth
sunbeamrider_13:canada13::1996-06-20:CA:F:70.69.179.136:Beth
sunbeams:7324946145:pet.pirahna2@yahoo.com:1992-02-29:US:F:24.7.113.55:sunbeams
sunbeams12:summer13::1996-07-11:US:F:76.110.127.61:kelly
sunbeams23:cinnamonstick:lyloco63@hotmail.com:1992-01-20:GB:F:none:Pippin Daines
sunbeams95:11.11.1995:sanjana.95@globallyunique.in:1992-11-11:BD:F:116.193.170.17:Sanjana
sunbeamshow:muggle11:lindseydartsch@gmail.com:1992-03-11:US:F:70.159.109.249:NULL
sunbeamshower:dani1990::1990-09-26:GB:F:193.60.223.200:Danielle Fox
sunbeamsjelly:JEss94:sunbeamsjess@hotmail.com:1990-07-02:GB:F:77.99.189.65:Jelly
sunbeamsjess:JEss_Leth94:jessielethaby@me.com:1990-07-02:GB:F:79.46.107.27:Jessie
sunbeamsofa:muffin33:tokyoluver3693@aim.com:1994-12-26:US:F:68.251.187.163:Sofa
sunbeamsonsunday:suphattra8:sunbeamsonsunday@aim.com:1991-08-08:US:F:none:Anna Fatlowitz
sunbeamsparrow:1q2w3e4r:esrevinu1@ymail.com:1991-01-01:US:F:24.74.101.242:Pie
sunbeamspirits897:horses28::1998-07-25:GB:F:212.139.102.198:Young-Hwa
sunbeamsprite:1longspoon3:sunbeampixie@yahoo.com:1987-10-13:US:F:204.38.211.132:Kristin
sunbeamsrb:jessie:sunbeam_srb@hotmail.com:1982-07-04:US:F:none:Sweety Buddy
sunbeamsrb428:jessie:sunbeam_srb@hotmail.com:1982-07-04:US:F:none:Sweety Buddy
sunbeamsshining:hippo::1993-07-22:US:F:none:sunbeamsshining
sunbeamstarburst:l0nd0n:x_i_love_harrow_x@yahoo.com:1990-08-26:JP:F:none:SkittlesSweets
sunbeamstarburstgirl:Julia:tandjmom@sbcglobal.com:1990-11-02:US:F:none:Julia Christy
sunbeamstarlightgirl:85304:gttfung@earthlink.net:1988-11-02:US:F:none:The Easter Bunny
sunbeamsultanas:myc52:ballerina_baby_14@hotmail.com:1989-05-31:AU:F:none:Tara Iredale
sunbeamsunbeam83:teddy::1993-06-13:GB2:F:none:sunbeamsunbeam83
sunbeamsunbeam_2004:cassandra:natmaurier@hotmail.com:1972-03-02:CA:F:none:nathalie maurier
sunbeamsweetie:l12345:x_twilight_romance_x@hotmail.com:1986-09-17:US:F:none:Lily Smith
sunbeamswen:063211:pig960349@yahoo.com.tw:1983-08-03:TW:F:none:粉藍色 ㄉ小豬
sunbeamswirll:inlove1:cutiegiggle@yahoo.com:1982-08-21:US:F:none:Heather Payne
sunbeams_99:sugar1797:sunbeams_99@hotmail.com:1982-04-11::F:none:JennyAllen
sunbeamtiger13:12135m::1997-12-24:US:F:66.74.189.175:Emily
sunbeamtom:lalala783::2004-08-22:US:F:71.76.238.63:Milana
sunbeamuk:sunbeam:sashastubbs@aol.com:1981-03-22:GB:F:none:sasha  stubbs
sunbeamviper:19august:kendallvassiestuff@yahoo.co.uk:1994-08-19:GB:F:86.155.240.16:Jaz
sunbeamwildflowers:l3d3rh0s3n:teacakes.and.rosebuds@gmail.com:1989-12-15:US:F:68.4.207.161:Gem
sunbeamx:muffin:freebreezeforever@yahoo.com:1979-12-21:US:F:none:MARIA AAAA
sunbeamx00:sunbeam::1994-04-02:US:F:none:sunbeamx00
sunbeamxox:princessxox3:hockey-chick65@hotmail.com:1992-10-21:CA:F:none:kaylie saniro
sunbeamy:whiskycola:bacardicolaatje@hotmail.com:1987-07-02:NL:F:none:Kiki Stolzenbach
sunbeamz:apple32:abdi64mo@yahoo.com:1993-10-10:JP:M:75.72.199.99:abdi
sunbeamz33:michael68:smile03440@hotmail.com:1976-12-07:US:F:69.19.14.33:Dena
sunbeamzlight:waterbolttle:vixiehey124@yahoo.com:1988-01-24:US:F:none:LiLeRz
sunbeamzs:muffin09::2000-04-27:US:F:67.141.3.195:Rachel
sunbeam_:superman!:e.e.m.m.a.a@hotmail.com:1992-08-07:CA:F:none:Nicolette Caitlin Emma FERAMESADELA
sunbeam_01:music64:kailey_dalley@hotmail.com:1995-12-16:CA:F:173.32.194.224:NULL
sunbeam_1:sunbun123:loriepatton@bellsouth.net:1989-05-15:US:F:74.160.106.101:samantha
sunbeam_101:dukeiscute11:tatumewilliams@charter.net:1997-04-12::F:71.81.29.179:NULL
sunbeam_122:Raveniscool::1994-01-09:CA:F:none:sunbeam_122
sunbeam_123440:sunbeam::1993-09-10:US:F:none:sunbeam_123440
sunbeam_123_sunny:jenny:horsefan@gmx.ch:1991-09-25:CH:F:none:Sandra Schmid
sunbeam_12_3:sunbeam::1993-05-03:CA:F:none:sunbeam_12_3
sunbeam_16:madison 16::2000-09-20:GB:F:82.33.7.3:madison
sunbeam_169:169_sunbeam::1993-12-21:CA:F:none:sunbeam_169
sunbeam_2010:shadotails1234::1996-06-21:CA:F:76.67.111.171:sabrina
sunbeam_22:evenstar_77:m_788@hotmail.com:1986-07-22:GB:F:none:Emily Tozer
sunbeam_222:sunbeam:shawna__bot@hotmail.com:1990-12-17:CA:0:none:shawna bob
sunbeam_27:rayshine27::2000-09-27:GB:F:78.145.132.255:emily
sunbeam_36:22222!::1993-09-15:US:F:none:sunbeam_36
sunbeam_43:raiodesol23::1998-12-07:BR:F:187.71.40.201:NULL
sunbeam_5:Moo123::1999-07-28:US:M:71.201.123.123:john
sunbeam_5_5:sunbeam_5_5::1996-12-13:GB6:F:86.161.221.206:Sarah
sunbeam_5_9:sunbeam_5_9_8:angelbebo8294@hotmail.com:1990-04-24:NZ:F:none:xweetok xweetok
sunbeam_63:sunlight1::1993-11-15:CA:F:none:sunbeam_63
sunbeam_64:galtalk:jellybelly_01@hotmail.com:1990-10-29:CA:F:68.148.198.228:**MELLISA**
sunbeam_654:preepymel:sunbeam_64@hotmail.com:1988-10-29:CA:F:none:mellisa johnson
sunbeam_66:seagreen66::1998-07-10:US:F:69.171.167.126:jessi
sunbeam_7:Alcorn33::1999-03-03:US:F:75.219.25.62:Marcy
sunbeam_77:jellybean45::2000-10-02:US:F:64.148.49.179:tiyana
sunbeam_87:ewcia1987:sunbeam87@interia.pl:1987-09-30:PL:F:none:Ewka Baśka
sunbeam_9:segichne1:assiral_imeon@hotmail.com:1993-01-20:FX:F:none:Laura Stocker
Sunbeam_99:garbelia08::1999-12-28:IT:F:79.32.212.197:NULL
sunbeam_apple3:appleslice!::1993-07-26:NZ:F:none:sunbeam_apple3
sunbeam_dancer:hotchick::1988-01-13:US:F:none:Meilin Hayes
sunbeam_emily:trakeen_Figaro2000:salajanepreili@hot.ee:1992-03-08:EE:F:90.190.185.62:Elisabeth
sunbeam_erb:raindrop11::1997-02-07:US:F:71.67.142.223:Emily
sunbeam_faerie:wobblewobble:tamababii@yahoo.com.au:1986-10-09:AU:F:60.240.52.215:o0oMandyo0o
sunbeam_faiiry:makinmagic123:hc.jackson@clear.net.nz:1993-10-04:NZ:F:121.72.82.207:Hannah
sunbeam_fairy:oreocookie123:LmarieUSA@tds.net:1993-07-29:US:F:69.21.96.111:Torri
sunbeam_hev:hrptjh08:HevAndTj4life@hotmail.com:1987-07-18:US:F:108.15.131.185:HeV
sunbeam_horses:helensims::1992-10-11:EE:F:none:sunbeam_horses
sunbeam_kirby:potpot:flair9090@yahoo.com:1982-03-02:US:F:none:Zelda kit
sunbeam_kittie:keytec:angelkitty@hotpop.com:1990-07-04:US:F:none:Kirstie Hills
sunbeam_moonflower:9482547:michaelamcbee@hotmail.com:1985-10-03:CA:F:none:Michaela McBee
sunbeam_moonset:dreamsheep:anna_kia2004@hotmail.com:1991-08-03:GB:F:none:anna love
sunbeam_moonshadow:taryn&joanna:neopian-riches@hotmail.com:1984-02-26:US:F:none:Taryn&Joanna
sunbeam_pop:sunbeam pop78::2002-06-24:GB:F:121.45.162.196:Sophia
sunbeam_rapier:*tra*:tixus12@hotmail.com:1990-02-08:GB:F:none:Caroline Ferry
sunbeam_starbright37:water 37::2008-01-09:US:F:66.205.114.69:summerslight
sunbeam_tiger:liager45:beautiful_demon53@hotmail.com:1988-12-21:GB:F:none:Lorna youngman
sunbeam_yellow:65301780:ikkin_yellow@hotmail.com:1984-11-08:CA:F:none:Nikky Walter
sunbeam__1:legolas1:jamesduke@comcast.net:1993-05-07:US:F:none:Sunbeam Lightcloud
sunbeam__55:sunbeam 36:totterdell@xtra.co.nz:1995-12-07:NZ:F:125.237.174.238:jordan
sunbeam__77:flowergirl78::2000-10-02:US:F:64.148.49.179:tiyana
sunbeam__78:!@#$%67::2000-01-08:US:F:24.32.126.81:sammi
sunbeam___:papegoja!:plattfisk_@hotmail.com:1988-11-06:SE:F:83.251.23.160:Michaela secret
sunbean:hotstuff24:freeme@hotmail.com:1986-12-13:CA:F:70.65.67.73:NULL
sunbean31:zwinky31::1999-05-30:US:F:207.157.65.94:mrgan
sunbean311:zwinky311::2010-01-01:US:F:75.76.106.81:NULL
sunbean624:lollol101::1997-09-24:CA:F:173.32.191.251:kirari
sunbean_4_4:miaziga99:razz_berry6@hotmail.com:1986-12-13:CA:F:198.53.2.64:Jesslyn
sunbear12:FennecFox12::1998-03-30:AU:M:121.45.12.133:Cale
sunbear1210:schumi7596:monicander@yahoo.com:1986-12-10:US:F:70.122.233.209:Monica
sunbear13:numbat10::1998-03-30:AU:M:118.210.233.3:Cale
sunbear2008:njbowen12::2001-11-02:US:M:24.252.22.82:Nathan
Sunbear2025:finger84:fletchersarah95@yahoo.com:1984-02-09:US:F:66.25.31.97:NULL
Sunbear22:twilight22::1997-12-01::F:71.56.137.140:NULL
sunbear23:Twister23:rcald23@yahoo.com:1988-12-23:US:M:173.21.21.88:NULL
sunbear2_31:may101::1999-02-07:US:F:12.22.165.205:may
sunbear397:numbattwo78::1998-03-30:AU:M:118.210.68.250:Cale
sunbear421:1042110421:sp75396@aol.com:1996-04-21::M:76.99.40.243:NULL
sunbear527:1052710527::1999-04-21::M:68.46.155.208:NULL
sunbear582:pinkpanda1111::2000-11-17:US:F:70.174.75.169:Jordan
sunbear607:pepsi15::1998-12-09:US:F:74.105.46.80:kelsey
sunbear66:*unBear66:t_bear6@verizon.net:1990-11-22:US:F:71.182.89.107:Tara
sunbear7_59_53:boboco12::2000-11-13:US:F:71.205.63.45:sophia
SunBear811:793752::2002-02-09::F:174.96.163.119:NULL
sunbear91:green91::1998-05-19:US:F:66.32.71.244:hannah
sunbear911:monkey11:robert.robinson75@yahoo.com:1997-04-15::M:207.172.128.212:NULL
sunbear92:kakanin26:panther_chik2010@yahoo.com:1992-02-28:US:F:173.26.61.59:NULL
sunbearcub12:Pepper12:evgenialega@gmail.com:1996-06-17:AU:F:210.50.244.21:Charmaine
sunbearcub13:Pepper12:evgenialega@gmail.com:1991-06-17:AU:F:58.175.156.156:Evgenia
sunbearcute:838383:pora_sunbear@yahoo.com:1983-05-04:MY:F:203.82.91.102:flore
sunbearfree77:roam44:dgreens@windowslive.com:1956-04-01:NZ:M:203.109.161.228:john
sunbeargirl:itachi12:sunbeargirl1@yahoo.com:1991-04-27:US:F:71.136.235.94:Erica
sunbearjones:sunbearsrock12:howlingwolf529@aol.com:1985-02-05:US:M:24.171.168.221:Joseph
sunbearpig:4119241192:dracodancer12@yahoo.com:1994-02-28:US:F:96.233.5.100:KC
sunbear_10:marisa11:nuthinbutnet10@gmail.com:1992-09-16:US:F:24.20.179.16:Katie
sunbear_1_1:sunbear11::1998-07-03:CA:F:99.245.61.112:allyson
sunbear_23:may101::1998-01-01:US:F:12.10.28.227:may
Sunbear_2_2:twilight22::1997-12-1:US:F:71.56.137.140:Trissa
sunbear_8:raine912::2000-11-11:CA:F:70.29.20.206:michele
sunbear_singer:toohey12:rachelt@sacredhps.cg.catholic.edu.au:1979-01-05:AU:F:58.165.253.127:rick
sunbear__65:puff11::2000-08-30:US:F:174.30.127.235:Charlotte
sunbeast100:maimai30::1998-06-30:US:F:24.210.198.183:Samone
sunbeast6:moonbeast30::1998-06-30::F:65.185.113.217:NULL
sunbeast64:moonbeast30::1998-06-30:US:F:65.185.113.217:maiah
sunbeauty:magenta24:silvermist24@hellokitty.com:1995-05-14:US:F:71.92.67.28:ARLENE
sunbeauty7681:loveto22::2000-01-29:US:F:74.65.84.126:NULL
sunbed:mini84:scaredmimes@hotmail.com:1993-01-10:MX:M:201.171.223.83:i have no name
sunbed345:gingerbeer12::1998-08-12:GB:F:86.4.25.185:lucy
sunbed999:haven89::2001-10-22:US:F:173.218.138.169:harley
sunbed99954:haven55::2001-10-22:US:F:173.218.135.225:NULL
Sunbeds:29OrchardpArk0o!:ss_summer_90@yahoo.com:1993-05-29::M:86.25.166.7:NULL
sunbed_10:harley 10::2001-10-22:US:F:70.245.12.7:harley
sunbed_8_8:harley88::2001-10-22:US:F:76.240.13.33:haarley
sunbed_9:harley78::2001-10-22:US:F:70.247.74.43:harley
sunbed_queen:shanny 12:shannoncallan@live.co.uk:1990-09-21:GB:F:149.254.192.208:shannon
sunbee25:sunshine25:sunbun2009@yahoo.com:1983-05-31:US:F:71.203.14.238:savannah
