sunflowergirlsrulesc:():rainy97@2comcast.net:1987-01-19:US:F:none:Ashley Tisdale
:::::::
:::::::
:::::::
:::::::
:::::::
sunflowergirltw:tiggywiggywoo2000::2000-04-10::F:86.149.4.227:NULL
sunflowergirly4u:89sunflower:k5peltzer@yahoo.com:1989-09-07:US:F:75.83.66.158:Kelci
sunflowergirlyxo:022697::1997-02-26:US:F:71.168.140.24:Kylie
sunflowergirl_:baxter1:beckyjoyolson@yahoo.com:1979-06-02:US:F:69.179.34.175:<u> </u>
sunflowergirl_154:shelby39::1998-03-17::F:208.102.155.198:NULL
sunflowergirl_1_111:spiderman11:mik_fors@yahoo.com:1989-08-15:JM:F:70.156.197.188:beyoncey
sunflowergirl_23:kymrorox1:eeyore_37@hotmail.com:1983-10-11:CA:F:none:Kim R
sunflowergirl_268:eight::1992-08-20:CA:F:none:Czarina Moreno
sunflowergirl_386:893085502:monkey_cake_386@hotmail.com:1988-03-26:CA:F:none:Mandy Smith
sunflowergirl_4_4_4:pres19:cinderelladuff19@aol.com:1974-11-28:US:F:none:presley rose
sunflowergirl_6:spongy999:www.cheerrox2013@yahoo.com:1994-07-27:US:F:67.235.183.65:bubbles
sunflowergirl_8_8:jack1234::1999-06-30:US:F:98.248.92.112:Hannah
sunflowergirl_8_8_8:986532:crisseywaters@aol.com:1990-09-14:US:F:71.86.102.153:crystal
sunflowergirl_9:dreamgirl321:wilkeswheat@aim.com:1993-08-29:US:F:none:Madison Wilkes
sunflowergirl_91:rose22::1997-02-25:US:F:74.167.100.220:ciara
sunflowergirl__91:nicole22::1997-02-25:US:F:74.167.100.220:ciara
sunflowergivelight:12muffin:sunflowergirl.96@hotmail.com:1995-03-18:US:F:69.65.82.159:Victoria
sunflowerglade:heart10::1993-05-10:US:F:none:Bryanna Kaehn
sunflowergladness:soccer77:catbackn@yahoo.com:1977-03-03:US:F:76.3.201.156:Myrna
sunflowerglasses:secure123:lshermano@aol.com:1990-9-19:US:F:68.192.169.140:bumeri
sunflowerglo:hairston01:sunburstglo@yahoo.com:1993-09-01:US:F:70.173.255.159:Rachel
sunflowerglory:gloria*:oliviamoe1992@yahoo.com:1992-11-07:US:F:none:olivia moe
sunflowergnome:jazzjazz123:zoe_vezina@hotmail.com:1991-09-06:CA:F:24.67.213.168:Zoe
sunflowergoddess90:tattoo:smart_lil_punky@hotmail.com:1989-01-18:CA:M:69.157.76.177:whywouldanyonegiveouttherenameontheinternet
sunflowergold:horus12:federi.ca@hotmail.it:1991-03-28:IT:M:78.12.89.102:fede
sunflowergood:echo222:l29462675@yahoo.com.tw:1988-05-18:TW:F:none:林 涵
sunflowergril_8_8:jack123::1999-06-30:US:F:98.210.121.147:hannah
sunflowergrl:morgan::1992-02-24:US:F:none:sunflowergrl
sunflowergrl001:tigger13:sunflowergrl001@hotmail.com:1989-02-10:US:F:none:Susan Shelf
sunflowergrl07:pickle23:sweetnsexy8705@yahoo.com:1988-05-14:US:F:24.28.148.204:Sunny
sunflowergrl123ed:Casperpup:mariaharper@hotmail.com:1989-07-03:US:F:none:Emily Harper
sunflowergrl15:katelyn13:sunflowergrl@q.com:1969-08-15:US:F:97.125.76.153:heidi
sunflowergrl177:cellphone9::1993-06-27:US:F:none:sunflowergrl177
sunflowergrl2004:sungrl::1991-10-03:US:F:none:sunflowergrl2004
sunflowergrl22:megan12:samiri54@cox.net:1992-07-12:US:F:none:Megan Amiri
sunflowergrl323:sunshine3::1992-12-01:US:F:none:sunflowergrl323
sunflowergrl444:1234abcd:itslikethat2u@hotmail.com:1980-08-17:CA:F:none:Shannon Daigle
sunflowergrl484:smc1994::1993-08-10:US:F:none:sunflowergrl484
sunflowergrl804:star56:vballstar967@aol.com:1990-08-04:US:F:none:Happy Golucky
sunflowergrl94116:scooby::1993-09-13:US:F:none:sunflowergrl94116
sunflowergrl94276:scooby::1993-09-13:US:F:none:sunflowergrl94276
sunflowergrl9438:scooby::1993-09-13:US:F:none:sunflowergrl9438
sunflowergrl9969:sunny:rubberduckie02m@aol.com:1992-04-15:US:F:174.49.145.178:none
sunflowergrll173:sunflower17:Craziililgrl17@aol.com:1993-06-04:US:F:207.200.116.11:Ashleigh
sunflowergrlpower777:jackryan::1992-08-09:US:F:none:Lana  Lee
sunflowergrl_fu:sesshomaru:sk8madoor@aol.com:1991-09-28:US:F:none:madison olszewski
sunflowergrrl:ilovejim12:digicamgirl@hotmail.com:1971-12-29:CA:F:76.65.28.36:Kimberley
sunflowergsteph:mileycyrus101::1996-08-17:US:F:96.243.228.30:steph
sunflowergurl:DAKOTA:bigalparts1@wmconnect.com:1989-02-02:US:F:none:tereasa locke
sunflowergurl0981:120991:skipharm55@aol.com:1989-12-09:US:F:none:Lindsey Bett
sunflowergurl113:duke789:horsebackgurl14@optonline.net:1963-07-23:US:F:none:danielle morano
sunflowergurl12791:daise::1991-12-07:US:F:none:sunflowergurl12791
sunflowergurl24:catsanddogs24:dolphinluvr@clearwire.net:1995-08-15::F:75.92.52.168:NULL
sunflowergurl2468:daisy2468:dolphinluvr@clearwire.net:1995-08-15:US:F:75.92.52.168:Alyssa
sunflowergurl44:nothing::1992-06-16:US:F:none:Eileen not saying
sunflowergurl45:ozgal45:ozgal45@sbcglobal.net:1960-01-02:US:F:none:Penny Osterman
sunflowergurl5:nicola:jazzyjupiter222@aol.com:1989-11-30:US:F:none:nicola sussman
sunflowergurl76:sunflower:sunflowerlvr_95@yahoo.com:1976-09-20:US:F:none:Karrie Wheeler
sunflowergurl777:sunflower::1994-04-29:US:F:none:sunflowergurl777
sunflowergurl85:clyc8325:cly_chang@yahoo.com:1986-04-15:US:F:none:Chanelle  Chang
sunflowergurl91:rose110:sunflowergurl@attbi.com:1991-04-16:US:F:66.177.24.12:*^Mirissa Rose^*
sunflowergurl923:rianne:sunflowergurl923@hotmail.com:1991-03-18:US:F:Mail from theneopetsteam:none
sunflowergurl94:PrincessCN94:sexy_foxy_gurl@hotmail.com:1994-10-13:CA:F:99.224.139.41:Casey
sunflowergurly:sunflower72:jillybird5768@gmail.com:1994-10-24:US:F:71.116.161.66:Sunflowergurly
sunflowergurl_7:tawnygirl1:bfbail@comcast.net:1993-04-03:US:F:none:Laura Schneider
sunflowergurl_832:sunflower::1992-11-04:US:F:none:sunflowergurl_832
sunflowerh:becca051002::2002-05-10:US:F:75.130.80.94:rebecca
sunflowerha43:smith80::2000-04-23:US:F:76.116.113.77:sierra
sunflowerhamster:negar745:srezahi@aol.com:1990-03-07:CA:F:neofriend:Hanna McBuddha
sunflowerhan:00dbwjd:pinkleafves@hanmail.net:1984-08-22:US:F:67.81.89.109:한 유정
sunflowerhana:mikasaku:hanachanistop@csc.jp:1975-07-29:JP:F:none:桜 海華
sunflowerhannah123:lefty123::2000-02-15::F:173.17.204.169:NULL
sunflowerhappy:fourz987:dan.hoang@rocketmail.com:1998-03-06:US:F:71.105.29.57:sunflowerhappy
sunflowerhat:povo0503lylo:poisonstaplesx@yahoo.com:1981-01-01:US:M:none:Ron Sun
sunflowerhc:hilary:smallnspeedy@yahoo.com:1985-10-05:US:F:69.40.174.120:AlyssaBranson
sunflowerhead:moses18:butterflygurl1992@yahoo.com:1992-03-17:US:F:76.178.197.115:Courtney
sunflowerhead04:moses18:butterflygurl1992@yahoo.com:1992-03-17:US:F:24.61.233.28:courtney
sunflowerhearts:@heart22:sheenagill@hotmail.com:1988-03-02:US:F:none:love rew
sunflowerhennie:jackson789:hennieisohsofly@yahoo.com:1993-06-03:US:F:97.100.5.204:hennie
sunflowerhershe:cybunny::1992-02-18:US:F:none:none
sunflowerhime:123chi123:XxR0ZExX@ymail.com:1992-12-13:US:F:66.227.159.45:Katie
SunflowerHippie721:sunflower721:Out_of_reach721@yahoo.com:1993-07-21:US:F:68.60.148.192:Allie
sunflowerhive:ga1882:gsfuente@loyno.edu:1990-08-30:US:F:192.211.31.250:Gabby
sunflowerhm:cris0903:sunflowerhmsunflowerhm@yahoo.com.tw:1989-09-03:TW:F:218.174.70.69:劉芳瑄
sunflowerhmm:i486dx:chlorine_of_xanth@hotmail.com:1987-12-26:US:F:70.19.208.190:Hannah M
sunflowerholls:hh07450:heh93@aol.com:1993-06-16:US:F:64.12.116.139:Holland
sunflowerholly:maxs123:hllyher@gmail.com:1988-01-01:US:F:24.209.61.38:holly
sunflowerhope:traxler:sunflowerhope@cs.com:1988-06-17:US:F:none:lindsey  traxler
sunflowerhottie:redhippo::1989-05-05:US:F:Item:none
sunflowerhottie134:jerradis#1::1993-10-29:CA:F:none:sunflowerhottie134
sunflowerhotty:sister12:noah630@aol.com:1984-10-19:US:M:76.203.10.63:noah
sunflowerhughes:becca02::2002-05-10:US:F:70.220.72.248:becca
sunflowerhun:siri123:lars.glenne@glocalnet.net:1995-08-09:SE:F:81.216.162.147:ida
sunfloweri13:hevoshaka13:viles@luukku.com:1989-01-01:FI:F:89.27.12.128:Vilkku
sunflowerice:happy21:funkymonkeysara101@yahoo.com:1983-04-07:US:F:24.33.144.71:sara
sunflowericecream:041393:gdaynadance@yahoo.com:1993-04-13:US:F:none:Dayna Pessoa
sunflowerie:02364212::1996-08-26:BG:F:213.167.5.12:Ralitza
sunflowerie_shine:CATHERINE91266569:tedy_507@hotmail.com:1975-11-07:SG:F:none:berriescoveredinchocolateangel
sunfloweriii:i(l):aisling500@hotmail.com:1988-09-23:IE:F:none:Aisling Duffy
:::::::
sunflowerik:slnecnica11:mackovas@unibanka.sk:1977-08-09:AU:F:89.173.25.222:Silvia M
sunflowerinhand:Fabaceous92:coffeebeansarefabaceous@hotmail.com:1980-01-01:US:F:98.214.98.215:Red
sunflowerinhand92:fabaceous92:coffeebeansarefabaceous@hotmail.com:1935-06-03:US:F:98.214.98.215:Em
sunflowerinhawaii09:jinohno:gokun216@aol.com:1990-05-08:US:F:none:Rina Tazaki
sunflowerinjane:plopplop12:sunflowerinjane2@yahoo.com:1989-09-08:US:F:70.110.50.152:coco
sunflowerinrain:hel1junk13:sunflowerinrain@hotmail.co.uk:1949-06-13:GB:F:85.64.49.173:Eli
sunflowerinspring:mojo01::2002-02-09:US:F:71.102.225.229:NULL
sunflowerinsummer:mom_and_dad:lilbluedolphin@msn.com:1990-06-07:US:F:none:Megan
sunflowerintherain:8836meffg7:sunflowr090603@hotmail.com:1985-09-06:US:F:none:Gwen Rajski
sunflowerintherain18:gear149bub190:sunflowr090603@hotmail.com:1985-09-06:US:F:216.170.143.75:Gwen Rajski
sunflowerinthesun:21219:daylightdaisy@hotmail.com:1981-07-13:KH:F:none:kate lee
sunflowerip:iloveyou1:frampacajush_neopets@yahoo.com.sg:1987-12-10:AT:F:none:sunflwerip sunflwerip
sunflowerirukagirl:lysergai03:suflowerirukagirl@yahoo.com:1991-03-12:US:F:24.116.164.8:Kae Rae Gallatin
sunflowerivy:ivy12345:ivy@12buzz.com:1949-09-09:TH:F:202.71.112.3:Ivy
sunflowerj:holdon48:weijingdai@yahoo.com.cn:1990-04-08:CN:F:none:J J
sunflowerj89:rufus12:Sunflowerj89@aol.com:1989-06-14:US:F:71.227.53.212:Jeni
sunflowerjack:0728jg::2000-07-28:US:M:162.83.78.179:Jack
sunflowerjade:templar:mhayabusa@canada.com:1977-01-11:CA:F:none:Jadey Nguyen
sunflowerjade8:daisyjadeamber88::2002-07-04::F:124.148.74.44:NULL
sunflowerjadeamber88:sunflowerjade88::2002-7-4:AU:F:124.148.53.19:Jade
sunflowerjane:daisy123::1999-07-26:US:F:98.208.16.63:Daisy
sunflowerjayne:sunny334:emmat@cox.net:1983-11-10:US:F:none:Emma Thurston
sunflowerjazz:!december!:rachel@stringham-family.org:1989-06-16:US:F:none:BandNerd
sunflowerjelly:rupert:flitter_flutterby@hotmail.com:1990-02-03::F:none:Emma McelD
sunflowerjen:morty73:sunflower_80909@yahoo.com:1973-09-10:US:F:75.133.81.24:jennifer house
sunflowerjen_2001:tattoolady:sunflowerjen_2001@hotmail.com:1985-09-19:CA:F:64.231.122.4:Jen  Smith
sunflowerjeong:00dbwjd:pinkleafves@hanmail.net:1974-08-22:US:F:none:유정 한
sunflowerjes1234:milky:newcutjes@yahoo.com:1991-11-06:US:F:none:crystal pitts
sunflowerjes12345:milky123::1992-11-09:US:F:none:crystal dionne
sunflowerjesmom:butterfinger:newcutjes@yahoo.com:1992-06-25:US:F:none:crystal dionne
sunflowerjess:10174043::1993-08-27:US:F:none:sunflowerjess
sunflowerjj:hundundkatz33:ulli.zille@web.de:1993-09-26:DE:F:78.54.36.22:Ulrike
sunflowerjkag:sunflowerjkag12:ravenouss11@gmail.com:1971-09-14:SG:F:203.124.2.26:khirs wong
sunflowerjones1234:10pvsa::1996-02-19:US:F:65.186.78.240:Phoebe
sunflowerjoy:42crows:gracieinc@aol.com:1951-07-01:US:F:none:Daisy White
sunflowerjoysh:babyjoy12:sheilamcgee6622@yahoo.com:1989-11-19:US:F:69.171.171.93:joy
SunflowerJune:sandsunny12::2001-10-13:US:M:76.201.3.140:NULL
sunflowerk8:scarlit4:katierose9@msn.com:1991-09-28:GB:F:none:katie roses
sunflowerkarina:karina11::1999-06-08::F:75.83.28.183:NULL
sunflowerkat:keyboard:sunflower_girl_87@hotmail.com:1986-04-29:AU:F:none:Katrina Hardy
sunflowerkayla:62711028::2001-09-08:US:F:76.126.204.88:kayla
sunflowerkichenglove:horsey2:bluebananapie@hotmail.com:1988-04-17:US:F:70.117.17.252:Sammy Brown
sunflowerkid:sunny::1993-12-08:US:F:none:none
sunflowerkid12:sunflower:mycatang@yahoo.com:1984-11-26:US:F:none:Ashley Roberts
sunflowerkid2:v1v1enne:les.sunflowers@tesco.net:1957-06-28:GB:M:94.1.34.188:Les Coleman
sunflowerkid55:ilcad7idkwe7::1990-09-18:US:F:74.128.102.6:none
sunflowerkimberly:20202020:sunflowerkimberly@hotmail.com:1974-08-23:US:F:24.210.88.35:Kim Jester
sunflowerkis:sunflower::1986-07-25:US:F:75.80.201.85:Midnight Madness
sunflowerkiss:bans95:mikabookitty@aim.com:1991-06-17:US:F:none:Natalie Shwartz
sunflowerkiss08:464782:sunflowerkiss08@yahoo.com:1989-11-24:US:F:none:Marisol Duarte
sunflowerkiss10:cancer06:ur1illusi0n@gmail.com:1988-07-22:US:F:98.242.149.81:Crystal
sunflowerkiss123_:marissa123:chloehanna2003@yahoo.com:1977-01-07:US:F:74.75.33.215:marissa
sunflowerkiss9462:bubble::1993-05-17:AU:F:none:sunflowerkiss9462
sunflowerkissed:AREHDYREU54645:barbarawhitford@fsmail.net:1993-05-02:GB3:F:none:rachel iamnottelling
sunflowerkisses:dance::1991-12-14:US:F:none:none
sunflowerkisses101:sawyer8:abbarae22@yahoo.com:1990-05-08:US:F:none:natalie ardifeild
sunflowerkisses11:BONNIE:sunflowerkisses7@aol.com:1982-07-28:US:F:none:sunflower  kisses
sunflowerkisses35:731173:sunflowerkisses@triad.rr.com:1969-01-07:US:F:Can I be your NeoFriend?:Laura Gardner
sunflowerkisseslove:auntbrandi44::1997-05-11:US:F:76.172.224.223:Maddie
sunflowerkissesxx:spice:bballchica85@hotmail.com:1983-06-04:CA:F:none:a;dlsjf ;sldjg
sunflowerkisses_79:brooke:amanda_jereb@yahoo.com:1979-12-21:US:F:none:Amanda Jereb
sunflowerkissses35:731173:lavenderrainstorm@yahoo.com:1969-01-07:US:F:none:Laura Gardner
sunflowerkit:isisisis33:animalqueen@mindspring.com:1989-01-01:TG:M:71.247.207.128:devil
sunflowerkitten:kitkat:waterfaerietabby@yahoo.com:1990-03-24:US:F:Mail from footballchic4401:Colorful Kitten
sunflowerkittens:54321a:charliesacct@yahoo.com:1990-10-07:US:F:66.211.206.76:erica
sunflowerkitty:trinity85:gayathrikrishnanb@gmail.com:1985-02-09:AE:F:195.229.237.37:Sunflower
sunflowerkitty5:199863::1998-06-02:US:F:24.115.38.121:sunflowerkitty5
sunflowerkitty7006:3635407:sparkle_diva_13@hellokitty.com:1991-11-14:VN:F:none:terrie
sunflowerkitty94:ilovedustin94:mollybeth94@netzero.net:1993-01-11:US:F:none:molly begendorf
sunflowerkittys:5522345:sunflowerstarlight@msn.com:1986-10-10:CA:F:none:Wandering Yuki
sunflowerkms:uni123::2001-12-05:US:F:98.196.183.132:NULL
sunflowerkms123:uni123:karen.sandel@sbcglobal.net:1965-02-15:US:F:206.220.40.51:kati
sunflowerkms123_9_9:uni123:karen.sandel@sbcglobal.net:1992-08-03:TO:F:70.231.44.122:kati
sunflowerkookie13_89:abel13:kristie.marsh89@gmail.com:1989-05-13:US:F:98.203.98.17:Kristie
sunflowerkrissi:23422342:sunflowerkrissi82@web.de:1982-10-12:DE:F:none:Kristin Kritisch
sunflowerl122176:john75ammon:jenthefrees@yahoo.com:1976-12-21:US:F:75.162.179.159:Jennifer
sunflowerl1221762:john75ammon:jen@thefrees.com:1976-12-21:US:F:166.70.232.97:Jen
sunflowerlady:happy_16:lisa.mcreynolds@hotmail.co.uk:1995-11-17:GB:F:84.13.201.145:Lisa
sunflowerlady12:redwood23::1998-9-21:US:F:173.63.225.157:Katelin
sunflowerlady216:buttons216:sunflowerlady@rocketmail.com:1989-02-16:US:F:96.32.33.35:Amy
sunflowerlady90:amh1190:sunflowerlady90@aol.com:1989-01-01:US:F:neofriend:Hilarie Sun
sunflowerladybug:emily08::2002-03-30::F:74.235.203.70:NULL
sunflowerlady_12:pretty&pink:sunflowergirlmw@aim.com:1993-08-29:US:F:none:Madison Wilkes
sunflowerlaies:daisygirl97::1997-03-13:US:F:24.231.231.202:emma
sunflowerlamp:banana122417:kaylenhadley@gmail.com:1891-01-01:NZ:F:14.1.66.239:NULL
sunflowerlan:lj4651379:254490742@qq.com:1993-05-02:CN:F:120.42.58.87:sunflowerlan
sunflowerland:dogindiapers00:hamsteroolical@hotmail.com:1990-12-25:SG:M:220.255.2.127:Sulu
sunflowerlass:sunflower:mariaf2711@yahoo.co.uk:1976-07-07:GB:F:none:maria forrester
sunflowerlass16:SASHA16:consolini_5@hotmail.com:1992-01-16:US:F:71.88.55.154:Slim Shady
sunflowerlemon:paulywally11:cricket06@tmail.com:1992-12-09:US:F:72.153.182.174:toriuh
sunflowerlemonmint:weiwei123:huach@yahoo.com:1971-05-12:SG:F:none:lemon mint
sunflowerlili:scarlettr20::2002-09-23:GB:F:79.75.217.188:NULL
sunflowerliliac:soccer1633:stephanmiker@aol.com:1995-08-30:US:F:205.188.117.65:Samantha
sunflowerlilly56:1122334455::1998-11-08:US:F:24.131.201.237:becky
sunflowerlillypad:abbeym12::2000-1-11:US:F:71.80.28.69:abbey
sunflowerlily00:roxanne08:sblack@bgnet.bgsu.edu:1986-05-11:US:F:none:Sarah Black
sunflowerlily11:199411988::1994-01-19:AU:F:none:sunflowerlily11
sunflowerlily12:199411988::1993-01-19:AU:F:none:sunflowerlily12
sunflowerlily18:199411988:lily9star@yahoo.com.au:1988-01-19:AU:F:none:Lucky Star
sunflowerlilyz:marie32587:sunflowerlilyz32587@yahoo.com:1987-03-25:US:F:143.207.8.4:Rachel Coate
sunflowerlime:351chica::1993-08-15:US:F:none:sunflowerlime
sunflowerlime96:sabrina_honeypooh:sabtab@aol.com:1989-03-20:US:F:71.231.124.191:kioshi oao
sunflowerlion:lion44:foltztown@aol.com:1964-01-08::M:173.74.126.245:NULL
sunflowerlittle:blue#175:allison_janho@yahoo.com:1993-07-14:US:F:72.148.211.190:shelly
sunflowerlittlefoot:july25:kendallamcquery@msn.com:1992-07-09:US:F:24.113.226.173:kenni
sunflowerlittle_aa:blue#175:a_janho@yahoo.com:1991-03-14:US:F:65.81.22.151:shelly
sunflowerlittle__aa:blue#175:a_janho@yahoo.com:1992-06-07:US:F:72.148.211.190:shelly
sunflowerliz:sarau:elizmbrg@aol.com:1957-12-25:US:F:Can I be your NeoFriend?:Liz Jenkins
sunflowerlocomotive:nothing42:mudlin@gmail.com:1995-04-30:US:F:24.136.174.100:Fernando
sunflowerloft:2512jctop:limecovenant@gmail.com:1975-04-25:AU:F:218.186.10.12:SherryCheung
sunflowerlove:december:misstazz1230@hotmail.com:1985-12-30:US:F:none:Tameka Washington
sunflowerlove12:orange12:nycuite737@aol.com:1992-09-25:US:F:none:kaity smallacombe
sunflowerlove14:kozmo130!:laurenelaine14@gmail.com:1990-01-30:US:F:64.126.177.14:Lauren
sunflowerlove34:pupluv12:fluffydogpup@aol.com:1995-01-01:US:F:173.71.125.187:Dani
sunflowerlove626_9:moonlightlove626_9::1999-10-04:US:F:75.35.92.160:elia
sunflowerlove666:sandra666:Greenlollypop1@aol.com:1989-01-05:US:F:72.67.114.205:Daisy
sunflowerlove6666:choch20:goodtimez.janet@rock.com:1988-11-17:US:F:209.234.252.28:janet
sunflowerlove669:miracle13:lofelife88@rock.com:1988-11-17:US:F:130.156.129.254:Janet
sunflowerloveaka:jasona1234::1999-10-20:US:F:24.191.94.49:cindy
sunflowerlovely27:3062439::1997-04-26:US:F:64.126.113.144:Carleigh
sunflowerlover:me123::1994-03-07:US:F:none:sunflowerlover
sunflowerlover101:bluejay::1992-06-24:US:F:none:sunflowerlover101
sunflowerlover1011:401504:harlee.rules@yahoo.com:1990-05-02:US:F:71.3.202.134:Harlee
sunflowerlover112:roya7:iwanabpoo2@yahoo.com:1992-01-12:US:F:none:roya sohail
sunflowerlover21:110153:mehoovy13@aim.com:1991-08-04:US:F:71.240.87.160:chelsea dodd
sunflowerlover224:8280522::1994-01-22:US:F:none:sunflowerlover224
sunflowerlover36:platypus::1993-05-09:US:F:none:sunflowerlover36
sunflowerlover567:sunflower12:sunnyflower@sunflowerlovers.com:1992-11-24:EH:F:64.83.209.84:Anita
sunflowerlover789:cocopuff12345::1996-07-28:US:F:70.210.167.4:Lea
sunflowerlovers:bunny12::1998-09-12:US:F:98.248.180.9:vicky
sunflowerlover_90kim:katelyn2217:kimorel90@yahoo.ca:1990-05-24:CA:F:76.67.189.209:NULL
sunflowerlover_xox:remax:xox_sunflowerlover_xox@yahoo.com:1979-01-27:US:F:none:Sun Flower
SunflowerLovin:Ivioonie26:tad0626@aol.com:1988-06-25:US:M:99.20.212.241:NULL
sunflowerlu:830331:ureachyplu@gmail.com:1983-03-31:CN:F:none:lu yp
sunflowerlupe94:smurphy:lgamom@aol.com:1986-05-04:US:F:none:Libby Aiken
sunflowerlust:lilliannova23:SunFlowerLust@aim.com:1989-09-05:US:F:71.59.197.85:Katie Jean
sunflowerluver:huskygirl289::2001-11-11:US:F:64.74.213.17:chelsea
sunflowerly:mannu1:maddiecathy@hot.ee:1988-12-21:EE:F:none:maarja kuiv
sunflowermacy:buttercup54::2002-10-14:GB:F:81.154.64.254:macy
sunflowermad:windows95:blue_sky7781@yahoo.com.tw:1988-08-31:TW:F:203.75.232.164:古 軒月
sunflowermae:fredd33:peacelovetaxi@yahoo.com:1990-07-24:US:F:68.204.13.11:Mandi
sunflowermage:angelina101:black_mage_vivi@hotmail.co.uk:1988-10-03:GB:M:95.144.120.64:jayson
sunflowermagic:monica12:yeseniacarmensilva94@yahoo.com:1993-09-11:US:F:69.235.152.235:Yesenia
sunflowermagic1313:id900545444:christina.sherman1991@gmail.com:1991-03-14:US:F:76.172.212.208:Christina
sunflowermagicstar:yeseniasilva91194:s.kevyn@yahoo.com:1994-09-11:US:F:76.171.177.203:Yesenia
sunflowermagicstar01:luvjesse00:s.kevyn@yahoo.com:1994-09-11:US:F:76.214.7.19:Yesenia
sunflowermaid:sep1984:snowangel15600@yahoo.com:1984-09-07:US:F:none:Christina Strock
sunflowermaiden:2walk4:vnus@earthlink.net:1963-07-26:US:F:none:Suzanne Fisher
sunflowermama:vnhr75:sunflowermama@gmail.com:1973-08-20:US:F:none:Tracey W
sunflowermama11::::::76.233.168.172:NULL
sunflowermango86:sneptune:mmeananas@msn.com:1986-04-15:AQ:F:none:Holly Davison
sunflowermania:math987654321:joyb1@cbemail.ca:1993-03-24:CA:F:none:Amelia Bennet
sunflowermanifique:johnlee79:alee.1979@hotmail.com:1979-05-14:CA:F:142.68.219.90:NULL
sunflowermargerine:mrhankey1:amy.hubbard@gmail.com:1984-07-10:GB:F:none:Amy Hubbard
sunflowermaroo:sunflower:laurenvpayne@juno.com:1991-06-15:US:F:209.74.35.109:Lauren Payne
sunflowermaster:abudhabi10::1997-09-18:US:M:24.205.199.228:Christopher
sunflowermaster11:abudhabi1997:pyro.magma@yahoo.com:1990-09-18::M:216.222.72.150:NULL
sunflowermaster12:abudhabi1997:pyro.magma@yahoo.com:1991-09-18:US:M:216.222.72.214:chris
sunflowermedow:LG159753:OMGjaimie@hotmail.com:1994-03-31:AU:F:122.108.215.147:Jaimie
sunflowermeg9:kml123::1997-10-11:US:F:76.189.215.27:Megan
sunflowermellow:samuel221::1999-11-22:GB:F:81.109.92.27:caitlin
sunflowermelody:little1:allieoop76@yahoo.com:1958-02-22:US:F:none:allison omalley
sunflowermg:marlag12:yrkssunflower1970@yahoo.com:1970-02-11:US:F:70.221.193.130:marla
sunflowermhd74:272074:international_goat_07@yahoo.com.vn:1986-04-07:VN:F:118.68.208.243:Huong Duong
sunflowermi:redwings02::2002-11-03:US:F:68.188.165.221:NULL
sunflowermill:bissy1::1993-04-16:US:F:none:sunflowermill
sunflowermimi:333222:sunflowermim@yahoo.com:1988-08-11:TH:F:none:mimi martin
sunflowermini:sunflower85:james_3v17@live.com:1985-11-09::F:114.73.139.42:NULL
sunflowermissy:cole91:splitzwithacatch@aim.com:1990-04-13:US:F:65.2.185.172:Melissa Applebaum
sunflowermom:hellohi10636::1999-12-25:US:F:64.202.127.239:Taylor
sunflowermom11:grizzly02!:amanda.wall84@gmail.com:1984-04-10:US:F:76.233.168.172:NULL
sunflowermomma:bunk22:kysusie2002@yahoo.com:1975-11-06:US:F:none:noway dont know
sunflowermon10:zachsmith95:zjames95@rocketmail.com:1992-09-12:US:M:70.178.68.123:Zach
sunflowermonkey:likemike:dragqueen007@yahoo.com:1990-11-23:US:F:none:Princess Peach
sunflowermonkey123:monkeymom3:icecreamkitty@sbcglobal.net:1988-05-23:US:F:none:moo moo
sunflowermonster:271095:eugene95_4@hotmail.com:1995-10-27:SG:M:220.255.7.192:Eugene
sunflowermoo:197524:sunflower932@gmail.com:1975-07-24:MY:F:118.101.158.84:moo
sunflowermoon:warthog:naesomb@aol.com:1969-03-08:US:F:none:Penny Bowden
sunflowermoon1fan:hotstuff:sunflowermoon@net.com:1989-12-20:US:F:none:Lola Romanowski
sunflowermoonchild:classof11:danni10a@gmail.com:1994-03-08:US:F:70.132.20.199:asha
sunflowermoonstar:f8nze:darkspiderfg15@aol.com:1987-08-18:US:F:none:Margaret P
sunflowermorninglory:my_pets_::1993-01-02:US:F:none:Ullneverpullitfromee likeuwant2know
sunflowermother:dannylove22:samanthaH03303@yahoo.com:1990-03-14:US:F:72.192.120.108:samantha
sunflowermph:darklovemph1197::1995-11-07:US:F:189.143.212.191:melanie
sunflowermummy:chestnut:brian@hallworthf.freeserve.co.uk:1958-03-03:GB:F:none:Kath Hallworth
sunflowermuncher:yell0:sasammra@connect.carleton.ca:1992-10-20:CA:F:64.230.107.182:samaya bingo
sunflowermybaby:fluffy::1992-12-10:US:M:none:sunflowermybaby
sunflowermybut:MILKY1:ctb_rox@hotmail.com:1992-01-27:CA:F:none:Nom Nomy
sunflowernatty:punk90:distillers101@hotmail.com:1988-09-10:CA:F:none:Nata zeft
sunflowernaynay:bottsy:sunflowernaynay@aol.com:1975-04-04:US:F:none:genee perkins
sunflowerncows:debbie59:deboelrich@yahoo.com:1959-08-14:US:F:12.217.253.209:Deb O
sunflowerneptune:13peaches!:sunflowers_r_mint@hotmail.com:1993-03-27:BB:F:72.51.113.172:Allie
sunflowernerd:cameltoe22:sandy_tran_st@yahoo.com:1995-01-27:US:F:70.231.254.130:NULL
sunflowerniamh:niamh11::2002-10-25:GB:F:81.104.156.4:Niamh
sunflowernoah:noahviolette13::1999-06-06:US:M:71.76.61.81:noah
sunflowernova:songalia:tantantiniw@yahoo.com:1983-07-09:PH:F:none:Jennifer Constantino
sunflowernut:dink7964:conniea@ksdot.org:1969-02-24:US:F:24.255.167.223:Connie Anguish
sunflowernuts:jelly89:cottonfruits@yahoo.com:1989-08-24:US:F:206.255.185.199:Miss  Sunflower
sunflowero:qwerty33::1997-09-23:AU:F:202.72.152.241:Izzy
sunflowero44:taylor44:Meggi0777@gmail.com:1995-01-10:US:F:71.139.156.79:Megan
sunflowerofspain:sabg79line81bmx:guylainesabourin@hotmail.com:1979-08-13:CA:F:70.51.10.74:Guylaine
sunfloweroil:cheetah11:purofpur@hotmail.com:1983-06-30:CA:F:none:jubjub blub Glug
sunfloweroil08:moonlight123:arianeyani@gmail.com:1996-11-08:PH:F:112.201.179.33:Sunflower
sunfloweroil117:stacey121:smuz4eva@yahoo.co.uk:1947-07-11:GB:F:89.243.173.145:lily flora
sunflowerolimpia:olimpiashelby:lucky_angel_65442@yahoo.com:1991-08-05:US:F:none:Anna Smith
sunflowerolivia:oli2233::2001-10-31:US:F:67.8.27.73:olivia
sunflowerolympiashel:olympiashelby::2005-01-01:US:F:none:Mary smith
sunflowerorflowl:lilmzlolipop12:sunflowerorflow@gmail.com:1994-05-13:US:F:71.225.139.178:alyza
sunfloweroses:rubajuba@#!:rubanajjar@yahoo.com:1991-08-22:US:F:none:Lavenders Scented
sunflowerowl:seaowl10:tiedyetigger@yahoo.com:1994-05-20:US:F:75.66.195.241:danielle
sunflowero_o:daisy12::2001-05-12:US:F:99.158.53.171:Daisy
sunflowerpagan:gravy130:pnkrkpagan@yahoo.com:1975-06-05:US:F:65.31.5.106:JoAnn
sunflowerpal94:iluvmii::1993-09-08:US:F:none:sunflowerpal94
sunflowerpanda:elephant10:CarolineAmelia2011@gmail.com:1992-11-23:US:F:96.35.236.149:Caroline
sunflowerparis:sep174805:spotter.7980@gmail.com:1984-09-17:US:F:96.233.133.31:Samantha
sunflowerpat:kittens26::2000-09-26::F:174.49.103.65:NULL
sunflowerpatch:issabel10::1998-08-05:AU:F:122.53.204.97:adrianne
sunflowerpatch25:amanda25d00::2000-01-25:US:F:66.41.174.215:amanda
sunflowerpatch_gwen_:coati:sunflowerpatch@bellsouth.net:1955-12-04:US:F:none:gwen workman
sunflowerpath:htgirl:aqwong91@yahoo.com:1988-02-02:US:F:none:Cacie
sunflowerpaths:112844A:cajunbait@hotmail.com:1995-04-17:US:F:199.101.36.206:Holly
sunflowerpaws:Cyemelh@r:romanceandrama@gmail.com:1988-12-01:US:F:none:kitty paws
sunflowerpeacechild:TaylorSwift13:Mmmtattertots@aim.com:1991-01-01:US:F:98.114.136.83:Taylor
sunflowerpeach_34:peaches35:tan_wanning@yahoo.com.sg:1993-05-02:SG:F:none:tan wanning
sunflowerpeak:sunflowerpeak96:hulkstert7@aol.com:1992-04-30:US:F:207.7.185.17:penlo
sunflowerpeanut:canoesrule::1993-06-13:US:F:none:sunflowerpeanut
sunflowerpebbles:elegant84:huinitan@hotmail.com:1993-06-05:SG:F:220.255.1.25:NULL
sunflowerpetal:dancing4life13:sunflowerpetal@live.com:1989-02-28:US:F:65.125.211.225:Zoe
sunflowerpetal1974:casayda3:buffalobutt1@sbcglobal.net:1974-10-23:US:F:none:jenny kipp
sunflowerpetals:jeremy1967:lambman2@nb.sympatico.ca:1967-10-29:CA:F:206.220.40.50:Debra M
sunflowerpetalz:lizzie:sheybey002@yahoo.com:1988-02-24:US:F:none:ShellyXD
sunflowerphoto:notdrew:sunflowerphoto@stargate.net:1981-01-09:US:F:none:Elsa Engel
sunflowerpic:neop10::1998-09-17::F:95.80.133.228:NULL
sunflowerpink:@07Molli05Kessi04%:pinkpunkratte@vorsicht-bissig.de:1989-06-07:DE:F:178.9.208.53:i have no name
sunflowerpink00:cindy1::1994-09-01:US:F:75.38.12.5:sunflowerpink00
sunflowerpink12:cindy00:shahmah05@sbcglobal.net:1994-09-01:US:F:75.44.190.140:Cindy
sunflowerpink2blue:AQUAROSEQUEEN11::1998-09-05:US:F:64.252.208.232:NULL
sunflowerpip:Sylboa91:shadowmyth1@googlemail.com:1991-12-5:GB:F:92.10.85.83:Lauren
sunflowerpixie:215956::2001-05-14:US:F:68.189.222.36:Davin
sunflowerplayer555:277177:sunflowerplayer555@yahoo.com.hk:1905-11-24:HK:F:none:yuen shan fung
SunflowerPlush:Walleye123:Yuni_Moonlight@hotmail.com:1990-10-02:US:F:98.223.0.183:NULL
sunflowerpo123:harry12::1993-05-26:AE:F:61.1.253.136:ambika hari
sunflowerpony:dumpstertrash::1992-04-25:CA:F:none:sunflowerpony
sunflowerpooh:Olliegirl::1993-04-19:GE:F:none:sunflowerpooh
sunflowerpopstar:evelyn3::1993-11-03:US:F:none:none
SunFlowerPot:sidekick21::1999-06-17::F:76.200.130.131:NULL
sunflowerpot17:qwerty1234:swampyboots@hotmail.com:1996-10-17:SG:F:202.156.14.97:NULL
sunflowerpower:ruby4:roxamary@aol.com:1992-05-17:US:F:none:lilylip shoobaloo
sunflowerpower000:jeremy1:sportschica1991@aol.com:1991-05-03:US:F:none:megan lawson
sunflowerpower09:greenfrog05::2000-06-06:US:F:67.48.225.84:kylie
sunflowerpower1:girlpower08::2001-08-17:US:F:98.19.128.217:Jasmine
SunFlowerPower123:ngahle12::1999-02-27:US:F:173.60.125.115:NULL
sunflowerpower270:power:gigglegirl1990@comcast.net:1986-10-02:US:F:none:lolo spock
sunflowerpower818:tyler1:coolhipdog@aol.com:1991-08-18:US:F:none:Laura tuffnell
sunflowerpower87:soccerkicks:girl_6_wazhere@hotmail.com:1987-09-29:CA:F:74.110.158.89:Tara Rowan
sunflowerpowergirl:seed+s:bowserf@yahoo.com:1988-02-10:US:F:none:Katie Kitty
sunflowerpower_1:Clover:askfionalai@hotmail.com:1990-03-03:CA:F:none:Fiona Lai
sunflowerpowr:tinkerbell74:lindsay74@comcast.net:1992-08-08:US:F:76.24.128.230:lindsay
sunflowerprinces:bluelagoon:alanna_pollock@hotmail.com:1985-06-02:CA:F:70.77.113.99:alanna p
sunflowerprincess10:powerpuff765:princesskassy@yahoo.com:1993-02-11:US:F:69.115.236.178:Kassidy
sunflowerprincess155:mistyshel::1993-11-11:US:F:none:sunflowerprincess155
sunflowerprincess199:whatever:sunflowerprincess92@msn.com:1986-03-31:US:F:none:Justine Henderson
sunflowerprincess22:BUBBLES92:cestlavie92@msn.net:1992-08-12:US:F:98.252.16.19:kAY
sunflowerprincess407:sun@#:sunqueen236@msn.com:1992-03-20:US:F:none:Ashley James
sunflowerprincess617:gemini101:princessashley617@yahoo.com:1993-06-17:US:F:none:Princess Ashley
sunflowerprincss:NICOLE01:sunflowerprincss@yahoo.com:1984-12-20:US:F:none:Jamie Dark
sunflowerpris:235160:cilla17p@yahoo.com:1982-01-06:US:F:none:nadine luna
sunflowerpup:puppylover10::1998-11-06:US:F:74.111.7.126:hailee
sunflowerpurple12:honeydew25::1998-06-17::F:69.171.162.117:NULL
sunflowerpurrfect:sunnydays12:perfect_paige85@hotmail.com:1992-06-10:CA:F:none:Paige McClure
sunflowerpwincess:cherry25:Dinosaur25rawrrr@yahoo.com:1994-09-25:US:F:65.33.77.79:Jazmin
sunflowerqq:flower123:rpsunflower1@aol.com:1984-01-12:US:F:75.249.116.116:sally
sunflowerqueen:nzwmy0515:f_flower@hotmail.com:1978-05-15:CA:F:72.39.106.114:Christy DeBlaere
sunflowerqueen06:people::1993-10-22:VI:F:Mail from theneopetsteam:sunflowerqueen06
sunflowerqueen200:leahfouchard01:littletinydancerx3@hotmail.com:1993-12-21:CA:F:65.92.113.151:NULL
sunflowerqueen3:aprillynn:aprilflowers1990@yahoo.com:1990-04-24:US:F:none:april tye
sunflowerqueen629:loveme12:darkangelloveyou629@yahoo.com:1995-06-29:US:F:76.189.40.147:Ariel
sunflowerqueen_5:eatmorechicken11:cemckinney@cn.edu:1989-11-13:US:F:76.122.201.106:courtney
sunflowerquests:19questies9036:sunflowersinyourroom@hotmail.com:1990-05-18:US:F:173.48.120.118:Aly
sunflowerr:yellow12:joriandjanice@shaw.ca:1990-11-25:CA:F:24.108.83.184:Jori
sunflowerr0892:colbert0892:theatreblonde0892@ymail.com:1992-12-08:US:F:75.31.200.30:Sunflower
sunflowerr123:070665::1993-11-04:US:F:none:sunflowerr123
sunflowerr128:deven::1993-07-30:US:F:none:sunflowerr128
sunflowerr22:mavrick22:hannanfan22@sbcglobal.net:1990-07-29:US:F:66.167.206.176:Jennifer
sunflowerr55:tasya::1994-02-14:MY:F:none:sunflowerr55
sunflowerrabbit101:passion::1997-07-28:CA:F:none:none
sunflowerrachel:catdog::1993-07-27:US:F:none:none
sunflowerradio:weirdgirl11:fish_and_spruce@yahoo.com:1991-08-18:US:F:98.26.94.147:Sarah
sunflowerrain12:rainsunflower12::2000-09-15:US:F:24.73.9.93:Alana
sunflowerrainbow:*sun*:ginawall2010@yahoo.com:1987-06-02:IT:F:none:tina  call
sunflowerrainbow123:fuckyou!:i_saw_me_first@hotmail.com:1986-10-10:CA:F:none:charlotte waterson
sunflowerrainbows:rainbowrainbow108::1997-11-03:US:F:68.173.214.237:carolina
sunflowerray:snoopy67:simplyambar@hotmail.com:1992-11-02:GB:F:72.196.234.120:Amber
sunflowerriple:wave24::2001-07-31::F:98.255.202.35:NULL
sunflowerrise:tweetybird::1989-05-26:CA:F:none:Šåñdrå
sunflowerrocks:kitty4772:rainbowfish25@yahoo.com:1989-07-04:US:F:none:tiffany crane
sunflowerrock_mm:purple33::1995-11-03:US:F:75.117.72.96:sunflowerrock_mm
sunflowerromance:iloveyou78::2002-12-20:US:F:12.75.80.46:NULL
sunflowerrosa:23320505::2002-04-27:US:F:68.204.192.161:linda
sunflowerrose:danielle1:danielleepaz@aim.com:1991-11-13:US:F:none:Danielle Paz
sunflowerroseblossom:kookoo2006:toffeeandmia@yahoo.com:1988-12-09:GB:F:none:Annelise Blossom
sunflowerrosehreat:7894561::2002-08-28::F:70.120.72.16:NULL
sunflowerrosetears:poohbear:kmallen@msn.com:1968-06-05:US:F:neofriend:KATRINA  OLSHASKIE
sunflowerrosie:gingerlove18:akohrell@verizon.net:1993-05-18:US:F:70.106.186.9:Avery
SunflowerRox123:nath2912:njnfluppy@gmail.com:1993-01-02::F:218.186.11.231:NULL
sunflowerrr17:yellow17:zenascal@gmail.com:1989-10-25:US:F:75.20.190.93:zena
sunflowerrrr:paper12::1997-12-13:US:F:76.17.215.3:yo
sunflowerrrs:j1onathan1:jhohanakim@gmail.com:1991-06-10:US:F:174.77.63.175:NULL
Sunflowerrr_00:dodaledo12:blackngold1834@gmail.com:1991-08-07:US:F:67.160.151.15:NULL
sunflowerrstarr:starr419:sunflowerstarr@mchsi.com:1982-04-19:US:F:66.253.208.179:Weikel Jessica
sunflowerrules101:tracker02:lannk7@aol.com:1986-11-09:US:F:none:amanda dangelo
SunflowerRX1:kb80vm22::2003-8-20:US:F:74.79.244.119:Riley
sunflowers0:Lavender65:jjeess_iiccaa@hotmail.com:1992-6-13:GB:F:90.193.109.63:Jess
Sunflowers002:vancouver002:carisma2@hotmail.com:1990-3-30:CA:F:207.6.231.181:JenCarisma
sunflowers004:bluepluto22:es510892@gmail.com:1995-1-1:US:F:205.188.117.11:bryce 
sunflowers007:chillywilly:saracruzer@comcast.net:1975-04-23:US:F:Mail from far_bear98:sara bowden
sunflowers01:Kimi5464:biena@live.de:1989-07-06:DE:F:87.189.212.21:Sunny
Sunflowers02:enhui171:milkkpearltea@hotmail.com:1993-10-22:SG:F:220.255.1.98:NULL
sunflowers0224:chipmunk11734::2001-10-13::F:173.68.189.82:NULL
sunflowers03:pink03::2003-02-16:US:F:72.28.22.180:Ashley
sunflowers04:sunny04:ashbargate@gmail.com:1994-11-04:ZA:F:196.35.158.181:ashleigh
sunflowers0429:howell24::2000-04-29::F:69.242.243.103:NULL
sunflowers05:smile::1992-03-22:US:F:none:sunflowers05
sunflowers08:pat101:fallsdowndastairs@yahoo.com:1985-07-04:US:F:64.178.115.38:Paigeyy
sunflowers080400__65:coolgirl6878::2001-08-04:US:F:71.138.141.172:NULL
sunflowers099:aqua99::1999-05-10:US:F:66.229.119.51:Cherish
sunflowers10:splash07:caswimmergal@yahoo.com:1990-01-01:US:F:64.12.116.208:Jordan Trujillo
sunflowers100000:bluez29::1994-04-28:US:F:none:sunflowers100000
sunflowers101:sunny:tweetybird2514@hotmail.com:1990-08-05:US:F:none:lacy moore
sunflowers1057:benjamin10:sunflower1057@yahoo.com:1991-09-23:US:F:174.16.125.166:Kelley
sunflowers12:steelers:amycope12@yahoo.com:1969-12-08:US:F:none:amy Copeland
sunflowers1220:cookie12:jgmbnelson@rogers.com:1958-12-20:CA:F:99.227.248.15:Gail
sunflowers1234:powerpuffgirls::1993-11-02:CA:F:none:none
sunflowers123409:sunnyday11:hotpockets46@aol.com:1995-02-14::F:69.206.153.127:NULL
sunflowers12345:12389::1994-08-18:US:F:none:sunflowers12345
sunflowers123a:29634a:a2546jen@yahoo.com:1993-11-01:US:M:71.128.195.134:kenny
sunflowers123__33:mtsu134:Bdav21@comcast.net:1987-12-22:US:F:209.234.252.28:Ally
sunflowers131:jeffery*::1993-06-17:CA:F:none:sunflowers131
sunflowers13131:jeffery*::1993-06-10:CA:F:none:sunflowers13131
sunflowers1357:familyfun1357::2001-2-10:US:F:76.94.125.233:Elizabeth
sunflowers14:13048:mennekku@adelphia.net:1988-04-14:US:F:96.25.253.36:RondaD
sunflowers15:teng123:tengfengping_sunflowers@hotmail.com:1991-01-11:SG:F:none:sunny flower
sunflowers150:fifi51:reliantk1331@aol.com:1994-03-10:US:F:72.241.94.107:fifi
sunflowers18:luvinu:snowpuppies@hanmail.net:1990-07-18:US:F:none:Gabrielle
sunflowers186:newyear12:sun.shine.s@hotmail.com:1991-06-28:JP:F:24.141.156.99:Ayumi
sunflowers19:lauben:glitter_star_24@hotmail.com:1988-02-25:AU:F:none:laura kukulovski
sunflowers190:babydoll90:brittduh@gmail.com:1990-01-01:US:F:72.203.163.188:NULL
sunflowers1986:sunflowe86:brittneyjune@mchsi.com:1984-05-11:US:F:none:brit june
sunflowers1992:princess1992:shimmeringdots92@yahoo.com:1992-12-16:US:F:none:Elizabeth Oquendo
sunflowers19940124:del33mau:delphine24@cgocable.ca:1990-01-24:CA:F:none:Delphine Belhumeur
sunflowers2001:lavendar2001::2001-12-29:US:F:24.17.75.6:elise
sunflowers2002:judyflower2002:sunflowers452002@yahoo.com:1953-07-18:US:F:71.154.253.212:Judy
sunflowers2005:olemiss:acumbest@yahoo.com:1982-12-26:US:F:none:Amber Johnson
sunflowers203:movewiththesun201:cloudydays101@gmail.com:1994-02-08:ML:F:124.187.182.1:Sunny
sunflowers21:littlegirl30::2000-6-18:US:F:75.146.253.253:Sydney
sunflowers219:dom219667200:sunflowers21966@yahoo.com:1993-07-09:US:F:24.119.243.64:sunflowers219
sunflowers219_aa:dom219:sunflowers4me@att.net:1993-07-09:US:F:208.191.142.2:Dominique
sunflowers219__aa:dom219:sunflowers4me@att.net:1987-07-09:US:F:65.65.225.107:Dominique
sunflowers222:butterfly333::2004-07-27:US:F:24.34.107.7:NULL
sunflowers2223:tonytonytony22:jennalutz2223@yahoo.com:1995-06-02:US:F:24.63.102.225:NULL
sunflowers2277:7722eg::1990-11-16:US:F:Mail from gobble_gobble39:none
sunflowers235:bubbles99:suzanne_jon@hotmail.com:1980-11-15:CA:F:207.47.170.61:NULL
sunflowers23601:zebras456::2000-03-20:US:F:173.89.201.57:NULL
sunflowers2424:119933e:sun_flower2424@hotmail.com:1986-06-20:CA:F:64.230.117.109:Em Austien
sunflowers25:dakoda545::1997-10-02:CA:F:70.74.89.241:Kylee
sunflowers250:tournesols:eugeremix_05@hotmail.com:1992-07-04:AR:M:none:Eugenio Manzo
sunflowers274:star2279643::1991-05-10:JP:F:none:sunflowers274
sunflowers300:14potatoes:ejonas2@gmail.com:1995-10-06::F:64.12.116.67:ellie
sunflowers321:summer86::1996-10-03:US:F:195.54.243.103:Gem
sunflowers3334:froggy555:sunshinesunflower52000@msn.com:1962-08-09:US:F:none:Jo Ann Perez
sunflowers3455:friendsforever::1992-12-18:CA:F:none:sunflowers3455
sunflowers369:::2000-11-02:US:F:67.186.19.122:NULL
sunflowers370:hugging:sunflowers370@yahoo.com:1989-09-29:US:F:none:Shelby
sunflowers39:mark97::1996-09-12:US:F:67.166.220.163:olivia
sunflowers400:smiles400::1999-10-28:US:F:72.148.1.143:alex
sunflowers4001:roberto::1991-12-31:US:F:none:sunflowers4001
sunflowers41:holiday41::1999-12-17:US:F:69.179.135.21:Molly
sunflowers411923:Patrick4:baconluver510@aol.com:1977-06-13:US:F:none:Diane Wertz
sunflowers4499:sunflowers040499::1999-04-04:US:F:98.113.55.88:nuy
sunflowers45:harry45::1998-01-19:GB:F:90.213.183.247:myah
sunflowers4545:starlight2368::2007-03-03::F:69.58.174.43:NULL
sunflowers45_9:chiripa45:andreasdl@onelinkpr.net:1994-06-09:PR:F:70.45.85.184:Andrea
sunflowers46:kitkat46:mackie_kerns@yahoo.com:1998-03-17:US:F:66.163.97.164:NULL
sunflowers467:erin1997::1997-12-2:US:F:72.78.151.131:Erin
sunflowers4eva:blackberry90:cjkkkw@yahoo.com:1992-08-18:US:F:128.171.158.53:i have no name
sunflowers4ever_123:china:hayleykat1234@yahoo.com:1982-11-18:US:F:none:Why do you want to know
sunflowers4me:superman:katie.harris@psgs.net:1984-05-14:US:F:none:katie harris
sunflowers4you:godrocks22::1998-09-12:US:F:65.207.180.2:Brooke
sunflowers4_2_9:cookies123::2002-07-31:US:F:24.3.148.150:NULL
sunflowers50:balto99:sunflowers5073@yahoo.com:1948-07-16:US:F:97.83.82.26:Mo
sunflowers515:myjami:sunflowers515@yahoo.com:1987-05-15:US:F:none:Jami Rice
sunflowers55:spring:hapiypineapple@frontiernet.net:1989-11-30:US:F:Mail from gypsylady2000:logan jones
sunflowers55555:froggy:sunshinesunflower52000@yahoo.com:1962-07-09:US:F:Can I be your NeoFriend?:Jo Ann Perez
sunflowers567:bloom:abcducky890@yahoo.com:1991-05-15:US:F:none:Amber Champ
