strwbrri_mlkshk:sillyme11:luckiiduckii2@netscape.net:1986-05-22:US:F:none:Paige Madison
strwbrrlmeade:1491ab:strwbrrylmeade@aol.com:1991-01-04:US:F:none:Alice Bundy
strwbrrqueen92:hivon:sroldstone@aol.com:1991-12-03:US:F:none:Kelly Olson
strwbrrrystar:starlightstarbright:lightfire1605804@yahoo.com:1990-05-12:US:F:none:Jamie Kime
strwbrry0099:528313:jilliexbilly_91@yahoo.com:1991-04-07:US:F:none:Jillian Zirbel
strwbrry03:l4b4g6:farnaza@live.ca:1994-10-14:CA:F:173.32.28.200:Farnaz
strwbrry04:charms22::1998-06-12:US:F:76.118.158.224:Alexa
strwbrry08:sanrio:strwbrry08@yahoo.com:1989-10-20:US:F:Mail from tashana08:Lacy Teeter
strwbrry101:8kg680:love-me101@hotmail.com:1991-08-23:US:F:none:me forever
strwbrry10181993:60943:little_middle@yahoo.com:1992-10-18:US:F:none:allyssa louviere
strwbrry12:zakbeltz:twinklytoes12@aol.com:1990-12-18:US:F:Mail from dagger_child11:danica bailey
strwbrry123187:truelove47:jgriffin1287@gmail.com:1987-12-31:US:F:74.162.162.141:Jessie
strwbrry144:haydnisa*:charlimarli@hotmail.co.uk:1991-06-03:GB:F:none:Kelsey
strwbrry15:superstar15:asig1e@yahoo.com:1995-01-15:US:F:67.183.59.62:Jenn
strwbrry166:sargash::1992-07-03:US:F:none:sarah swortzel
strwbrry18:teddybear:strwbrrydevil27@aol.com:1983-10-15:US:F:none:Katelyn Patterson
strwbrry1989182:april:strwbrrygrl1989@aol.com:1989-04-17:US:F:none:april gilmore
strwbrry1998:princess!::1998-06-11:US:F:76.118.158.224:strwbrry1998
strwbrry2:1119511195:nicolette--@live.com:1995-11-01:SG:F:220.255.2.152:NULL
strwbrry2010:abby27:blazerbaby92@aim.com:1992-06-27:US:F:none:abigail Rosenberger
strwbrry2227:6810ktdj:garfield@mamafufu.com:1981-03-05:US:F:71.163.49.236:someone someone
strwbrry226:111096::1996-07-05:US:F:68.160.117.205:Gemma
strwbrry27shrtcke:strawberry::1991-11-27:US:F:none:strwbrry27shrtcke
strwbrry2shrtcake:92192010:brianna0303@aol.com:1992-03-03:US:F:174.29.2.248:NULL
strwbrry321:hsoj02:joshael@insightbb.com:1984-04-05:US:F:none:Leah
strwbrry36:rachel36:detchal@aim.com:1993-07-14:US:F:74.128.235.134:Rachel
strwbrry420:pirates123:i_luv_my_bubblz@hotmail.com:1991-12-26:CA:F:70.70.47.157:Michelle
strwbrry4ever24:clod304thee126:xomissxamandaox@aim.com:1990-06-17:US:F:75.67.255.73:Ava
strwbrry4ever25:clod304thee126:xomissxamandaox@aim.com:1990-06-17:US:F:24.91.109.179:Berry
strwbrry4u05:rusty::1993-07-19:US:F:none:strwbrry4u05
strwbrry52888:pinkclown:xxsxykittn88xx@comcast.net:1983-05-28:US:F:none:alex pearn
strwbrry579:stupidslut924:anna_is_a_palindrome@yahoo.com:1985-03-15:US:F:75.128.89.244:Sarah S
strwbrry615:605371:basketballgrl40@hotmail.com:1988-07-31:US:F:none:Sarah  Connolly
strwbrry742:blubrry7:strwbrry7746@hotmail.com:1981-04-23:US:F:none:Straw  Berry
strwbrry794:midnight:midnight_star12345@yahoo.com:1986-07-16:US:F:none:Kristyn Hodges
strwbrry9:purple99::1998-06-11::F:76.118.158.224:NULL
strwbrry93:Stinger12836:cloggin_chick@hotmail.com:1992-11-23:US:F:none:Bethany Anderson
strwbrry94:icarly94:strwbrryfields94@yahoo.com:1994-02-22:US:F:75.83.250.72:Amanda
strwbrry99:bobo22::1998-06-11::F:76.118.158.224:NULL
strwbrryalli:7142202293:caughtredheded@hotmail.com:1989-03-13:US:F:71.9.44.122:Allison Pearson
strwbrryangel1021:penguin:strwbrryangel03@aol.com:1987-10-21:US:F:none:Michelle Cartwright
strwbrryanna:watson09:strwbrryroses@gmail.com:1986-04-16:US:F:206.220.40.50:AJ
strwbrryanngel:ama2nda7:f_ann@hotmail.com:1969-09-07:CA:F:24.215.121.168:ann f
strwbrryarie00:flounder:strwbrryarie00@aol.com:1986-02-14:US:F:none:Arielle Scott
strwbrryarie000:flounder:strwbrryarie@yahoo.com:1986-02-14:US:F:none:Arielle Scott
strwbrrybabe1218:chick:moocow@pclnet.net:1990-12-18:US:F:none:caroline godwin
strwbrrybaby12:cacadecasa::1991-07-15:US:F:none:strwbrrybaby12
strwbrrybaby3792:strawberry:manthaj3@aol.com:1992-03-07:US:F:64.12.116.8:Samantha Hoon
strwbrrybaby420:0nly4ana:young_sara@hotmail.com:1990-08-27:US:F:24.61.6.203:Misha
strwbrrybanana:berrie13:mellie999@aol.com:1988-12-08:US:F:none:Melle Belle
