strydrqt:ello14:cassipfeiffer@hotmail.com:1993-06-10:US:F:70.129.111.2:Hannah
Strydr_Alan:ImStrydrBitch123:strydr.a.silverberg@gmail.com:1993-03-18:US:M:67.190.57.13:NULL
Strydum:13strings:mindpuppet420@gmail.com:1987-4-12:US:M:24.112.53.232:Kellen
strydyr50:my_name:dude_man@dbzmail.com:1991-01-14:US:M:none:b g
strye132:ide60y::2000-09-19:CA:F:24.83.116.237:Tana
stryed:yomama11:davidlovesidk@yahoo.com:1993-06-21:US:M:207.69.137.39:David
stryemy:ohmy11:nowaytay@hotmail.com:1993-08-25:US:F:64.160.201.34:Tay
stryer510:michael510:ulikdudes13@yahoo.com:1989-05-15:US:M:65.96.39.13:Michael
stryer94560:michael510:ulikdudes13@yahoo.com:1989-5-15:US:M:65.96.39.13:Michael
stryer98:strike::1990-07-24:US:M:none:Trevor Bowland
stryer_ryuu:frogs::1992-12-07:US:F:none:stryer_ryuu
stryeyeddrmr:neo15:drmr574@hotmail.com:1990-05-01:US:F:none:ashley hennen
stryeyeddrmr17:ilj909:stryeyeddrmr@hotmail.com:1990-05-01:US:F:24.3.253.5:ashley
stryeyedgrl:4485903:y0_baby_girl@yahoo.com:1982-06-13:US:F:none:Christina Jackson
stryeyes102:nicole85:stryeyes102@yahoo.com:1985-11-20:US:F:76.203.48.5:caitlin hedden
stryeyez:duck75:lilliz75@hotmail.com:1988-07-04:US:F:76.111.160.246:Liz P
stryeyz77:bitch:stryeyz77@yahoo.com:1990-10-01:US:F:none:Korrinna Dunbar
stryezer:junior:digo_santiago@hotmail.com:1989-08-10:BR:M:none:Rodrigo Santiago Silva
strye_richard:114253:r.strye@yahoo.com:1991-08-06:US:M:209.142.149.31:Richard
stryfe:harvestmoon:keilio@hotmail.com:1985-10-08:SG:M:none:Keilio Stryfe
stryfe0504:010504::1993-12-09:PH:M:none:stryfe0504
stryfe07:31z2vz:tophy_tripp@hotmail.com:1992-12-09:PH:M:none:Tophy Palomo
stryfe117:21002400:gafeper117@yahoo.com:1992-05-08:CO:M:none:fernando peña
stryfe123:callie456:bridget_exum@yahoo.com:1993-11-21:US:F:24.197.68.157:bridget
stryfe1986:friends86:apardo1986@yahoo.com:1986-05-05:US:M:24.56.7.116:Alberto
stryfe1987:baldour2:spooksy1987@yahoo.com:1987-09-23:US:M:none:Dan Hill
stryfe23:reine1:adrian_stryfe@yahoo.com:1978-11-17:PH:M:124.83.5.246:Adrian Samson
stryfe2k1:iainlvl39:coltongrey@yahoo.com:1989-07-07:US:M:67.11.179.23:Colton
stryfe313:0313666::1964-03-13:US:M:none:Mykel Parleir
stryfe44:essex:stryfe44@aol.com:1987-03-17:US:M:none:Alex Carrick
stryfe48:d@nger:stryfe_4@excite.com:1981-07-03:US:M:none:Lee B
stryfe5586:friends86:stryfe1986@yahoo.com:1986-05-05:US:M:70.162.119.183:Alberto
stryfe744:shortman:stryfe744@hotmail.com:1990-03-20:US:M:69.14.23.196:Craig L
stryfe86:reyna:stryfe0586@aol.com:1986-05-05:US:M:Mail from multiplayer_setup:Alberto Pardo
stryfe888:l33tch3r:neo_stryfe@hotmail.com:1976-08-09:CA:M:199.166.186.1:M Y
stryfe911:94245637:supetra@hotmail.com:1984-03-13:US:M:none:Ethan  Crap
stryfec0mmand3r:b0ris:yourewierder@yahoo.com:1980-09-30:US:M:none:jack Knight
stryfecable:Karnage36:Stryfecable@aol.com:1991-12-01:US:M:98.141.41.153:Jonathan Woods
stryfechild:12fire12:dangeruslady@hotmail.com:1983-07-28:US:F:none:Yvonne Elison
stryfehg11:mavis11:stryfebier@hotmail.com:1978-12-02:US:M:69.106.133.146:Scott Bier
stryfeing:michigan:stryfeing@hotmail.com:1979-06-01:US:M:none:jim baker
stryfeman13:strife13:fantasystrife@hotmail.com:1993-04-04:US:M:69.110.36.82:Aaren Austria
stryfen:killerclown1:stryfe_ngete@hotmail.com:1979-09-19:US:M:none:Stryfe  Ngete
stryfer:pwxox6n4:fael.muniz@hotmail.com:1992-01-21:BR:M:201.8.161.166:rafel
stryfer816:koolio1:bdkk@shaw.ca:1991-10-27:CA:M:none:devon dudley
stryfestryfe:coldrake:stryfe_stryfe@hotmail.com:1985-06-11:CA:M:none:chris alabado
stryfethe:harvestmoon:keilio@hotmail.com:1986-10-08:SG:M:none:Stryfethe Badaboom
stryfetran:keyblade:hotbodies@www.hotbodies.com:1988-09-05:US:M:none:Michael Tran
stryfexarcadia:Valina:bahamutgawd@hotmail.com:1984-12-02:US:M:none:<b>You</b> : Stupid
stryfe_24:stryfe24:o_stryfe_o@hotmail.com:1982-09-18:CA:M:72.142.4.249:George jeffries
