stryfe_6_6_6:sinner6:jeff2hardy@hotmail.com:1987-09-14:CA:M:none:joel desrosiers
stryfe_blade:redrat12:arsenaljoshua@gmail.com:1978-03-02:HK:M:61.18.210.11:Joshua
stryfe_eternal:19083015:stryfe_eternal@yahoo.com:1981-04-12:US:M:none:Cesar Lopez
stryfe_gryphon:matthew:stryfe_gryphon@yahoo.com.sg:1984-09-23:US:M:none:Stryfe Gryphon
stryfe_khaos:barker1985:furrylegends@yahoo.com:1985-09-15:US:M:68.53.195.126:Alex
stryfe_ngete:killerclown12:stryfe.ngete@gmail.com:1979-09-19:US:M:64.107.3.65:Stryfe
stryfe_oo7:batman:satan_oo7@hotmail.com:1980-04-15:CA:M:none:alex tuck
stryfe_phoenix:sonik77:stryfephoenix@yahoo.com:1991-08-19:US:F:66.227.254.172:Syrie
stryfe_sinai:n7t3a1:Cal121301@aol.com:1990-03-20:US:M:69.14.23.196:Steve
stryfe_style:elaion1_:dak_cloud_stryfe@hotmail.com:1990-11-07:CL:M:201.246.92.204:Stryfe
stryfe_v:hornet77:anthony@vazquez.ms:1987-11-03:US:M:72.144.158.20:anon
stryfi:karo1234:karolinalozano@yahoo.com:1992-07-15:MX:F:189.171.26.5:karolina
stryfle:simpan88:khairunnisa.rahman@gmail.com:1988-12-10:MY:F:218.208.223.241:Khairunnisa
stryfoo:tsunamii1:ladystryfe@gmail.com:1986-12-15:US:F:none:ashley julie
Stryfor:crazy111:deancarcone@hotmail.com:1992-02-11:US:M:173.35.4.33:NULL
stryfrmthestars:pianos1:storyfromthestars@yahoo.com:1988-08-14:US:F:69.225.1.155:Heather Potts
stryfyre:raorr:renegade_warrior_elf@hotmail.com:1991-06-15:CA:M:Can I be your NeoFriend?:Miles Perkins
stryf_wolfheart:urmyqt314:reemastrife@yahoo.com:1993-08-07:US:F:none:Reema Strife
stryf_wolfheart999:urmyqt314:Stryf_Wolfheart@yahoo.com:1980-12-10:US:F:71.235.26.33:Reema
strygalldwir:m355ypup:lemming030@hotmail.com:1981-11-02:GB:M:86.7.170.248:Rob
stryge:ssx972:tristan.tnb@free.fr:1992-02-02:FR:M:82.228.174.133:******* *******
stryges:jessi1310:yornee@hotmail.de:1985-10-13:DE:F:84.72.189.142:Jessi ich
strygge:ing123:dirtysecret@hotmail.fr:1990-02-20:FX:F:86.194.73.117:mariko
stryggestad:234998:gtryggestad@cox.net:1992-01-24:US:M:none:scott tryggestad
strygirl420:igmsarocks:super_star_4_ever89@hotmail.com:1989-03-12:US:F:none:Ashley Stryczek
strygrl:5683sb:shelbyaileen@aol.com:1991-04-04:US:F:71.1.31.198:Shelby
strygurl19067:pepper1:lellowgurl247@aol.com:1989-12-20:US:F:none:Christina  Doan
strygwir:pok3m0n::2000-05-09:PH:M:222.127.121.178:aaron
strygwr:greenday91:Sokrates91@web.de:1991-11-08:DE:M:77.4.176.72:BEN
strygwyr:1234qazw:van_okta@yahoo.co.uk:1985-10-04:ID:M:none:Ivan Oktavian
strygwyr022:87976523132:strygwyr_022@yahoo.com:1993-08-26:PH:M:221.121.106.3:John Carl E. Manalo
strygwyr04:franciz04:forgen.04@gmail.com:1996-10-04:PH:M:121.54.32.109:NULL
strygwyr19:123makemerich123:sheenaliles10@yahoo.com:1989-05-06:PH:M:124.106.191.60:kawatab
strygwyr43231:hannah22:samboy_313@yahoo.com:1991-03-04:PH:M:122.55.188.102:Meow
strygwyr899:vegnagun78:lanzsyd_96@yahoo.com:1989-09-27:PH:M:none:lanz atega
strygwyrblood:4stud1az:deniedRabbit@yahoo.com:1986-12-01:ID:F:125.163.250.1:Rani
strygwyre:moneeb32:goofymoneebjack393@hotmail.com:1988-09-07:CA:M:86.60.8.225:Moneeb
StrygwyrGM:opheras13:pruebaneo1@gmail.com:1992-04-21:CL:F:190.164.140.18:i have no name
strygwyrqq:930601:killo0oyou@hotmail.com:1993-06-01:MY:M:124.13.155.136:QBaByQ
strygwyrs_thirst:warcraft34::1996-01-22:SG:M:220.255.7.202:niu
strygwyr_08:CLYDE08:JEMUEL_08@YAHOO.COM:1993-01-19:PH:M:222.127.228.5:CLYDE
strygwyr_28:2364230:russelsamonte28@yahoo.com:1981-10-04:PH:M:203.87.176.214:Russel
strygwyr_seeker008:dota008:strygwyr_seeker@hotmail.com:1980-12-26:SG:F:none:strygwyr seeker
strygwyr_thirst:warcraft13:strygwyr_thirst@hotmail.com:1990-01-22:SG:M:220.255.7.249:Strygwyr
strygwyr__95:basilisk99:sagemonfiero@rocketmail.com:1995-01-06:PH:M:112.201.185.132:Allen
stryg_wyr:puro_buto::1993-02-25:PH:M:none:stryg_wyr
stryhas:masonman55:masonman05@hotmail.com:1983-12-14:US:M:64.48.158.95:mark
stryhf:dh0810::1975-01-07:US:M:none:Darren Hall
stryhjytsjt:jennifer:ktochevy4@yahoo.com:1983-06-03:US:M:none:atrhtrrthtrh rathtrh
stryi:fiddle:gretchen@gretchenjenkins.com:1991-05-27:US:F:none:Marissa Jenkins
