Strykerfire:mendes12:guilherme_mendes_santos@hotmail.com:1993-06-18:BR:M:201.37.6.47:NULL
strykerflame:melhoresamigos10::1997-08-07:BR:M:187.27.192.4:paulo_felis_gb
strykerfox:pokemon980::2000-09-03:US:M:98.149.145.106:NULL
strykerg1:56bond:jubartigig@hotmail.com:1979-10-28:US:M:166.77.103.133:Jubart
strykerG4:rizzo45:casegravity@gmail.com:1995-11-22:US:M:98.154.120.88:NULL
strykergahoole:signo#1::1992-12-17:NZ:F:none:strykergahoole
strykergibbs:strykergibbs98::1998-06-22::F:68.10.5.62:NULL
strykergirl17:eagles17::1995-11-06:US:F:69.249.130.171:Madi
strykergirl867:stryker66::1996-12-22:US:F:71.2.243.133:Jess
strykerGO:tekx624:clctekx@yahoo.com:1996-06-24:US:F:96.244.200.207:Clarianne
strykergss:OBRIENDA:d12hawk@comcast.net:1988-01-25:US:M:none:Dragonov Mordakai
strykergurl:46583101:strykergurl_2k3@yahoo.com:1985-06-03:US:F:none:Desiree Miller
strykergurl_2k3:kalel85:desiree.miller@yahoo.com:1985-06-03:US:M:167.88.178.70:Kal-El
strykerh20:Fart1:christileann@hotmail.com:1992-03-16:US:M:none:Sean  Schottel
strykerh203:fart!:strykerh203@yahoo.com:1991-03-16:US:F:none:sean schottel
strykerheartless:koopa125:azseyesonly@hotmail.com:1989-03-25:US:M:76.22.71.53:Andy
strykerious:2741001:andreybez@yahoo.com:1990-05-20:US:M:24.90.114.124:Andrey
strykerisback:Letmein12:Confirmationbarnes@gmail.com:1910-05-07:US:M:75.64.255.73:David
strykerius:12idontcare:simi198512@yahoo.com:1987-01-10:US:F:68.73.146.84:i have no name
strykerj:basketball01::2002-02-22:US:M:98.224.159.28:stryker
strykerj2:monaco::1982-10-13:CA:M:208.66.1.61:John Qaqish
StrykerJay:nathaniel12::2003-10-24::M:76.211.234.211:NULL
strykerjean:papamama::1991-01-30:MY:F:none:strykerjean
strykerjimi:sunny17:jimilauxman@yahoo.com:1989-03-02:US:M:24.182.167.59:man
strykerjones2001:cocacola:strykerjones2001@yahoo.com:1987-03-07:US:M:Mail from mathfreak77:D.C. Wood
strykerjones2005:stryker1:strykerjones2005@hotmail.com:1987-03-07:US:M:none:Daulfus C Wood
strykerk:l1ng3t:santaren@netzero.com:1990-03-12:US:M:64.136.27.225:2_paw
strykerkat:forevergoo:sewell775@icqmail.com:1979-07-12:CA:M:none:HOt stuff
strykerkid:m0rr0wind:tringsu.carbomer@gmail.com:1990-04-19:NZ:M:219.89.160.115:adam
strykerking:symphonia:wario_inc@hotmail.com:1988-08-19:US:M:none:Branden Wallen
strykerkitty:68143:dclaypool3@cox.net:1990-05-10:US:F:none:Stryker Kitty
strykerlds:scottl1:scott.lawrence@shaw.ca:1991-06-25:CA:M:none:scott lawrence
strykerlncr:10thlvl:angelofdeath2142@yahoo.com:1989-09-10:US:M:75.189.86.84:Ray
strykerm:alien:adgthtvseriesfan@yahoo.com:1980-10-07:US:M:4.224.45.209:Stryker Masterson
strykerman232:ramonrivera::1993-08-18:PH:M:none:strykerman232
strykermane:ravina36:rachelreyes_05@yahoo.com:1983-06-24:PH:F:none:Raven Reyes
strykermatt:madman08:mattholan@yahoo.com:1994-04-08:US:M:98.199.216.143:matt
strykermcclain:1123581321:ghost112351321@hotmail.com:1992-09-04:CA:M:156.34.242.147:Stryker
strykermom:Boogle624:lynettelovely@yahoo.com:1946-11-23:US:F:none:Janie Janie
strykermoto:144076:colmustang@comcast.net:1988-04-14:US:M:67.176.84.26:Connor
strykerofchaos:patrick:indiedpat1@yahoo.com:1980-01-01:US:M:Mail from horsiesdotnet:pat smith
strykerotworth666:Brandis1:strykerotworth666@yahoo.com:1989-10-23:US:M:none:Joseph  Otworth
strykerp12:sweetlife1:strykerp1289@yahoo.com:1989-11-24:US:M:none:Shayne Parker
strykerpaintball:wolves11:light_neko@yahoo.com:1990-01-03:US:M:69.148.146.133:Stryker
strykerpd:stung:strykerpd@yahoo.com:1986-09-08:US:F:none:Amber Marie
strykerpets:stryker12:brand_new_inbox@hotmail.com:1992-04-13:US:F:68.117.74.48:Stryker
strykerphantom:052099::1999-05-20:US:M:99.152.243.154:Criss
strykerphoenix:tribes12321::1987-01-28:US:M:none:Mike Sacks
strykerpreaura:pheonix11:stryker18al@yahoo.com:1984-03-28:US:M:71.228.141.134:William
strykerprime5:kayla::1991-09-15:US:M:none:strykerprime5
