sttiich:vida14::1999-11-12:BR:M:200.181.192.242:vida
sttiinnaa:spanakopita1110:pas0001@mgc.vic.edu.au:1990-10-11:AU:F:58.161.120.73:stina
sttiitch:angel125.:nadia.vix@hotmail.com:1995-12-02:BR:F:189.26.18.158:Georgia
sttik:page123456:moooooooooooooooo@no.com:1980-11-25:CH:M:72.38.184.113:mooooooooooooooo
sttiki:lalala11:Candelinda08@yahoo.com.ar:1994-02-07:AR:F:190.49.55.105:Siki
sttiky:123123..:chang9024@sina.com:1989-12-24:CN:F:219.146.253.166:Rose
sttil1982:24041982:sttil@yahoo.com:1982-04-24:RO:M:193.26.10.87:Lascu
sttill:lauradias24::1996-05-24:BR:F:189.25.135.147:Laura
sttilllauren:still22:stillblueeletric@yahoo.com:1992-02-28:CH:F:67.241.136.239:alexzadriea
sttimcool:josie::1993-12-06:US:F:none:sttimcool
sttimcool3:josie:mt3783@netzero.com:1990-12-06:US:F:none:stacy thompson
sttimmy:ubd893:timraybone@hotmail.com:1992-08-08:NZ:M:none:tim raybone
sttims101:101sttims:i_xmas@msn.com:1992-03-17:US:F:none:violet rose
sttimtswie:iloveyou5:shanaynay_naomie@yahoo.com:1988-11-25:US:F:none:Mr. Andrew and Mrs. Shannyn Sherriff
sttinaa:151701:Stinaaa_7@hotmail.com:1993-07-26:SE:F:81.170.233.52:Stina
sttina_97:jssf1997::1997-09-08:NO:F:193.216.212.61:Stins
stting:isabel:wah8787@yahoo.com.hk:1988-05-09:HK:F:219.77.101.26:Sharon Lee
sttingmon:toffee::1996-02-29:HK:F:none:none
sttinha:neopets235:sattinha@gmail.com:1992-04-22:BR:F:none:Lorena Patrocínio
sttinkertt_xx:mamma41:-teddybeertje@live.nl:1994-02-02:NL:F:213.93.240.126:Sttinkertt
sttinki:sttinki12:haditamistica@hotmail.com:1992-08-27:MX:F:201.165.151.223:sttinki
sttinky:shemalfred123:shemalfred13@hotmail.com:1993-02-05:US:M:67.186.136.183:shem
sttinky08:happy08::2000-08-18:US:M:68.224.94.147:mj
sttinky_102:ojitos10:lolo@live.com.mx:1986-02-28:MX:F:189.134.85.56:stinky
sttinky_911:justin10::2000-06-02::M:24.160.165.67:NULL
sttiogrgmeer:1q2w3e4r5t::1999-08-16:US:F:24.102.192.99:Thea
sttiou123123:tyuiop152:ssscrry@yahoo.com.tw:1988-05-25:JP:F:none:克利思丁 雪娜
sttip123456:9035281::2001-03-19:US:F:68.66.97.213:NULL
sttis:mikaela1:mikaelavif@hotmail.com:1993-03-07:SE:M:none:mikaela söttis
sttish2705:seanrockstheworld123::2000-01-01:SG:M:220.255.2.171:NULL
sttisland:island07:R.TAHOUK@HOTMAIL.COM:1959-07-20:US:F:172.166.32.204:rita
sttit1:inandout12::1998-07-14:US:F:24.253.3.219:Stephanie
sttitch:505050::1997-02-19:BR:F:201.69.52.121:Stephania
sttitches:butterlove88:tikikikibug@gmail.com:1995-12-06:US:F:71.23.97.225:kiki
sttitemblu:30062001G::2001-01-01:BR:M:189.32.233.59:GUGA
sttity:junior75:juju_junior@hotmail.com:1959-06-07:BR:M:201.9.3.105:junior
sttiwotsn:nicky01::2002-06-16:US:M:24.236.194.56:Zeke
sttixxx11:christine!:lynch11119@yahoo.com:1992-12-24:US:F:none:Alex Lynch
sttizzle:slipknot1:bassdroppin@hotmail.com:1980-01-04:US:M:none:thomas driver
sttizzle1:slipknot1:bassdroppin@hotmail.com:1980-01-04:US:M:none:thomas driver
sttj100:simei37::2001-11-2:SG:M:218.186.10.254:tj
sttjah:tennis!:e.stee_@hotmail.com:1993-06-06:NL:F:none:Estee Donk
sttjbolduc123:tiffani123:sttjbolduc@aol.com:1973-04-03:US:F:none:Tara 123456789
sttje02:zzinth:sttje02@hotmail.com:1976-11-08:US:M:none:Tom Easterly
sttjiji:101010:ooooo5257@hotmail.com.hk:1963-05-20:MO:F:none:lolo lolo
sttjimmy:smiley1:rockinsilence@yahoo.com:1982-03-04:US:F:none:laura perry
sttjjk6:5376139b::1998-06-04:US:M:69.171.160.101:shyton
sttjs1:13456784595::2001-12-03:EG:M:125.120.211.3:悮成
sttjuh:Biebs1:e.stee_@hotmail.com:1993-06-06:NL:F:195.241.222.251:Estee Donk
sttjustin:oparts23:justinsttt@yahoo.com:1992-06-10:US:M:71.31.217.211:Gary
