stuart135:stuey1::1993-08-11:GB:M:none:stuart135
stuart136:auzzie1:stuartstuart111@hotmail.com:1991-08-13:AU:M:none:stuart van raalte
stuart137:731trauts::1993-06-26:US:F:none:Sam Povar
stuart13828:legend1::1992-07-09:AU:M:none:stuart allen
stuart1396:euseiasenha13:santos1396@hotmail.com:1996-01-13:BR:M:189.55.182.158:Joao Gabriel
stuart14:stpit:mcdowns@aol.com:1990-12-19:US:F:none:kayla d
stuart1414:brotownea1:bro_town_ea_789@msn.com:1992-04-08:NZ:M:none:stuart wright
stuart14141414141141:mee12:mccowbs@bigpond.net.com:1960-02-10:AU:M:none:stuart mccowan
stuart1415:squirt1:stuart_1415@hotmail.com:1993-06-02:AU:M:none:stuart wood
stuart143:jessica54321::1994-01-06:GB:F:none:stuart143
stuart14369:samantha:madhouseserver@hotmail.com:1984-03-16:GB:M:Mail from sammyb1987:stuart macey
stuart145:mummy:stevmand@blueyonder.co.uk:1991-06-23:GB:M:none:stuartoneill
stuart147765578:daydream123:ogilval@aol.com:1992-06-17:GB:F:none:Stuart Ogilvie
stuart1488:148814:clanofbang@yahoo.de:1983-02-09:DE:M:none:Norbert Staudinger
stuart14900:noddy14:stsks@themorleys.freeserve.co.uk:1990-11-15:GB:M:none:stuartmorley
stuart1499:08rocketman::2001-07-17:GB:M:86.142.105.236:Stuart
stuart14_ns:89988998:stuart14_nc@hotmail.com:1992-02-22:PE:F:none:stuart villarreal
stuart14_ss:spopococ14::1993-09-14:AU:M:none:stuart14_ss
stuart14_x:xeena12::1999-05-20:BE:M:94.225.1.9:fabrizio
stuart150:catdo:stuart1burgess@yahoo.com:1992-01-27:GB:M:none:stuart burgess
stuart1509:snui1:snui33@hotmail.com:1970-09-15:TH:M:none:Stuart Devine
stuart1510:stuart15::2001-06-16::M:24.161.185.247:NULL
stuart1512:tower1:stuart1512@hotmail.com:1990-12-15:GB:M:88.110.24.82:Stuart Steinberg
stuart152:moose:this_means_business@hotmail.com:1988-04-21:GB:M:none:Stuart Roue
stuart1527:brothers67::2002-12-27::M:71.235.16.7:NULL
Stuart1548:Wolfy12::1994-07-22:US:M:75.51.95.178:Jesus
stuart155:Pokemon22::2000-09-26:AU:M:60.242.228.40:Stuart
stuart15500:badboys33:stuart_12@hotmail.com:1996-06-23:US:M:97.102.205.2:stuart
stuart157452:jjc_06157:clarence.ong@hotmail.com:1992-08-09:SG:M:none:Clarence Ong
stuart159:339481:stuartparrott@msn.com:1985-07-29:GB:M:none:stuart parrott
stuart159_6:duck123::1998-06-10:US:M:72.192.85.66:fred
stuart15srb:vodafone:bailey_2003_@hotmail.com:1988-10-10:GB6:M:none:taham acvkh
stuart15_4:rrrrr99::1997-10-02:GB:M:77.97.175.67:ryan
stuart16086:sweeny!:stuart16086@yahoo.com:1991-01-01:US:M:none:johny frincleburge
stuart163:77787::1992-06-18:AU:M:none:stuart163
stuart165:simpsons:higlyflamable@hotmail.co.uk:1990-04-25:GB:M:none:stuart mcinnes
stuart1697:stuart2:jj_is_the_coolest@msm.com:1986-05-05:CA:M:none:louis labelle
stuart17:Stuart1:me234@neb.rr.com:1991-08-17:US:F:none:Morsee large
stuart1704:april1788:stuart1704@gmail.com:1987-04-17:GB2:M:none:Stuart Stocken
stuart171:little::1992-12-24:GB:M:none:stuart171
stuart1784:kell1e:gibbo1784@hotmail.com:1984-05-17:GB:F:none:stuart gibson
stuart179:ilovekiss1989:stumander10@hotmail.com:1989-08-09:AU:M:121.219.237.21:Stuart Mander
stuart17950:thomas17::2004-08-17:US:M:75.54.106.128:NULL
stuart18:west49:blackrussian18@hotmail.com:1988-03-02:CA:M:142.59.118.31:Greg
stuart1810:vanille::1993-10-18:FR:F:none:stuart1810
stuart183381:385 Wimbledon::1993-09-04:US:F:none:stuart183381
stuart18769:stuartg::1992-07-29:US:M:none:stuart18769
stuart19:wildcats::1993-04-08:US:M:none:stuart19
stuart190:sturat::1992-07-29:US:F:none:stuart190
stuart190_210:5317986::2000-09-29::M:198.54.202.194:NULL
