stuart91223:sunny day:tiwarren13@hotmail.com:1992-04-18:CA:M:none:BOB KENTUCKY
stuart914:rn3upo2s:energy_jamz@hotmail.com:1990-02-27:SG:M:none:stuart william
stuart916:60729029:s.hayes64@yahoo.com:1993-12-01:US:M:75.45.10.196:yasik
stuart9179:maxnpaddy:stuart9179@hotmail.co.uk:1991-05-15:GB:M:none:stuart osborne
stuart919191:stuart13:stuart_2k7@hotmail.com:1987-12-17:GB:M:90.197.197.199:stuart
stuart91__cc:stuart15:stu1206@aol.com:1991-06-12:GB:M:195.93.21.10:stuart
stuart92:little::1992-12-29:AU:M:none:stuart92
stuart9201:foxwood101:stuartprettel@yahoo.com:1987-05-05:US:F:none:stuart prettel
stuart925:morrison33:stuart.morrison95@yahoo.com:1995-08-17:US:M:68.93.100.56:stuart
stuart9262312944:matrix::1992-10-25:GB:M:none:stuart9262312944
stuart927:harley12:stuart_raine@hotmail.co.uk:1992-08-05:GB:M:none:stuart raine
stuart930:aragorn930::1993-05-21:GB:M:none:stuart930
stuart9300:stuboo93::1993-05-21:GB:M:86.151.27.78:stuart9300
stuart93000:stuboo93:stuart53@hotmail.co.uk:1993-05-21:GB:M:81.158.77.154:stuart dunham
stuart93727:milly7::1993-07-27:AU:M:58.107.53.229:stuart93727
stuart94:9413085::1994-05-07:SG:M:none:stuart94
stuart941:bball::1993-03-05:AU:M:124.189.2.144:stuart941
stuart944:bdamon123:www.smcolton@adelphia.com:1991-09-18:US:F:none:stuart Colton
stuart95148:stuart90:jesjames90@aol.com:1989-12-23:US:M:none:James Rodriguez
stuart959:jub_jub_20:jub_jub_20@yahoo.ca:1986-04-04:CA:M:none:SGS adfh
stuart964:bell1239::1993-08-17:CA:M:207.6.177.160:stuart964
stuart9645:mummy66:al_gorfa@yahoo.co.uk:1996-04-05::F:2.126.25.171:stuart9645
stuart967:fuckyou:stuartsux@hotmail.com:1983-06-03:MY:M:none:Stuart Danker
stuart96_09:emmy2006::1996-11-07:GB:M:90.198.251.17:stuart
stuart97:abrils09::1997-04-09:MX:M:201.102.52.78:stuart garcia perez
stuart9733:stuart::1993-06-13:US:F:none:stuart9733
stuart975:$popococ::1993-09-14:AU:F:none:stuart975
stuart98:jimmy:grbarker1@bigpond.com.au:1991-07-28:AU:M:none:stuart barker
stuart981:S@321:stuarthunderwood@aol.com:1991-06-29:GB6:F:none:Stuart Underwood
stuart9845:little219::2000-03-27:CA:M:174.89.180.166:NULL
stuart9871:spitfire:astring91@aol.com:1990-04-06:US:M:none:stu lubic
stuart9876:wsxqaz1:southerncoburns@comcast.net:1988-10-09:US:F:none:stube cubaran
stuart9876543212:89765::1993-08-13:US:M:none:stuart9876543212
stuart989269:Huggins:diana@huggins2432.fsnet.co.uk:1986-12-17:GB2:M:none:Stuart Huggins
stuart98__aa:blatchy67::1999-07-21:GB:M:90.213.190.131:stuart
stuart991:mondeo:stoosh27@ntlworld.com:1989-01-27:GB:M:none:stuart wood
stuart99213:scary::1992-11-05:CA:M:none:stuart99213
stuart9977:stuart123::2003-2-25:US:M:75.108.40.231:Stuart
stuart999:stuart:sagomersall@aol.com:1987-11-05:GB2:M:none:stuart gomersall
stuart9991391:Magic::1993-12-30:GB6:M:none:none
stuart999170:stuart555::1993-03-04:CA:F:none:stuart999170
stuart999757:dudu94::1994-05-07:SG:M:none:stuart999757
stuart9999:thompson990::1999-08-16:US:M:97.96.98.5:nunya
stuart99_1_1_1:tinkerbell09::1999-07-22:GB:M:149.254.219.48:stuart
stuart99_9:bloodymary9:cheating_death_fd3@hotmail.com:1992-11-05:CA:M:24.224.233.153:stuart birch
stuart99_a96:stuart123:superstu3@gmail.com:1981-04-29:US:M:71.218.80.244:stuart
stuart9lives:cheyzo13:lolomgchey@yahoo.com:1997-08-01:US:F:207.231.95.158:Cheyanne
stuart9__aa:liverpool92::1999-04-27:GB:M:90.219.128.106:stuart
stuarta:k0403247:somefish@empal.com:1973-05-07::F:none:인영 구
stuarta17:joshd::1991-08-24:CA:F:none:stuarta17
