stuartditto:marsman00::1997-09-19:AU:M:124.183.79.82:stuart
stuartdogs:stuart::1996-02-25:CA:M:none:none
stuartdorian:dorian4mina:minaharker_13@hotmail.com:1992-02-26:AU:F:none:mina harker
stuartdouglas1:sdainahs81:dougflip2k@hotmail.com:1986-03-21:GB2:M:88.107.223.69:Stuart Douglas
stuartdream:ccp5149:stuartdream@yahoo.com:1980-09-08:CA:F:175.144.42.119:Pauline Koh
stuartdstud:ilovebagheera:ilovehugeasses@hotmail.com:1984-09-24:CA:M:Can I be your NeoFriend?:dave das
stuartdubit:dubit::2005-01-01:GB:M:none:stuart Woodhead
stuartdude321:qds6yhpqh:wat-u-lookin-at-dude@hotmail.com:1993-03-09:GB:M:none:stuart goodwin
stuartdusty:blue104:stuartdusty@hotmail.co.uk:1992-04-10:GB:M:none:Stuart Dustan
stuarte12:delgado22::1997-11-20:BR:M:187.24.223.145:NULL
stuarte77:gizmo77:didinedu77140@hotmail.fr:1990-07-25:FR:F:none:moi moi
stuarte777:bling:stut666@yahoo.com:1990-03-08:US:M:none:Stuarte Lyons
stuarteastontesco:stuart23:stuart.easton@tesco.net:1993-01-15:GB:M:none:stuart easton
stuarteb:stuart02::2002-01-01:US:M:75.89.2.101:stuart
stuartebeda:natal2006:rainegro@hotmail.com:1993-03-11:BR:M:none:caio lopes
stuartee:TANKS:klondiker@yknet.ca:1991-10-18:CA:M:none:Stuart Spencer
stuartee571:TANKs::1992-10-18:CA:M:none:stuartee571
stuartee571888:helll::1992-10-18:CA:M:none:stuartee571888
stuarteg:blizzard12::1997-08-15:TZ:M:41.223.4.35:stuart
stuartegray:pokemon123::1997-08-15:ZA:M:41.223.4.33:stuart
stuartelina:selena41:ang_wright@hotmail.com:1984-02-06:US:F:none:angela wright
stuarteliza:horses11::1997-02-04:US:F:99.194.163.207:ej
stuartelliot95:charbud:stu4rt5acheri@aol.com:1985-02-09:GB:M:none:Stuart Elliot
stuartelmillonario:stuart45::1998-07-23:PE:M:190.232.59.181:stuart
stuartel_raton:hijueputa00:braham.96_26@hotmail.com:1995-01-26:CO:M:200.118.242.162:stuart
stuartenglish:walkers44:se4eva@hotmail.com:1939-09-11:MO:F:88.104.44.27:bob
stuarteon12:paul07::2000-03-19:US:M:75.134.183.118:stuart
stuartepintopereira:1968lo:rodkit@hotmail.com:1985-12-19:PT:M:89.181.80.158:rodolfo
stuartervin020201:stu2001::1999-05-04:US:M:67.135.62.122:david
stuartess:ariel321:airstuart@gmail.com:1985-08-16:CA:F:none:Jessika Stuart
stuartess505:ariel123:airstuart@gmail.com:1982-06-06:CA:F:none:jessika lobaume
stuartevans93:jachin12:norman.8@tesco.net:1993-06-02:GB:M:86.29.18.44:stuart/stubob/stu
stuartewing:SKYE04::1993-08-05:GB6:M:none:stuartewing
stuartewing05:skye04::1993-08-05:GB:M:none:stuartewing05
stuartewing2005:skye04::1992-08-05:GB:M:none:stuart ewing
stuarte_5:gui1806:sturtelile@hotmail.com:1989-06-18:BR:M:201.18.107.34:guilherme
stuarte_littel:mariajoao56:vascopedro10@gmail.com:1995-01-03:PT:M:85.240.198.46:Bruce
stuarte__10:852741::2000-12-3:BR:F:201.86.169.185:clara
stuarte__25:stuarte25::1996-11-17:KG:F:62.48.212.158:helena
stuartf100:olympics1:stuartf100@btinternet.com:1992-10-10:GB:M:none:stu fergy
stuartf1996:beewee1::1968-05-22:US:F:none:Elizabeth Tuit
stuartface79:321456987:mjmeikl@telus.net:1991-02-02:CA:M:Mail from julienface:Stuart Meikle
stuartfandorli4eva:botwell:lell@blueyonder.co.uk:1991-03-04:GB:F:none:Danni I ain\t telling u
stuartfaust:qwerty76:absinthe-with-faust@hotmail.co.uk:1976-09-15:GB:M:none:stuart brown
stuartfb:faromarz12:stuartfb@msn.com:1992-11-24:GB:M:87.194.4.115:stuart
stuartfindlay:25115597:stuart@spiral-fitness.co.uk:1983-08-22:GB:M:none:stuart findlay
stuartfinnegan:naruto64::1998-10-25:GB:M:90.196.40.140:stuart
stuartfireboy123:xmenpyro12:greg.mcguire@comcast.net:1996-05-13:US:M:68.60.9.69:Gregory
stuartfive:london55:maddy92uk@yahoo.co.uk:1992-03-01:GB:M:75.28.78.167:Stuart
stuartfl:piggies12:x3emmilyyx3@aol.com:1995-03-12:US:F:24.239.123.87:Emily
