stuartyy::::::189.25.72.153:NULL
stuartyyy:dylan12:manson2489@hotmail.com:1989-04-02:GB:M:90.242.102.241:Stuart
stuarty_1994:lucas123:stuarty_@hotmail.com:1989-08-04:BR:M:200.144.24.216:mal
stuarty_4_4_4:james::1983-09-10:EN:F:NULL:NULL
stuarty_94:lucas123:stuarty-94@hotmail.com:1994-08-04:BR:M:200.144.24.216:lucas
stuarty_boy:maumau16::1999-06-15:BR:M:189.25.33.169:Pedro
stuarty_g:tyson123:scaryfilms@hotmail.co.uk:1993-04-13:GB:M:86.155.214.235:Stu
stuarty_jc91:082991:stuarty_jc91@yahoo.com:1987-08-29:US:M:none:Joshua Cruz
stuarty_little:123456iza:iza_bella_princess@hotmail.com:1972-10-03:BR:F:201.68.37.37:Izabella
stuarty_littler:maumau16:mih.pbi@gmail.com:1994-06-10:BR:F:189.25.21.94:Milena
stuarty_littlle:141516:diegoguerreiro_@hotmail.com:1989-08-04:US:M:200.144.24.216:lucas
stuartz:silver::1989-09-27::M:none:none
stuartza:cornflakes97::1997-07-06:AU:M:61.9.185.45:Zac
stuartzahner:tutti007::1998-02-14:BR:M:200.152.98.28:Stuart Zahner
stuartziito:98663428:NeopetStyle@hotmail.com:1996-05-16:PE:M:190.43.115.129:David
stuartzin:video1234:amortevaitepegar@hotmail.com:1993-04-12:BR:M:189.111.73.46:stuartzin
stuartzinho:072412:anderson_deranged@hotmail.com:1986-03-24:BR:M:none:Anerson Viana
stuartziz:ziggy1:stuartz@reachone.com:1992-10-09:US:M:none:Stuart zickefoose
stuartzs:frisky1:stuart@penstation.ca:1957-10-17:CA:F:none:stuart solway
stuartz_gal:superstar:miss_ass_96@hotmail.com:1989-12-12:AU:F:none:sami rinkin
stuart_:101182:stuart_garza@hotmail.com:1991-11-14:MX:M:189.160.42.180:stuart stephen garza sierra
stuart_00:stuart220028:ellen.morenah@hotmail.com:1994-12-11:BR:F:201.51.79.16:NULL
stuart_001:Jason001:donnamorrell@ntlworld.com:1962-10-20:GB:M:86.26.223.40:Stuart Young
stuart_002:stuart001:stuart.young230@ntlworld.com:1962-10-20:GB:M:86.26.223.40:Stuart
stuart_007:SonicX97::1997-12-25:NL:M:94.210.19.3:stuart
stuart_007_15:3231652::1992-08-23:MX:M:none:alan gonzalez castillo
stuart_00879:lexmark::1994-05-06:CA:M:none:stuart_00879
stuart_019:pompey2:sandra.bentall@ntlworld.com:1988-07-16:GB:M:none:simon
stuart_02:minidisc:stuartgregory54@yahoo.com:1988-07-16::M:none:stuart gregory
stuart_022:12___a::2006-02-02::M:186.88.193.100:NULL
stuart_024:giulia3825::1998-09-09:BR:F:189.78.143.179:Giulia
stuart_03:GATA 2007:STURT_03@HOTMAIL.COM:1994-04-27:BR:F:201.79.116.168:MAGALI
STUART_033:12___a::2005-02-02::M:190.199.70.182:NULL
stuart_05:benfica1:jcsloureiro@hotmail.com:1992-11-19:PT:M:none:joao loureiro
stuart_06:12___A::1999-10-15:VE:M:190.199.70.182:doncan
stuart_07:yuyuloveko:sweety_lil_baby666@yahoo.com:1991-01-31:PH:F:neofriend:camille sanchez
stuart_08:paul08::2000-03-19:US:M:75.134.183.118:Stuart
STUART_0_8:DYLAN12::2003-06-24:US:M:70.126.124.157:NULL
stuart_1:tyson1234:stuartface@hotmail.com:1987-04-13:GB:M:none:Stuart Graham
stuart_1000:scary movie:stuart-1000@hotmail.com:1991-11-21:NZ:M:none:jim moe
stuart_101:cools:cameron@kerrimuirps.vic.edu.au:1989-05-21:AU:M:none:stuart little
stuart_101010:3835poc:sheep_4321@yahoo.com:1988-03-05:US:F:none:sheep lamfioe
stuart_1010_4:stu232::1998-03-31:US:M:72.220.192.192:stuart
stuart_103:110689::1997-07-04::M:187.21.203.76:NULL
stuart_10987:capsela1:stuart10987@aol.com:1987-09-10:GB:M:195.93.21.34:Stuart Rowe
stuart_11:041196::1996-11-04:SG:M:220.255.7.241:Md Farhan
stuart_1105:991105::1999-10-05:MX:M:201.141.239.189:stuart_1105
stuart_1108:tyson1234:stuartface@hotmail.co.uk:1992-04-13:GB:F:none:stuart graham
stuart_111:Carol::1993-06-06:GB:M:none:stuart_111
stuart_11_05_99:991105no::1999-11-05:MX:M:200.78.179.169:sdd
