stuart_222:tiffany:ilsg4l_267@hotmail.com:1987-04-26:AU:F:none:hayley becus
stuart_22_j69:ruca22:stuartcm@portugalmail.com:1993-06-22:PT:M:none:stuart_22 martinho
stuart_23:yamam::1991-09-27:GB2:M:none:stuart_23
stuart_23_3:Arizona33::1996-09-05:US:M:75.66.191.124:Stuart
stuart_24:2night2assassin2:christain_dwayne@yahoo.com:1986-06-27:BB:M:65.48.180.8:David
stuart_2502:linkwolf360::1997-02-25:GB:M:78.151.75.121:stuart
stuart_26:arsenal:stuart_26@hotmail.co.uk:1991-06-28:GB:M:none:stuart james
stuart_29:panda29::2000-08-29:AU:M:121.216.24.150:stuart
stuart_29_69:carlton:deva29_6@hotmail.com:1987-05-06:AU:M:acceptance:bob bob
stuart_2m0gtr:harrier1:mm3gtr@mail.plus.net:1989-12-12:GB:M:none:Stuart H
stuart_2_2_7:monkeychops12:phillip.caspall@tesco.net:1985-05-20:GB:M:82.19.3.217:stuart
stuart_2_aa:stuart11::1998-01-02:MX:M:189.169.236.231:jorge ivan
stuart_316:tigir68::2003-12-22::M:70.187.142.100:NULL
stuart_32:augusto32:chicharo32_@hotmail.com:1997-08-12:MX:M:187.179.189.194:cesar
stuart_33:194919631999::1997-07-20::M:187.21.201.119:NULL
stuart_33_33:Daddy2009::1996-09-05:US:M:75.66.191.124:Stuart
stuart_348:pass12::1999-05-05:US:F:24.255.56.40:NULL
stuart_367:FELIPE00:tulio.fleury@yahoo.com.br:1994-10-18:BR:M:189.74.161.146:Felipe
stuart_37_:17824389:purple_monkey_dishwasher_sm@hotmail.com:1901-01-15:CA:M:none:stuart mcmillan
stuart_39_a56_5:the king11::1997-12-02:BR:M:187.26.129.13:stuart
stuart_3_3:gon19:squall_159@yahoo.com:1991-02-14:MY:M:none:muaz razali
stuart_3_3_3:chodus1:bartlettsrise@optusnet.com.au:1993-02-09:AU:M:none:stuart jordan
stuart_40:stuart96::1996-09-10:US:M:24.144.16.14:stuart
stuart_41:stuart96::1996-09-10:US:M:24.144.16.14:stuart
stuart_44:sammie4:disco_stu44@hotmail.com:1994-02-02:AU:M:144.131.12.13:stuart clarke
stuart_466:jack24::2000-09-29::M:196.25.255.194:NULL
stuart_48:stuart:stuartismad@hotmail.com:1982-05-29:GB:M:Item:stuart wotherspoon
stuart_480:7941231::2000-02-02::M:68.228.168.12:NULL
stuart_49:wysiwyg1:bastet999@hotmail.com:1988-06-14:CA:F:161.184.22.229:Esther Stuart
stuart_5:hert_5:radellasthill@hotmail.com:1970-08-27:AW:M:none:radella sthill
stuart_52:neopet82::1999-03-31:PE:F:190.42.55.10:cote52
stuart_52_:spiderman52::1998-06-02:GT:M:190.149.95.53:jonatan
stuart_52_a:123456123456::2000-10-30:AR:F:201.250.92.120:camila
stuart_54321:password1234:jraskin@raskinandtee.com:1992-01-01:US:F:72.199.31.13:milkshake
stuart_54_xd:augusto54xd:aug_rf@yahoo.com.br:1983-01-17:BR:M:189.47.250.116:ronaldo
stuart_5556:3231652ayf::1992-08-23:MX:F:none:stuart_5556
stuart_58911:**jebel**:ray_stirton@bigfoot.com:1988-10-28:AF:M:none:stu you
stuart_5966:cool89::1992-11-05:CA:M:none:stuart_5966
stuart_601:micheal123::1999-10-25::M:75.138.251.175:NULL
stuart_61:monster34:stuartsilva@hotmail.com:1994-04-21:BZ:M:200.32.196.27:stuart
stuart_632:stuart12::2000-11-23::M:99.160.198.236:NULL
stuart_64545:star_9090:crickmorebendigo@bigpond.com.au:1988-11-27:AU:M:none:Stuart Crickmore
stuart_65:jack42::2000-09-29::M:196.25.255.194:NULL
stuart_66:stuy77:whatastaff@mysoul.com.au:1995-05-08:AU:M:144.134.243.82:stuart
stuart_666:wo_ai_ni:stuart_8787@hotmail.com:1987-07-08:PE:M:none:Gustavo Adolfo Ydme Colque
stuart_67:silva34:stuartsilva@hotmail.com:1997-05-21::M:200.32.196.27:NULL
stuart_6_6_6:westham22:mandydunlop@btinternet.com:1992-06-13:GB:M:77.96.207.228:stuart
stuart_7:estrela23:sereia_catirosca@hotmail.com:1991-01-29:PT:F:217.129.8.186:Marta
stuart_75:FERGUSON13:ginnia_69@hotmail.com:1996-01-18:AU:M:58.174.177.77:DOM
stuart_77:boo111::2002-01-17:CA:M:24.57.50.160:stuart
