stubbs561:puffpuff12:cstubbs@satx.rr.com:1993-11-29:US:F:68.206.102.38:Allison
stubbs618:123654789:stubs6182004@cox.net:1989-07-01:US:M:none:andrew stubbs
stubbs644677413:jesus:robertsymmescoats@mindspring.com:1991-04-13:US:F:none:Gabrielle Stubbs
stubbs66:monkey66:practicemystabbinred@gmail.com:1992-12-04:US:M:67.168.240.41:Matt
stubbs6812:rowson6812:david_stubbings2000@yahoo.com:1963-08-04:CA:M:70.29.130.84:David
stubbs703:cod4h3:jellyfilldicecream@yahoo.com:1993-01-14:US:F:75.28.56.62:jordyn
stubbs722:honey::1994-01-02:GB:F:none:stubbs722
stubbs777:something777:michael_stubbs123@yahoo.com:1990-01-18:US:M:24.124.111.107:david
stubbs80:20cent::1993-01-08:US:M:71.173.199.173:stubbs80
stubbs800:stubbsy007::1993-11-28:GB:F:none:stubbs800
stubbs80_9_9_9:the10:bklammer@cox.net:1989-11-07:US:M:none:Ryan Klammer
stubbs853:(lulu)::1994-01-04:GB:F:none:stubbs853
:::::::
stubbs88:impmon:tozzots@myeastern.com:1989-01-04:US:F:none:silly me
stubbs89:dragoon::1990-10-10:US:M:none:stubbs89
stubbs899963:@LOU@::1994-01-04:GB:F:none:stubbs899963
stubbs9:stubbs98:garyreed35@gmail.com:1993-06-17:US:M:173.99.84.118:paco
stubbs911:jasone:tinker_bell655@yahoo.com:1990-07-03:US:F:none:ashley stubbs
stubbs915:dynamo1:nannajo915@hotmail.com:1988-05-29:US:F:none:Jordan Stubbs
stubbs96:puffpuff12:stubbs961@hotmail.com:1991-12-29:US:F:68.206.102.38:Allison
stubbs966:ben100::1996-05-01:US:M:208.58.194.98:joseph stubbs
stubbs999:(inuyasha):cmcents@aol.com:1992-07-16:US:M:none:Chris Martinez
:::::::
stubbsa:austin::1993-08-06:ML:M:none:stubbsa
stubbsandshawnie:RONICA:boootaliscious@aol.com:1988-05-21:US:F:none:ronica smith
Stubbsatron:27randomkat42:jonathan_stubbs@yahoo.com:1990-04-10:US:M:174.141.135.211:Jon
stubbsbabii:hotmails:oxhaitianbabiixo@myway.com:1973-06-22:US:F:none:Joanne Pierre-Louis
stubbsbex:STUBBS::1993-09-23:GB2:F:none:stubbsbex
stubbsch:puzzel:oostubblet@hotmail.com:1987-03-29:GB2:F:none:Milly stubbs
stubbschris:richard:stubbschris@aol.com:1990-07-12:GB:M:none:chris stubbs
stubbsco:mooer22:ppwstub@aol.com:1992-04-04:CA:F:none:alex stubbs
stubbscody712:1472583690:rianne_is_cute@hotmail.com:1969-04-02:BG:M:none:cody stubbs
stubbscpa:sherri11:stubbscpa@sbcglobal.net:1961-01-02:US:F:75.63.204.221:Tax  Babe
stubbsdog:mother10:diedecody@yahoo.com:1994-07-03:US:M:76.252.167.236:cody
stubbseraw__aa:199321:rdawed@yahoo.com:1993-09-21:US:M:209.117.86.35:ryan
stubbsetc:stubby16:ashley.stubblefield@gmail.com:1984-04-15:US:F:74.65.255.190:Stubbs
stubbsfan:2blue:theopsmanager@bellsouth.net:1988-05-04:US:M:none:holden marshall
stubbsgirl:daisy::1993-06-06:US:F:none:stubbsgirl
stubbshelen:0490bella:helenstubbs@hotmail.com:1985-03-03:GB:F:none:Helen Stubbs
stubbsicle:Stubby:jt_hizzle@yahoo.com:1972-01-01:US:M:none:Tishgart Jake
stubbsie:rachel123spencer:dstubbsie@hotmail.co.uk:1984-03-27:GB:M:82.2.214.136:David
stubbsiscute101:cutie101:vicrocks123@yahoo.com:1993-03-03::F:66.205.216.90:NULL
stubbsi_rules:296ajs:stubbsi_rules@hotmail.com:1990-07-05:GB:F:86.169.110.153:Amy
stubbsi__rules:floppy:stubbsi_rules@hotmail.com:1990-07-05:GB:F:Mail from xxshimmerxwolfxx:not telling
stubbsja02:230794::1994-07-23:GB:F:89.241.221.231:stubbsja02
StubbsKV:Hippie11:kristofstoops@gmail.com:1985-12-03:BE:M:81.83.130.100:NULL
stubbslady:access11:PRTMITCHELL@YAHOO.COM:1986-10-29:US:F:65.8.173.97:lady P
stubbslover_me123:babyboystubbs13:hottrod_cody@hotmail.com:1994-04-04:CA:F:24.71.223.148:kasi
stubbsm07:ahab13::1998-08-24:US:F:69.109.179.196:amanda
stubbsmcawesome:ariel1:jonathan_stubbs@yahoo.com:1980-04-10:US:M:none:Jon Stubbs
