stubmx:fishtank12::1998-01-02:GB:M:90.209.172.115:stuart
stubmyster:stayout:stubmyster@aol.com:1968-08-31:US:M:none:john ennis
stubn:ryan1:nicole9385@hotmail.com:1993-05-18:GB:F:none:Nikki stubbs
stubnapier:opinion:stubnapier@aol.com:1968-04-30:US:M:none:stuart  napier
stubness:svenn::1993-08-07:CA:M:none:stubness
stubnock:tweety!:michyisere@aol.com:1992-02-19:GB:F:none:michelle stubbs
stubo:optusyes:stuartdobbin@hotmail.com:1986-01-20:AT:M:none:Stuart Dobbin
stubo1:STUBO*::1992-08-12:GB:M:none:stubo1
stubo101:stubo123::1999-10-29:AU:F:124.176.167.19:brittany
stubo13:putter7:stubo13@aol.com:1992-08-12:GB6:M:none:Stuart Traynor
stubo1992:021292:stuart_duncan2@hotmail.com:1992-12-02:ES:M:217.127.0.250:stuart
stubo2567:lambie:stu256@msn.com:1990-02-26:GB:M:none:Stu G
Stubo86:hamon86:stubo86@live.co.uk:1986-10-11::M:86.179.248.204:NULL
stubob:hotdog1:stu_bob_square_pants@ntlworld.com:1986-10-18:GB:F:none:stuart mckeon
stubob11:bob13013bob:dianehollenbaugh@comcast.net:1995-10-01:US:F:67.180.87.40:natalie
stubob123:liver:stu123_123@hotmail.com:1985-11-03:GB:M:Item:stuart clark
stubob14:liver:stu123_123@hotmail.com:1987-11-03:GB:M:Trade Closed:stuart clark
stubob15:LIVER:stu123_123@hotmail.com:1990-11-30:GB:M:none:STUART CLARK
stubob1983:underdog11:wolfbrother1983@yahoo.com:1983-09-16:US:M:none:Robert Stuart
stubob2006:zappers1:stu1989_798@hotmail.com:1987-03-23:GB:M:none:stu spawton
stubob67:5qu1gle:stu_banks7@hotmail.com:1986-07-10:GB2:M:none:stu banx
stubob88:stubob:djmusic@btclick.com:1985-05-02:GB:M:none:stuart mawdsley
stubob89:051589:soccerstu89@aol.com:1989-05-15:US:M:none:stuart spray
stubob989:liver:stu123_123@hotmail.com:1990-11-03:GB:M:none:shane clark
stubobd:stuart:stubobd@hotmail.com:1984-05-29:GB:M:none:stubob davies
stubobjunior:wheedle:sonja.johnstone@boltblue.com:1984-08-03:GB:F:Trade Closed:Sunny Johnstone
stubobmonkey:camels::1992-08-19:US:F:none:dani k
stubobsquarepants:1416rmo:afc_minidude@hotmail.co.uk:1980-10-18:GB:M:86.15.168.113:stuart mckeon
stuboi:southpark:darkness187_95@hotmail.com:1990-10-01:GB:M:Mail from theneopetsteam:stuart clark
stuboi1990:stuart1:stu_tait1990@hotmail.co.uk:1990-07-25:GB:M:none:stuart tait
stuboid:stubear:stuboid@hotmail.com:1981-06-19:CA:F:Mail from cora19:Amanda
stubol:TbS*01:mcgroo2004@aol.com:1983-06-08:GB:M:none:stu m
stuboltz:alexander:s_t_u_a_r_t@hotmail.com:1989-09-28:NZ:M:Mail from theneopetsteam:Stuart Cunningham
stubomatic:stub84::1993-11-03:US:M:none:stubomatic
stubomb10:stubot1:stubot1@yahoo.com:1988-05-13:US:M:67.183.152.95:Stuart Summerfield
stubomb15:stacey:stu_bomb18@hotmail.com:1989-06-08:US:M:none:stuart cady
stubomb9114949602:13690:www.stuhandley@msn.com:1988-11-26:GB2:M:none:stu handley
stubon:munton123::1998-09-19:US:M:72.219.129.210:cole munton
stubon123321:46339::1990-12-19:CA:M:74.114.191.20:none
stubone:horseshoe12::1998-02-22:US:F:72.66.48.155:alex
stubone21:chickenfish1::2001-12-16:US:M:24.113.24.119:stubone21
stuboo123:christian44:stuallen11@yahoo.com:1994-05-11::M:72.228.59.105:NULL
stuboo22:12291::1991-12-02:US:M:none:stuboo22
stuboo666:2294824:poo@crap.org:1990-06-23:GB:M:90.240.73.171:stu
stuboo6666:2294824:stuboo666@hotmail.co.uk:1995-06-19:GB:M:90.240.73.171:stu
stuboo90:satch::1990-12-18:US:M:none:none
stubook1:minniemouse:doreencarman@aol.com:1992-03-28:GB:F:92.18.224.32:r r
stuboos:meep23:junk446688@yahoo.com:1990-01-01:CA:F:64.180.59.141:Lisa
stuborn:school::1991-07-10:US:F:none:stuborn
stuborn101_2:brat05:stubornbrat101@yahoo.com:1993-05-21:US:F:71.110.196.186:kyra
