stubzashdex:dextor08:stubzashdex@yahoo.com:1984-08-14::M:75.24.2.163:NULL
stubzbro:dan1234:danny.boy1990@hotmail.com:1990-01-23:AU:M:203.129.22.225:NULL
stubze:005000::1998-04-30:AU:M:124.185.61.119:angus
stubze2:stubze12:brian.goodwin1@bigpond.com.au:1996-02-12:AU:M:124.184.8.5:12345678910
stubzi1995:stubbs11:dingbat1995@tiscali.co.uk:1995-08-21:GB:M:88.104.164.209:sean
stubzie:Funky06:cheekymunkey-181@hotmail.com:1993-04-22:FX:F:125.236.199.41:Charlie
stubzy:camie86::2002-02-06:AU:M:122.148.150.71:cameron
Stubz_:delcinia123:dati@hotmail.co.uk:1994-01-29:GB:F:109.157.186.227:Stephnie
stubz_101:kiwihunter23:norbit102@hotmail.com:1993-12-21:NZ:F:222.152.252.23:Toni
stubz_1995:stubz13:cstddd@verizon.net:1995-12-19:US:F:71.117.201.118:Tayler
stubz_o7o:stubz070:tina_o7o@yahoo.com:1990-11-01:US:F:72.0.168.202:Tina
Stubz_x:delcinia123:dati@hotmail.co.uk:1994-01-29::F:86.155.165.73:NULL
stub_88:stub99::1997-09-12:AU:F:60.230.7.151:ebeney
stub_abba:lambert40:Stubabba@yahoo.com:1945-09-23:US:M:72.51.177.26:Stuart
stub_importz:231185:stub_importz@hotmail.com:1985-11-23:AU:M:124.169.115.64:kezza pickle
stuc:Katy21:mindlessconviction@yahoo.com:1985-02-05:US:M:98.245.181.12:Jak
stuc5000:gpaleo12:stucoutu@gmail.com:1990-11-29:CA:M:99.234.63.59:Stu
stucad:booboo95:austinanto@hotmail.com:1990-07-02:US:M:98.114.219.210:Austin
stucadet:sister:stucadet@yahoo.com:1970-02-02:US:F:68.47.64.212:Angela Bennett
stucampbell:baseball10::2000-04-14::M:67.61.251.154:NULL
stucandy4635:ca4635::2000-02-09:TW:F:219.81.147.140:方思涵
stucat:shinde444:whitemeowmeow@hotmail.com:1987-10-07:MY:F:118.100.186.218:Janet Sia Yeou Yuan
stucat95:milligan95:stuartstucat@gmail.com:1995-03-11:US:M:71.20.196.196:Stew
stucatz69:696969:hannahmarie@rogers.blackberry.net:1993-04-17:CA:F:38.116.192.92:Stu
stucat_11:we3loveme3::1996-12-13:CA:F:72.25.192.4:aly
stucchi15:piseinabosta1256:gustavo_traxart@hotmail.com:1979-10-25:BR:M:189.46.69.83:cúsão
stucchinha:12051998::1998-05-12:BR:F:200.158.133.83:Giovanna
stucchinha120:12051998::1998-05-12:BR:F:201.1.114.79:Giovanna
stucchiyunni:123221029440783::1995-09-05:BR:F:189.110.144.75:NULL
stucchi_4:Ammy (or AMS)::Ammy (or AMS):Ammy (or AMS):Ammy (or AMS):Ammy (or AMS):Ammy (or AMS)
:::::::
stucchi_5:stucchi55::2000-11-05:BR:M:189.121.45.98:Giovanni Stucchi
stucco8808:123789654::2001-06-24::F:72.201.248.198:NULL
stuccolady:den0905:msstuccodesign72@yahoo.com:1972-02-27:US:F:206.74.225.159:Pam
stuccos25:polopolo80:stuccosfun@yahoo.co.uk:1985-02-18:GB:F:85.237.212.119:stacey na
stuccosfun:polopolo80:stuccosfun@yahoo.co.uk:1990-02-18:GB:F:207.138.82.76:stacey
stuccy00:stuccyvega00:clari_stuccy00@hotmail.com:1997-05-13:US:F:201.159.211.18:NULL
stuccy00619:clarissa2011::2003-06-23:US:F:201.159.208.96:NULL
stuce86:tamsin186:matyeaman@gmail.com:1986-02-23:GB:M:84.13.218.228:Mat
stuch1:karley12::1998-10-21:AU:F:124.176.227.204:Karley
stuch69:qwerty123:chadzord@live.com.au:1990-06-23:AU:M:203.171.196.165:Tyson
stuchbery:ms102801710::2001-10-28:US:F:208.54.83.56:NULL
STUCHette10:ess424:jelly-fish@hotmail.co.uk:1993-04-26:GB:F:95.148.12.202:NULL
stuchi10:tartaruga10:caio_torres07stuchi@hotmail.com:1980-11-03:BR:M:189.35.0.29:stuchi10
stuchicat7:pink1222::1999-12-22:US:F:69.125.161.66:Grace
stuchie14:stuch12:astridcheno@gmail.com:1997-01-24:US:F:65.124.174.23:astrid
Stuchie312:3122004::2004-03-12:US:M:173.69.183.50:NULL
stuchiz:caixotee10:caio_torres07stuchi@hotmail.com:1994-11-03:BR:M:189.35.128.163:NULL
stuchi__55:123456789victor:viniciusstuchi@hotmail.com:1995-10-20:BR:M:187.21.206.220:vinicius
stuchling:volvoxc70:stuchling@hotmaile.de:1977-12-16:DE:M:83.181.86.210:NULL
