stretchy_stuff_v2:asparagus77:erik.sherman@hotmail.com:1993-10-18:AU:M:210.9.140.244:Erik
stretchy_supa_girl:stretchy:julia@jonstretch.com:1972-11-05:AU:F:none:julia  stretch
stretchy_underwear:b0xer5::1998-10-10:US:M:76.246.149.212:Stew
stretchy_undies:hiimmax:livingendfreak@hotmail.com:1990-09-24:AU:M:none:Max Stewart
stretchy__rubber8d:kamaldude32:kamalduderox@hotmail.com:1991-06-06:US:M:75.35.153.131:Kamal
stretchz684:barney::1993-07-28:US:M:none:stretchz684
stretchzilla:Courage::1992-11-05:US:M:none:stretchzilla
stretch_:9922923:michellemills95@hotmail.com:1990-04-03:CA:F:68.146.222.40:Marissa
stretch_001:DDriver11:kittybreath@hotmail.com:1992-11-07:JP:M:72.193.71.89:bob
stretch_009:abdulrahman:limepizzawoa@yahoo.com:1992-06-26:US:M:none:Reed
stretch_0110:lederhosen01::1995-11-01:CA:M:99.244.0.117:keenan
stretch_02:*meghan*:bsmsl.ok@netzero.net:1989-06-09:US:F:70.231.38.253:Meghan
stretch_0284:sprite:smason76@cox.net:1988-09-12:US:F:Mail from pc573251:YOURWORSTNIGHTMARE!
stretch_04:*meghan*:bsmsl@sbcglobal.net:1989-06-09:US:F:none:Ashley
stretch_04_y2k:hana04:stretchy2k@hotmail.com:1986-07-03:GB:M:none:Stretch Y2K
stretch_101:robby6:starpony16@aol.com:1989-11-11:US:F:Mail from blondy_13211:Marissa  Propeck
stretch_1090:Jewell:cjsnbrooks@kalama.com:1989-10-29:US:F:none:Stephanie Johnson
stretch_11:yousmell:stretch11101@hotmail.com:1989-02-11:CA:F:none:Olivia Giammarioli
stretch_12121:redrex123:maxpower12121@hotmail.com:1991-08-15:GB:M:none:adam green
stretch_123:confused12:alda_garcia123@yahoo.com:1994-03-12:US:F:71.118.246.45:alda
stretch_14:oshawa12:stefka_14@hotmail.com:1992-02-10:CA:F:69.158.121.114:stefka
stretch_16:mission16:fabian_y23@hotmail.com:1990-01-10:CA:F:none:Sean Peddie
stretch_180:2205608:albert1880@live.com:1993-01-27:US:M:97.97.69.76:albert
stretch_19:pillow4:softballstar937@yahoo.com:1990-03-23:US:F:none:C M
stretch_1959_:fretwork:uniqfret@hotmail:1959-03-28:CA:M:71.17.118.29:randal jonah
stretch_1991:mission123:stretch-08@hotmail.co.uk:1991-08-15:GB:M:92.235.77.191:adam
stretch_1_1_1:i love math:jeesus3@hotmail.com:1906-01-01:HM:M:none:fhsxsansa sfeukhva
stretch_2:bigmac03::1997-08-16:US:M:71.113.142.83:mac
stretch_200410:polly::1993-01-14:US:F:none:stretch_200410
stretch_2012:erin1::1994-04-21:US:F:216.146.107.3:stretch_2012
stretch_21:kronos21:anna_catherine14@hotmail.com:1990-05-21:US:F:none:Kelly Fowler
stretch_210:chicken2010::1998-03-07:US:M:98.154.54.40:Angel
stretch_24_sfr:skunk1::1993-04-12:US:F:none:Terra Easley
stretch_259:money02:triannamoore@yahoo.com:1992-12-07::F:67.77.8.53:NULL
stretch_2_2:nemasis::1982-01-05:EN:M:NULL:NULL
stretch_3:nemo66:stretch_h@yahoo.com:1966-09-10:US:M:72.172.201.183:Ronald
stretch_30201:gangsta:stretch_30201@yahoo.com:1990-04-15:US:M:none:nick felbinger
stretch_30_:ALCFS00:nintendogxlover@aol.com:1991-10-23:US:F:12.15.100.116:Stetch
stretch_321:jer123:grace_sala@yahoo.ca:1994-02-07:PH:M:125.60.248.151:jireh
stretch_3_3_3:Leonitus25:backofthebook12_7@yahoo.com:1993-07-25:US:M:24.113.12.245:Michael
stretch_4:softball:bcgurl4god08@yahoo.com:1990-07-16:US:F:none:cleo  brengman
stretch_45_54:skeetrgrrl:bigtallgirl2006@yahoo.com:1985-11-30:US:F:none:natalie hassler
stretch_47:minnie:nate_cool_dude120@hotmail.com:1989-08-18:CA:F:Item:nathan kendell
stretch_4_charm:i_love_charlotte_4_e:mitch.davidson@education.nsw.gov.au:1991-01-24:AU:M:none:mitchell davidson
stretch_5000:1212121234:karpedeiim@yahoo.com:1995-09-26:US:M:98.202.32.136:Xyz
stretch_5676:brit_brit:quteii@aol.com:1991-08-27:US:F:71.33.22.196:Michelle Ottenroughter
stretch_5_5_5:mckenna10::1999-09-08:US:F:99.177.94.133:McKenna
stretch_6644:coley444:ilovemypeeps4@aol.com:1991-08-07:US:F:68.162.80.190:Nicole
stretch_69:stretch69:dylan_lee_r_gr8@hotmail.com:1992-08-17:AU:M:58.105.49.249:dylan
stretch_6_8:bearsrule13:dpaulson2@cox.net:1995-01-05:US:M:68.98.180.226:jake
